2019/09/30 - 14:53:03.066087 | MAIN                | App started running
2019/09/30 - 14:53:24.444234 | CommsUART           | Successfully connected to COM8.
2019/09/30 - 14:53:28.968647 | App                 | Device is Responding
2019/09/30 - 14:53:37.998225 | App                 | Setting HTPA Calibration Level: Tobj.
2019/09/30 - 14:53:40.246555 | App                 | Setting ADS SampleMode: Continuous.
