2019/09/30 - 10:02:27.239108 | MAIN                | App started running
2019/09/30 - 10:02:33.984092 | CommsUART           | Successfully connected to COM8.
2019/09/30 - 10:02:34.414843 | App                 | Device is Responding
2019/09/30 - 10:02:38.771489 | App                 | Setting ADS SampleMode: Continuous.
