2019/04/18 - 08:00:52.968525 | MAIN                | App started running
2019/04/18 - 08:00:57.530722 | CommsUART           | Successfully connected to COM8.
2019/04/18 - 08:00:57.955611 | App                 | Device is Responding
