Time,Runtime,Current3V3,Current3V3Min,Current3V3Max,CurrentHTPA,CurrentHTPAMin,CurrentHTPAMax,CurrentCubeDock3V3_1,TemperatureMCU,TemperatureMCUMin,TemperatureMCUMax,TemperatureHTPA,TemperatureHTPAMin,TemperatureHTPAMax,ADSSampleMode,HTPACalibLevel,HILEnabled,HILBusy,HILEnableImgVddComp,HILEnableImgTobjCalib,HILEnableEdgeDet,HILEnableLensDistCorr,HILEnablePolyFit,HILEnableAttEst,HTPADeviceID,HTPATableNumber,HtpaPowerState,HtpaWakeState,HtpaCaptureState,HtpaPTAT,HtpaVdd,HTPAImageLastMin,HTPAImageLastMean,HTPAImageLastMax,HTPAImageAllTimeMin,HTPAImageAllTimeMax,3V3OverCurrent,3V3UnderCurrent,HTPAOverCurrent,HTPAUnderCurrent,Timer1sOverRun,MCUOverTemperature,MCUUnderTemperature,HTPAOverTemperature,HTPAUnderTemperature,HTPACalibLookupOutOfRange,HTPANotResponding,HTPAConfigMismatch,HTPASpiTimeout,CommsTcSlotsBuffFull,CommsTcParamBuffFull,CommsUartProtError,CommsUartMsgIncomplete,CommsUartTcParamOverflow,UARTTxOverflow,CommsTcInvalidID,CommsTcInvalidPar,CommsTcInvalidParLen,CommsTcTimeout,CommsTlmInvalidID,UARTTxReadingEmptyBuffer,UARTRxByteOverrun,UARTRxFramingError,UartTxTimeout,SwStartupTime,SwProcessingTime,SwProcessingTimeMax,SwLoopTime,SwImgCaptureTime,SwLensDistCorrTime,SwEstimationTime,RadEnabled,RadMode,RadFaultEvents,RadLastFaultIndex,RadCurrIteration,RadCurrSeed,InterfaceVersion,FirmwareVersion,CubeIR SN,IRCAM SN,
2019/08/15 - 14:35:46.654977,16.33,46.25685501098633,18.74558448791504,46.295814514160156,28.102144241333008,2.6881442070007324,28.118377685546875,0,29.582365036010742,27.134382247924805,29.645954132080078,0.0,0.0,0.0,Idle,None,False,False,False,False,False,False,False,False,4298,137,On,On,Idle,0,0,32767,0,-32768,32767,-32768,False,False,False,False,False,False,False,False,False,False,False,False,False,False,False,False,False,False,False,False,False,False,False,False,False,False,False,False,1029,0,0,1000,0,0,0,False,ReadOnly,0,0,0,0,1,V0.1,      DEV1,    IR1800,
2019/08/15 - 14:35:47.608911,17.25,46.1692008972168,18.74558448791504,46.295814514160156,28.121623992919922,2.6881442070007324,28.121623992919922,0,29.645954132080078,27.134382247924805,29.645954132080078,0.0,0.0,0.0,Idle,None,False,False,False,False,False,False,False,False,4298,137,On,On,Idle,0,0,32767,0,-32768,32767,-32768,False,False,False,False,False,False,False,False,False,False,False,False,False,False,False,False,False,False,False,False,False,False,False,False,False,False,False,False,1029,0,0,1000,0,0,0,False,ReadOnly,0,0,0,0,1,V0.1,      DEV1,    IR1800,
2019/08/15 - 14:35:48.626411,18.32,46.14971923828125,18.74558448791504,46.295814514160156,28.121623992919922,2.6881442070007324,28.121623992919922,0,29.598255157470703,27.134382247924805,29.645954132080078,0.0,0.0,0.0,Idle,None,False,False,False,False,False,False,False,False,4298,137,On,On,Idle,0,0,32767,0,-32768,32767,-32768,False,False,False,False,False,False,False,False,False,False,False,False,False,False,False,False,False,False,False,False,False,False,False,False,False,False,False,False,1029,0,0,1000,0,0,0,False,ReadOnly,0,0,0,0,1,V0.1,      DEV1,    IR1800,
2019/08/15 - 14:35:49.621710,19.24,46.16595458984375,18.74558448791504,46.295814514160156,28.105390548706055,2.6881442070007324,28.121623992919922,0,29.630064010620117,27.134382247924805,29.645954132080078,0.0,0.0,0.0,Idle,None,False,False,False,False,False,False,False,False,4298,137,On,On,Idle,0,0,32767,0,-32768,32767,-32768,False,False,False,False,False,False,False,False,False,False,False,False,False,False,False,False,False,False,False,False,False,False,False,False,False,False,False,False,1029,0,0,1000,0,0,0,False,ReadOnly,0,0,0,0,1,V0.1,      DEV1,    IR1800,
2019/08/15 - 14:35:50.620495,20.31,46.133487701416016,18.74558448791504,46.295814514160156,28.121623992919922,2.6881442070007324,28.121623992919922,0,29.614173889160156,27.134382247924805,29.645954132080078,0.0,0.0,0.0,Idle,None,False,False,False,False,False,False,False,False,4298,137,On,On,Idle,0,0,32767,0,-32768,32767,-32768,False,False,False,False,False,False,False,False,False,False,False,False,False,False,False,False,False,False,False,False,False,False,False,False,False,False,False,False,1029,0,0,1000,0,0,0,False,ReadOnly,0,0,0,0,1,V0.1,      DEV1,    IR1800,
2019/08/15 - 14:35:51.632340,21.22,46.133487701416016,18.74558448791504,46.295814514160156,28.121623992919922,2.6881442070007324,28.121623992919922,0,29.614173889160156,27.134382247924805,29.645954132080078,0.0,0.0,0.0,Continuous,None,False,False,False,False,False,False,False,False,4298,137,On,On,Capturing,0,0,32767,0,-32768,32767,-32768,False,False,False,False,False,False,False,False,False,False,False,False,False,False,False,False,False,False,False,False,False,False,False,False,False,False,False,False,1029,0,0,1000,0,0,0,False,ReadOnly,0,0,0,0,1,V0.1,      DEV1,    IR1800,
2019/08/15 - 14:35:52.611016,22.31,46.17569351196289,18.74558448791504,46.295814514160156,28.1086368560791,2.6881442070007324,28.121623992919922,0,29.645954132080078,27.134382247924805,29.645954132080078,27.64501953125,0.0,27.64501953125,Continuous,None,False,False,False,False,False,False,False,False,4298,137,On,On,Capturing,33364,32538,-32766,-31550,32766,-32766,32766,False,False,False,False,False,False,False,False,False,False,False,False,False,False,False,False,False,False,False,False,False,False,False,False,False,False,False,False,1029,303,303,1000,153,13,1,False,ReadOnly,0,0,0,0,1,V0.1,      DEV1,    IR1800,
2019/08/15 - 14:35:53.661144,23.37,46.49385452270508,18.74558448791504,46.49385452270508,28.30992317199707,2.6881442070007324,28.30992317199707,0,29.56647491455078,27.134382247924805,29.645954132080078,27.651220321655273,0.0,27.651220321655273,Continuous,None,False,False,False,False,False,False,False,False,4298,137,On,On,Capturing,33365,32572,-32733,-31595,32765,-32766,32766,False,False,False,False,False,False,False,False,False,False,False,False,False,False,False,False,False,False,False,False,False,False,False,False,False,False,False,False,1029,281,303,1000,150,13,0,False,ReadOnly,0,0,0,0,1,V0.1,      DEV1,    IR1800,
2019/08/15 - 14:35:58.101632,27.513,46.54904556274414,18.74558448791504,46.58475875854492,28.33264923095703,2.6881442070007324,28.35862159729004,0,29.645954132080078,27.134382247924805,29.693653106689453,27.657421112060547,0.0,27.657421112060547,Continuous,None,False,False,False,False,False,False,False,False,4298,137,On,On,Idle,33366,32560,-32733,-31602,32765,-32766,32766,False,False,False,False,False,False,False,False,False,False,False,False,False,False,False,False,False,False,False,False,False,False,False,False,False,False,False,False,1029,0,303,1000,149,13,0,False,ReadOnly,0,0,0,0,1,V0.1,      DEV1,    IR1800,
2019/08/15 - 14:35:58.337068,27.755,46.54904556274414,18.74558448791504,46.58475875854492,28.33264923095703,2.6881442070007324,28.35862159729004,0,29.645954132080078,27.134382247924805,29.693653106689453,27.657421112060547,0.0,27.657421112060547,Continuous,None,False,False,False,False,False,False,False,False,4298,137,On,On,Idle,33366,32560,-32733,-31602,32765,-32766,32766,False,False,False,False,False,False,False,False,False,False,False,False,False,False,False,False,False,False,False,False,False,False,False,False,False,False,False,False,1029,0,303,1000,149,13,0,False,ReadOnly,0,0,0,0,1,V0.1,      DEV1,    IR1800,
2019/08/15 - 14:35:58.569052,27.990,46.54904556274414,18.74558448791504,46.58475875854492,28.33264923095703,2.6881442070007324,28.35862159729004,0,29.645954132080078,27.134382247924805,29.693653106689453,27.657421112060547,0.0,27.657421112060547,Continuous,None,False,False,False,False,False,False,False,False,4298,137,On,On,Capturing,33366,32560,-32733,-31602,32765,-32766,32766,False,False,False,False,False,False,False,False,False,False,False,False,False,False,False,False,False,False,False,False,False,False,False,False,False,False,False,False,1029,0,303,1000,149,13,0,False,ReadOnly,0,0,0,0,1,V0.1,      DEV1,    IR1800,
2019/08/15 - 14:35:58.797922,28.222,46.54904556274414,18.74558448791504,46.58475875854492,28.33264923095703,2.6881442070007324,28.35862159729004,0,29.645954132080078,27.134382247924805,29.693653106689453,27.657421112060547,0.0,27.657421112060547,Continuous,None,False,False,False,False,False,False,False,False,4298,137,On,On,Idle,33369,32568,-32737,-31600,32762,-32766,32766,False,False,False,False,False,False,False,False,False,False,False,False,False,False,False,False,False,False,False,False,False,False,False,False,False,False,False,False,1029,0,303,1000,150,13,0,False,ReadOnly,0,0,0,0,1,V0.1,      DEV1,    IR1800,
2019/08/15 - 14:35:59.031236,28.450,46.55878448486328,18.74558448791504,46.58475875854492,28.355375289916992,2.6881442070007324,28.35862159729004,0,29.677734375,27.134382247924805,29.693653106689453,27.675975799560547,0.0,27.675975799560547,Continuous,None,False,False,False,False,False,False,False,False,4298,137,On,On,Idle,33369,32568,-32737,-31600,32762,-32766,32766,False,False,False,False,False,False,False,False,False,False,False,False,False,False,False,False,False,False,False,False,False,False,False,False,False,False,False,False,1029,282,303,1000,150,13,0,False,ReadOnly,0,0,0,0,1,V0.1,      DEV1,    IR1800,
2019/08/15 - 14:35:59.618427,29.16,46.55878448486328,18.74558448791504,46.58475875854492,28.355375289916992,2.6881442070007324,28.35862159729004,0,29.677734375,27.134382247924805,29.693653106689453,27.675975799560547,0.0,27.675975799560547,Continuous,None,False,False,False,False,False,False,False,False,4298,137,On,On,Capturing,33369,32568,-32737,-31600,32762,-32766,32766,False,False,False,False,False,False,False,False,False,False,False,False,False,False,False,False,False,False,False,False,False,False,False,False,False,False,False,False,1029,282,303,1000,150,13,0,False,ReadOnly,0,0,0,0,1,V0.1,      DEV1,    IR1800,
2019/08/15 - 14:36:00.616607,30.24,46.613975524902344,18.74558448791504,46.613975524902344,28.32291030883789,2.6881442070007324,28.35862159729004,0,29.709543228149414,27.134382247924805,29.709543228149414,27.694580078125,0.0,27.694580078125,Continuous,None,False,False,False,False,False,False,False,False,4298,137,On,On,Capturing,33372,32559,-32740,-31605,32764,-32766,32766,False,False,False,False,False,False,False,False,False,False,False,False,False,False,False,False,False,False,False,False,False,False,False,False,False,False,False,False,1029,281,303,1000,149,13,0,False,ReadOnly,0,0,0,0,1,V0.1,      DEV1,    IR1800,
2019/08/15 - 14:36:01.641486,31.31,46.50034713745117,18.74558448791504,46.613975524902344,28.352128982543945,2.6881442070007324,28.35862159729004,0,29.709543228149414,27.134382247924805,29.709543228149414,27.694580078125,0.0,27.694580078125,Continuous,None,False,False,False,False,False,False,False,False,4298,137,On,On,Capturing,33372,32567,-32742,-31600,32764,-32766,32766,False,False,False,False,False,False,False,False,False,False,False,False,False,False,False,False,False,False,False,False,False,False,False,False,False,False,False,False,1029,281,303,1000,150,13,0,False,ReadOnly,0,0,0,0,1,V0.1,      DEV1,    IR1800,
2019/08/15 - 14:36:02.622261,32.22,46.497100830078125,18.74558448791504,46.613975524902344,28.33264923095703,2.6881442070007324,28.35862159729004,0,29.66184425354004,27.134382247924805,29.709543228149414,27.706933975219727,0.0,27.706933975219727,Continuous,None,False,False,False,False,False,False,False,False,4298,137,On,On,Capturing,33374,32561,-32742,-31605,32759,-32766,32766,False,False,False,False,False,False,False,False,False,False,False,False,False,False,False,False,False,False,False,False,False,False,False,False,False,False,False,False,1029,281,303,1000,149,13,0,False,ReadOnly,0,0,0,0,1,V0.1,      DEV1,    IR1800,
2019/08/15 - 14:36:03.629478,33.30,46.57826614379883,18.74558448791504,46.613975524902344,28.326156616210938,2.6881442070007324,28.35862159729004,0,29.741323471069336,27.134382247924805,29.741323471069336,27.713134765625,0.0,27.713134765625,Continuous,None,False,False,False,False,False,False,False,False,4298,137,On,On,Capturing,33375,32566,-32742,-31601,32763,-32766,32766,False,False,False,False,False,False,False,False,False,False,False,False,False,False,False,False,False,False,False,False,False,False,False,False,False,False,False,False,1029,281,303,1000,150,13,0,False,ReadOnly,0,0,0,0,1,V0.1,      DEV1,    IR1800,
2019/08/15 - 14:36:04.619632,34.21,46.571773529052734,18.74558448791504,46.613975524902344,28.335895538330078,2.6881442070007324,28.35862159729004,0,29.804912567138672,27.134382247924805,29.804912567138672,27.713134765625,0.0,27.713134765625,Continuous,None,False,False,False,False,False,False,False,False,4298,137,On,On,Capturing,33375,32558,-32742,-31606,32756,-32766,32766,False,False,False,False,False,False,False,False,False,False,False,False,False,False,False,False,False,False,False,False,False,False,False,False,False,False,False,False,1029,281,303,1000,149,13,0,False,ReadOnly,0,0,0,0,1,V0.1,      DEV1,    IR1800,
2019/08/15 - 14:36:05.638331,35.28,46.477622985839844,18.74558448791504,46.613975524902344,28.342388153076172,2.6881442070007324,28.35862159729004,0,29.582365036010742,27.134382247924805,29.804912567138672,27.713134765625,0.0,27.713134765625,Continuous,None,False,False,False,False,False,False,False,False,4298,137,On,On,Capturing,33375,32565,-32736,-31603,32764,-32766,32766,False,False,False,False,False,False,False,False,False,False,False,False,False,False,False,False,False,False,False,False,False,False,False,False,False,False,False,False,1029,281,303,1000,150,13,0,False,ReadOnly,0,0,0,0,1,V0.1,      DEV1,    IR1800,
2019/08/15 - 14:36:06.618903,36.20,46.55229187011719,18.74558448791504,46.613975524902344,28.339141845703125,2.6881442070007324,28.35862159729004,0,29.757213592529297,27.134382247924805,29.804912567138672,27.731689453125,0.0,27.731689453125,Continuous,None,False,False,False,False,False,False,False,False,4298,137,On,On,Capturing,33378,32556,-32740,-31609,32757,-32766,32766,False,False,False,False,False,False,False,False,False,False,False,False,False,False,False,False,False,False,False,False,False,False,False,False,False,False,False,False,1029,281,303,1000,149,13,0,False,ReadOnly,0,0,0,0,1,V0.1,      DEV1,    IR1800,
2019/08/15 - 14:36:07.603323,37.11,46.66267395019531,18.74558448791504,46.66267395019531,28.339141845703125,2.6881442070007324,28.35862159729004,0,29.693653106689453,27.134382247924805,29.804912567138672,27.719335556030273,0.0,27.731689453125,Continuous,None,False,False,False,False,False,False,False,False,4298,137,On,On,Capturing,33376,32564,-32743,-31605,32753,-32766,32766,False,False,False,False,False,False,False,False,False,False,False,False,False,False,False,False,False,False,False,False,False,False,False,False,False,False,False,False,1029,281,303,1000,150,13,0,False,ReadOnly,0,0,0,0,1,V0.1,      DEV1,    IR1800,
2019/08/15 - 14:36:08.619237,38.18,46.497100830078125,18.74558448791504,46.66267395019531,28.316415786743164,2.6881442070007324,28.35862159729004,0,29.741323471069336,27.134382247924805,29.804912567138672,27.719335556030273,0.0,27.731689453125,Continuous,None,False,False,False,False,False,False,False,False,4298,137,On,On,Capturing,33376,32556,-32742,-31610,32758,-32766,32766,False,False,False,False,False,False,False,False,False,False,False,False,False,False,False,False,False,False,False,False,False,False,False,False,False,False,False,False,1029,280,303,1000,149,13,0,False,ReadOnly,0,0,0,0,1,V0.1,      DEV1,    IR1800,
2019/08/15 - 14:36:09.611265,39.10,46.523075103759766,18.74558448791504,46.66267395019531,28.316415786743164,2.6881442070007324,28.35862159729004,0,29.741323471069336,27.134382247924805,29.804912567138672,27.731689453125,0.0,27.731689453125,Continuous,None,False,False,False,False,False,False,False,False,4298,137,On,On,Capturing,33378,32565,-32740,-31606,32755,-32766,32766,False,False,False,False,False,False,False,False,False,False,False,False,False,False,False,False,False,False,False,False,False,False,False,False,False,False,False,False,1029,281,303,1000,149,13,0,False,ReadOnly,0,0,0,0,1,V0.1,      DEV1,    IR1800,
2019/08/15 - 14:36:10.650023,40.18,46.4678840637207,18.74558448791504,46.66267395019531,28.33264923095703,2.6881442070007324,28.35862159729004,0,29.693653106689453,27.134382247924805,29.804912567138672,27.731689453125,0.0,27.731689453125,Continuous,None,False,False,False,False,False,False,False,False,4298,137,On,On,Capturing,33378,32555,-32746,-31612,32761,-32766,32766,False,False,False,False,False,False,False,False,False,False,False,False,False,False,False,False,False,False,False,False,False,False,False,False,False,False,False,False,1029,280,303,1000,149,13,0,False,ReadOnly,0,0,0,0,1,V0.1,      DEV1,    IR1800,
2019/08/15 - 14:36:11.615662,41.10,46.60748291015625,18.74558448791504,46.66267395019531,28.32291030883789,2.6881442070007324,28.35862159729004,0,29.741323471069336,27.134382247924805,29.804912567138672,27.731689453125,0.0,27.731689453125,Continuous,None,False,False,False,False,False,False,False,False,4298,137,On,On,Capturing,33378,32563,-32736,-31608,32754,-32766,32766,False,False,False,False,False,False,False,False,False,False,False,False,False,False,False,False,False,False,False,False,False,False,False,False,False,False,False,False,1029,281,303,1000,149,13,0,False,ReadOnly,0,0,0,0,1,V0.1,      DEV1,    IR1800,
2019/08/15 - 14:36:12.636422,42.16,46.600990295410156,18.74558448791504,46.66267395019531,28.326156616210938,2.6881442070007324,28.35862159729004,0,29.757213592529297,27.134382247924805,29.804912567138672,27.744091033935547,0.0,27.744091033935547,Continuous,None,False,False,False,False,False,False,False,False,4298,137,On,On,Capturing,33380,32572,-32742,-31604,32754,-32766,32766,False,False,False,False,False,False,False,False,False,False,False,False,False,False,False,False,False,False,False,False,False,False,False,False,False,False,False,False,1029,281,303,1000,150,13,0,False,ReadOnly,0,0,0,0,1,V0.1,      DEV1,    IR1800,
2019/08/15 - 14:36:13.606501,43.7,46.438663482666016,18.74558448791504,46.66267395019531,28.33264923095703,2.6881442070007324,28.35862159729004,0,29.645954132080078,27.134382247924805,29.804912567138672,27.731689453125,0.0,27.744091033935547,Continuous,None,False,False,False,False,False,False,False,False,4298,137,On,On,Capturing,33378,32563,-32741,-31612,32754,-32766,32766,False,False,False,False,False,False,False,False,False,False,False,False,False,False,False,False,False,False,False,False,False,False,False,False,False,False,False,False,1029,281,303,1000,149,13,0,False,ReadOnly,0,0,0,0,1,V0.1,      DEV1,    IR1800,
2019/08/15 - 14:36:14.607720,44.16,46.428924560546875,18.74558448791504,46.66267395019531,28.335895538330078,2.6881442070007324,28.35862159729004,0,29.804912567138672,27.134382247924805,29.804912567138672,27.744091033935547,0.0,27.744091033935547,Continuous,None,False,False,False,False,False,False,False,False,4298,137,On,On,Capturing,33380,32570,-32738,-31605,32758,-32766,32766,False,False,False,False,False,False,False,False,False,False,False,False,False,False,False,False,False,False,False,False,False,False,False,False,False,False,False,False,1029,281,303,1000,150,13,0,False,ReadOnly,0,0,0,0,1,V0.1,      DEV1,    IR1800,
2019/08/15 - 14:36:15.658481,45.23,46.539306640625,18.74558448791504,46.66267395019531,28.33264923095703,2.6881442070007324,28.35862159729004,0,29.757213592529297,27.134382247924805,29.804912567138672,27.737890243530273,0.0,27.744091033935547,Continuous,None,False,False,False,False,False,False,False,False,4298,137,On,On,Capturing,33379,32560,-32743,-31611,32756,-32766,32766,False,False,False,False,False,False,False,False,False,False,False,False,False,False,False,False,False,False,False,False,False,False,False,False,False,False,False,False,1029,281,303,1000,149,13,0,False,ReadOnly,0,0,0,0,1,V0.1,      DEV1,    IR1800,
2019/08/15 - 14:36:16.639503,46.15,46.506839752197266,18.74558448791504,46.66267395019531,28.34563636779785,2.6881442070007324,28.35862159729004,0,29.757213592529297,27.134382247924805,29.804912567138672,27.750293731689453,0.0,27.750293731689453,Continuous,None,False,False,False,False,False,False,False,False,4298,137,On,On,Capturing,33381,32570,-32743,-31606,32756,-32766,32766,False,False,False,False,False,False,False,False,False,False,False,False,False,False,False,False,False,False,False,False,False,False,False,False,False,False,False,False,1029,281,303,1000,150,13,0,False,ReadOnly,0,0,0,0,1,V0.1,      DEV1,    IR1800,
2019/08/15 - 14:36:17.653408,47.22,46.539306640625,18.74558448791504,46.66267395019531,28.33264923095703,2.6881442070007324,28.35862159729004,0,29.693653106689453,27.134382247924805,29.804912567138672,27.750293731689453,0.0,27.750293731689453,Continuous,None,False,False,False,False,False,False,False,False,4298,137,On,On,Capturing,33381,32559,-32744,-31610,32759,-32766,32766,False,False,False,False,False,False,False,False,False,False,False,False,False,False,False,False,False,False,False,False,False,False,False,False,False,False,False,False,1029,281,303,1000,149,13,0,False,ReadOnly,0,0,0,0,1,V0.1,      DEV1,    IR1800,
2019/08/15 - 14:36:18.612398,48.14,46.461387634277344,18.74558448791504,46.66267395019531,28.342388153076172,2.6881442070007324,28.35862159729004,0,29.820802688598633,27.134382247924805,29.820802688598633,27.756494522094727,0.0,27.756494522094727,Continuous,None,False,False,False,False,False,False,False,False,4298,137,On,On,Capturing,33382,32568,-32743,-31605,32756,-32766,32766,False,False,False,False,False,False,False,False,False,False,False,False,False,False,False,False,False,False,False,False,False,False,False,False,False,False,False,False,1029,281,303,1000,150,13,0,False,ReadOnly,0,0,0,0,1,V0.1,      DEV1,    IR1800,
2019/08/15 - 14:36:19.618712,49.21,46.45489501953125,18.74558448791504,46.66267395019531,28.32291030883789,2.6881442070007324,28.35862159729004,0,29.804912567138672,27.134382247924805,29.820802688598633,27.756494522094727,0.0,27.756494522094727,Continuous,None,False,False,False,False,False,False,False,False,4298,137,On,On,Capturing,33382,32558,-32743,-31610,32763,-32766,32766,False,False,False,False,False,False,False,False,False,False,False,False,False,False,False,False,False,False,False,False,False,False,False,False,False,False,False,False,1029,281,303,1000,149,13,0,False,ReadOnly,0,0,0,0,1,V0.1,      DEV1,    IR1800,
2019/08/15 - 14:36:20.616142,50.12,46.60748291015625,18.74558448791504,46.66267395019531,28.326156616210938,2.6881442070007324,28.35862159729004,0,29.77313232421875,27.134382247924805,29.820802688598633,27.750293731689453,0.0,27.756494522094727,Continuous,None,False,False,False,False,False,False,False,False,4298,137,On,On,Capturing,33381,32568,-32744,-31604,32757,-32766,32766,False,False,False,False,False,False,False,False,False,False,False,False,False,False,False,False,False,False,False,False,False,False,False,False,False,False,False,False,1029,281,303,1000,150,13,0,False,ReadOnly,0,0,0,0,1,V0.1,      DEV1,    IR1800,
2019/08/15 - 14:36:21.618571,51.20,46.51658248901367,18.74558448791504,46.66267395019531,28.335895538330078,2.6881442070007324,28.35862159729004,0,29.804912567138672,27.134382247924805,29.820802688598633,27.762645721435547,0.0,27.762645721435547,Continuous,None,False,False,False,False,False,False,False,False,4298,137,On,On,Capturing,33383,32559,-32742,-31610,32753,-32766,32766,False,False,False,False,False,False,False,False,False,False,False,False,False,False,False,False,False,False,False,False,False,False,False,False,False,False,False,False,1029,281,303,1000,149,13,0,False,ReadOnly,0,0,0,0,1,V0.1,      DEV1,    IR1800,
