2019/08/15 - 15:36:03.528773 | MAIN                | App started running
2019/08/15 - 15:36:10.763742 | CommsUART           | Successfully connected to COM8.
2019/08/15 - 15:36:11.179427 | App                 | Device is Responding
2019/08/15 - 15:36:12.568948 | App                 | Forcing a Vdd Calibration on image in memory.
2019/08/15 - 15:36:24.962137 | App                 | Setting ADS SampleMode: Single.
2019/08/15 - 15:36:47.585222 | App                 | Forcing a Vdd Calibration on image in memory.
2019/08/15 - 15:37:05.936514 | App                 | Forcing a Tobj Calibration on image in memory.
2019/08/15 - 15:37:30.185322 | App                 | Forcing a Tobj Calibration on image in memory.
2019/08/15 - 15:37:42.808624 | App                 | Setting ADS SampleMode: Single.
2019/08/15 - 15:37:52.616933 | App                 | Forcing a Vdd Calibration on image in memory.
