33067.00000,33125.00000,33303.00000,33231.00000,33221.00000,33086.00000,33197.00000,33255.00000,33218.00000,33443.00000,33405.00000,33293.00000,33442.00000,33380.00000,33543.00000,33269.00000,33086.00000,33221.00000,33233.00000,33283.00000,33379.00000,33128.00000,33120.00000,33374.00000,33075.00000,33235.00000,33523.00000,33336.00000,33068.00000,33021.00000,33510.00000,33358.00000,33397.00000,33565.00000,33436.00000,33055.00000,33163.00000,33441.00000,33451.00000,33109.00000,33142.00000,33389.00000,33293.00000,33083.00000,33087.00000,33323.00000,33492.00000,33689.00000,33480.00000,33276.00000,33193.00000,33095.00000,33355.00000,33129.00000,33247.00000,32958.00000,33566.00000,33362.00000,33072.00000,33223.00000,33367.00000,33031.00000,33126.00000,33422.00000,32986.00000,33122.00000,33064.00000,32992.00000,33161.00000,33020.00000,33092.00000,32960.00000,33286.00000,33258.00000,33216.00000,33184.00000,33107.00000,32943.00000,32827.00000,32711.00000
33389.00000,33544.00000,33639.00000,33353.00000,33562.00000,33563.00000,33587.00000,33525.00000,33432.00000,33586.00000,33349.00000,33723.00000,33207.00000,33279.00000,33288.00000,33261.00000,33241.00000,33508.00000,33782.00000,33386.00000,33517.00000,33336.00000,33255.00000,33643.00000,33398.00000,33393.00000,33487.00000,33583.00000,33311.00000,33607.00000,33346.00000,33251.00000,33063.00000,33179.00000,33589.00000,33466.00000,33188.00000,33376.00000,33444.00000,33417.00000,33478.00000,33301.00000,33368.00000,33127.00000,33062.00000,33547.00000,33476.00000,33395.00000,33326.00000,33529.00000,33383.00000,33656.00000,33310.00000,33236.00000,33250.00000,33147.00000,33401.00000,33109.00000,33193.00000,33300.00000,33136.00000,33320.00000,33417.00000,33071.00000,33619.00000,33083.00000,33112.00000,33514.00000,33295.00000,32993.00000,33474.00000,33323.00000,33282.00000,33185.00000,33325.00000,33116.00000,33104.00000,33451.00000,32884.00000,33156.00000
33322.00000,33334.00000,33055.00000,33154.00000,33215.00000,33262.00000,33000.00000,33124.00000,33325.00000,33109.00000,32988.00000,33187.00000,32871.00000,33408.00000,33288.00000,33050.00000,33207.00000,32973.00000,33121.00000,33379.00000,33414.00000,33120.00000,32891.00000,33341.00000,33090.00000,33270.00000,32902.00000,33260.00000,33015.00000,33210.00000,33054.00000,32866.00000,33218.00000,33031.00000,32780.00000,32996.00000,32946.00000,33013.00000,33140.00000,33287.00000,32972.00000,32847.00000,33249.00000,33048.00000,32772.00000,33473.00000,33146.00000,33341.00000,33161.00000,33361.00000,33032.00000,33016.00000,32997.00000,33060.00000,33238.00000,32967.00000,33114.00000,33108.00000,32964.00000,33144.00000,33276.00000,32779.00000,33005.00000,32978.00000,33118.00000,33028.00000,33025.00000,33047.00000,33317.00000,33070.00000,32892.00000,33145.00000,32701.00000,32882.00000,33153.00000,33114.00000,33365.00000,33213.00000,32972.00000,33117.00000
33055.00000,33042.00000,33271.00000,33034.00000,33195.00000,33271.00000,33467.00000,33256.00000,33123.00000,33313.00000,33228.00000,33279.00000,32943.00000,33141.00000,32996.00000,33082.00000,33235.00000,33064.00000,33069.00000,33143.00000,32688.00000,33354.00000,32830.00000,33374.00000,33232.00000,33332.00000,33217.00000,33061.00000,33209.00000,32921.00000,33380.00000,32819.00000,33337.00000,33269.00000,32954.00000,33355.00000,33048.00000,32858.00000,33096.00000,32991.00000,32922.00000,32870.00000,33246.00000,33097.00000,33179.00000,33370.00000,33258.00000,32964.00000,33474.00000,33133.00000,33044.00000,33120.00000,33185.00000,33055.00000,33230.00000,33133.00000,33260.00000,32917.00000,33112.00000,33071.00000,33081.00000,32918.00000,32812.00000,33102.00000,33291.00000,32814.00000,33111.00000,33214.00000,33130.00000,33369.00000,33097.00000,32903.00000,33006.00000,32896.00000,33178.00000,32851.00000,32917.00000,33315.00000,32910.00000,32853.00000
33371.00000,33381.00000,33391.00000,33291.00000,33258.00000,33236.00000,33351.00000,32913.00000,33159.00000,33187.00000,33312.00000,33247.00000,33292.00000,33469.00000,33114.00000,33335.00000,33527.00000,33323.00000,33106.00000,33317.00000,33214.00000,33119.00000,33364.00000,33366.00000,33158.00000,32951.00000,33142.00000,33362.00000,33336.00000,33220.00000,33292.00000,33450.00000,33144.00000,33260.00000,33212.00000,33587.00000,32993.00000,33210.00000,33249.00000,33044.00000,33120.00000,32855.00000,33197.00000,33086.00000,33422.00000,33501.00000,33941.00000,33532.00000,33067.00000,33337.00000,33134.00000,33192.00000,33210.00000,33070.00000,32906.00000,33038.00000,33241.00000,33422.00000,33244.00000,33387.00000,33025.00000,33264.00000,33373.00000,33198.00000,33143.00000,33363.00000,32924.00000,33203.00000,32812.00000,33027.00000,32806.00000,33269.00000,33186.00000,32909.00000,33154.00000,33372.00000,33115.00000,32925.00000,33015.00000,32892.00000
33071.00000,33221.00000,32987.00000,32788.00000,33232.00000,33301.00000,33007.00000,33256.00000,33335.00000,33383.00000,33186.00000,33124.00000,33307.00000,32941.00000,32972.00000,33332.00000,33108.00000,33253.00000,33268.00000,33234.00000,33222.00000,33296.00000,33244.00000,33317.00000,33295.00000,33167.00000,33284.00000,33262.00000,33286.00000,33469.00000,33148.00000,33236.00000,33183.00000,33086.00000,33078.00000,33403.00000,33355.00000,33181.00000,33036.00000,33210.00000,32936.00000,33037.00000,32876.00000,33151.00000,33091.00000,33214.00000,33069.00000,33058.00000,32881.00000,33020.00000,33296.00000,32934.00000,33307.00000,32803.00000,33188.00000,33043.00000,32964.00000,32926.00000,33051.00000,33097.00000,32999.00000,32757.00000,32848.00000,33108.00000,33257.00000,32839.00000,33316.00000,33112.00000,32841.00000,32959.00000,32958.00000,33013.00000,33183.00000,33156.00000,33011.00000,32952.00000,33042.00000,32864.00000,33053.00000,32803.00000
33150.00000,33118.00000,33145.00000,33037.00000,33209.00000,32932.00000,33122.00000,33228.00000,33112.00000,33178.00000,33245.00000,33131.00000,32971.00000,32814.00000,32938.00000,32904.00000,33265.00000,33247.00000,33141.00000,33014.00000,33098.00000,33105.00000,33068.00000,32925.00000,33030.00000,33355.00000,33149.00000,32912.00000,33148.00000,32832.00000,33213.00000,33037.00000,32889.00000,33236.00000,33026.00000,32859.00000,33085.00000,32985.00000,33103.00000,32870.00000,33103.00000,33026.00000,33261.00000,33077.00000,33167.00000,33044.00000,32855.00000,33160.00000,32692.00000,33150.00000,33247.00000,33069.00000,33106.00000,32967.00000,33145.00000,33125.00000,33051.00000,33051.00000,32876.00000,32853.00000,33052.00000,33048.00000,32873.00000,33103.00000,32738.00000,32844.00000,32902.00000,32812.00000,32935.00000,32783.00000,32946.00000,32992.00000,32990.00000,32837.00000,33161.00000,32651.00000,32851.00000,32798.00000,32946.00000,32802.00000
33021.00000,33028.00000,33257.00000,33305.00000,33312.00000,32932.00000,33320.00000,33276.00000,33130.00000,33131.00000,33349.00000,33146.00000,33123.00000,33066.00000,33211.00000,33093.00000,33225.00000,33398.00000,33268.00000,33065.00000,32752.00000,32973.00000,33236.00000,33317.00000,33041.00000,32759.00000,33368.00000,32815.00000,33107.00000,33096.00000,33097.00000,33163.00000,33195.00000,33321.00000,33279.00000,32895.00000,33065.00000,33027.00000,33115.00000,32880.00000,33443.00000,33095.00000,32955.00000,33131.00000,32826.00000,32927.00000,32849.00000,33206.00000,33023.00000,33217.00000,33287.00000,33077.00000,33096.00000,33306.00000,33157.00000,32854.00000,32723.00000,32968.00000,33212.00000,33042.00000,32898.00000,33137.00000,33128.00000,33028.00000,32994.00000,32874.00000,32977.00000,32631.00000,32946.00000,32900.00000,33182.00000,32690.00000,32705.00000,33173.00000,32607.00000,33083.00000,32962.00000,32977.00000,33091.00000,33039.00000
33052.00000,33110.00000,33294.00000,33233.00000,33211.00000,33068.00000,33178.00000,33234.00000,33199.00000,33439.00000,33440.00000,33357.00000,33456.00000,33378.00000,33539.00000,33259.00000,33073.00000,33209.00000,33221.00000,33270.00000,33372.00000,33126.00000,33116.00000,33366.00000,33073.00000,33236.00000,33519.00000,33334.00000,33071.00000,33013.00000,33515.00000,33361.00000,33397.00000,33566.00000,33441.00000,33064.00000,33169.00000,33441.00000,33457.00000,33110.00000,33161.00000,33408.00000,33314.00000,33084.00000,33074.00000,33237.00000,33324.00000,33637.00000,33456.00000,33275.00000,33195.00000,33098.00000,33358.00000,33139.00000,33249.00000,32972.00000,33577.00000,33378.00000,33085.00000,33232.00000,33375.00000,33036.00000,33131.00000,33432.00000,32996.00000,33132.00000,33076.00000,33005.00000,33170.00000,33039.00000,33104.00000,32970.00000,33283.00000,33262.00000,33212.00000,33185.00000,33112.00000,32967.00000,32844.00000,32748.00000
33372.00000,33536.00000,33620.00000,33349.00000,33561.00000,33549.00000,33561.00000,33500.00000,33407.00000,33573.00000,33347.00000,33777.00000,33259.00000,33286.00000,33282.00000,33247.00000,33224.00000,33487.00000,33773.00000,33379.00000,33513.00000,33324.00000,33245.00000,33624.00000,33391.00000,33385.00000,33477.00000,33576.00000,33303.00000,33593.00000,33340.00000,33239.00000,33052.00000,33173.00000,33583.00000,33456.00000,33185.00000,33376.00000,33449.00000,33431.00000,33502.00000,33329.00000,33397.00000,33146.00000,33047.00000,33433.00000,33311.00000,33343.00000,33294.00000,33519.00000,33374.00000,33649.00000,33310.00000,33236.00000,33246.00000,33146.00000,33400.00000,33105.00000,33189.00000,33293.00000,33129.00000,33319.00000,33409.00000,33067.00000,33615.00000,33086.00000,33102.00000,33505.00000,33288.00000,32986.00000,33464.00000,33307.00000,33260.00000,33171.00000,33299.00000,33087.00000,33082.00000,33433.00000,32875.00000,33149.00000
33301.00000,33321.00000,33029.00000,33141.00000,33225.00000,33252.00000,32980.00000,33101.00000,33299.00000,33090.00000,32975.00000,33192.00000,32929.00000,33431.00000,33283.00000,33041.00000,33194.00000,32959.00000,33102.00000,33365.00000,33397.00000,33113.00000,32891.00000,33343.00000,33080.00000,33265.00000,32898.00000,33251.00000,33007.00000,33207.00000,33049.00000,32858.00000,33203.00000,33019.00000,32769.00000,32996.00000,32945.00000,33023.00000,33167.00000,33312.00000,33012.00000,32884.00000,33281.00000,33066.00000,32775.00000,33367.00000,33022.00000,33312.00000,33144.00000,33353.00000,33023.00000,33013.00000,32992.00000,33056.00000,33239.00000,32964.00000,33112.00000,33105.00000,32957.00000,33140.00000,33272.00000,32775.00000,33005.00000,32968.00000,33111.00000,33016.00000,33020.00000,33035.00000,33311.00000,33065.00000,32881.00000,33132.00000,32696.00000,32866.00000,33141.00000,33089.00000,33356.00000,33205.00000,32971.00000,33123.00000
33039.00000,33023.00000,33253.00000,33017.00000,33182.00000,33289.00000,33457.00000,33218.00000,33096.00000,33298.00000,33212.00000,33269.00000,32955.00000,33150.00000,32997.00000,33076.00000,33226.00000,33053.00000,33057.00000,33123.00000,32679.00000,33343.00000,32824.00000,33368.00000,33227.00000,33316.00000,33203.00000,33055.00000,33209.00000,32915.00000,33374.00000,32813.00000,33320.00000,33259.00000,32950.00000,33348.00000,33058.00000,32883.00000,33131.00000,33027.00000,32961.00000,32902.00000,33282.00000,33128.00000,33197.00000,33261.00000,33188.00000,32980.00000,33488.00000,33140.00000,33041.00000,33120.00000,33178.00000,33046.00000,33234.00000,33136.00000,33250.00000,32923.00000,33108.00000,33067.00000,33070.00000,32910.00000,32802.00000,33092.00000,33277.00000,32805.00000,33107.00000,33214.00000,33130.00000,33364.00000,33095.00000,32894.00000,32995.00000,32878.00000,33165.00000,32838.00000,32905.00000,33301.00000,32897.00000,32843.00000
33360.00000,33363.00000,33369.00000,33278.00000,33236.00000,33236.00000,33358.00000,32881.00000,33112.00000,33154.00000,33304.00000,33242.00000,33281.00000,33459.00000,33101.00000,33329.00000,33514.00000,33313.00000,33095.00000,33313.00000,33206.00000,33111.00000,33359.00000,33357.00000,33156.00000,32941.00000,33136.00000,33357.00000,33327.00000,33217.00000,33287.00000,33442.00000,33137.00000,33256.00000,33206.00000,33587.00000,33019.00000,33246.00000,33300.00000,33074.00000,33158.00000,32897.00000,33238.00000,33130.00000,33437.00000,33415.00000,33922.00000,33591.00000,33123.00000,33359.00000,33139.00000,33190.00000,33202.00000,33064.00000,32900.00000,33029.00000,33230.00000,33422.00000,33238.00000,33379.00000,33022.00000,33250.00000,33360.00000,33180.00000,33127.00000,33352.00000,32922.00000,33199.00000,32801.00000,33022.00000,32806.00000,33263.00000,33176.00000,32901.00000,33148.00000,33358.00000,33095.00000,32913.00000,32995.00000,32871.00000
33059.00000,33206.00000,32967.00000,32763.00000,33207.00000,33286.00000,32999.00000,33256.00000,33282.00000,33340.00000,33154.00000,33102.00000,33293.00000,32930.00000,32960.00000,33322.00000,33099.00000,33239.00000,33256.00000,33229.00000,33218.00000,33292.00000,33233.00000,33311.00000,33292.00000,33158.00000,33277.00000,33250.00000,33281.00000,33465.00000,33136.00000,33234.00000,33176.00000,33080.00000,33077.00000,33408.00000,33367.00000,33217.00000,33064.00000,33246.00000,32965.00000,33082.00000,32915.00000,33204.00000,33121.00000,33196.00000,33113.00000,33152.00000,32942.00000,33062.00000,33305.00000,32937.00000,33307.00000,32805.00000,33191.00000,33044.00000,32966.00000,32921.00000,33050.00000,33091.00000,32989.00000,32751.00000,32835.00000,33101.00000,33247.00000,32837.00000,33309.00000,33111.00000,32838.00000,32951.00000,32961.00000,33010.00000,33180.00000,33154.00000,33013.00000,32955.00000,33042.00000,32855.00000,33041.00000,32796.00000
33137.00000,33096.00000,33127.00000,33020.00000,33191.00000,32917.00000,33105.00000,33208.00000,33078.00000,33094.00000,33191.00000,33106.00000,32946.00000,32798.00000,32920.00000,32895.00000,33253.00000,33246.00000,33130.00000,33008.00000,33085.00000,33103.00000,33067.00000,32920.00000,33029.00000,33348.00000,33146.00000,32899.00000,33140.00000,32829.00000,33209.00000,33035.00000,32881.00000,33230.00000,33019.00000,32869.00000,33116.00000,33013.00000,33139.00000,32923.00000,33152.00000,33087.00000,33324.00000,33163.00000,33260.00000,33127.00000,32938.00000,33262.00000,32782.00000,33196.00000,33260.00000,33069.00000,33109.00000,32965.00000,33139.00000,33130.00000,33038.00000,33047.00000,32872.00000,32847.00000,33048.00000,33038.00000,32856.00000,33092.00000,32727.00000,32837.00000,32897.00000,32805.00000,32928.00000,32786.00000,32939.00000,32991.00000,32985.00000,32831.00000,33164.00000,32648.00000,32838.00000,32785.00000,32925.00000,32793.00000
33013.00000,33016.00000,33239.00000,33287.00000,33295.00000,32923.00000,33312.00000,33259.00000,33110.00000,33086.00000,33265.00000,33098.00000,33099.00000,33049.00000,33195.00000,33074.00000,33216.00000,33396.00000,33265.00000,33059.00000,32748.00000,32976.00000,33225.00000,33311.00000,33037.00000,32752.00000,33355.00000,32800.00000,33095.00000,33086.00000,33091.00000,33163.00000,33197.00000,33318.00000,33275.00000,32905.00000,33093.00000,33055.00000,33155.00000,32943.00000,33519.00000,33185.00000,33050.00000,33223.00000,32918.00000,33013.00000,32945.00000,33311.00000,33139.00000,33277.00000,33308.00000,33094.00000,33111.00000,33315.00000,33149.00000,32855.00000,32722.00000,32954.00000,33207.00000,33034.00000,32885.00000,33122.00000,33109.00000,33015.00000,32978.00000,32864.00000,32960.00000,32620.00000,32935.00000,32894.00000,33173.00000,32691.00000,32711.00000,33190.00000,32651.00000,33102.00000,32954.00000,32971.00000,33073.00000,33028.00000
33048.00000,33104.00000,33279.00000,33215.00000,33193.00000,33060.00000,33171.00000,33226.00000,33189.00000,33419.00000,33387.00000,33274.00000,33420.00000,33365.00000,33529.00000,33251.00000,33069.00000,33203.00000,33224.00000,33272.00000,33367.00000,33118.00000,33113.00000,33363.00000,33066.00000,33235.00000,33519.00000,33335.00000,33062.00000,33014.00000,33505.00000,33357.00000,33393.00000,33565.00000,33436.00000,33069.00000,33200.00000,33494.00000,33504.00000,33180.00000,33210.00000,33489.00000,33415.00000,33209.00000,33184.00000,33333.00000,33429.00000,33753.00000,33574.00000,33376.00000,33291.00000,33186.00000,33420.00000,33172.00000,33263.00000,32973.00000,33575.00000,33369.00000,33079.00000,33227.00000,33370.00000,33030.00000,33123.00000,33426.00000,32990.00000,33120.00000,33072.00000,33006.00000,33176.00000,33045.00000,33118.00000,32978.00000,33309.00000,33327.00000,33286.00000,33234.00000,33124.00000,32961.00000,32843.00000,32734.00000
33376.00000,33529.00000,33619.00000,33334.00000,33539.00000,33538.00000,33549.00000,33496.00000,33398.00000,33557.00000,33320.00000,33702.00000,33181.00000,33255.00000,33269.00000,33241.00000,33225.00000,33484.00000,33768.00000,33367.00000,33507.00000,33324.00000,33233.00000,33624.00000,33387.00000,33382.00000,33472.00000,33571.00000,33305.00000,33588.00000,33332.00000,33235.00000,33042.00000,33163.00000,33580.00000,33465.00000,33221.00000,33423.00000,33506.00000,33498.00000,33548.00000,33402.00000,33482.00000,33243.00000,33145.00000,33525.00000,33409.00000,33448.00000,33407.00000,33638.00000,33498.00000,33772.00000,33429.00000,33313.00000,33282.00000,33161.00000,33398.00000,33099.00000,33193.00000,33283.00000,33118.00000,33315.00000,33400.00000,33059.00000,33603.00000,33074.00000,33097.00000,33505.00000,33285.00000,32989.00000,33476.00000,33325.00000,33322.00000,33261.00000,33368.00000,33147.00000,33097.00000,33434.00000,32863.00000,33143.00000
33315.00000,33325.00000,33036.00000,33134.00000,33192.00000,33240.00000,32977.00000,33093.00000,33292.00000,33078.00000,32965.00000,33168.00000,32847.00000,33389.00000,33275.00000,33029.00000,33195.00000,32956.00000,33099.00000,33370.00000,33401.00000,33113.00000,32882.00000,33331.00000,33076.00000,33265.00000,32891.00000,33252.00000,33011.00000,33209.00000,33044.00000,32851.00000,33196.00000,33019.00000,32762.00000,32997.00000,32988.00000,33062.00000,33216.00000,33378.00000,33086.00000,32954.00000,33365.00000,33155.00000,32848.00000,33443.00000,33108.00000,33410.00000,33257.00000,33472.00000,33151.00000,33132.00000,33115.00000,33176.00000,33322.00000,32994.00000,33114.00000,33103.00000,32947.00000,33129.00000,33261.00000,32756.00000,32991.00000,32957.00000,33100.00000,33012.00000,33017.00000,33038.00000,33319.00000,33064.00000,32897.00000,33195.00000,32789.00000,32955.00000,33201.00000,33137.00000,33372.00000,33195.00000,32944.00000,33096.00000
33057.00000,33038.00000,33250.00000,33028.00000,33179.00000,33252.00000,33445.00000,33221.00000,33093.00000,33287.00000,33200.00000,33257.00000,32922.00000,33122.00000,32990.00000,33075.00000,33233.00000,33058.00000,33059.00000,33140.00000,32699.00000,33349.00000,32823.00000,33365.00000,33223.00000,33324.00000,33203.00000,33061.00000,33213.00000,32926.00000,33377.00000,32809.00000,33314.00000,33252.00000,32941.00000,33351.00000,33127.00000,32927.00000,33186.00000,33106.00000,33039.00000,32985.00000,33357.00000,33202.00000,33262.00000,33328.00000,33247.00000,33043.00000,33575.00000,33252.00000,33160.00000,33242.00000,33302.00000,33173.00000,33333.00000,33178.00000,33271.00000,32919.00000,33096.00000,33052.00000,33063.00000,32900.00000,32795.00000,33084.00000,33276.00000,32806.00000,33106.00000,33215.00000,33129.00000,33379.00000,33146.00000,32989.00000,33092.00000,32961.00000,33225.00000,32875.00000,32933.00000,33297.00000,32879.00000,32828.00000
33364.00000,33367.00000,33381.00000,33277.00000,33246.00000,33221.00000,33320.00000,32878.00000,33101.00000,33152.00000,33283.00000,33228.00000,33267.00000,33454.00000,33102.00000,33365.00000,33535.00000,33318.00000,33094.00000,33308.00000,33208.00000,33165.00000,33377.00000,33362.00000,33158.00000,32939.00000,33135.00000,33356.00000,33341.00000,33225.00000,33301.00000,33447.00000,33134.00000,33244.00000,33197.00000,33596.00000,33050.00000,33282.00000,33324.00000,33116.00000,33211.00000,32956.00000,33305.00000,33182.00000,33501.00000,33474.00000,33971.00000,33620.00000,33178.00000,33460.00000,33251.00000,33312.00000,33320.00000,33151.00000,32969.00000,33085.00000,33273.00000,33427.00000,33231.00000,33370.00000,33014.00000,33239.00000,33353.00000,33183.00000,33134.00000,33357.00000,32921.00000,33200.00000,32817.00000,33076.00000,32886.00000,33349.00000,33255.00000,32973.00000,33197.00000,33394.00000,33129.00000,32913.00000,32977.00000,32869.00000
33073.00000,33208.00000,32974.00000,32771.00000,33214.00000,33287.00000,32992.00000,33223.00000,33269.00000,33326.00000,33149.00000,33096.00000,33292.00000,32927.00000,32964.00000,33329.00000,33165.00000,33257.00000,33262.00000,33226.00000,33214.00000,33289.00000,33293.00000,33336.00000,33287.00000,33152.00000,33280.00000,33254.00000,33298.00000,33483.00000,33153.00000,33246.00000,33178.00000,33078.00000,33089.00000,33464.00000,33412.00000,33256.00000,33100.00000,33275.00000,32996.00000,33093.00000,32935.00000,33226.00000,33166.00000,33243.00000,33143.00000,33160.00000,32979.00000,33131.00000,33403.00000,33052.00000,33408.00000,32873.00000,33250.00000,33099.00000,33017.00000,32945.00000,33048.00000,33089.00000,32980.00000,32745.00000,32833.00000,33107.00000,33255.00000,32839.00000,33315.00000,33124.00000,32901.00000,33045.00000,33038.00000,33087.00000,33253.00000,33216.00000,33059.00000,32983.00000,33066.00000,32866.00000,33025.00000,32776.00000
33142.00000,33100.00000,33130.00000,33023.00000,33192.00000,32915.00000,33106.00000,33208.00000,33078.00000,33092.00000,33190.00000,33103.00000,32951.00000,32789.00000,32921.00000,32900.00000,33263.00000,33299.00000,33159.00000,33015.00000,33095.00000,33101.00000,33066.00000,32986.00000,33032.00000,33347.00000,33147.00000,32908.00000,33155.00000,32850.00000,33229.00000,33059.00000,32886.00000,33246.00000,33087.00000,32935.00000,33158.00000,33058.00000,33184.00000,32948.00000,33176.00000,33089.00000,33324.00000,33142.00000,33260.00000,33140.00000,32953.00000,33255.00000,32756.00000,33194.00000,33305.00000,33134.00000,33172.00000,33025.00000,33203.00000,33194.00000,33126.00000,33088.00000,32883.00000,32844.00000,33041.00000,33028.00000,32854.00000,33093.00000,32735.00000,32840.00000,32919.00000,32887.00000,33031.00000,32870.00000,33018.00000,33060.00000,33055.00000,32886.00000,33202.00000,32675.00000,32861.00000,32801.00000,32916.00000,32764.00000
33019.00000,33017.00000,33242.00000,33284.00000,33295.00000,32925.00000,33314.00000,33270.00000,33112.00000,33083.00000,33262.00000,33107.00000,33095.00000,33044.00000,33196.00000,33077.00000,33219.00000,33400.00000,33297.00000,33108.00000,32762.00000,32967.00000,33227.00000,33316.00000,33045.00000,32752.00000,33360.00000,32812.00000,33122.00000,33118.00000,33120.00000,33185.00000,33232.00000,33388.00000,33354.00000,32973.00000,33154.00000,33103.00000,33192.00000,32963.00000,33524.00000,33165.00000,33026.00000,33205.00000,32897.00000,33005.00000,32928.00000,33265.00000,33041.00000,33207.00000,33281.00000,33077.00000,33130.00000,33378.00000,33251.00000,32961.00000,32822.00000,33037.00000,33240.00000,33038.00000,32881.00000,33118.00000,33109.00000,33021.00000,32987.00000,32878.00000,33060.00000,32751.00000,33038.00000,32986.00000,33255.00000,32753.00000,32771.00000,33224.00000,32646.00000,33110.00000,32977.00000,32986.00000,33073.00000,33003.00000
33053.00000,33099.00000,33277.00000,33207.00000,33199.00000,33071.00000,33179.00000,33233.00000,33223.00000,33428.00000,33382.00000,33277.00000,33417.00000,33362.00000,33531.00000,33251.00000,33065.00000,33210.00000,33224.00000,33286.00000,33404.00000,33133.00000,33113.00000,33367.00000,33069.00000,33235.00000,33523.00000,33351.00000,33088.00000,33052.00000,33543.00000,33396.00000,33459.00000,33642.00000,33522.00000,33139.00000,33249.00000,33524.00000,33535.00000,33193.00000,33234.00000,33480.00000,33379.00000,33164.00000,33147.00000,33301.00000,33365.00000,33650.00000,33464.00000,33274.00000,33202.00000,33101.00000,33375.00000,33210.00000,33349.00000,33089.00000,33684.00000,33478.00000,33133.00000,33251.00000,33380.00000,33028.00000,33134.00000,33437.00000,33002.00000,33137.00000,33176.00000,33134.00000,33281.00000,33131.00000,33188.00000,33046.00000,33353.00000,33313.00000,33259.00000,33230.00000,33139.00000,32980.00000,32851.00000,32712.00000
33367.00000,33517.00000,33605.00000,33326.00000,33544.00000,33538.00000,33551.00000,33492.00000,33398.00000,33562.00000,33333.00000,33707.00000,33179.00000,33253.00000,33266.00000,33238.00000,33211.00000,33478.00000,33756.00000,33364.00000,33503.00000,33315.00000,33230.00000,33617.00000,33386.00000,33388.00000,33477.00000,33579.00000,33326.00000,33628.00000,33374.00000,33291.00000,33116.00000,33247.00000,33656.00000,33532.00000,33246.00000,33436.00000,33514.00000,33499.00000,33548.00000,33379.00000,33435.00000,33193.00000,33108.00000,33490.00000,33367.00000,33361.00000,33302.00000,33513.00000,33371.00000,33649.00000,33299.00000,33262.00000,33334.00000,33254.00000,33507.00000,33208.00000,33282.00000,33326.00000,33127.00000,33314.00000,33411.00000,33071.00000,33611.00000,33078.00000,33183.00000,33626.00000,33398.00000,33079.00000,33544.00000,33379.00000,33326.00000,33223.00000,33339.00000,33122.00000,33104.00000,33451.00000,32872.00000,33121.00000
33294.00000,33316.00000,33022.00000,33122.00000,33184.00000,33250.00000,32989.00000,33095.00000,33297.00000,33080.00000,32973.00000,33197.00000,32856.00000,33387.00000,33269.00000,33022.00000,33183.00000,32946.00000,33096.00000,33356.00000,33390.00000,33100.00000,32868.00000,33332.00000,33070.00000,33266.00000,32894.00000,33262.00000,33028.00000,33239.00000,33097.00000,32922.00000,33263.00000,33091.00000,32826.00000,33048.00000,32994.00000,33056.00000,33201.00000,33346.00000,33042.00000,32917.00000,33315.00000,33107.00000,32813.00000,33403.00000,33067.00000,33352.00000,33158.00000,33352.00000,33017.00000,33007.00000,32981.00000,33055.00000,33304.00000,33066.00000,33220.00000,33210.00000,33058.00000,33210.00000,33291.00000,32781.00000,33005.00000,32960.00000,33109.00000,33017.00000,33088.00000,33157.00000,33420.00000,33152.00000,32956.00000,33199.00000,32748.00000,32916.00000,33176.00000,33120.00000,33371.00000,33211.00000,32951.00000,33079.00000
33035.00000,33025.00000,33240.00000,33009.00000,33161.00000,33234.00000,33439.00000,33234.00000,33108.00000,33287.00000,33200.00000,33258.00000,32921.00000,33117.00000,32983.00000,33062.00000,33213.00000,33045.00000,33047.00000,33116.00000,32670.00000,33331.00000,32805.00000,33357.00000,33219.00000,33321.00000,33202.00000,33064.00000,33222.00000,32955.00000,33426.00000,32890.00000,33388.00000,33319.00000,32996.00000,33395.00000,33086.00000,32900.00000,33142.00000,33041.00000,32973.00000,32921.00000,33302.00000,33145.00000,33209.00000,33281.00000,33201.00000,32990.00000,33513.00000,33145.00000,33037.00000,33114.00000,33168.00000,33039.00000,33269.00000,33228.00000,33355.00000,33027.00000,33206.00000,33150.00000,33117.00000,32926.00000,32806.00000,33093.00000,33282.00000,32802.00000,33154.00000,33322.00000,33237.00000,33452.00000,33168.00000,32956.00000,33049.00000,32924.00000,33198.00000,32862.00000,32917.00000,33313.00000,32900.00000,32810.00000
33360.00000,33358.00000,33371.00000,33269.00000,33226.00000,33204.00000,33313.00000,32857.00000,33091.00000,33145.00000,33284.00000,33222.00000,33265.00000,33446.00000,33091.00000,33317.00000,33504.00000,33299.00000,33084.00000,33297.00000,33195.00000,33096.00000,33345.00000,33353.00000,33149.00000,32941.00000,33134.00000,33359.00000,33341.00000,33254.00000,33351.00000,33514.00000,33192.00000,33304.00000,33248.00000,33626.00000,33029.00000,33251.00000,33293.00000,33070.00000,33156.00000,32894.00000,33234.00000,33110.00000,33429.00000,33411.00000,33901.00000,33535.00000,33104.00000,33384.00000,33149.00000,33192.00000,33190.00000,33050.00000,32920.00000,33105.00000,33341.00000,33517.00000,33336.00000,33483.00000,33099.00000,33282.00000,33377.00000,33186.00000,33122.00000,33344.00000,32959.00000,33309.00000,32910.00000,33107.00000,32865.00000,33321.00000,33222.00000,32940.00000,33173.00000,33377.00000,33110.00000,32921.00000,32995.00000,32848.00000
33066.00000,33205.00000,32966.00000,32759.00000,33202.00000,33276.00000,32980.00000,33219.00000,33262.00000,33328.00000,33141.00000,33092.00000,33282.00000,32921.00000,32948.00000,33311.00000,33087.00000,33233.00000,33243.00000,33219.00000,33202.00000,33279.00000,33221.00000,33300.00000,33279.00000,33149.00000,33272.00000,33251.00000,33294.00000,33502.00000,33214.00000,33286.00000,33220.00000,33130.00000,33113.00000,33434.00000,33369.00000,33208.00000,33050.00000,33230.00000,32954.00000,33051.00000,32884.00000,33151.00000,33064.00000,33155.00000,33044.00000,33071.00000,32912.00000,33081.00000,33362.00000,32964.00000,33309.00000,32792.00000,33178.00000,33106.00000,33062.00000,33027.00000,33148.00000,33194.00000,33090.00000,32805.00000,32855.00000,33099.00000,33245.00000,32823.00000,33335.00000,33207.00000,32940.00000,33030.00000,33017.00000,33056.00000,33216.00000,33183.00000,33041.00000,32968.00000,33050.00000,32871.00000,33037.00000,32767.00000
33142.00000,33100.00000,33127.00000,33025.00000,33198.00000,32914.00000,33097.00000,33202.00000,33067.00000,33086.00000,33180.00000,33092.00000,32931.00000,32784.00000,32910.00000,32879.00000,33239.00000,33231.00000,33123.00000,32996.00000,33075.00000,33086.00000,33050.00000,32899.00000,33016.00000,33343.00000,33143.00000,32905.00000,33151.00000,32867.00000,33278.00000,33083.00000,32924.00000,33275.00000,33061.00000,32885.00000,33109.00000,33004.00000,33129.00000,32897.00000,33124.00000,33039.00000,33273.00000,33088.00000,33169.00000,33042.00000,32860.00000,33205.00000,32743.00000,33215.00000,33310.00000,33140.00000,33142.00000,32972.00000,33143.00000,33180.00000,33143.00000,33157.00000,32974.00000,32944.00000,33143.00000,33119.00000,32895.00000,33107.00000,32722.00000,32819.00000,32914.00000,32900.00000,33035.00000,32859.00000,32995.00000,33028.00000,33021.00000,32862.00000,33173.00000,32654.00000,32843.00000,32773.00000,32901.00000,32750.00000
33015.00000,33032.00000,33254.00000,33306.00000,33294.00000,32918.00000,33302.00000,33254.00000,33105.00000,33074.00000,33251.00000,33087.00000,33082.00000,33030.00000,33173.00000,33064.00000,33204.00000,33383.00000,33253.00000,33052.00000,32729.00000,32946.00000,33199.00000,33326.00000,33036.00000,32755.00000,33357.00000,32805.00000,33107.00000,33117.00000,33154.00000,33236.00000,33260.00000,33362.00000,33318.00000,32923.00000,33094.00000,33042.00000,33128.00000,32897.00000,33463.00000,33102.00000,32966.00000,33130.00000,32842.00000,32958.00000,32902.00000,33263.00000,33088.00000,33278.00000,33349.00000,33134.00000,33170.00000,33370.00000,33181.00000,32902.00000,32821.00000,33066.00000,33318.00000,33134.00000,32996.00000,33229.00000,33229.00000,33065.00000,32983.00000,32856.00000,32978.00000,32714.00000,33030.00000,32960.00000,33230.00000,32730.00000,32737.00000,33196.00000,32613.00000,33077.00000,32947.00000,32942.00000,33050.00000,32993.00000
33262.00000,33621.00000,33265.00000,33256.00000,33510.00000,33308.00000,33174.00000,33100.00000,33581.00000,33256.00000,33224.00000,33261.00000,33321.00000,32957.00000,33217.00000,33042.00000,33372.00000,33371.00000,33336.00000,33474.00000,33200.00000,33323.00000,33205.00000,33198.00000,33098.00000,33351.00000,33119.00000,33163.00000,33607.00000,33230.00000,33433.00000,33488.00000,33371.00000,33748.00000,33395.00000,33076.00000,33333.00000,33339.00000,33372.00000,33219.00000,32898.00000,33444.00000,33462.00000,33063.00000,33107.00000,33168.00000,33250.00000,33172.00000,33228.00000,33373.00000,33208.00000,33395.00000,33239.00000,33340.00000,33415.00000,33415.00000,33331.00000,33079.00000,33141.00000,33657.00000,33217.00000,33082.00000,33024.00000,33468.00000,33222.00000,33303.00000,33123.00000,33276.00000,33224.00000,33110.00000,33537.00000,33222.00000,33066.00000,33136.00000,33181.00000,33042.00000,32918.00000,33516.00000,33174.00000,33118.00000
33276.00000,33514.00000,33447.00000,33228.00000,33022.00000,33273.00000,33412.00000,33194.00000,33012.00000,33257.00000,32913.00000,33508.00000,33259.00000,33555.00000,33405.00000,33535.00000,33424.00000,33334.00000,32977.00000,33580.00000,33127.00000,33431.00000,33150.00000,33136.00000,33350.00000,33290.00000,33512.00000,33270.00000,33487.00000,33287.00000,33136.00000,33283.00000,33367.00000,33087.00000,33358.00000,33109.00000,33297.00000,33487.00000,33293.00000,33325.00000,33346.00000,33429.00000,33377.00000,33371.00000,33226.00000,33314.00000,33554.00000,33475.00000,33509.00000,33377.00000,33379.00000,33461.00000,33306.00000,33329.00000,33585.00000,33319.00000,33328.00000,33503.00000,33132.00000,33333.00000,33290.00000,33407.00000,33483.00000,33356.00000,32839.00000,33233.00000,32797.00000,33005.00000,33385.00000,33292.00000,33498.00000,33093.00000,32913.00000,33415.00000,33387.00000,33006.00000,33047.00000,33416.00000,33306.00000,32885.00000
33259.00000,33115.00000,33276.00000,33551.00000,33298.00000,33129.00000,33450.00000,33275.00000,33099.00000,33308.00000,32818.00000,33027.00000,33575.00000,33247.00000,33578.00000,32937.00000,33333.00000,33428.00000,33160.00000,33116.00000,33393.00000,33404.00000,33426.00000,33303.00000,33386.00000,33150.00000,32989.00000,33344.00000,33439.00000,33054.00000,33215.00000,33125.00000,33488.00000,32997.00000,33364.00000,33430.00000,33349.00000,33228.00000,33377.00000,33175.00000,33176.00000,33128.00000,33507.00000,33513.00000,33390.00000,33405.00000,33138.00000,33351.00000,33314.00000,33123.00000,33250.00000,33455.00000,33234.00000,33346.00000,33345.00000,33123.00000,33429.00000,33422.00000,33443.00000,33260.00000,33210.00000,33144.00000,33259.00000,33317.00000,33344.00000,33194.00000,33102.00000,33275.00000,32824.00000,33294.00000,33246.00000,33564.00000,32812.00000,32971.00000,33202.00000,33041.00000,33110.00000,33280.00000,33010.00000,33009.00000
33208.00000,33436.00000,33160.00000,33423.00000,33160.00000,33410.00000,33384.00000,33630.00000,33628.00000,33526.00000,33287.00000,33170.00000,33328.00000,32913.00000,33408.00000,33413.00000,33006.00000,33379.00000,33378.00000,33284.00000,33238.00000,33219.00000,33458.00000,33321.00000,33495.00000,33497.00000,33344.00000,33338.00000,33197.00000,33404.00000,33221.00000,33260.00000,33574.00000,33333.00000,33499.00000,33523.00000,33423.00000,33283.00000,33224.00000,33422.00000,33341.00000,33315.00000,33449.00000,33543.00000,33496.00000,33145.00000,33131.00000,33547.00000,33440.00000,33449.00000,33346.00000,33124.00000,33326.00000,33602.00000,33506.00000,33123.00000,33204.00000,33463.00000,33356.00000,33175.00000,33259.00000,33187.00000,33137.00000,33345.00000,33208.00000,33241.00000,33124.00000,33186.00000,33249.00000,33460.00000,33368.00000,33354.00000,33368.00000,33121.00000,33184.00000,33522.00000,33217.00000,33216.00000,33495.00000,33282.00000
33291.00000,33122.00000,33487.00000,33191.00000,33184.00000,33617.00000,33565.00000,33370.00000,33115.00000,33298.00000,33272.00000,33359.00000,33391.00000,33447.00000,33491.00000,33371.00000,33102.00000,33446.00000,33230.00000,33526.00000,33327.00000,33441.00000,33404.00000,33218.00000,33182.00000,33487.00000,33285.00000,33250.00000,33297.00000,33542.00000,33356.00000,33222.00000,33182.00000,33375.00000,33292.00000,33137.00000,33476.00000,33272.00000,33096.00000,33312.00000,33362.00000,33535.00000,33338.00000,33109.00000,33482.00000,33441.00000,33158.00000,33611.00000,33617.00000,33529.00000,32852.00000,33548.00000,33399.00000,33037.00000,33485.00000,33367.00000,33617.00000,33570.00000,33187.00000,33466.00000,33298.00000,33145.00000,33369.00000,33301.00000,33358.00000,33321.00000,32881.00000,33306.00000,33315.00000,33183.00000,33326.00000,33289.00000,33163.00000,33147.00000,33143.00000,33419.00000,32999.00000,32946.00000,33087.00000,33227.00000
33241.00000,33054.00000,33434.00000,33231.00000,33273.00000,33879.00000,33094.00000,33131.00000,33030.00000,33175.00000,33540.00000,33271.00000,33707.00000,33460.00000,33323.00000,33266.00000,33258.00000,33132.00000,33188.00000,33145.00000,33155.00000,33250.00000,33198.00000,33157.00000,33076.00000,33561.00000,33206.00000,33150.00000,33563.00000,33319.00000,33694.00000,32891.00000,33270.00000,33243.00000,33385.00000,33158.00000,33476.00000,33318.00000,33303.00000,33256.00000,33412.00000,33443.00000,33360.00000,33462.00000,33181.00000,33076.00000,33084.00000,33520.00000,33255.00000,33679.00000,33161.00000,33559.00000,33493.00000,33350.00000,33681.00000,33476.00000,33535.00000,33387.00000,33433.00000,33430.00000,33439.00000,33268.00000,33204.00000,33410.00000,33600.00000,33174.00000,33187.00000,33592.00000,33454.00000,33310.00000,33038.00000,33128.00000,33356.00000,32978.00000,33192.00000,32833.00000,33162.00000,32900.00000,33102.00000,33114.00000
33408.00000,33349.00000,33274.00000,33167.00000,33165.00000,33147.00000,33467.00000,32971.00000,33514.00000,33394.00000,32886.00000,33110.00000,33412.00000,33163.00000,33348.00000,33318.00000,33162.00000,32971.00000,33173.00000,33322.00000,33274.00000,33227.00000,33195.00000,33306.00000,33250.00000,33240.00000,33008.00000,33331.00000,33042.00000,33175.00000,33311.00000,32945.00000,33345.00000,33277.00000,33145.00000,33415.00000,33363.00000,33494.00000,32958.00000,33401.00000,33525.00000,33307.00000,33081.00000,33115.00000,33485.00000,33238.00000,33157.00000,33112.00000,33133.00000,33042.00000,33101.00000,33222.00000,33366.00000,33089.00000,33444.00000,33633.00000,32952.00000,33273.00000,33458.00000,33223.00000,33370.00000,32994.00000,33108.00000,33139.00000,33097.00000,33411.00000,33403.00000,32877.00000,33062.00000,33148.00000,33397.00000,33327.00000,33040.00000,33007.00000,33186.00000,33125.00000,32959.00000,33115.00000,33271.00000,33206.00000
33380.00000,33380.00000,33298.00000,33318.00000,33533.00000,33422.00000,33519.00000,33380.00000,33078.00000,33448.00000,33201.00000,33102.00000,33227.00000,33461.00000,33236.00000,33230.00000,33274.00000,33295.00000,33051.00000,33315.00000,33182.00000,33167.00000,33370.00000,33447.00000,33015.00000,32916.00000,33182.00000,33288.00000,33301.00000,33581.00000,33114.00000,33122.00000,33183.00000,33045.00000,33188.00000,33044.00000,33251.00000,33317.00000,33278.00000,32930.00000,33243.00000,33588.00000,33132.00000,33397.00000,33221.00000,33392.00000,33154.00000,33352.00000,33406.00000,33253.00000,33307.00000,33428.00000,33378.00000,32863.00000,33116.00000,33042.00000,33319.00000,33334.00000,33328.00000,32939.00000,32997.00000,33021.00000,33132.00000,32891.00000,33227.00000,33338.00000,33137.00000,32879.00000,33070.00000,33234.00000,33116.00000,33047.00000,33123.00000,33199.00000,32968.00000,33108.00000,33036.00000,33013.00000,32930.00000,32926.00000
33269.00000,33626.00000,33267.00000,33253.00000,33512.00000,33304.00000,33172.00000,33098.00000,33577.00000,33259.00000,33224.00000,33252.00000,33318.00000,32941.00000,33209.00000,33037.00000,33371.00000,33350.00000,33348.00000,33486.00000,33232.00000,33331.00000,33258.00000,33183.00000,33132.00000,33373.00000,33135.00000,33160.00000,33597.00000,33218.00000,33403.00000,33419.00000,33296.00000,33690.00000,33355.00000,33049.00000,33333.00000,33390.00000,33437.00000,33288.00000,32968.00000,33497.00000,33502.00000,33084.00000,33117.00000,33177.00000,33247.00000,33170.00000,33227.00000,33369.00000,33197.00000,33378.00000,33223.00000,33323.00000,33399.00000,33415.00000,33282.00000,32991.00000,33048.00000,33560.00000,33116.00000,32981.00000,32918.00000,33416.00000,33216.00000,33325.00000,33121.00000,33190.00000,33133.00000,33043.00000,33478.00000,33188.00000,33040.00000,33122.00000,33174.00000,33043.00000,32923.00000,33514.00000,33154.00000,33096.00000
33272.00000,33515.00000,33449.00000,33226.00000,33018.00000,33273.00000,33412.00000,33190.00000,33012.00000,33269.00000,32915.00000,33498.00000,33253.00000,33540.00000,33398.00000,33522.00000,33412.00000,33354.00000,33006.00000,33618.00000,33154.00000,33434.00000,33143.00000,33125.00000,33385.00000,33341.00000,33540.00000,33274.00000,33478.00000,33279.00000,33117.00000,33240.00000,33285.00000,33027.00000,33312.00000,33071.00000,33281.00000,33509.00000,33355.00000,33388.00000,33400.00000,33471.00000,33385.00000,33384.00000,33244.00000,33335.00000,33575.00000,33498.00000,33531.00000,33396.00000,33385.00000,33451.00000,33289.00000,33309.00000,33561.00000,33296.00000,33272.00000,33416.00000,33028.00000,33234.00000,33192.00000,33309.00000,33383.00000,33297.00000,32835.00000,33251.00000,32788.00000,32929.00000,33318.00000,33246.00000,33473.00000,33079.00000,32901.00000,33410.00000,33387.00000,33007.00000,33064.00000,33403.00000,33270.00000,32846.00000
33259.00000,33114.00000,33276.00000,33548.00000,33304.00000,33128.00000,33443.00000,33273.00000,33104.00000,33314.00000,32831.00000,33021.00000,33583.00000,33244.00000,33575.00000,32922.00000,33318.00000,33426.00000,33157.00000,33093.00000,33371.00000,33377.00000,33387.00000,33303.00000,33408.00000,33185.00000,33031.00000,33344.00000,33431.00000,33043.00000,33201.00000,33101.00000,33426.00000,32919.00000,33295.00000,33364.00000,33303.00000,33212.00000,33414.00000,33248.00000,33203.00000,33123.00000,33504.00000,33525.00000,33407.00000,33419.00000,33157.00000,33375.00000,33332.00000,33150.00000,33267.00000,33457.00000,33226.00000,33332.00000,33322.00000,33106.00000,33379.00000,33340.00000,33350.00000,33158.00000,33119.00000,33049.00000,33154.00000,33255.00000,33334.00000,33190.00000,33089.00000,33249.00000,32799.00000,33273.00000,33225.00000,33554.00000,32805.00000,32972.00000,33202.00000,33050.00000,33135.00000,33273.00000,32967.00000,32975.00000
33209.00000,33441.00000,33153.00000,33423.00000,33165.00000,33417.00000,33384.00000,33635.00000,33636.00000,33531.00000,33293.00000,33172.00000,33342.00000,32922.00000,33413.00000,33413.00000,33005.00000,33385.00000,33378.00000,33280.00000,33228.00000,33189.00000,33417.00000,33327.00000,33511.00000,33506.00000,33374.00000,33335.00000,33192.00000,33390.00000,33212.00000,33244.00000,33547.00000,33247.00000,33411.00000,33447.00000,33354.00000,33229.00000,33217.00000,33464.00000,33375.00000,33339.00000,33453.00000,33538.00000,33488.00000,33133.00000,33129.00000,33555.00000,33449.00000,33455.00000,33357.00000,33138.00000,33345.00000,33614.00000,33503.00000,33099.00000,33172.00000,33409.00000,33279.00000,33090.00000,33169.00000,33103.00000,33043.00000,33277.00000,33192.00000,33239.00000,33123.00000,33183.00000,33245.00000,33466.00000,33379.00000,33364.00000,33374.00000,33134.00000,33182.00000,33532.00000,33246.00000,33208.00000,33455.00000,33245.00000
33290.00000,33131.00000,33490.00000,33200.00000,33190.00000,33620.00000,33567.00000,33373.00000,33115.00000,33304.00000,33275.00000,33367.00000,33395.00000,33456.00000,33498.00000,33375.00000,33107.00000,33452.00000,33234.00000,33532.00000,33340.00000,33429.00000,33384.00000,33213.00000,33174.00000,33478.00000,33292.00000,33253.00000,33288.00000,33528.00000,33346.00000,33207.00000,33170.00000,33338.00000,33207.00000,33043.00000,33393.00000,33187.00000,33042.00000,33295.00000,33390.00000,33560.00000,33357.00000,33118.00000,33488.00000,33451.00000,33162.00000,33612.00000,33612.00000,33517.00000,32844.00000,33540.00000,33397.00000,33046.00000,33485.00000,33343.00000,33569.00000,33517.00000,33140.00000,33413.00000,33228.00000,33082.00000,33306.00000,33242.00000,33352.00000,33319.00000,32873.00000,33300.00000,33317.00000,33195.00000,33344.00000,33290.00000,33174.00000,33155.00000,33142.00000,33426.00000,33006.00000,32939.00000,33073.00000,33209.00000
33243.00000,33057.00000,33438.00000,33245.00000,33276.00000,33881.00000,33089.00000,33125.00000,33031.00000,33176.00000,33545.00000,33262.00000,33705.00000,33463.00000,33326.00000,33267.00000,33262.00000,33143.00000,33192.00000,33153.00000,33176.00000,33266.00000,33175.00000,33141.00000,33063.00000,33556.00000,33236.00000,33151.00000,33555.00000,33313.00000,33682.00000,32882.00000,33257.00000,33224.00000,33331.00000,33078.00000,33391.00000,33230.00000,33222.00000,33183.00000,33376.00000,33434.00000,33345.00000,33450.00000,33176.00000,33085.00000,33104.00000,33549.00000,33280.00000,33683.00000,33161.00000,33541.00000,33472.00000,33317.00000,33641.00000,33429.00000,33481.00000,33336.00000,33401.00000,33415.00000,33432.00000,33253.00000,33197.00000,33394.00000,33602.00000,33171.00000,33182.00000,33591.00000,33463.00000,33309.00000,33042.00000,33134.00000,33353.00000,32975.00000,33198.00000,32840.00000,33166.00000,32899.00000,33113.00000,33122.00000
33411.00000,33349.00000,33271.00000,33170.00000,33169.00000,33148.00000,33474.00000,32976.00000,33522.00000,33397.00000,32883.00000,33085.00000,33391.00000,33161.00000,33354.00000,33324.00000,33165.00000,32981.00000,33177.00000,33325.00000,33290.00000,33259.00000,33177.00000,33292.00000,33228.00000,33222.00000,33008.00000,33330.00000,33038.00000,33174.00000,33306.00000,32936.00000,33343.00000,33269.00000,33130.00000,33349.00000,33288.00000,33416.00000,32887.00000,33327.00000,33461.00000,33277.00000,33042.00000,33070.00000,33435.00000,33205.00000,33134.00000,33108.00000,33129.00000,33031.00000,33079.00000,33184.00000,33328.00000,33037.00000,33392.00000,33580.00000,32895.00000,33238.00000,33449.00000,33220.00000,33368.00000,32995.00000,33108.00000,33138.00000,33100.00000,33408.00000,33406.00000,32873.00000,33062.00000,33144.00000,33395.00000,33326.00000,33042.00000,33005.00000,33195.00000,33136.00000,32963.00000,33121.00000,33279.00000,33217.00000
33382.00000,33383.00000,33296.00000,33317.00000,33543.00000,33422.00000,33521.00000,33383.00000,33084.00000,33454.00000,33209.00000,33097.00000,33223.00000,33463.00000,33237.00000,33239.00000,33281.00000,33298.00000,33059.00000,33321.00000,33203.00000,33194.00000,33356.00000,33421.00000,32989.00000,32887.00000,33175.00000,33282.00000,33295.00000,33575.00000,33110.00000,33124.00000,33190.00000,33044.00000,33183.00000,33026.00000,33193.00000,33242.00000,33214.00000,32869.00000,33195.00000,33543.00000,33091.00000,33356.00000,33173.00000,33347.00000,33108.00000,33314.00000,33359.00000,33223.00000,33268.00000,33390.00000,33334.00000,32818.00000,33056.00000,32984.00000,33260.00000,33306.00000,33328.00000,32941.00000,33004.00000,33026.00000,33140.00000,32889.00000,33230.00000,33340.00000,33141.00000,32876.00000,33071.00000,33233.00000,33118.00000,33049.00000,33122.00000,33197.00000,32974.00000,33113.00000,33040.00000,33022.00000,32941.00000,32943.00000
33267.00000,33626.00000,33263.00000,33255.00000,33513.00000,33306.00000,33175.00000,33096.00000,33587.00000,33266.00000,33231.00000,33267.00000,33332.00000,32961.00000,33223.00000,33055.00000,33384.00000,33377.00000,33351.00000,33505.00000,33239.00000,33374.00000,33251.00000,33151.00000,33086.00000,33352.00000,33113.00000,33157.00000,33599.00000,33221.00000,33407.00000,33414.00000,33299.00000,33686.00000,33354.00000,33046.00000,33308.00000,33323.00000,33360.00000,33207.00000,32891.00000,33443.00000,33447.00000,33024.00000,33061.00000,33112.00000,33193.00000,33115.00000,33174.00000,33316.00000,33153.00000,33337.00000,33179.00000,33272.00000,33347.00000,33353.00000,33235.00000,32976.00000,33044.00000,33567.00000,33119.00000,32979.00000,32914.00000,33417.00000,33222.00000,33330.00000,33126.00000,33194.00000,33134.00000,33042.00000,33481.00000,33189.00000,33050.00000,33127.00000,33178.00000,33046.00000,32932.00000,33517.00000,33164.00000,33108.00000
33275.00000,33516.00000,33449.00000,33232.00000,33013.00000,33282.00000,33410.00000,33195.00000,33009.00000,33266.00000,32916.00000,33516.00000,33263.00000,33556.00000,33410.00000,33538.00000,33430.00000,33365.00000,33019.00000,33629.00000,33166.00000,33473.00000,33138.00000,33094.00000,33324.00000,33290.00000,33514.00000,33266.00000,33481.00000,33276.00000,33118.00000,33242.00000,33291.00000,33031.00000,33301.00000,33062.00000,33268.00000,33462.00000,33280.00000,33312.00000,33328.00000,33391.00000,33315.00000,33320.00000,33164.00000,33252.00000,33488.00000,33409.00000,33449.00000,33315.00000,33317.00000,33399.00000,33241.00000,33262.00000,33514.00000,33239.00000,33233.00000,33405.00000,33029.00000,33235.00000,33188.00000,33302.00000,33384.00000,33296.00000,32841.00000,33247.00000,32791.00000,32926.00000,33311.00000,33254.00000,33471.00000,33078.00000,32904.00000,33406.00000,33392.00000,33014.00000,33069.00000,33410.00000,33278.00000,32872.00000
33259.00000,33114.00000,33277.00000,33549.00000,33306.00000,33132.00000,33452.00000,33277.00000,33104.00000,33324.00000,32833.00000,33033.00000,33595.00000,33252.00000,33589.00000,32939.00000,33340.00000,33436.00000,33175.00000,33127.00000,33413.00000,33416.00000,33390.00000,33268.00000,33357.00000,33153.00000,32983.00000,33345.00000,33426.00000,33047.00000,33203.00000,33107.00000,33423.00000,32916.00000,33289.00000,33357.00000,33291.00000,33192.00000,33359.00000,33161.00000,33126.00000,33071.00000,33443.00000,33457.00000,33332.00000,33347.00000,33079.00000,33294.00000,33246.00000,33064.00000,33191.00000,33392.00000,33159.00000,33278.00000,33273.00000,33050.00000,33350.00000,33325.00000,33348.00000,33161.00000,33119.00000,33049.00000,33156.00000,33257.00000,33335.00000,33185.00000,33098.00000,33253.00000,32799.00000,33271.00000,33233.00000,33562.00000,32808.00000,32978.00000,33208.00000,33059.00000,33139.00000,33285.00000,32973.00000,32987.00000
33208.00000,33436.00000,33156.00000,33426.00000,33164.00000,33418.00000,33393.00000,33637.00000,33630.00000,33530.00000,33292.00000,33176.00000,33345.00000,32934.00000,33421.00000,33421.00000,33023.00000,33391.00000,33385.00000,33304.00000,33249.00000,33217.00000,33423.00000,33296.00000,33477.00000,33493.00000,33344.00000,33337.00000,33195.00000,33397.00000,33213.00000,33245.00000,33543.00000,33245.00000,33413.00000,33448.00000,33352.00000,33215.00000,33194.00000,33385.00000,33284.00000,33248.00000,33388.00000,33483.00000,33445.00000,33089.00000,33074.00000,33490.00000,33378.00000,33381.00000,33283.00000,33059.00000,33255.00000,33526.00000,33439.00000,33048.00000,33122.00000,33381.00000,33269.00000,33082.00000,33163.00000,33090.00000,33039.00000,33274.00000,33196.00000,33240.00000,33123.00000,33183.00000,33244.00000,33469.00000,33385.00000,33364.00000,33377.00000,33142.00000,33189.00000,33538.00000,33255.00000,33214.00000,33461.00000,33258.00000
33287.00000,33121.00000,33487.00000,33203.00000,33196.00000,33624.00000,33567.00000,33373.00000,33115.00000,33308.00000,33283.00000,33369.00000,33402.00000,33454.00000,33507.00000,33378.00000,33112.00000,33460.00000,33239.00000,33543.00000,33339.00000,33439.00000,33386.00000,33188.00000,33166.00000,33480.00000,33279.00000,33254.00000,33293.00000,33535.00000,33348.00000,33212.00000,33167.00000,33333.00000,33199.00000,33046.00000,33386.00000,33179.00000,33029.00000,33267.00000,33314.00000,33477.00000,33269.00000,33043.00000,33424.00000,33389.00000,33106.00000,33557.00000,33560.00000,33467.00000,32789.00000,33482.00000,33330.00000,32968.00000,33411.00000,33288.00000,33540.00000,33491.00000,33108.00000,33387.00000,33216.00000,33073.00000,33297.00000,33238.00000,33335.00000,33318.00000,32878.00000,33305.00000,33315.00000,33199.00000,33334.00000,33302.00000,33176.00000,33162.00000,33146.00000,33428.00000,33010.00000,32954.00000,33079.00000,33223.00000
33238.00000,33059.00000,33434.00000,33243.00000,33280.00000,33883.00000,33097.00000,33133.00000,33036.00000,33180.00000,33547.00000,33264.00000,33703.00000,33464.00000,33330.00000,33266.00000,33264.00000,33143.00000,33198.00000,33160.00000,33173.00000,33266.00000,33175.00000,33139.00000,33055.00000,33548.00000,33212.00000,33150.00000,33552.00000,33318.00000,33682.00000,32883.00000,33256.00000,33219.00000,33331.00000,33073.00000,33394.00000,33220.00000,33213.00000,33165.00000,33326.00000,33364.00000,33276.00000,33384.00000,33106.00000,33010.00000,33026.00000,33463.00000,33202.00000,33614.00000,33105.00000,33492.00000,33419.00000,33279.00000,33612.00000,33402.00000,33456.00000,33321.00000,33383.00000,33396.00000,33407.00000,33240.00000,33188.00000,33385.00000,33594.00000,33171.00000,33183.00000,33594.00000,33464.00000,33314.00000,33042.00000,33135.00000,33358.00000,32980.00000,33204.00000,32847.00000,33172.00000,32900.00000,33116.00000,33134.00000
33411.00000,33354.00000,33276.00000,33181.00000,33173.00000,33147.00000,33473.00000,32977.00000,33524.00000,33400.00000,32891.00000,33083.00000,33393.00000,33165.00000,33360.00000,33327.00000,33168.00000,32977.00000,33179.00000,33331.00000,33290.00000,33255.00000,33173.00000,33289.00000,33223.00000,33223.00000,33007.00000,33335.00000,33037.00000,33169.00000,33298.00000,32937.00000,33335.00000,33266.00000,33124.00000,33347.00000,33277.00000,33408.00000,32869.00000,33316.00000,33436.00000,33227.00000,32997.00000,33026.00000,33388.00000,33157.00000,33094.00000,33057.00000,33077.00000,32990.00000,33044.00000,33161.00000,33304.00000,33024.00000,33369.00000,33561.00000,32875.00000,33222.00000,33430.00000,33201.00000,33359.00000,32987.00000,33102.00000,33136.00000,33098.00000,33407.00000,33402.00000,32875.00000,33065.00000,33144.00000,33407.00000,33333.00000,33047.00000,33008.00000,33195.00000,33139.00000,32967.00000,33128.00000,33283.00000,33222.00000
33379.00000,33390.00000,33307.00000,33324.00000,33548.00000,33427.00000,33526.00000,33386.00000,33080.00000,33460.00000,33209.00000,33099.00000,33227.00000,33466.00000,33238.00000,33241.00000,33284.00000,33301.00000,33059.00000,33323.00000,33201.00000,33198.00000,33354.00000,33418.00000,32982.00000,32898.00000,33173.00000,33284.00000,33297.00000,33585.00000,33106.00000,33122.00000,33178.00000,33035.00000,33173.00000,33011.00000,33169.00000,33227.00000,33201.00000,32861.00000,33183.00000,33526.00000,33062.00000,33333.00000,33146.00000,33321.00000,33083.00000,33292.00000,33343.00000,33200.00000,33249.00000,33375.00000,33319.00000,32799.00000,33041.00000,32968.00000,33239.00000,33287.00000,33312.00000,32929.00000,32993.00000,33018.00000,33135.00000,32884.00000,33227.00000,33337.00000,33138.00000,32875.00000,33078.00000,33239.00000,33120.00000,33049.00000,33126.00000,33210.00000,32981.00000,33119.00000,33051.00000,33028.00000,32953.00000,32945.00000
33270.00000,33630.00000,33274.00000,33268.00000,33519.00000,33310.00000,33181.00000,33108.00000,33591.00000,33272.00000,33238.00000,33275.00000,33337.00000,32972.00000,33229.00000,33062.00000,33389.00000,33380.00000,33359.00000,33501.00000,33243.00000,33377.00000,33249.00000,33154.00000,33091.00000,33353.00000,33118.00000,33157.00000,33608.00000,33218.00000,33403.00000,33406.00000,33299.00000,33681.00000,33347.00000,33032.00000,33300.00000,33313.00000,33353.00000,33199.00000,32885.00000,33436.00000,33436.00000,33006.00000,33043.00000,33099.00000,33181.00000,33105.00000,33167.00000,33308.00000,33144.00000,33323.00000,33173.00000,33262.00000,33332.00000,33344.00000,33227.00000,32967.00000,33040.00000,33558.00000,33124.00000,32983.00000,32916.00000,33419.00000,33228.00000,33329.00000,33138.00000,33198.00000,33139.00000,33049.00000,33489.00000,33204.00000,33054.00000,33134.00000,33187.00000,33063.00000,32942.00000,33540.00000,33181.00000,33125.00000
33274.00000,33524.00000,33462.00000,33245.00000,33026.00000,33287.00000,33426.00000,33203.00000,33019.00000,33279.00000,32920.00000,33529.00000,33274.00000,33563.00000,33413.00000,33546.00000,33439.00000,33369.00000,33026.00000,33629.00000,33169.00000,33475.00000,33142.00000,33088.00000,33332.00000,33285.00000,33515.00000,33260.00000,33482.00000,33279.00000,33121.00000,33240.00000,33283.00000,33024.00000,33296.00000,33059.00000,33257.00000,33459.00000,33272.00000,33309.00000,33320.00000,33379.00000,33308.00000,33304.00000,33156.00000,33247.00000,33482.00000,33409.00000,33437.00000,33305.00000,33316.00000,33395.00000,33235.00000,33252.00000,33504.00000,33228.00000,33229.00000,33401.00000,33028.00000,33229.00000,33186.00000,33309.00000,33381.00000,33306.00000,32841.00000,33251.00000,32796.00000,32937.00000,33318.00000,33256.00000,33483.00000,33093.00000,32915.00000,33423.00000,33404.00000,33027.00000,33083.00000,33428.00000,33299.00000,32878.00000
33255.00000,33122.00000,33285.00000,33565.00000,33321.00000,33147.00000,33459.00000,33286.00000,33115.00000,33328.00000,32837.00000,33038.00000,33599.00000,33258.00000,33598.00000,32944.00000,33345.00000,33451.00000,33177.00000,33132.00000,33411.00000,33415.00000,33396.00000,33272.00000,33358.00000,33155.00000,32990.00000,33339.00000,33425.00000,33047.00000,33200.00000,33099.00000,33421.00000,32915.00000,33290.00000,33354.00000,33289.00000,33184.00000,33353.00000,33157.00000,33120.00000,33068.00000,33440.00000,33455.00000,33327.00000,33335.00000,33076.00000,33285.00000,33247.00000,33062.00000,33183.00000,33391.00000,33154.00000,33265.00000,33263.00000,33040.00000,33347.00000,33323.00000,33345.00000,33158.00000,33117.00000,33054.00000,33153.00000,33262.00000,33343.00000,33195.00000,33101.00000,33255.00000,32812.00000,33288.00000,33239.00000,33567.00000,32818.00000,32992.00000,33221.00000,33074.00000,33158.00000,33301.00000,32993.00000,33003.00000
33210.00000,33446.00000,33170.00000,33436.00000,33180.00000,33432.00000,33403.00000,33649.00000,33640.00000,33547.00000,33303.00000,33190.00000,33354.00000,32939.00000,33432.00000,33434.00000,33027.00000,33397.00000,33386.00000,33310.00000,33249.00000,33221.00000,33431.00000,33298.00000,33476.00000,33497.00000,33343.00000,33330.00000,33195.00000,33392.00000,33204.00000,33242.00000,33540.00000,33246.00000,33412.00000,33441.00000,33342.00000,33214.00000,33195.00000,33380.00000,33284.00000,33249.00000,33384.00000,33482.00000,33439.00000,33077.00000,33070.00000,33478.00000,33371.00000,33378.00000,33282.00000,33052.00000,33260.00000,33523.00000,33436.00000,33047.00000,33119.00000,33383.00000,33270.00000,33081.00000,33169.00000,33097.00000,33049.00000,33276.00000,33196.00000,33247.00000,33131.00000,33193.00000,33259.00000,33475.00000,33392.00000,33375.00000,33386.00000,33154.00000,33203.00000,33556.00000,33269.00000,33239.00000,33477.00000,33274.00000
33297.00000,33138.00000,33497.00000,33207.00000,33215.00000,33642.00000,33589.00000,33385.00000,33129.00000,33322.00000,33293.00000,33376.00000,33407.00000,33463.00000,33518.00000,33384.00000,33119.00000,33463.00000,33239.00000,33549.00000,33342.00000,33447.00000,33389.00000,33193.00000,33167.00000,33486.00000,33284.00000,33251.00000,33292.00000,33526.00000,33347.00000,33210.00000,33163.00000,33337.00000,33201.00000,33048.00000,33387.00000,33173.00000,33029.00000,33267.00000,33312.00000,33473.00000,33263.00000,33034.00000,33419.00000,33381.00000,33100.00000,33562.00000,33558.00000,33463.00000,32783.00000,33477.00000,33330.00000,32965.00000,33413.00000,33296.00000,33534.00000,33493.00000,33111.00000,33389.00000,33220.00000,33078.00000,33299.00000,33245.00000,33347.00000,33322.00000,32884.00000,33307.00000,33326.00000,33208.00000,33349.00000,33319.00000,33194.00000,33175.00000,33164.00000,33451.00000,33037.00000,32973.00000,33101.00000,33236.00000
33242.00000,33065.00000,33452.00000,33255.00000,33298.00000,33908.00000,33113.00000,33143.00000,33051.00000,33191.00000,33557.00000,33280.00000,33720.00000,33474.00000,33340.00000,33279.00000,33271.00000,33148.00000,33204.00000,33163.00000,33179.00000,33273.00000,33176.00000,33146.00000,33067.00000,33544.00000,33212.00000,33157.00000,33557.00000,33317.00000,33683.00000,32881.00000,33255.00000,33214.00000,33321.00000,33075.00000,33386.00000,33223.00000,33213.00000,33163.00000,33324.00000,33356.00000,33275.00000,33377.00000,33107.00000,33008.00000,33022.00000,33457.00000,33194.00000,33616.00000,33102.00000,33490.00000,33425.00000,33283.00000,33608.00000,33400.00000,33457.00000,33316.00000,33387.00000,33399.00000,33416.00000,33245.00000,33199.00000,33400.00000,33601.00000,33181.00000,33191.00000,33600.00000,33477.00000,33332.00000,33056.00000,33155.00000,33377.00000,32997.00000,33223.00000,32869.00000,33197.00000,32923.00000,33140.00000,33143.00000
33410.00000,33355.00000,33283.00000,33190.00000,33187.00000,33165.00000,33490.00000,32996.00000,33536.00000,33417.00000,32899.00000,33094.00000,33404.00000,33171.00000,33369.00000,33336.00000,33178.00000,32987.00000,33183.00000,33336.00000,33295.00000,33260.00000,33178.00000,33286.00000,33229.00000,33221.00000,33010.00000,33326.00000,33035.00000,33164.00000,33300.00000,32937.00000,33328.00000,33257.00000,33121.00000,33341.00000,33277.00000,33407.00000,32870.00000,33320.00000,33434.00000,33226.00000,32996.00000,33019.00000,33393.00000,33152.00000,33090.00000,33052.00000,33072.00000,32986.00000,33035.00000,33157.00000,33300.00000,33020.00000,33368.00000,33558.00000,32872.00000,33225.00000,33439.00000,33210.00000,33369.00000,32985.00000,33109.00000,33140.00000,33102.00000,33417.00000,33409.00000,32885.00000,33073.00000,33160.00000,33419.00000,33347.00000,33065.00000,33030.00000,33215.00000,33161.00000,32989.00000,33151.00000,33301.00000,33233.00000
33386.00000,33389.00000,33309.00000,33333.00000,33554.00000,33440.00000,33537.00000,33407.00000,33096.00000,33473.00000,33221.00000,33112.00000,33246.00000,33476.00000,33251.00000,33238.00000,33287.00000,33302.00000,33071.00000,33328.00000,33206.00000,33199.00000,33357.00000,33430.00000,32992.00000,32892.00000,33169.00000,33290.00000,33305.00000,33582.00000,33106.00000,33116.00000,33183.00000,33035.00000,33172.00000,33010.00000,33174.00000,33223.00000,33199.00000,32864.00000,33182.00000,33523.00000,33065.00000,33330.00000,33153.00000,33321.00000,33089.00000,33291.00000,33344.00000,33201.00000,33256.00000,33376.00000,33328.00000,32804.00000,33047.00000,32971.00000,33253.00000,33302.00000,33317.00000,32945.00000,33010.00000,33035.00000,33148.00000,32908.00000,33239.00000,33359.00000,33161.00000,32894.00000,33096.00000,33265.00000,33148.00000,33083.00000,33157.00000,33244.00000,33014.00000,33160.00000,33078.00000,33060.00000,32973.00000,32971.00000
