2019/10/28 - 15:22:11.313433 | MAIN                | App started running
2019/10/28 - 15:22:18.768758 | I2C                 | Successfully connected to COM7.
2019/10/28 - 15:22:22.284090 | I2C                 | *
2019/10/28 - 15:22:22.300019 | I2C                 | *
2019/10/28 - 15:22:23.754668 | App                 | Device is Responding
2019/10/28 - 15:22:30.070636 | Unknown Module      | Forcing device power cycle
2019/10/28 - 15:22:30.082736 | I2C                 | *
2019/10/28 - 15:22:44.127398 | App                 | Setting Radiation test: ReadOnly.
2019/10/28 - 15:22:44.149433 | I2C                 | *
2019/10/28 - 15:22:59.254243 | App                 | Setting Radiation test: Disabled.
2019/10/28 - 15:22:59.266236 | I2C                 | *
2019/10/28 - 15:23:03.631042 | I2C                 | *
2019/10/28 - 15:23:04.142310 | I2C                 | *
2019/10/28 - 15:23:04.268520 | I2C                 | *
2019/10/28 - 15:23:04.394714 | I2C                 | *
2019/10/28 - 15:23:04.520342 | I2C                 | *
2019/10/28 - 15:23:04.646388 | I2C                 | *
2019/10/28 - 15:23:04.771868 | I2C                 | *
2019/10/28 - 15:23:04.898202 | I2C                 | *
2019/10/28 - 15:23:05.007296 | I2C                 | *
2019/10/28 - 15:23:05.133982 | I2C                 | *
2019/10/28 - 15:23:05.259430 | I2C                 | *
2019/10/28 - 15:23:05.368913 | I2C                 | *
2019/10/28 - 15:23:05.495251 | I2C                 | *
2019/10/28 - 15:23:05.604514 | I2C                 | *
2019/10/28 - 15:23:05.730614 | I2C                 | *
2019/10/28 - 15:23:05.856730 | I2C                 | *
2019/10/28 - 15:23:05.982551 | I2C                 | *
2019/10/28 - 15:23:06.109113 | I2C                 | *
2019/10/28 - 15:23:06.218570 | I2C                 | *
2019/10/28 - 15:23:06.344309 | I2C                 | *
2019/10/28 - 15:23:06.454850 | I2C                 | *
2019/10/28 - 15:23:06.580581 | I2C                 | *
2019/10/28 - 15:23:06.706587 | I2C                 | *
2019/10/28 - 15:23:06.832091 | I2C                 | *
2019/10/28 - 15:23:06.958171 | I2C                 | *
2019/10/28 - 15:23:07.067501 | I2C                 | *
2019/10/28 - 15:23:07.194343 | I2C                 | *
2019/10/28 - 15:23:07.303790 | I2C                 | *
2019/10/28 - 15:23:07.430233 | I2C                 | *
2019/10/28 - 15:23:07.556060 | I2C                 | *
2019/10/28 - 15:23:07.681067 | I2C                 | *
2019/10/28 - 15:23:07.808047 | I2C                 | *
2019/10/28 - 15:23:07.933365 | I2C                 | *
2019/10/28 - 15:23:08.059789 | I2C                 | *
2019/10/28 - 15:23:08.169007 | I2C                 | *
2019/10/28 - 15:23:08.294952 | I2C                 | *
2019/10/28 - 15:23:08.404905 | I2C                 | *
2019/10/28 - 15:23:08.530914 | I2C                 | *
2019/10/28 - 15:23:08.656349 | I2C                 | *
2019/10/28 - 15:23:08.782815 | I2C                 | *
2019/10/28 - 15:23:08.908861 | I2C                 | *
2019/10/28 - 15:23:09.018482 | I2C                 | *
2019/10/28 - 15:23:09.144674 | I2C                 | *
2019/10/28 - 15:23:09.270573 | I2C                 | *
2019/10/28 - 15:23:09.396511 | I2C                 | *
2019/10/28 - 15:23:09.505592 | I2C                 | *
2019/10/28 - 15:23:09.631625 | I2C                 | *
2019/10/28 - 15:23:09.757816 | I2C                 | *
2019/10/28 - 15:23:09.867752 | I2C                 | *
2019/10/28 - 15:23:09.994044 | I2C                 | *
2019/10/28 - 15:23:10.119457 | I2C                 | *
2019/10/28 - 15:23:10.245751 | I2C                 | *
2019/10/28 - 15:23:10.371377 | I2C                 | *
2019/10/28 - 15:23:10.481387 | I2C                 | *
2019/10/28 - 15:23:10.591326 | I2C                 | *
2019/10/28 - 15:23:10.701258 | I2C                 | *
2019/10/28 - 15:23:10.827091 | I2C                 | *
2019/10/28 - 15:23:10.952792 | I2C                 | *
2019/10/28 - 15:23:11.078286 | I2C                 | *
2019/10/28 - 15:23:11.188706 | I2C                 | *
2019/10/28 - 15:23:11.298725 | I2C                 | *
2019/10/28 - 15:23:11.424628 | I2C                 | *
2019/10/28 - 15:23:11.534622 | I2C                 | *
2019/10/28 - 15:23:11.660262 | I2C                 | *
2019/10/28 - 15:23:11.770246 | I2C                 | *
2019/10/28 - 15:23:11.895429 | I2C                 | *
2019/10/28 - 15:23:12.021822 | I2C                 | *
2019/10/28 - 15:23:12.147343 | I2C                 | *
2019/10/28 - 15:23:12.273787 | I2C                 | *
2019/10/28 - 15:23:12.399618 | I2C                 | *
2019/10/28 - 15:23:12.525983 | I2C                 | *
2019/10/28 - 15:23:12.651663 | I2C                 | *
2019/10/28 - 15:23:12.777318 | I2C                 | *
2019/10/28 - 15:23:12.903604 | I2C                 | *
2019/10/28 - 15:23:13.012482 | I2C                 | *
2019/10/28 - 15:23:13.139070 | I2C                 | *
2019/10/28 - 15:23:13.248566 | I2C                 | *
2019/10/28 - 15:23:13.375253 | I2C                 | *
2019/10/28 - 15:23:13.500516 | I2C                 | *
2019/10/28 - 15:23:13.626394 | I2C                 | *
2019/10/28 - 15:23:13.752984 | I2C                 | *
2019/10/28 - 15:23:13.862738 | I2C                 | *
