2019/10/28 - 16:38:50.507796 | MAIN                | App started running
2019/10/28 - 16:38:57.064713 | UART                | Successfully connected to COM8.
2019/10/28 - 16:38:57.687458 | App                 | Device is Responding
2019/10/28 - 16:39:01.557781 | App                 | Clearing device error flags and latched image information.
