2019/10/28 - 16:33:09.109452 | MAIN                | App started running
2019/10/28 - 16:33:14.149727 | UART                | Successfully connected to COM8.
2019/10/28 - 16:33:14.819215 | App                 | Device is Responding
2019/10/28 - 16:33:28.770711 | MAIN                | App started running
2019/10/28 - 16:33:34.024066 | UART                | Successfully connected to COM8.
2019/10/28 - 16:33:34.422988 | App                 | Device is Responding
2019/10/28 - 16:33:36.735552 | App                 | Clearing device error flags and latched image information.
2019/10/28 - 16:33:42.535652 | App                 | Clearing device error flags and latched image information.
2019/10/28 - 16:33:50.095208 | App                 | Clearing device error flags and latched image information.
