2019/08/02 - 15:31:20.395979 | MAIN                | App started running
2019/08/02 - 15:39:27.558014 | CommsUART           | Successfully connected to COM8.
2019/08/02 - 15:39:28.324027 | App                 | Device is Responding
2019/08/02 - 15:39:34.438281 | App                 | Setting ADS SampleMode: Continuous.
2019/08/02 - 15:39:50.869346 | App                 | Setting HTPA Calibration Level: None.
2019/08/02 - 15:40:43.206113 | App                 | Setting HTPA Calibration Level: Vdd.
2019/08/02 - 15:41:19.365911 | App                 | Setting HTPA Calibration Level: Tobj.
