Time,Runtime,Current3V3,Current3V3Min,Current3V3Max,CurrentHTPA,CurrentHTPAMin,CurrentHTPAMax,CurrentCubeDock3V3_1,TemperatureMCU,TemperatureMCUMin,TemperatureMCUMax,TemperatureHTPA,TemperatureHTPAMin,TemperatureHTPAMax,ADSSampleMode,HTPACalibLevel,HILEnabled,HILBusy,HILEnableEdgeDet,HILEnableLensDistCorr,HILEnablePolyFit,HILEnableAttEst,HTPADeviceID,HTPATableNumber,HtpaPowerState,HtpaWakeState,HtpaCaptureState,HtpaPTAT,HtpaVdd,HTPAImageLastMin,HTPAImageLastMean,HTPAImageLastMax,HTPAImageAllTimeMin,HTPAImageAllTimeMax,3V3OverCurrent,3V3UnderCurrent,HTPAOverCurrent,HTPAUnderCurrent,Timer1sOverRun,MCUOverTemperature,MCUUnderTemperature,HTPAOverTemperature,HTPAUnderTemperature,HTPACalibLookupOutOfRange,HTPANotResponding,HTPAConfigMismatch,HTPASpiTimeout,CommsTcSlotsBuffFull,CommsTcParamBuffFull,CommsUartProtError,CommsUartMsgIncomplete,CommsUartTcParamOverflow,UARTTxOverflow,CommsTcInvalidID,CommsTcInvalidPar,CommsTcInvalidParLen,CommsTcTimeout,CommsTlmInvalidID,UARTTxReadingEmptyBuffer,UARTRxByteOverrun,UARTRxFramingError,UartTxTimeout,SwStartupTime,SwProcessingTime,SwProcessingTimeMax,SwLoopTime,SwImgCaptureTime,SwLensDistCorrTime,SwEstimationTime,RadEnabled,RadMode,RadFaultEvents,RadLastFaultIndex,RadCurrIteration,RadCurrSeed,InterfaceVersion,FirmwareVersion,CubeIR SN,IRCAM SN,
2019/04/02 - 09:26:12.831153,15.660,45.14653778076172,20.794158935546875,47.31198501586914,26.835988998413086,2.61022686958313,26.839235305786133,0,27.754329681396484,25.51300621032715,27.754329681396484,0.0,0.0,0.0,Idle,None,False,False,False,False,False,False,4320,137,PowOn,Awake,Idle,0,0,5,4,3,2,1,False,False,False,False,False,False,False,False,False,False,False,False,False,False,False,False,False,False,False,False,False,False,False,False,False,False,False,False,1029,0,0,1000,0,0,0,False,ReadOnly,0,0,0,0,1,V0.1,      DEV1,    IR1800,
2019/04/02 - 09:26:13.830917,16.666,45.09783935546875,20.794158935546875,47.31198501586914,26.81975746154785,2.61022686958313,26.839235305786133,0,27.770219802856445,25.51300621032715,27.770219802856445,0.0,0.0,0.0,Idle,None,False,False,False,False,False,False,4320,137,PowOn,Awake,Idle,0,0,5,4,3,2,1,False,False,False,False,False,False,False,False,False,False,False,False,False,False,False,False,False,False,False,False,False,False,False,False,False,False,False,False,1029,0,0,1000,0,0,0,False,ReadOnly,0,0,0,0,1,V0.1,      DEV1,    IR1800,
2019/04/02 - 09:26:14.787000,17.667,45.2471809387207,20.794158935546875,47.31198501586914,26.848976135253906,2.61022686958313,26.848976135253906,0,27.770219802856445,25.51300621032715,27.770219802856445,0.0,0.0,0.0,Idle,None,False,False,False,False,False,False,4320,137,PowOn,Awake,Idle,0,0,5,4,3,2,1,False,False,False,False,False,False,False,False,False,False,False,False,False,False,False,False,False,False,False,False,False,False,False,False,False,False,False,False,1029,0,0,1000,0,0,0,False,ReadOnly,0,0,0,0,1,V0.1,      DEV1,    IR1800,
2019/04/02 - 09:26:15.759775,18.665,45.266658782958984,20.794158935546875,47.31198501586914,26.81975746154785,2.61022686958313,26.848976135253906,0,27.722549438476562,25.51300621032715,27.770219802856445,0.0,0.0,0.0,Idle,None,False,False,False,False,False,False,4320,137,PowOn,Awake,Idle,0,0,5,4,3,2,1,False,False,False,False,False,False,False,False,False,False,False,False,False,False,False,False,False,False,False,False,False,False,False,False,False,False,False,False,1029,0,0,1000,0,0,0,False,ReadOnly,0,0,0,0,1,V0.1,      DEV1,    IR1800,
2019/04/02 - 09:26:16.776852,19.665,45.172508239746094,20.794158935546875,47.31198501586914,26.829496383666992,2.61022686958313,26.848976135253906,0,27.81791877746582,25.51300621032715,27.81791877746582,0.0,0.0,0.0,Idle,None,False,False,False,False,False,False,4320,137,PowOn,Awake,Idle,0,0,5,4,3,2,1,False,False,False,False,False,False,False,False,False,False,False,False,False,False,False,False,False,False,False,False,False,False,False,False,False,False,False,False,1029,0,0,1000,0,0,0,False,ReadOnly,0,0,0,0,1,V0.1,      DEV1,    IR1800,
2019/04/02 - 09:26:17.775635,20.664,45.18549346923828,20.794158935546875,47.31198501586914,26.803524017333984,2.61022686958313,26.848976135253906,0,27.754329681396484,25.51300621032715,27.81791877746582,0.0,0.0,0.0,Idle,None,False,False,False,False,False,False,4320,137,PowOn,Awake,Idle,0,0,5,4,3,2,1,False,False,False,False,False,False,False,False,False,False,False,False,False,False,False,False,False,False,False,False,False,False,False,False,False,False,False,False,1029,0,0,1000,0,0,0,False,ReadOnly,0,0,0,0,1,V0.1,      DEV1,    IR1800,
2019/04/02 - 09:26:18.786627,21.659,45.17575454711914,20.794158935546875,47.31198501586914,26.835988998413086,2.61022686958313,26.848976135253906,0,27.754329681396484,25.51300621032715,27.81791877746582,0.0,0.0,0.0,Idle,None,False,False,False,False,False,False,4320,137,PowOn,Awake,Idle,0,0,5,4,3,2,1,False,False,False,False,False,False,False,False,False,False,False,False,False,False,False,False,False,False,False,False,False,False,False,False,False,False,False,False,1029,0,0,1000,0,0,0,False,ReadOnly,0,0,0,0,1,V0.1,      DEV1,    IR1800,
2019/04/02 - 09:26:19.788420,22.662,45.302371978759766,20.794158935546875,47.31198501586914,26.81975746154785,2.61022686958313,26.848976135253906,0,27.738439559936523,25.51300621032715,27.81791877746582,0.0,0.0,0.0,Idle,None,False,False,False,False,False,False,4320,137,PowOn,Awake,Idle,0,0,5,4,3,2,1,False,False,False,False,False,False,False,False,False,False,False,False,False,False,False,False,False,False,False,False,False,False,False,False,False,False,False,False,1029,0,0,1000,0,0,0,False,ReadOnly,0,0,0,0,1,V0.1,      DEV1,    IR1800,
2019/04/02 - 09:26:20.774036,23.663,45.22120666503906,20.794158935546875,47.31198501586914,26.81975746154785,2.61022686958313,26.848976135253906,0,27.80202865600586,25.51300621032715,27.81791877746582,0.0,0.0,0.0,Idle,None,False,False,False,False,False,False,4320,137,PowOn,Awake,Idle,0,0,5,4,3,2,1,False,False,False,False,False,False,False,False,False,False,False,False,False,False,False,False,False,False,False,False,False,False,False,False,False,False,False,False,1029,0,0,1000,0,0,0,False,ReadOnly,0,0,0,0,1,V0.1,      DEV1,    IR1800,
2019/04/02 - 09:26:21.789664,24.661,45.12705612182617,20.794158935546875,47.31198501586914,26.83274269104004,2.61022686958313,26.848976135253906,0,27.80202865600586,25.51300621032715,27.81791877746582,0.0,0.0,0.0,Idle,None,False,False,False,False,False,False,4320,137,PowOn,Awake,Idle,0,0,5,4,3,2,1,False,False,False,False,False,False,False,False,False,False,False,False,False,False,False,False,False,False,False,False,False,False,False,False,False,False,False,False,1029,0,0,1000,0,0,0,False,ReadOnly,0,0,0,0,1,V0.1,      DEV1,    IR1800,
2019/04/02 - 09:26:22.767991,25.662,45.11082458496094,20.794158935546875,47.31198501586914,26.839235305786133,2.61022686958313,26.848976135253906,0,27.81791877746582,25.51300621032715,27.81791877746582,0.0,0.0,0.0,Idle,None,False,False,False,False,False,False,4320,137,PowOn,Awake,Idle,0,0,5,4,3,2,1,False,False,False,False,False,False,False,False,False,False,False,False,False,False,False,False,False,False,False,False,False,False,False,False,False,False,False,False,1029,0,0,1000,0,0,0,False,ReadOnly,0,0,0,0,1,V0.1,      DEV1,    IR1800,
2019/04/02 - 09:26:23.786516,26.661,45.243934631347656,20.794158935546875,47.31198501586914,26.813262939453125,2.61022686958313,26.848976135253906,0,27.674850463867188,25.51300621032715,27.81791877746582,0.0,0.0,0.0,Idle,None,False,False,False,False,False,False,4320,137,PowOn,Awake,Idle,0,0,5,4,3,2,1,False,False,False,False,False,False,False,False,False,False,False,False,False,False,False,False,False,False,False,False,False,False,False,False,False,False,False,False,1029,0,0,1000,0,0,0,False,ReadOnly,0,0,0,0,1,V0.1,      DEV1,    IR1800,
2019/04/02 - 09:26:24.775808,27.661,45.05887985229492,20.794158935546875,47.31198501586914,26.83274269104004,2.61022686958313,26.848976135253906,0,27.81791877746582,25.51300621032715,27.81791877746582,0.0,0.0,0.0,Idle,None,False,False,False,False,False,False,4320,137,PowOn,Awake,Idle,0,0,5,4,3,2,1,False,False,False,False,False,False,False,False,False,False,False,False,False,False,False,False,False,False,False,False,False,False,False,False,False,False,False,False,1029,0,0,1000,0,0,0,False,ReadOnly,0,0,0,0,1,V0.1,      DEV1,    IR1800,
2019/04/02 - 09:26:25.776516,28.660,45.33808135986328,20.794158935546875,47.31198501586914,26.81975746154785,2.61022686958313,26.848976135253906,0,27.722549438476562,25.51300621032715,27.81791877746582,0.0,0.0,0.0,Idle,None,False,False,False,False,False,False,4320,137,PowOn,Awake,Idle,0,0,5,4,3,2,1,False,False,False,False,False,False,False,False,False,False,False,False,False,False,False,False,False,False,False,False,False,False,False,False,False,False,False,False,1029,0,0,1000,0,0,0,False,ReadOnly,0,0,0,0,1,V0.1,      DEV1,    IR1800,
2019/04/02 - 09:26:26.761330,29.657,45.29587936401367,20.794158935546875,47.31198501586914,26.826250076293945,2.61022686958313,26.848976135253906,0,27.81791877746582,25.51300621032715,27.81791877746582,0.0,0.0,0.0,Idle,None,False,False,False,False,False,False,4320,137,PowOn,Awake,Idle,0,0,5,4,3,2,1,False,False,False,False,False,False,False,False,False,False,False,False,False,False,False,False,False,False,False,False,False,False,False,False,False,False,False,False,1029,0,0,1000,0,0,0,False,ReadOnly,0,0,0,0,1,V0.1,      DEV1,    IR1800,
2019/04/02 - 09:26:29.099878,31.978,45.29587936401367,20.794158935546875,47.31198501586914,26.83274269104004,2.61022686958313,26.848976135253906,0,27.770219802856445,25.51300621032715,27.81791877746582,0.0,0.0,0.0,Idle,None,False,False,False,False,False,False,4320,137,PowOn,Awake,Idle,0,0,5,4,3,2,1,False,False,False,False,False,False,False,False,False,False,False,False,False,False,False,False,False,False,False,False,False,False,False,False,False,False,False,False,1029,0,0,1000,0,0,0,False,ReadOnly,0,0,0,0,1,V0.1,      DEV1,    IR1800,
2019/04/02 - 09:26:29.153847,32.14,45.25042724609375,20.794158935546875,47.31198501586914,26.84572982788086,2.61022686958313,26.848976135253906,0,27.7861385345459,25.51300621032715,27.81791877746582,0.0,0.0,0.0,Idle,None,False,False,False,False,False,False,4320,137,PowOn,Awake,Idle,0,0,5,4,3,2,1,False,False,False,False,False,False,False,False,False,False,False,False,False,False,False,False,False,False,False,False,False,False,False,False,False,False,False,False,1029,0,0,1000,0,0,0,False,ReadOnly,0,0,0,0,1,V0.1,      DEV1,    IR1800,
2019/04/02 - 09:26:29.765708,32.660,45.25042724609375,20.794158935546875,47.31198501586914,26.84572982788086,2.61022686958313,26.848976135253906,0,27.7861385345459,25.51300621032715,27.81791877746582,0.0,0.0,0.0,Idle,None,False,False,False,False,False,False,4320,137,PowOn,Awake,Idle,0,0,5,4,3,2,1,False,False,False,False,False,False,False,False,False,False,False,False,False,False,False,False,False,False,False,False,False,False,False,False,False,False,False,False,1029,0,0,1000,0,0,0,False,ReadOnly,0,0,0,0,1,V0.1,      DEV1,    IR1800,
2019/04/02 - 09:26:30.778577,33.658,45.37704086303711,20.794158935546875,47.31198501586914,26.848976135253906,2.61022686958313,26.848976135253906,0,27.80202865600586,25.51300621032715,27.81791877746582,0.0,0.0,0.0,Idle,None,False,False,False,False,False,False,4320,137,PowOn,Awake,Idle,0,0,5,4,3,2,1,False,False,False,False,False,False,False,False,False,False,False,False,False,False,False,False,False,False,False,False,False,False,False,False,False,False,False,False,1029,0,0,1000,0,0,0,False,ReadOnly,0,0,0,0,1,V0.1,      DEV1,    IR1800,
2019/04/02 - 09:26:31.796655,34.653,45.312110900878906,20.794158935546875,47.31198501586914,26.826250076293945,2.61022686958313,26.848976135253906,0,27.881507873535156,25.51300621032715,27.881507873535156,0.0,0.0,0.0,Idle,None,False,False,False,False,False,False,4320,137,PowOn,Awake,Idle,0,0,5,4,3,2,1,False,False,False,False,False,False,False,False,False,False,False,False,False,False,False,False,False,False,False,False,False,False,False,False,False,False,False,False,1029,0,0,1000,0,0,0,False,ReadOnly,0,0,0,0,1,V0.1,      DEV1,    IR1800,
2019/04/02 - 09:26:32.777749,35.658,45.19523620605469,20.794158935546875,47.31198501586914,26.826250076293945,2.61022686958313,26.848976135253906,0,27.80202865600586,25.51300621032715,27.881507873535156,0.0,0.0,0.0,Idle,None,False,False,False,False,False,False,4320,137,PowOn,Awake,Idle,0,0,5,4,3,2,1,False,False,False,False,False,False,False,False,False,False,False,False,False,False,False,False,False,False,False,False,False,False,False,False,False,False,False,False,1029,0,0,1000,0,0,0,False,ReadOnly,0,0,0,0,1,V0.1,      DEV1,    IR1800,
2019/04/02 - 09:26:33.783820,36.652,45.045894622802734,20.794158935546875,47.31198501586914,26.8230037689209,2.61022686958313,26.848976135253906,0,27.865617752075195,25.51300621032715,27.881507873535156,0.0,0.0,0.0,Idle,None,False,False,False,False,False,False,4320,137,PowOn,Awake,Idle,0,0,5,4,3,2,1,False,False,False,False,False,False,False,False,False,False,False,False,False,False,False,False,False,False,False,False,False,False,False,False,False,False,False,False,1029,0,0,1000,0,0,0,False,ReadOnly,0,0,0,0,1,V0.1,      DEV1,    IR1800,
2019/04/02 - 09:26:34.819787,37.655,45.182247161865234,20.794158935546875,47.31198501586914,26.84248161315918,2.61022686958313,26.848976135253906,0,27.865617752075195,25.51300621032715,27.881507873535156,0.0,0.0,0.0,Continuous,None,False,False,False,False,False,False,4320,137,PowOn,Awake,Idle,0,0,5,4,3,2,1,False,False,False,False,False,False,False,False,False,False,False,False,False,False,False,False,False,False,False,False,False,False,False,False,False,False,False,False,1029,0,0,1000,0,0,0,False,ReadOnly,0,0,0,0,1,V0.1,      DEV1,    IR1800,
2019/04/02 - 09:26:35.777199,38.656,45.256919860839844,20.794158935546875,47.31198501586914,26.83274269104004,2.61022686958313,26.848976135253906,0,27.81791877746582,25.51300621032715,27.881507873535156,26.049463272094727,0.0,26.049463272094727,Continuous,None,False,False,False,False,False,False,4320,137,PowOn,Awake,Idle,33055,33046,5,4,3,2,1,False,False,False,False,False,False,False,False,False,False,False,False,False,False,False,False,False,False,False,False,False,False,False,False,False,False,False,False,1029,196,196,1000,196,0,0,False,ReadOnly,0,0,0,0,1,V0.1,      DEV1,    IR1800,
2019/04/02 - 09:26:36.780255,39.655,45.61079406738281,20.794158935546875,47.31198501586914,27.202850341796875,2.61022686958313,27.202850341796875,0,27.83380889892578,25.51300621032715,27.881507873535156,26.055614471435547,0.0,26.055614471435547,Continuous,None,False,False,False,False,False,False,4320,137,PowOn,Awake,Idle,33056,33044,5,4,3,2,1,False,False,False,False,False,False,False,False,False,False,False,False,False,False,False,False,False,False,False,False,False,False,False,False,False,False,False,False,1029,191,196,1000,191,0,0,False,ReadOnly,0,0,0,0,1,V0.1,      DEV1,    IR1800,
2019/04/02 - 09:26:37.779753,40.655,45.53936767578125,20.794158935546875,47.31198501586914,27.19635581970215,2.61022686958313,27.202850341796875,0,27.849699020385742,25.51300621032715,27.881507873535156,26.061767578125,0.0,26.061767578125,Continuous,None,False,False,False,False,False,False,4320,137,PowOn,Awake,Idle,33057,33048,5,4,3,2,1,False,False,False,False,False,False,False,False,False,False,False,False,False,False,False,False,False,False,False,False,False,False,False,False,False,False,False,False,1029,192,196,1000,192,0,0,False,ReadOnly,0,0,0,0,1,V0.1,      DEV1,    IR1800,
2019/04/02 - 09:26:38.772646,41.654,45.65299987792969,20.794158935546875,47.31198501586914,27.20934295654297,2.61022686958313,27.20934295654297,0,27.849699020385742,25.51300621032715,27.881507873535156,26.055614471435547,0.0,26.061767578125,Continuous,None,False,False,False,False,False,False,4320,137,PowOn,Awake,Idle,33056,33045,5,4,3,2,1,False,False,False,False,False,False,False,False,False,False,False,False,False,False,False,False,False,False,False,False,False,False,False,False,False,False,False,False,1029,192,196,1000,192,0,0,False,ReadOnly,0,0,0,0,1,V0.1,      DEV1,    IR1800,
2019/04/02 - 09:26:39.783638,42.650,45.56858825683594,20.794158935546875,47.31198501586914,27.180124282836914,2.61022686958313,27.20934295654297,0,27.881507873535156,25.51300621032715,27.881507873535156,26.061767578125,0.0,26.061767578125,Continuous,None,False,False,False,False,False,False,4320,137,PowOn,Awake,Idle,33057,33048,5,4,3,2,1,False,False,False,False,False,False,False,False,False,False,False,False,False,False,False,False,False,False,False,False,False,False,False,False,False,False,False,False,1029,192,196,1000,192,0,0,False,ReadOnly,0,0,0,0,1,V0.1,      DEV1,    IR1800,
2019/04/02 - 09:26:40.778637,43.653,45.60430145263672,20.794158935546875,47.31198501586914,27.186616897583008,2.61022686958313,27.20934295654297,0,27.945098876953125,25.51300621032715,27.945098876953125,26.061767578125,0.0,26.061767578125,Continuous,None,False,False,False,False,False,False,4320,137,PowOn,Awake,Idle,33057,33048,5,4,3,2,1,False,False,False,False,False,False,False,False,False,False,False,False,False,False,False,False,False,False,False,False,False,False,False,False,False,False,False,False,1029,192,196,1000,192,0,0,False,ReadOnly,0,0,0,0,1,V0.1,      DEV1,    IR1800,
2019/04/02 - 09:26:41.771794,44.654,45.58806610107422,20.794158935546875,47.31198501586914,27.199604034423828,2.61022686958313,27.20934295654297,0,27.929180145263672,25.51300621032715,27.945098876953125,26.067920684814453,0.0,26.067920684814453,Continuous,None,False,False,False,False,False,False,4320,137,PowOn,Awake,Idle,33058,33045,5,4,3,2,1,False,False,False,False,False,False,False,False,False,False,False,False,False,False,False,False,False,False,False,False,False,False,False,False,False,False,False,False,1029,192,196,1000,192,0,0,False,ReadOnly,0,0,0,0,1,V0.1,      DEV1,    IR1800,
2019/04/02 - 09:26:42.775549,45.652,45.62053298950195,20.794158935546875,47.31198501586914,27.202850341796875,2.61022686958313,27.20934295654297,0,27.849699020385742,25.51300621032715,27.945098876953125,26.074071884155273,0.0,26.074071884155273,Continuous,None,False,False,False,False,False,False,4320,137,PowOn,Awake,Idle,33059,33046,5,4,3,2,1,False,False,False,False,False,False,False,False,False,False,False,False,False,False,False,False,False,False,False,False,False,False,False,False,False,False,False,False,1029,192,196,1000,192,0,0,False,ReadOnly,0,0,0,0,1,V0.1,      DEV1,    IR1800,
2019/04/02 - 09:26:43.788467,46.653,45.6887092590332,20.794158935546875,47.31198501586914,27.212589263916016,2.61022686958313,27.212589263916016,0,27.881507873535156,25.51300621032715,27.945098876953125,26.067920684814453,0.0,26.074071884155273,Continuous,None,False,False,False,False,False,False,4320,137,PowOn,Awake,Idle,33058,33046,5,4,3,2,1,False,False,False,False,False,False,False,False,False,False,False,False,False,False,False,False,False,False,False,False,False,False,False,False,False,False,False,False,1029,192,196,1000,192,0,0,False,ReadOnly,0,0,0,0,1,V0.1,      DEV1,    IR1800,
2019/04/02 - 09:26:44.790410,47.651,45.64325714111328,20.794158935546875,47.31198501586914,27.189863204956055,2.61022686958313,27.212589263916016,0,27.89739990234375,25.51300621032715,27.945098876953125,26.080224990844727,0.0,26.080224990844727,Continuous,None,False,False,False,False,False,False,4320,137,PowOn,Awake,Idle,33060,33048,5,4,3,2,1,False,False,False,False,False,False,False,False,False,False,False,False,False,False,False,False,False,False,False,False,False,False,False,False,False,False,False,False,1029,192,196,1000,192,0,0,False,ReadOnly,0,0,0,0,1,V0.1,      DEV1,    IR1800,
2019/04/02 - 09:26:45.789289,48.650,45.665985107421875,20.794158935546875,47.31198501586914,27.212589263916016,2.61022686958313,27.212589263916016,0,27.865617752075195,25.51300621032715,27.945098876953125,26.080224990844727,0.0,26.080224990844727,Continuous,None,False,False,False,False,False,False,4320,137,PowOn,Awake,Idle,33060,33046,5,4,3,2,1,False,False,False,False,False,False,False,False,False,False,False,False,False,False,False,False,False,False,False,False,False,False,False,False,False,False,False,False,1029,192,196,1000,192,0,0,False,ReadOnly,0,0,0,0,1,V0.1,      DEV1,    IR1800,
2019/04/02 - 09:26:46.769518,49.646,45.5361213684082,20.794158935546875,47.31198501586914,27.199604034423828,2.61022686958313,27.212589263916016,0,27.849699020385742,25.51300621032715,27.945098876953125,26.080224990844727,0.0,26.080224990844727,Continuous,None,False,False,False,False,False,False,4320,137,PowOn,Awake,Idle,33060,33046,5,4,3,2,1,False,False,False,False,False,False,False,False,False,False,False,False,False,False,False,False,False,False,False,False,False,False,False,False,False,False,False,False,1029,192,196,1000,192,0,0,False,ReadOnly,0,0,0,0,1,V0.1,      DEV1,    IR1800,
2019/04/02 - 09:26:47.785557,50.649,45.607547760009766,20.794158935546875,47.31198501586914,27.212589263916016,2.61022686958313,27.212589263916016,0,27.89739990234375,25.51300621032715,27.945098876953125,26.080224990844727,0.0,26.080224990844727,Continuous,None,False,False,False,False,False,False,4320,137,PowOn,Awake,Idle,33060,33046,5,4,3,2,1,False,False,False,False,False,False,False,False,False,False,False,False,False,False,False,False,False,False,False,False,False,False,False,False,False,False,False,False,1029,192,196,1000,192,0,0,False,ReadOnly,0,0,0,0,1,V0.1,      DEV1,    IR1800,
2019/04/02 - 09:26:48.781640,51.646,45.67247772216797,20.794158935546875,47.31198501586914,27.206096649169922,2.61022686958313,27.212589263916016,0,27.865617752075195,25.51300621032715,27.945098876953125,26.086376190185547,0.0,26.086376190185547,Continuous,Vdd,False,False,False,False,False,False,4320,137,PowOn,Awake,Idle,33061,33046,5,4,3,2,1,False,False,False,False,False,False,False,False,False,False,False,False,False,False,False,False,False,False,False,False,False,False,False,False,False,False,False,False,1029,192,196,1000,192,0,0,False,ReadOnly,0,0,0,0,1,V0.1,      DEV1,    IR1800,
2019/04/02 - 09:26:49.789579,52.650,45.66923141479492,20.794158935546875,47.31198501586914,27.20934295654297,2.61022686958313,27.212589263916016,0,27.881507873535156,25.51300621032715,27.945098876953125,26.092529296875,0.0,26.092529296875,Continuous,Vdd,False,False,False,False,False,False,4320,137,PowOn,Awake,Idle,33062,33047,5,4,3,2,1,False,False,False,False,False,False,False,False,False,False,False,False,False,False,False,False,False,False,False,False,False,False,False,False,False,False,False,False,1029,214,214,1000,214,0,0,False,ReadOnly,0,0,0,0,1,V0.1,      DEV1,    IR1800,
2019/04/02 - 09:26:50.794249,53.650,45.581573486328125,20.794158935546875,47.31198501586914,27.206096649169922,2.61022686958313,27.212589263916016,0,27.881507873535156,25.51300621032715,27.945098876953125,26.086376190185547,0.0,26.092529296875,Continuous,Vdd,False,False,False,False,False,False,4320,137,PowOn,Awake,Idle,33061,33046,5,4,3,2,1,False,False,False,False,False,False,False,False,False,False,False,False,False,False,False,False,False,False,False,False,False,False,False,False,False,False,False,False,1029,214,214,1000,214,0,0,False,ReadOnly,0,0,0,0,1,V0.1,      DEV1,    IR1800,
2019/04/02 - 09:26:51.777381,54.644,45.71792984008789,20.794158935546875,47.31198501586914,27.206096649169922,2.61022686958313,27.212589263916016,0,27.913288116455078,25.51300621032715,27.945098876953125,26.080224990844727,0.0,26.092529296875,Continuous,Vdd,False,False,False,False,False,False,4320,137,PowOn,Awake,Idle,33060,33048,5,4,3,2,1,False,False,False,False,False,False,False,False,False,False,False,False,False,False,False,False,False,False,False,False,False,False,False,False,False,False,False,False,1029,214,214,1000,214,0,0,False,ReadOnly,0,0,0,0,1,V0.1,      DEV1,    IR1800,
2019/04/02 - 09:26:52.801558,55.649,45.714683532714844,20.794158935546875,47.31198501586914,27.202850341796875,2.61022686958313,27.212589263916016,0,27.849699020385742,25.51300621032715,27.945098876953125,26.092529296875,0.0,26.092529296875,Continuous,Vdd,False,False,False,False,False,False,4320,137,PowOn,Awake,Idle,33062,33048,5,4,3,2,1,False,False,False,False,False,False,False,False,False,False,False,False,False,False,False,False,False,False,False,False,False,False,False,False,False,False,False,False,1029,214,214,1000,214,0,0,False,ReadOnly,0,0,0,0,1,V0.1,      DEV1,    IR1800,
2019/04/02 - 09:26:53.772254,56.647,45.49391555786133,20.794158935546875,47.31198501586914,27.1931095123291,2.61022686958313,27.212589263916016,0,27.976879119873047,25.51300621032715,27.976879119873047,26.080224990844727,0.0,26.092529296875,Continuous,Vdd,False,False,False,False,False,False,4320,137,PowOn,Awake,Idle,33060,33046,5,4,3,2,1,False,False,False,False,False,False,False,False,False,False,False,False,False,False,False,False,False,False,False,False,False,False,False,False,False,False,False,False,1029,214,214,1000,214,0,0,False,ReadOnly,0,0,0,0,1,V0.1,      DEV1,    IR1800,
2019/04/02 - 09:26:54.800712,57.646,45.76338195800781,20.794158935546875,47.31198501586914,27.1931095123291,2.61022686958313,27.212589263916016,0,27.89739990234375,25.51300621032715,27.976879119873047,26.086376190185547,0.0,26.092529296875,Continuous,Tobj,False,False,False,False,False,False,4320,137,PowOn,Awake,Idle,33061,33046,5,4,3,2,1,False,False,False,False,False,False,False,False,False,False,False,False,False,False,False,False,False,False,False,False,False,False,False,False,False,False,False,False,1029,323,323,1000,323,0,0,False,ReadOnly,0,0,0,0,1,V0.1,      DEV1,    IR1800,
2019/04/02 - 09:26:55.781989,58.647,45.623779296875,20.794158935546875,47.31198501586914,27.215835571289062,2.61022686958313,27.215835571289062,0,27.89739990234375,25.51300621032715,27.976879119873047,26.086376190185547,0.0,26.092529296875,Continuous,Tobj,False,False,False,False,False,False,4320,137,PowOn,Awake,Idle,33061,33045,5,4,3,2,1,False,False,False,False,False,False,False,False,False,False,False,False,False,False,False,False,False,False,False,False,False,False,False,False,False,False,False,False,1029,323,323,1000,323,0,0,False,ReadOnly,0,0,0,0,1,V0.1,      DEV1,    IR1800,
2019/04/02 - 09:26:56.801078,59.642,45.61079406738281,20.794158935546875,47.31198501586914,27.189863204956055,2.61022686958313,27.215835571289062,0,27.929180145263672,25.51300621032715,27.976879119873047,26.098682403564453,0.0,26.098682403564453,Continuous,Tobj,False,False,False,False,False,False,4320,137,PowOn,Awake,Idle,33063,33047,5,4,3,2,1,False,False,False,False,False,False,False,False,False,False,False,False,False,False,False,False,False,False,False,False,False,False,False,False,False,False,False,False,1029,323,323,1000,323,0,0,False,ReadOnly,0,0,0,0,1,V0.1,      DEV1,    IR1800,
2019/04/02 - 09:26:57.778134,60.646,45.698448181152344,20.794158935546875,47.31198501586914,27.206096649169922,2.61022686958313,27.215835571289062,0,27.881507873535156,25.51300621032715,27.976879119873047,26.092529296875,0.0,26.098682403564453,Continuous,Vdd,False,False,False,False,False,False,4320,137,PowOn,Awake,Idle,33062,33047,5,4,3,2,1,False,False,False,False,False,False,False,False,False,False,False,False,False,False,False,False,False,False,False,False,False,False,False,False,False,False,False,False,1029,324,324,1000,324,0,0,False,ReadOnly,0,0,0,0,1,V0.1,      DEV1,    IR1800,
2019/04/02 - 09:26:58.795118,61.645,45.60105514526367,20.794158935546875,47.31198501586914,27.1931095123291,2.61022686958313,27.215835571289062,0,27.83380889892578,25.51300621032715,27.976879119873047,26.104833602905273,0.0,26.104833602905273,Continuous,Vdd,False,False,False,False,False,False,4320,137,PowOn,Awake,Idle,33064,33048,5,4,3,2,1,False,False,False,False,False,False,False,False,False,False,False,False,False,False,False,False,False,False,False,False,False,False,False,False,False,False,False,False,1029,214,324,1000,214,0,0,False,ReadOnly,0,0,0,0,1,V0.1,      DEV1,    IR1800,
2019/04/02 - 09:26:59.791962,62.644,45.48093032836914,20.794158935546875,47.31198501586914,27.1931095123291,2.61022686958313,27.215835571289062,0,27.81791877746582,25.51300621032715,27.976879119873047,26.110986709594727,0.0,26.110986709594727,Continuous,Vdd,False,False,False,False,False,False,4320,137,PowOn,Awake,Idle,33065,33047,5,4,3,2,1,False,False,False,False,False,False,False,False,False,False,False,False,False,False,False,False,False,False,False,False,False,False,False,False,False,False,False,False,1029,215,324,1000,215,0,0,False,ReadOnly,0,0,0,0,1,V0.1,      DEV1,    IR1800,
2019/04/02 - 09:27:00.754000,63.644,45.656246185302734,20.794158935546875,47.31198501586914,27.20934295654297,2.61022686958313,27.215835571289062,0,27.89739990234375,25.51300621032715,27.976879119873047,26.092529296875,0.0,26.110986709594727,Continuous,Vdd,False,False,False,False,False,False,4320,137,PowOn,Awake,Idle,33062,33047,5,4,3,2,1,False,False,False,False,False,False,False,False,False,False,False,False,False,False,False,False,False,False,False,False,False,False,False,False,False,False,False,False,1029,214,324,1000,214,0,0,False,ReadOnly,0,0,0,0,1,V0.1,      DEV1,    IR1800,
2019/04/02 - 09:27:01.773406,64.642,45.51988983154297,20.794158935546875,47.31198501586914,27.206096649169922,2.61022686958313,27.215835571289062,0,27.865617752075195,25.51300621032715,27.976879119873047,26.104833602905273,0.0,26.110986709594727,Continuous,Vdd,False,False,False,False,False,False,4320,137,PowOn,Awake,Idle,33064,33047,5,4,3,2,1,False,False,False,False,False,False,False,False,False,False,False,False,False,False,False,False,False,False,False,False,False,False,False,False,False,False,False,False,1029,215,324,1000,215,0,0,False,ReadOnly,0,0,0,0,1,V0.1,      DEV1,    IR1800,
2019/04/02 - 09:27:02.751368,65.642,45.760135650634766,20.794158935546875,47.31198501586914,27.206096649169922,2.61022686958313,27.215835571289062,0,27.960988998413086,25.51300621032715,27.976879119873047,26.104833602905273,0.0,26.110986709594727,Continuous,Vdd,False,False,False,False,False,False,4320,137,PowOn,Awake,Idle,33064,33045,5,4,3,2,1,False,False,False,False,False,False,False,False,False,False,False,False,False,False,False,False,False,False,False,False,False,False,False,False,False,False,False,False,1029,214,324,1000,214,0,0,False,ReadOnly,0,0,0,0,1,V0.1,      DEV1,    IR1800,
2019/04/02 - 09:27:03.778595,66.643,45.71792984008789,20.794158935546875,47.31198501586914,27.1931095123291,2.61022686958313,27.215835571289062,0,27.881507873535156,25.51300621032715,27.976879119873047,26.092529296875,0.0,26.110986709594727,Continuous,Vdd,False,False,False,False,False,False,4320,137,PowOn,Awake,Idle,33062,33046,5,4,3,2,1,False,False,False,False,False,False,False,False,False,False,False,False,False,False,False,False,False,False,False,False,False,False,False,False,False,False,False,False,1029,215,324,1000,215,0,0,False,ReadOnly,0,0,0,0,1,V0.1,      DEV1,    IR1800,
2019/04/02 - 09:27:04.783293,67.643,45.62702560424805,20.794158935546875,47.31198501586914,27.206096649169922,2.61022686958313,27.215835571289062,0,27.89739990234375,25.51300621032715,27.976879119873047,26.098682403564453,0.0,26.110986709594727,Continuous,Vdd,False,False,False,False,False,False,4320,137,PowOn,Awake,Idle,33063,33047,5,4,3,2,1,False,False,False,False,False,False,False,False,False,False,False,False,False,False,False,False,False,False,False,False,False,False,False,False,False,False,False,False,1029,214,324,1000,214,0,0,False,ReadOnly,0,0,0,0,1,V0.1,      DEV1,    IR1800,
2019/04/02 - 09:27:05.776849,68.642,45.640010833740234,20.794158935546875,47.31198501586914,27.176877975463867,2.61022686958313,27.215835571289062,0,27.929180145263672,25.51300621032715,27.976879119873047,26.110986709594727,0.0,26.110986709594727,Continuous,Vdd,False,False,False,False,False,False,4320,137,PowOn,Awake,Idle,33065,33048,5,4,3,2,1,False,False,False,False,False,False,False,False,False,False,False,False,False,False,False,False,False,False,False,False,False,False,False,False,False,False,False,False,1029,215,324,1000,215,0,0,False,ReadOnly,0,0,0,0,1,V0.1,      DEV1,    IR1800,
2019/04/02 - 09:27:06.788691,69.643,45.5523567199707,20.794158935546875,47.31198501586914,27.199604034423828,2.61022686958313,27.215835571289062,0,27.929180145263672,25.51300621032715,27.976879119873047,26.104833602905273,0.0,26.110986709594727,Continuous,Vdd,False,False,False,False,False,False,4320,137,PowOn,Awake,Idle,33064,33046,5,4,3,2,1,False,False,False,False,False,False,False,False,False,False,False,False,False,False,False,False,False,False,False,False,False,False,False,False,False,False,False,False,1029,214,324,1000,214,0,0,False,ReadOnly,0,0,0,0,1,V0.1,      DEV1,    IR1800,
2019/04/02 - 09:27:07.812779,70.640,45.5523567199707,20.794158935546875,47.31198501586914,27.176877975463867,2.61022686958313,27.215835571289062,0,27.881507873535156,25.51300621032715,27.976879119873047,26.110986709594727,0.0,26.110986709594727,Continuous,Vdd,False,False,False,False,False,False,4320,137,PowOn,Awake,Idle,33065,33047,5,4,3,2,1,False,False,False,False,False,False,False,False,False,False,False,False,False,False,False,False,False,False,False,False,False,False,False,False,False,False,False,False,1029,215,324,1000,215,0,0,False,ReadOnly,0,0,0,0,1,V0.1,      DEV1,    IR1800,
2019/04/02 - 09:27:08.775048,71.634,45.6952018737793,20.794158935546875,47.31198501586914,27.202850341796875,2.61022686958313,27.215835571289062,0,27.356929779052734,25.51300621032715,27.976879119873047,26.104833602905273,0.0,26.110986709594727,Continuous,Vdd,False,False,False,False,False,False,4320,137,PowOn,Awake,Idle,33064,33047,5,4,3,2,1,False,False,False,False,False,False,False,False,False,False,False,False,False,False,False,False,False,False,False,False,False,False,False,False,False,False,False,False,1029,214,324,1000,214,0,0,False,ReadOnly,0,0,0,0,1,V0.1,      DEV1,    IR1800,
2019/04/02 - 09:27:09.774210,72.640,45.5588493347168,20.794158935546875,47.31198501586914,27.202850341796875,2.61022686958313,27.215835571289062,0,27.865617752075195,25.51300621032715,27.976879119873047,26.104833602905273,0.0,26.110986709594727,Continuous,Vdd,False,False,False,False,False,False,4320,137,PowOn,Awake,Idle,33064,33047,5,4,3,2,1,False,False,False,False,False,False,False,False,False,False,False,False,False,False,False,False,False,False,False,False,False,False,False,False,False,False,False,False,1029,214,324,1000,214,0,0,False,ReadOnly,0,0,0,0,1,V0.1,      DEV1,    IR1800,
2019/04/02 - 09:27:10.755122,73.639,45.630271911621094,20.794158935546875,47.31198501586914,27.212589263916016,2.61022686958313,27.215835571289062,0,27.881507873535156,25.51300621032715,27.976879119873047,26.104833602905273,0.0,26.110986709594727,Continuous,Vdd,False,False,False,False,False,False,4320,137,PowOn,Awake,Idle,33064,33045,5,4,3,2,1,False,False,False,False,False,False,False,False,False,False,False,False,False,False,False,False,False,False,False,False,False,False,False,False,False,False,False,False,1029,214,324,1000,214,0,0,False,ReadOnly,0,0,0,0,1,V0.1,      DEV1,    IR1800,
2019/04/02 - 09:27:11.767803,74.638,45.56858825683594,20.794158935546875,47.31198501586914,27.18337059020996,2.61022686958313,27.215835571289062,0,27.849699020385742,25.51300621032715,27.976879119873047,26.110986709594727,0.0,26.110986709594727,Continuous,Vdd,False,False,False,False,False,False,4320,137,PowOn,Awake,Idle,33065,33045,5,4,3,2,1,False,False,False,False,False,False,False,False,False,False,False,False,False,False,False,False,False,False,False,False,False,False,False,False,False,False,False,False,1029,214,324,1000,214,0,0,False,ReadOnly,0,0,0,0,1,V0.1,      DEV1,    IR1800,
2019/04/02 - 09:27:12.789888,75.639,45.617286682128906,20.794158935546875,47.31198501586914,27.18337059020996,2.61022686958313,27.215835571289062,0,27.881507873535156,25.51300621032715,27.976879119873047,26.110986709594727,0.0,26.110986709594727,Continuous,Vdd,False,False,False,False,False,False,4320,137,PowOn,Awake,Idle,33065,33046,5,4,3,2,1,False,False,False,False,False,False,False,False,False,False,False,False,False,False,False,False,False,False,False,False,False,False,False,False,False,False,False,False,1029,214,324,1000,214,0,0,False,ReadOnly,0,0,0,0,1,V0.1,      DEV1,    IR1800,
2019/04/02 - 09:27:13.757586,76.638,45.57508087158203,20.794158935546875,47.31198501586914,27.202850341796875,2.61022686958313,27.215835571289062,0,27.89739990234375,25.51300621032715,27.976879119873047,26.117137908935547,0.0,26.117137908935547,Continuous,Vdd,False,False,False,False,False,False,4320,137,PowOn,Awake,Idle,33066,33046,5,4,3,2,1,False,False,False,False,False,False,False,False,False,False,False,False,False,False,False,False,False,False,False,False,False,False,False,False,False,False,False,False,1029,214,324,1000,214,0,0,False,ReadOnly,0,0,0,0,1,V0.1,      DEV1,    IR1800,
2019/04/02 - 09:27:14.778373,77.639,45.760135650634766,20.794158935546875,47.31198501586914,27.1931095123291,2.61022686958313,27.215835571289062,0,27.881507873535156,25.51300621032715,27.976879119873047,26.104833602905273,0.0,26.117137908935547,Continuous,Vdd,False,False,False,False,False,False,4320,137,PowOn,Awake,Idle,33064,33047,5,4,3,2,1,False,False,False,False,False,False,False,False,False,False,False,False,False,False,False,False,False,False,False,False,False,False,False,False,False,False,False,False,1029,214,324,1000,214,0,0,False,ReadOnly,0,0,0,0,1,V0.1,      DEV1,    IR1800,
2019/04/02 - 09:27:15.779033,78.636,45.714683532714844,20.794158935546875,47.31198501586914,27.228822708129883,2.61022686958313,27.228822708129883,0,27.89739990234375,25.51300621032715,27.976879119873047,26.117137908935547,0.0,26.117137908935547,Continuous,Vdd,False,False,False,False,False,False,4320,137,PowOn,Awake,Idle,33066,33046,5,4,3,2,1,False,False,False,False,False,False,False,False,False,False,False,False,False,False,False,False,False,False,False,False,False,False,False,False,False,False,False,False,1029,214,324,1000,214,0,0,False,ReadOnly,0,0,0,0,1,V0.1,      DEV1,    IR1800,
2019/04/02 - 09:27:16.786196,79.638,45.6887092590332,20.794158935546875,47.31198501586914,27.206096649169922,2.61022686958313,27.228822708129883,0,27.865617752075195,25.51300621032715,27.976879119873047,26.117137908935547,0.0,26.117137908935547,Continuous,Vdd,False,False,False,False,False,False,4320,137,PowOn,Awake,Idle,33066,33045,5,4,3,2,1,False,False,False,False,False,False,False,False,False,False,False,False,False,False,False,False,False,False,False,False,False,False,False,False,False,False,False,False,1029,214,324,1000,214,0,0,False,ReadOnly,0,0,0,0,1,V0.1,      DEV1,    IR1800,
2019/04/02 - 09:27:17.777827,80.637,45.760135650634766,20.794158935546875,47.31198501586914,27.180124282836914,2.61022686958313,27.228822708129883,0,27.929180145263672,25.51300621032715,27.976879119873047,26.117137908935547,0.0,26.117137908935547,Continuous,Vdd,False,False,False,False,False,False,4320,137,PowOn,Awake,Idle,33066,33047,5,4,3,2,1,False,False,False,False,False,False,False,False,False,False,False,False,False,False,False,False,False,False,False,False,False,False,False,False,False,False,False,False,1029,214,324,1000,214,0,0,False,ReadOnly,0,0,0,0,1,V0.1,      DEV1,    IR1800,
2019/04/02 - 09:27:18.799696,81.637,45.59455871582031,20.794158935546875,47.31198501586914,27.18337059020996,2.61022686958313,27.228822708129883,0,27.945098876953125,25.51300621032715,27.976879119873047,26.117137908935547,0.0,26.117137908935547,Continuous,Vdd,False,False,False,False,False,False,4320,137,PowOn,Awake,Idle,33066,33045,5,4,3,2,1,False,False,False,False,False,False,False,False,False,False,False,False,False,False,False,False,False,False,False,False,False,False,False,False,False,False,False,False,1029,215,324,1000,215,0,0,False,ReadOnly,0,0,0,0,1,V0.1,      DEV1,    IR1800,
2019/04/02 - 09:27:19.787661,82.636,45.6952018737793,20.794158935546875,47.31198501586914,27.21908187866211,2.61022686958313,27.228822708129883,0,27.929180145263672,25.51300621032715,27.976879119873047,26.117137908935547,0.0,26.117137908935547,Continuous,Vdd,False,False,False,False,False,False,4320,137,PowOn,Awake,Idle,33066,33047,5,4,3,2,1,False,False,False,False,False,False,False,False,False,False,False,False,False,False,False,False,False,False,False,False,False,False,False,False,False,False,False,False,1029,214,324,1000,214,0,0,False,ReadOnly,0,0,0,0,1,V0.1,      DEV1,    IR1800,
2019/04/02 - 09:27:20.779999,83.637,45.734161376953125,20.794158935546875,47.31198501586914,27.17363166809082,2.61022686958313,27.228822708129883,0,27.929180145263672,25.51300621032715,27.976879119873047,26.117137908935547,0.0,26.117137908935547,Continuous,Vdd,False,False,False,False,False,False,4320,137,PowOn,Awake,Idle,33066,33045,5,4,3,2,1,False,False,False,False,False,False,False,False,False,False,False,False,False,False,False,False,False,False,False,False,False,False,False,False,False,False,False,False,1029,215,324,1000,215,0,0,False,ReadOnly,0,0,0,0,1,V0.1,      DEV1,    IR1800,
2019/04/02 - 09:27:21.772929,84.629,45.61079406738281,20.794158935546875,47.31198501586914,27.199604034423828,2.61022686958313,27.228822708129883,0,27.913288116455078,25.51300621032715,27.976879119873047,26.117137908935547,0.0,26.117137908935547,Continuous,Vdd,False,False,False,False,False,False,4320,137,PowOn,Awake,Idle,33066,33045,5,4,3,2,1,False,False,False,False,False,False,False,False,False,False,False,False,False,False,False,False,False,False,False,False,False,False,False,False,False,False,False,False,1029,214,324,1000,214,0,0,False,ReadOnly,0,0,0,0,1,V0.1,      DEV1,    IR1800,
