2019/04/02 - 09:23:26.022967 | MAIN                | App started running
2019/04/02 - 09:23:30.820026 | CommsUART           | Successfully connected to COM8.
2019/04/02 - 09:23:31.729710 | App                 | Device is Responding
