2019/04/02 - 09:35:15.509980 | MAIN                | App started running
2019/04/02 - 09:35:30.336928 | CommsUART           | Successfully connected to COM8.
2019/04/02 - 09:35:31.633564 | App                 | Device is Responding
2019/04/02 - 09:35:34.107407 | App                 | Setting ADS SampleMode: Continuous.
2019/04/02 - 09:35:45.170878 | App                 | Setting HTPA Calibration Level: Tobj.
2019/04/02 - 09:35:51.259599 | App                 | Setting HTPA Calibration Level: Vdd.
