Time,Runtime,Current3V3,Current3V3Min,Current3V3Max,CurrentHTPA,CurrentHTPAMin,CurrentHTPAMax,CurrentCubeDock3V3_1,TemperatureMCU,TemperatureMCUMin,TemperatureMCUMax,TemperatureHTPA,TemperatureHTPAMin,TemperatureHTPAMax,ADSSampleMode,HTPACalibLevel,HILEnabled,HILBusy,HILEnableEdgeDet,HILEnableLensDistCorr,HILEnablePolyFit,HILEnableAttEst,HTPADeviceID,HTPATableNumber,HtpaPowerState,HtpaWakeState,HtpaCaptureState,HtpaPTAT,HtpaVdd,HTPAImageLastMin,HTPAImageLastMean,HTPAImageLastMax,HTPAImageAllTimeMin,HTPAImageAllTimeMax,3V3OverCurrent,3V3UnderCurrent,HTPAOverCurrent,HTPAUnderCurrent,Timer1sOverRun,MCUOverTemperature,MCUUnderTemperature,HTPAOverTemperature,HTPAUnderTemperature,HTPACalibLookupOutOfRange,HTPANotResponding,HTPAConfigMismatch,HTPASpiTimeout,CommsTcSlotsBuffFull,CommsTcParamBuffFull,CommsUartProtError,CommsUartMsgIncomplete,CommsUartTcParamOverflow,UARTTxOverflow,CommsTcInvalidID,CommsTcInvalidPar,CommsTcInvalidParLen,CommsTcTimeout,CommsTlmInvalidID,UARTTxReadingEmptyBuffer,UARTRxByteOverrun,UARTRxFramingError,UartTxTimeout,SwStartupTime,SwProcessingTime,SwProcessingTimeMax,SwLoopTime,SwImgCaptureTime,SwLensDistCorrTime,SwEstimationTime,RadEnabled,RadMode,RadFaultEvents,RadLastFaultIndex,RadCurrIteration,RadCurrSeed,InterfaceVersion,FirmwareVersion,CubeIR SN,IRCAM SN,
2019/08/12 - 15:34:00.721763,75.761,46.6042366027832,20.865581512451172,47.821693420410156,27.822940826416016,2.6751580238342285,27.85215950012207,0,28.914745330810547,26.514461517333984,29.010116577148438,0.0,0.0,0.0,Idle,None,False,False,False,False,False,False,4298,137,PowOn,Awake,Idle,0,0,0,0,0,0,0,False,False,False,False,False,False,False,False,False,False,False,False,False,False,False,False,False,False,False,False,False,False,False,False,False,False,False,False,1029,0,0,1000,0,0,0,False,ReadOnly,0,0,0,0,1,V0.1,      DEV1,    IR1800,
2019/08/12 - 15:34:37.781972,112.837,46.49060821533203,20.865581512451172,47.821693420410156,27.826187133789062,2.6751580238342285,27.85215950012207,0,28.898855209350586,26.514461517333984,29.010116577148438,0.0,0.0,0.0,Idle,None,False,False,False,False,False,False,4298,137,PowOn,Awake,Idle,0,0,0,0,0,0,0,False,False,False,False,False,False,False,False,False,False,False,False,False,False,False,False,False,False,False,False,False,False,False,False,False,False,False,False,1029,0,0,1000,0,0,0,False,ReadOnly,0,0,0,0,1,V0.1,      DEV1,    IR1800,
2019/08/12 - 15:34:38.646493,113.733,46.4516487121582,20.865581512451172,47.821693420410156,27.81969451904297,2.6751580238342285,27.85215950012207,0,28.930635452270508,26.514461517333984,29.010116577148438,0.0,0.0,0.0,Idle,None,False,False,False,False,False,False,4298,137,PowOn,Awake,Idle,0,0,0,0,0,0,0,False,False,False,False,False,False,False,False,False,False,False,False,False,False,False,False,False,False,False,False,False,False,False,False,False,False,False,False,1029,0,0,1000,0,0,0,False,ReadOnly,0,0,0,0,1,V0.1,      DEV1,    IR1800,
2019/08/12 - 15:34:38.872500,113.972,46.4516487121582,20.865581512451172,47.821693420410156,27.81969451904297,2.6751580238342285,27.85215950012207,0,28.930635452270508,26.514461517333984,29.010116577148438,0.0,0.0,0.0,Idle,None,False,False,False,False,False,False,4298,137,PowOn,Awake,Idle,0,0,0,0,0,0,0,False,False,False,False,False,False,False,False,False,False,False,False,False,False,False,False,False,False,False,False,False,False,False,False,False,False,False,False,1029,0,0,1000,0,0,0,False,ReadOnly,0,0,0,0,1,V0.1,      DEV1,    IR1800,
2019/08/12 - 15:34:39.107575,114.222,46.49385452270508,20.865581512451172,47.821693420410156,27.809955596923828,2.6751580238342285,27.85215950012207,0,28.914745330810547,26.514461517333984,29.010116577148438,0.0,0.0,0.0,Idle,None,False,False,False,False,False,False,4298,137,PowOn,Awake,Idle,0,0,0,0,0,0,0,False,False,False,False,False,False,False,False,False,False,False,False,False,False,False,False,False,False,False,False,False,False,False,False,False,False,False,False,1029,0,0,1000,0,0,0,False,ReadOnly,0,0,0,0,1,V0.1,      DEV1,    IR1800,
2019/08/12 - 15:34:39.356820,114.459,46.49385452270508,20.865581512451172,47.821693420410156,27.809955596923828,2.6751580238342285,27.85215950012207,0,28.914745330810547,26.514461517333984,29.010116577148438,0.0,0.0,0.0,Idle,None,False,False,False,False,False,False,4298,137,PowOn,Awake,Idle,0,0,0,0,0,0,0,False,False,False,False,False,False,False,False,False,False,False,False,False,False,False,False,False,False,False,False,False,False,False,False,False,False,False,False,1029,0,0,1000,0,0,0,False,ReadOnly,0,0,0,0,1,V0.1,      DEV1,    IR1800,
2019/08/12 - 15:34:39.617734,114.708,46.49385452270508,20.865581512451172,47.821693420410156,27.809955596923828,2.6751580238342285,27.85215950012207,0,28.914745330810547,26.514461517333984,29.010116577148438,0.0,0.0,0.0,Idle,None,False,False,False,False,False,False,4298,137,PowOn,Awake,Idle,0,0,0,0,0,0,0,False,False,False,False,False,False,False,False,False,False,False,False,False,False,False,False,False,False,False,False,False,False,False,False,False,False,False,False,1029,0,0,1000,0,0,0,False,ReadOnly,0,0,0,0,1,V0.1,      DEV1,    IR1800,
2019/08/12 - 15:34:39.882672,114.969,46.49385452270508,20.865581512451172,47.821693420410156,27.809955596923828,2.6751580238342285,27.85215950012207,0,28.914745330810547,26.514461517333984,29.010116577148438,0.0,0.0,0.0,Idle,None,False,False,False,False,False,False,4298,137,PowOn,Awake,Idle,0,0,0,0,0,0,0,False,False,False,False,False,False,False,False,False,False,False,False,False,False,False,False,False,False,False,False,False,False,False,False,False,False,False,False,1029,0,0,1000,0,0,0,False,ReadOnly,0,0,0,0,1,V0.1,      DEV1,    IR1800,
