2019/08/12 - 16:53:00.865812 | MAIN                | App started running
2019/08/12 - 16:53:05.888320 | CommsUART           | Successfully connected to COM8.
2019/08/12 - 16:53:08.494743 | App                 | Device is Responding
2019/08/12 - 16:53:12.979201 | App                 | Attempting to download EEPROM from HTPA into *.csv.
