Time,Runtime,Current3V3,Current3V3Min,Current3V3Max,CurrentHTPA,CurrentHTPAMin,CurrentHTPAMax,CurrentCubeDock3V3_1,TemperatureMCU,TemperatureMCUMin,TemperatureMCUMax,TemperatureHTPA,TemperatureHTPAMin,TemperatureHTPAMax,ADSSampleMode,HTPACalibLevel,HILEnabled,HILBusy,HILEnableEdgeDet,HILEnableLensDistCorr,HILEnablePolyFit,HILEnableAttEst,HTPADeviceID,HTPATableNumber,HtpaPowerState,HtpaWakeState,HtpaCaptureState,HtpaPTAT,HtpaVdd,HTPAImageLastMin,HTPAImageLastMean,HTPAImageLastMax,HTPAImageAllTimeMin,HTPAImageAllTimeMax,3V3OverCurrent,3V3UnderCurrent,HTPAOverCurrent,HTPAUnderCurrent,Timer1sOverRun,MCUOverTemperature,MCUUnderTemperature,HTPAOverTemperature,HTPAUnderTemperature,HTPACalibLookupOutOfRange,HTPANotResponding,HTPAConfigMismatch,HTPASpiTimeout,CommsTcSlotsBuffFull,CommsTcParamBuffFull,CommsUartProtError,CommsUartMsgIncomplete,CommsUartTcParamOverflow,UARTTxOverflow,CommsTcInvalidID,CommsTcInvalidPar,CommsTcInvalidParLen,CommsTcTimeout,CommsTlmInvalidID,UARTTxReadingEmptyBuffer,UARTRxByteOverrun,UARTRxFramingError,UartTxTimeout,SwStartupTime,SwProcessingTime,SwProcessingTimeMax,SwLoopTime,SwImgCaptureTime,SwLensDistCorrTime,SwEstimationTime,RadEnabled,RadMode,RadFaultEvents,RadLastFaultIndex,RadCurrIteration,RadCurrSeed,InterfaceVersion,FirmwareVersion,CubeIR SN,IRCAM SN,
2019/04/04 - 13:41:29.550495,31.503,45.32834243774414,18.891679763793945,46.325035095214844,27.287260055541992,2.4901044368743896,27.306739807128906,0,28.565017700195312,27.16619110107422,28.64449691772461,27.052465438842773,0.0,27.052465438842773,Continuous,None,False,False,False,False,False,False,4320,137,PowOn,Awake,Idle,33218,33022,0,0,0,0,0,False,False,False,False,False,False,False,False,False,False,False,False,False,False,False,False,False,False,False,False,False,False,False,False,False,False,False,False,293,207,211,1000,15,0,0,False,ReadOnly,0,0,0,0,1,V0.1,      DEV1,    IR1800,
2019/04/04 - 13:41:32.102438,34.98,45.37379455566406,18.891679763793945,46.325035095214844,27.296998977661133,2.4901044368743896,27.306739807128906,0,28.565017700195312,27.16619110107422,28.64449691772461,27.046314239501953,0.0,27.052465438842773,Continuous,None,False,False,False,False,False,False,4320,137,PowOn,Awake,Idle,33217,33021,0,0,0,0,0,False,False,False,False,False,False,False,False,False,False,False,False,False,False,False,False,False,False,False,False,False,False,False,False,False,False,False,False,293,0,211,1000,15,0,0,False,ReadOnly,0,0,0,0,1,V0.1,      DEV1,    IR1800,
2019/04/04 - 13:41:32.187430,34.207,45.37379455566406,18.891679763793945,46.325035095214844,27.296998977661133,2.4901044368743896,27.306739807128906,0,28.565017700195312,27.16619110107422,28.64449691772461,27.046314239501953,0.0,27.052465438842773,Continuous,None,False,False,False,False,False,False,4320,137,PowOn,Awake,Idle,33217,33021,0,0,0,0,0,False,False,False,False,False,False,False,False,False,False,False,False,False,False,False,False,False,False,False,False,False,False,False,False,False,False,False,False,293,0,211,1000,15,0,0,False,ReadOnly,0,0,0,0,1,V0.1,      DEV1,    IR1800,
2019/04/04 - 13:41:32.511934,34.505,45.37379455566406,18.891679763793945,46.325035095214844,27.296998977661133,2.4901044368743896,27.306739807128906,0,28.565017700195312,27.16619110107422,28.64449691772461,27.046314239501953,0.0,27.052465438842773,Continuous,None,False,False,False,False,False,False,4320,137,PowOn,Awake,Idle,33217,33021,0,0,0,0,0,False,False,False,False,False,False,False,False,False,False,False,False,False,False,False,False,False,False,False,False,False,False,False,False,False,False,False,False,293,0,211,1000,15,0,0,False,ReadOnly,0,0,0,0,1,V0.1,      DEV1,    IR1800,
2019/04/04 - 13:41:33.487661,35.505,45.46145248413086,18.891679763793945,46.325035095214844,27.32621955871582,2.4901044368743896,27.32621955871582,0,28.612716674804688,27.16619110107422,28.64449691772461,27.058618545532227,0.0,27.058618545532227,Continuous,None,False,False,False,False,False,False,4320,137,PowOn,Awake,Idle,33219,33020,0,0,0,0,0,False,False,False,False,False,False,False,False,False,False,False,False,False,False,False,False,False,False,False,False,False,False,False,False,False,False,False,False,293,206,211,1000,15,0,0,False,ReadOnly,0,0,0,0,1,V0.1,      DEV1,    IR1800,
2019/04/04 - 13:41:36.082399,38.86,45.393272399902344,18.891679763793945,46.325035095214844,27.30024528503418,2.4901044368743896,27.32621955871582,0,28.64449691772461,27.16619110107422,28.64449691772461,27.070947647094727,0.0,27.070947647094727,Continuous,None,False,False,False,False,False,False,4320,137,PowOn,Awake,Idle,33221,33022,0,0,0,0,0,False,False,False,False,False,False,False,False,False,False,False,False,False,False,False,False,False,False,False,False,False,False,False,False,False,False,False,False,293,0,211,1000,15,0,0,False,ReadOnly,0,0,0,0,1,V0.1,      DEV1,    IR1800,
2019/04/04 - 13:41:36.167381,38.185,45.393272399902344,18.891679763793945,46.325035095214844,27.30024528503418,2.4901044368743896,27.32621955871582,0,28.64449691772461,27.16619110107422,28.64449691772461,27.070947647094727,0.0,27.070947647094727,Continuous,None,False,False,False,False,False,False,4320,137,PowOn,Awake,Idle,33221,33022,0,0,0,0,0,False,False,False,False,False,False,False,False,False,False,False,False,False,False,False,False,False,False,False,False,False,False,False,False,False,False,False,False,293,0,211,1000,15,0,0,False,ReadOnly,0,0,0,0,1,V0.1,      DEV1,    IR1800,
2019/04/04 - 13:41:36.517918,38.500,45.393272399902344,18.891679763793945,46.325035095214844,27.30024528503418,2.4901044368743896,27.32621955871582,0,28.64449691772461,27.16619110107422,28.64449691772461,27.070947647094727,0.0,27.070947647094727,Continuous,None,False,False,False,False,False,False,4320,137,PowOn,Awake,Idle,33221,33022,0,0,0,0,0,False,False,False,False,False,False,False,False,False,False,False,False,False,False,False,False,False,False,False,False,False,False,False,False,False,False,False,False,293,0,211,1000,15,0,0,False,ReadOnly,0,0,0,0,1,V0.1,      DEV1,    IR1800,
2019/04/04 - 13:41:37.508263,39.504,45.409507751464844,18.891679763793945,46.325035095214844,27.316478729248047,2.4901044368743896,27.32621955871582,0,28.580936431884766,27.16619110107422,28.64449691772461,27.070947647094727,0.0,27.070947647094727,Continuous,None,False,False,False,False,False,False,4320,137,PowOn,Awake,Idle,33221,33020,0,0,0,0,0,False,False,False,False,False,False,False,False,False,False,False,False,False,False,False,False,False,False,False,False,False,False,False,False,False,False,False,False,293,206,211,1000,15,0,0,False,ReadOnly,0,0,0,0,1,V0.1,      DEV1,    IR1800,
2019/04/04 - 13:41:39.546466,41.551,45.419246673583984,18.891679763793945,46.325035095214844,27.287260055541992,2.4901044368743896,27.32621955871582,0,28.612716674804688,27.16619110107422,28.72397804260254,27.070947647094727,0.0,27.070947647094727,Continuous,None,False,False,False,False,False,False,4320,137,PowOn,Awake,Idle,33221,33020,0,0,0,0,0,False,False,False,False,False,False,False,False,False,False,False,False,False,False,False,False,False,False,False,False,False,False,False,False,False,False,False,False,293,0,211,1000,15,0,0,False,ReadOnly,0,0,0,0,1,V0.1,      DEV1,    IR1800,
2019/04/04 - 13:41:39.623548,41.649,45.419246673583984,18.891679763793945,46.325035095214844,27.287260055541992,2.4901044368743896,27.32621955871582,0,28.612716674804688,27.16619110107422,28.72397804260254,27.070947647094727,0.0,27.070947647094727,Continuous,None,False,False,False,False,False,False,4320,137,PowOn,Awake,Idle,33221,33020,0,0,0,0,0,False,False,False,False,False,False,False,False,False,False,False,False,False,False,False,False,False,False,False,False,False,False,False,False,False,False,False,False,293,0,211,1000,15,0,0,False,ReadOnly,0,0,0,0,1,V0.1,      DEV1,    IR1800,
2019/04/04 - 13:41:40.475018,42.502,45.38677978515625,18.891679763793945,46.325035095214844,27.29050636291504,2.4901044368743896,27.32621955871582,0,28.64449691772461,27.16619110107422,28.72397804260254,27.064769744873047,0.0,27.070947647094727,Continuous,None,False,False,False,False,False,False,4320,137,PowOn,Awake,Idle,33220,33020,0,0,0,0,0,False,False,False,False,False,False,False,False,False,False,False,False,False,False,False,False,False,False,False,False,False,False,False,False,False,False,False,False,293,207,211,1000,15,0,0,False,ReadOnly,0,0,0,0,1,V0.1,      DEV1,    IR1800,
2019/04/04 - 13:41:41.479423,43.501,45.3835334777832,18.891679763793945,46.325035095214844,27.296998977661133,2.4901044368743896,27.32621955871582,0,28.62860679626465,27.16619110107422,28.72397804260254,27.064769744873047,0.0,27.070947647094727,Continuous,None,False,False,False,False,False,False,4320,137,PowOn,Awake,Idle,33220,33023,0,0,0,0,0,False,False,False,False,False,False,False,False,False,False,False,False,False,False,False,False,False,False,False,False,False,False,False,False,False,False,False,False,293,207,211,1000,15,0,0,False,ReadOnly,0,0,0,0,1,V0.1,      DEV1,    IR1800,
2019/04/04 - 13:41:42.494371,44.498,45.33808135986328,18.891679763793945,46.325035095214844,27.271026611328125,2.4901044368743896,27.32621955871582,0,28.676305770874023,27.16619110107422,28.72397804260254,27.052465438842773,0.0,27.070947647094727,Continuous,None,False,False,False,False,False,False,4320,137,PowOn,Awake,Idle,33218,33020,0,0,0,0,0,False,False,False,False,False,False,False,False,False,False,False,False,False,False,False,False,False,False,False,False,False,False,False,False,False,False,False,False,293,207,211,1000,15,0,0,False,ReadOnly,0,0,0,0,1,V0.1,      DEV1,    IR1800,
2019/04/04 - 13:41:43.496246,45.499,45.44846725463867,18.891679763793945,46.325035095214844,27.296998977661133,2.4901044368743896,27.32621955871582,0,28.612716674804688,27.16619110107422,28.72397804260254,27.064769744873047,0.0,27.070947647094727,Continuous,None,False,False,False,False,False,False,4320,137,PowOn,Awake,Idle,33220,33021,0,0,0,0,0,False,False,False,False,False,False,False,False,False,False,False,False,False,False,False,False,False,False,False,False,False,False,False,False,False,False,False,False,293,207,211,1000,15,0,0,False,ReadOnly,0,0,0,0,1,V0.1,      DEV1,    IR1800,
2019/04/04 - 13:41:44.473558,46.493,45.36405563354492,18.891679763793945,46.325035095214844,27.287260055541992,2.4901044368743896,27.32621955871582,0,28.64449691772461,27.16619110107422,28.72397804260254,27.070947647094727,0.0,27.070947647094727,Continuous,None,False,False,False,False,False,False,4320,137,PowOn,Awake,Idle,33221,33022,0,0,0,0,0,False,False,False,False,False,False,False,False,False,False,False,False,False,False,False,False,False,False,False,False,False,False,False,False,False,False,False,False,293,207,211,1000,15,0,0,False,ReadOnly,0,0,0,0,1,V0.1,      DEV1,    IR1800,
2019/04/04 - 13:41:46.402769,48.374,45.438724517822266,18.891679763793945,46.325035095214844,27.287260055541992,2.4901044368743896,27.32621955871582,0,28.660415649414062,27.16619110107422,28.72397804260254,27.070947647094727,0.0,27.070947647094727,Continuous,None,False,False,False,False,False,False,4320,137,PowOn,Awake,Idle,33221,33022,0,0,0,0,0,False,False,False,False,False,False,False,False,False,False,False,False,False,False,False,False,False,False,False,False,False,False,False,False,False,False,False,False,293,0,211,1000,15,0,0,False,ReadOnly,0,0,0,0,1,V0.1,      DEV1,    IR1800,
2019/04/04 - 13:41:46.489731,48.508,45.438724517822266,18.891679763793945,46.325035095214844,27.287260055541992,2.4901044368743896,27.32621955871582,0,28.660415649414062,27.16619110107422,28.72397804260254,27.070947647094727,0.0,27.070947647094727,Continuous,None,False,False,False,False,False,False,4320,137,PowOn,Awake,Idle,33221,33022,0,0,0,0,0,False,False,False,False,False,False,False,False,False,False,False,False,False,False,False,False,False,False,False,False,False,False,False,False,False,False,False,False,293,0,211,1000,15,0,0,False,ReadOnly,0,0,0,0,1,V0.1,      DEV1,    IR1800,
2019/04/04 - 13:41:47.495217,49.496,45.334835052490234,18.891679763793945,46.325035095214844,27.287260055541992,2.4901044368743896,27.32621955871582,0,28.660415649414062,27.16619110107422,28.72397804260254,27.070947647094727,0.0,27.070947647094727,Continuous,None,False,False,False,False,False,False,4320,137,PowOn,Awake,Idle,33221,33024,0,0,0,0,0,False,False,False,False,False,False,False,False,False,False,False,False,False,False,False,False,False,False,False,False,False,False,False,False,False,False,False,False,293,207,211,1000,15,0,0,False,ReadOnly,0,0,0,0,1,V0.1,      DEV1,    IR1800,
2019/04/04 - 13:41:48.481545,50.498,45.3997688293457,18.891679763793945,46.325035095214844,27.2807674407959,2.4901044368743896,27.32621955871582,0,28.612716674804688,27.16619110107422,28.72397804260254,27.070947647094727,0.0,27.070947647094727,Continuous,None,False,False,False,False,False,False,4320,137,PowOn,Awake,Idle,33221,33020,0,0,0,0,0,False,False,False,False,False,False,False,False,False,False,False,False,False,False,False,False,False,False,False,False,False,False,False,False,False,False,False,False,293,207,211,1000,15,0,0,False,ReadOnly,0,0,0,0,1,V0.1,      DEV1,    IR1800,
2019/04/04 - 13:41:49.493912,51.500,45.370548248291016,18.891679763793945,46.325035095214844,27.27752113342285,2.4901044368743896,27.32621955871582,0,28.612716674804688,27.16619110107422,28.72397804260254,27.064769744873047,0.0,27.070947647094727,Continuous,None,False,False,False,False,False,False,4320,137,PowOn,Awake,Idle,33220,33020,0,0,0,0,0,False,False,False,False,False,False,False,False,False,False,False,False,False,False,False,False,False,False,False,False,False,False,False,False,False,False,False,False,293,207,211,1000,15,0,0,False,ReadOnly,0,0,0,0,1,V0.1,      DEV1,    IR1800,
2019/04/04 - 13:41:50.500474,52.498,45.48093032836914,18.891679763793945,46.325035095214844,27.2807674407959,2.4901044368743896,27.32621955871582,0,28.596826553344727,27.16619110107422,28.72397804260254,27.070947647094727,0.0,27.070947647094727,Continuous,None,False,False,False,False,False,False,4320,137,PowOn,Awake,Idle,33221,33022,0,0,0,0,0,False,False,False,False,False,False,False,False,False,False,False,False,False,False,False,False,False,False,False,False,False,False,False,False,False,False,False,False,293,207,211,1000,15,0,0,False,ReadOnly,0,0,0,0,1,V0.1,      DEV1,    IR1800,
2019/04/04 - 13:41:51.519964,53.491,45.42249298095703,18.891679763793945,46.325035095214844,27.261287689208984,2.4901044368743896,27.32621955871582,0,28.72397804260254,27.16619110107422,28.72397804260254,27.058618545532227,0.0,27.070947647094727,Continuous,None,False,False,False,False,False,False,4320,137,PowOn,Awake,Idle,33219,33021,0,0,0,0,0,False,False,False,False,False,False,False,False,False,False,False,False,False,False,False,False,False,False,False,False,False,False,False,False,False,False,False,False,293,207,211,1000,15,0,0,False,ReadOnly,0,0,0,0,1,V0.1,      DEV1,    IR1800,
2019/04/04 - 13:41:52.501301,54.496,45.351070404052734,18.891679763793945,46.325035095214844,27.293752670288086,2.4901044368743896,27.32621955871582,0,28.62860679626465,27.16619110107422,28.72397804260254,27.064769744873047,0.0,27.070947647094727,Continuous,None,False,False,False,False,False,False,4320,137,PowOn,Awake,Idle,33220,33022,0,0,0,0,0,False,False,False,False,False,False,False,False,False,False,False,False,False,False,False,False,False,False,False,False,False,False,False,False,False,False,False,False,293,206,211,1000,14,0,0,False,ReadOnly,0,0,0,0,1,V0.1,      DEV1,    IR1800,
2019/04/04 - 13:41:53.499940,55.490,45.37379455566406,18.891679763793945,46.325035095214844,27.309986114501953,2.4901044368743896,27.32621955871582,0,28.580936431884766,27.16619110107422,28.72397804260254,27.058618545532227,0.0,27.070947647094727,Continuous,None,False,False,False,False,False,False,4320,137,PowOn,Awake,Idle,33219,33022,0,0,0,0,0,False,False,False,False,False,False,False,False,False,False,False,False,False,False,False,False,False,False,False,False,False,False,False,False,False,False,False,False,293,207,211,1000,15,0,0,False,ReadOnly,0,0,0,0,1,V0.1,      DEV1,    IR1800,
2019/04/04 - 13:41:54.529031,56.501,45.312110900878906,18.891679763793945,46.325035095214844,27.293752670288086,2.4901044368743896,27.32621955871582,0,28.64449691772461,27.16619110107422,28.72397804260254,27.058618545532227,0.0,27.070947647094727,Continuous,None,False,False,False,False,False,False,4320,137,PowOn,Awake,Idle,33219,33021,0,0,0,0,0,False,False,False,False,False,False,False,False,False,False,False,False,False,False,False,False,False,False,False,False,False,False,False,False,False,False,False,False,293,206,211,1000,15,0,0,False,ReadOnly,0,0,0,0,1,V0.1,      DEV1,    IR1800,
2019/04/04 - 13:41:55.503362,57.493,45.370548248291016,18.891679763793945,46.325035095214844,27.306739807128906,2.4901044368743896,27.32621955871582,0,28.51734733581543,27.16619110107422,28.72397804260254,27.064769744873047,0.0,27.070947647094727,Continuous,None,False,False,False,False,False,False,4320,137,PowOn,Awake,Idle,33220,33020,0,0,0,0,0,False,False,False,False,False,False,False,False,False,False,False,False,False,False,False,False,False,False,False,False,False,False,False,False,False,False,False,False,293,207,211,1000,15,0,0,False,ReadOnly,0,0,0,0,1,V0.1,      DEV1,    IR1800,
2019/04/04 - 13:41:56.485491,58.490,45.49391555786133,18.891679763793945,46.325035095214844,27.296998977661133,2.4901044368743896,27.32621955871582,0,28.596826553344727,27.16619110107422,28.72397804260254,27.070947647094727,0.0,27.070947647094727,Continuous,None,False,False,False,False,False,False,4320,137,PowOn,Awake,Idle,33221,33023,0,0,0,0,0,False,False,False,False,False,False,False,False,False,False,False,False,False,False,False,False,False,False,False,False,False,False,False,False,False,False,False,False,293,206,211,1000,15,0,0,False,ReadOnly,0,0,0,0,1,V0.1,      DEV1,    IR1800,
2019/04/04 - 13:41:57.508785,59.489,45.45171356201172,18.891679763793945,46.325035095214844,27.287260055541992,2.4901044368743896,27.32621955871582,0,28.62860679626465,27.16619110107422,28.72397804260254,27.077098846435547,0.0,27.077098846435547,Continuous,None,False,False,False,False,False,False,4320,137,PowOn,Awake,Idle,33222,33023,0,0,0,0,0,False,False,False,False,False,False,False,False,False,False,False,False,False,False,False,False,False,False,False,False,False,False,False,False,False,False,False,False,293,207,211,1000,15,0,0,False,ReadOnly,0,0,0,0,1,V0.1,      DEV1,    IR1800,
2019/04/04 - 13:41:58.494462,60.488,45.42573928833008,18.891679763793945,46.325035095214844,27.274272918701172,2.4901044368743896,27.32621955871582,0,28.612716674804688,27.16619110107422,28.72397804260254,27.070947647094727,0.0,27.077098846435547,Continuous,None,False,False,False,False,False,False,4320,137,PowOn,Awake,Idle,33221,33019,0,0,0,0,0,False,False,False,False,False,False,False,False,False,False,False,False,False,False,False,False,False,False,False,False,False,False,False,False,False,False,False,False,293,207,211,1000,15,0,0,False,ReadOnly,0,0,0,0,1,V0.1,      DEV1,    IR1800,
2019/04/04 - 13:41:59.525714,61.496,45.409507751464844,18.891679763793945,46.325035095214844,27.287260055541992,2.4901044368743896,27.32621955871582,0,28.660415649414062,27.16619110107422,28.72397804260254,27.058618545532227,0.0,27.077098846435547,Continuous,None,False,False,False,False,False,False,4320,137,PowOn,Awake,Idle,33219,33022,0,0,0,0,0,False,False,False,False,False,False,False,False,False,False,False,False,False,False,False,False,False,False,False,False,False,False,False,False,False,False,False,False,293,207,211,1000,15,0,0,False,ReadOnly,0,0,0,0,1,V0.1,      DEV1,    IR1800,
2019/04/04 - 13:42:00.504248,62.492,45.41600036621094,18.891679763793945,46.325035095214844,27.30024528503418,2.4901044368743896,27.32621955871582,0,28.660415649414062,27.16619110107422,28.72397804260254,27.064769744873047,0.0,27.077098846435547,Continuous,None,False,False,False,False,False,False,4320,137,PowOn,Awake,Idle,33220,33022,0,0,0,0,0,False,False,False,False,False,False,False,False,False,False,False,False,False,False,False,False,False,False,False,False,False,False,False,False,False,False,False,False,293,207,211,1000,15,0,0,False,ReadOnly,0,0,0,0,1,V0.1,      DEV1,    IR1800,
2019/04/04 - 13:42:01.522686,63.495,45.38677978515625,18.891679763793945,46.325035095214844,27.284013748168945,2.4901044368743896,27.32621955871582,0,28.596826553344727,27.16619110107422,28.72397804260254,27.070947647094727,0.0,27.077098846435547,Continuous,None,False,False,False,False,False,False,4320,137,PowOn,Awake,Idle,33221,33021,0,0,0,0,0,False,False,False,False,False,False,False,False,False,False,False,False,False,False,False,False,False,False,False,False,False,False,False,False,False,False,False,False,293,207,211,1000,15,0,0,False,ReadOnly,0,0,0,0,1,V0.1,      DEV1,    IR1800,
2019/04/04 - 13:42:02.499571,64.491,45.532875061035156,18.891679763793945,46.325035095214844,27.274272918701172,2.4901044368743896,27.32621955871582,0,28.660415649414062,27.16619110107422,28.72397804260254,27.077098846435547,0.0,27.077098846435547,Continuous,None,False,False,False,False,False,False,4320,137,PowOn,Awake,Idle,33222,33022,0,0,0,0,0,False,False,False,False,False,False,False,False,False,False,False,False,False,False,False,False,False,False,False,False,False,False,False,False,False,False,False,False,293,207,211,1000,15,0,0,False,ReadOnly,0,0,0,0,1,V0.1,      DEV1,    IR1800,
2019/04/04 - 13:42:03.497318,65.489,45.44846725463867,18.891679763793945,46.325035095214844,27.267780303955078,2.4901044368743896,27.32621955871582,0,28.54912757873535,27.16619110107422,28.72397804260254,27.070947647094727,0.0,27.077098846435547,Continuous,None,False,False,False,False,False,False,4320,137,PowOn,Awake,Idle,33221,33020,0,0,0,0,0,False,False,False,False,False,False,False,False,False,False,False,False,False,False,False,False,False,False,False,False,False,False,False,False,False,False,False,False,293,207,211,1000,15,0,0,False,ReadOnly,0,0,0,0,1,V0.1,      DEV1,    IR1800,
2019/04/04 - 13:42:04.522567,66.491,45.360809326171875,18.891679763793945,46.325035095214844,27.287260055541992,2.4901044368743896,27.32621955871582,0,28.708086013793945,27.16619110107422,28.72397804260254,27.064769744873047,0.0,27.077098846435547,Continuous,None,False,False,False,False,False,False,4320,137,PowOn,Awake,Idle,33220,33023,0,0,0,0,0,False,False,False,False,False,False,False,False,False,False,False,False,False,False,False,False,False,False,False,False,False,False,False,False,False,False,False,False,293,207,211,1000,15,0,0,False,ReadOnly,0,0,0,0,1,V0.1,      DEV1,    IR1800,
2019/04/04 - 13:42:05.514068,67.496,45.34782409667969,18.891679763793945,46.325035095214844,27.29050636291504,2.4901044368743896,27.32621955871582,0,28.580936431884766,27.16619110107422,28.72397804260254,27.070947647094727,0.0,27.077098846435547,Continuous,None,False,False,False,False,False,False,4320,137,PowOn,Awake,Idle,33221,33020,0,0,0,0,0,False,False,False,False,False,False,False,False,False,False,False,False,False,False,False,False,False,False,False,False,False,False,False,False,False,False,False,False,293,207,211,1000,15,0,0,False,ReadOnly,0,0,0,0,1,V0.1,      DEV1,    IR1800,
2019/04/04 - 13:42:06.516472,68.486,45.47119140625,18.891679763793945,46.325035095214844,27.287260055541992,2.4901044368743896,27.32621955871582,0,28.51734733581543,27.16619110107422,28.72397804260254,27.077098846435547,0.0,27.077098846435547,Continuous,None,False,False,False,False,False,False,4320,137,PowOn,Awake,Idle,33222,33021,0,0,0,0,0,False,False,False,False,False,False,False,False,False,False,False,False,False,False,False,False,False,False,False,False,False,False,False,False,False,False,False,False,293,207,211,1000,15,0,0,False,ReadOnly,0,0,0,0,1,V0.1,      DEV1,    IR1800,
2019/04/04 - 13:42:07.520645,69.485,45.370548248291016,18.891679763793945,46.325035095214844,27.293752670288086,2.4901044368743896,27.32621955871582,0,28.54912757873535,27.16619110107422,28.72397804260254,27.064769744873047,0.0,27.077098846435547,Continuous,None,False,False,False,False,False,False,4320,137,PowOn,Awake,Idle,33220,33022,0,0,0,0,0,False,False,False,False,False,False,False,False,False,False,False,False,False,False,False,False,False,False,False,False,False,False,False,False,False,False,False,False,293,207,211,1000,15,0,0,False,ReadOnly,0,0,0,0,1,V0.1,      DEV1,    IR1800,
2019/04/04 - 13:42:08.504125,70.487,45.44521713256836,18.891679763793945,46.325035095214844,27.284013748168945,2.4901044368743896,27.32621955871582,0,28.660415649414062,27.16619110107422,28.72397804260254,27.070947647094727,0.0,27.077098846435547,Continuous,None,False,False,False,False,False,False,4320,137,PowOn,Awake,Idle,33221,33021,0,0,0,0,0,False,False,False,False,False,False,False,False,False,False,False,False,False,False,False,False,False,False,False,False,False,False,False,False,False,False,False,False,293,207,211,1000,15,0,0,False,ReadOnly,0,0,0,0,1,V0.1,      DEV1,    IR1800,
2019/04/04 - 13:42:09.522757,71.486,45.532875061035156,18.891679763793945,46.325035095214844,27.274272918701172,2.4901044368743896,27.32621955871582,0,28.692195892333984,27.16619110107422,28.72397804260254,27.070947647094727,0.0,27.077098846435547,Continuous,None,False,False,False,False,False,False,4320,137,PowOn,Awake,Idle,33221,33022,0,0,0,0,0,False,False,False,False,False,False,False,False,False,False,False,False,False,False,False,False,False,False,False,False,False,False,False,False,False,False,False,False,293,207,211,1000,15,0,0,False,ReadOnly,0,0,0,0,1,V0.1,      DEV1,    IR1800,
2019/04/04 - 13:42:10.501964,72.483,45.3900260925293,18.891679763793945,46.325035095214844,27.287260055541992,2.4901044368743896,27.32621955871582,0,28.612716674804688,27.16619110107422,28.72397804260254,27.070947647094727,0.0,27.077098846435547,Continuous,None,False,False,False,False,False,False,4320,137,PowOn,Awake,Idle,33221,33022,0,0,0,0,0,False,False,False,False,False,False,False,False,False,False,False,False,False,False,False,False,False,False,False,False,False,False,False,False,False,False,False,False,293,207,211,1000,15,0,0,False,ReadOnly,0,0,0,0,1,V0.1,      DEV1,    IR1800,
2019/04/04 - 13:42:11.500181,73.484,45.312110900878906,18.891679763793945,46.325035095214844,27.284013748168945,2.4901044368743896,27.32621955871582,0,28.596826553344727,27.16619110107422,28.72397804260254,27.070947647094727,0.0,27.077098846435547,Continuous,None,False,False,False,False,False,False,4320,137,PowOn,Awake,Idle,33221,33020,0,0,0,0,0,False,False,False,False,False,False,False,False,False,False,False,False,False,False,False,False,False,False,False,False,False,False,False,False,False,False,False,False,293,206,211,1000,14,0,0,False,ReadOnly,0,0,0,0,1,V0.1,      DEV1,    IR1800,
2019/04/04 - 13:42:12.525009,74.489,45.34782409667969,18.891679763793945,46.325035095214844,27.293752670288086,2.4901044368743896,27.32621955871582,0,28.580936431884766,27.16619110107422,28.72397804260254,27.077098846435547,0.0,27.077098846435547,Continuous,None,False,False,False,False,False,False,4320,137,PowOn,Awake,Idle,33222,33019,0,0,0,0,0,False,False,False,False,False,False,False,False,False,False,False,False,False,False,False,False,False,False,False,False,False,False,False,False,False,False,False,False,293,207,211,1000,15,0,0,False,ReadOnly,0,0,0,0,1,V0.1,      DEV1,    IR1800,
2019/04/04 - 13:42:13.505277,75.485,45.41600036621094,18.891679763793945,46.325035095214844,27.284013748168945,2.4901044368743896,27.32621955871582,0,28.596826553344727,27.16619110107422,28.72397804260254,27.070947647094727,0.0,27.077098846435547,Continuous,None,False,False,False,False,False,False,4320,137,PowOn,Awake,Idle,33221,33022,0,0,0,0,0,False,False,False,False,False,False,False,False,False,False,False,False,False,False,False,False,False,False,False,False,False,False,False,False,False,False,False,False,293,206,211,1000,15,0,0,False,ReadOnly,0,0,0,0,1,V0.1,      DEV1,    IR1800,
2019/04/04 - 13:42:14.507758,76.486,45.3997688293457,18.891679763793945,46.325035095214844,27.287260055541992,2.4901044368743896,27.32621955871582,0,28.612716674804688,27.16619110107422,28.72397804260254,27.077098846435547,0.0,27.077098846435547,Continuous,None,False,False,False,False,False,False,4320,137,PowOn,Awake,Idle,33222,33021,0,0,0,0,0,False,False,False,False,False,False,False,False,False,False,False,False,False,False,False,False,False,False,False,False,False,False,False,False,False,False,False,False,293,207,211,1000,15,0,0,False,ReadOnly,0,0,0,0,1,V0.1,      DEV1,    IR1800,
2019/04/04 - 13:42:15.511291,77.487,45.36405563354492,18.891679763793945,46.325035095214844,27.296998977661133,2.4901044368743896,27.32621955871582,0,28.612716674804688,27.16619110107422,28.72397804260254,27.077098846435547,0.0,27.077098846435547,Continuous,None,False,False,False,False,False,False,4320,137,PowOn,Awake,Idle,33222,33020,0,0,0,0,0,False,False,False,False,False,False,False,False,False,False,False,False,False,False,False,False,False,False,False,False,False,False,False,False,False,False,False,False,293,206,211,1000,15,0,0,False,ReadOnly,0,0,0,0,1,V0.1,      DEV1,    IR1800,
2019/04/04 - 13:42:16.521796,78.485,45.46145248413086,18.891679763793945,46.325035095214844,27.313232421875,2.4901044368743896,27.32621955871582,0,28.612716674804688,27.16619110107422,28.72397804260254,27.077098846435547,0.0,27.077098846435547,Continuous,None,False,False,False,False,False,False,4320,137,PowOn,Awake,Idle,33222,33020,0,0,0,0,0,False,False,False,False,False,False,False,False,False,False,False,False,False,False,False,False,False,False,False,False,False,False,False,False,False,False,False,False,293,207,211,1000,15,0,0,False,ReadOnly,0,0,0,0,1,V0.1,      DEV1,    IR1800,
2019/04/04 - 13:42:17.505619,79.480,45.44521713256836,18.891679763793945,46.325035095214844,27.29050636291504,2.4901044368743896,27.32621955871582,0,28.596826553344727,27.16619110107422,28.72397804260254,27.077098846435547,0.0,27.077098846435547,Continuous,None,False,False,False,False,False,False,4320,137,PowOn,Awake,Idle,33222,33018,0,0,0,0,0,False,False,False,False,False,False,False,False,False,False,False,False,False,False,False,False,False,False,False,False,False,False,False,False,False,False,False,False,293,206,211,1000,15,0,0,False,ReadOnly,0,0,0,0,1,V0.1,      DEV1,    IR1800,
2019/04/04 - 13:42:18.485328,80.480,45.3997688293457,18.891679763793945,46.325035095214844,27.293752670288086,2.4901044368743896,27.32621955871582,0,28.64449691772461,27.16619110107422,28.72397804260254,27.083251953125,0.0,27.083251953125,Continuous,None,False,False,False,False,False,False,4320,137,PowOn,Awake,Idle,33223,33021,0,0,0,0,0,False,False,False,False,False,False,False,False,False,False,False,False,False,False,False,False,False,False,False,False,False,False,False,False,False,False,False,False,293,207,211,1000,15,0,0,False,ReadOnly,0,0,0,0,1,V0.1,      DEV1,    IR1800,
2019/04/04 - 13:42:19.490326,81.477,45.41275405883789,18.891679763793945,46.325035095214844,27.271026611328125,2.4901044368743896,27.32621955871582,0,28.64449691772461,27.16619110107422,28.72397804260254,27.070947647094727,0.0,27.083251953125,Continuous,None,False,False,False,False,False,False,4320,137,PowOn,Awake,Idle,33221,33022,0,0,0,0,0,False,False,False,False,False,False,False,False,False,False,False,False,False,False,False,False,False,False,False,False,False,False,False,False,False,False,False,False,293,207,211,1000,15,0,0,False,ReadOnly,0,0,0,0,1,V0.1,      DEV1,    IR1800,
2019/04/04 - 13:42:20.496667,82.484,45.41275405883789,18.891679763793945,46.325035095214844,27.2807674407959,2.4901044368743896,27.32621955871582,0,28.660415649414062,27.16619110107422,28.72397804260254,27.083251953125,0.0,27.083251953125,Continuous,None,False,False,False,False,False,False,4320,137,PowOn,Awake,Idle,33223,33021,0,0,0,0,0,False,False,False,False,False,False,False,False,False,False,False,False,False,False,False,False,False,False,False,False,False,False,False,False,False,False,False,False,293,207,211,1000,15,0,0,False,ReadOnly,0,0,0,0,1,V0.1,      DEV1,    IR1800,
2019/04/04 - 13:42:21.519374,83.481,45.38677978515625,18.891679763793945,46.325035095214844,27.296998977661133,2.4901044368743896,27.32621955871582,0,28.692195892333984,27.16619110107422,28.72397804260254,27.083251953125,0.0,27.083251953125,Continuous,None,False,False,False,False,False,False,4320,137,PowOn,Awake,Idle,33223,33022,0,0,0,0,0,False,False,False,False,False,False,False,False,False,False,False,False,False,False,False,False,False,False,False,False,False,False,False,False,False,False,False,False,293,207,211,1000,15,0,0,False,ReadOnly,0,0,0,0,1,V0.1,      DEV1,    IR1800,
2019/04/04 - 13:42:22.511153,84.486,45.36730194091797,18.891679763793945,46.325035095214844,27.309986114501953,2.4901044368743896,27.32621955871582,0,28.64449691772461,27.16619110107422,28.72397804260254,27.083251953125,0.0,27.083251953125,Continuous,None,False,False,False,False,False,False,4320,137,PowOn,Awake,Idle,33223,33023,0,0,0,0,0,False,False,False,False,False,False,False,False,False,False,False,False,False,False,False,False,False,False,False,False,False,False,False,False,False,False,False,False,293,207,211,1000,15,0,0,False,ReadOnly,0,0,0,0,1,V0.1,      DEV1,    IR1800,
2019/04/04 - 13:42:23.522784,85.477,45.477684020996094,18.891679763793945,46.325035095214844,27.296998977661133,2.4901044368743896,27.32621955871582,0,28.62860679626465,27.16619110107422,28.72397804260254,27.070947647094727,0.0,27.083251953125,Continuous,None,False,False,False,False,False,False,4320,137,PowOn,Awake,Idle,33221,33023,0,0,0,0,0,False,False,False,False,False,False,False,False,False,False,False,False,False,False,False,False,False,False,False,False,False,False,False,False,False,False,False,False,293,207,211,1000,15,0,0,False,ReadOnly,0,0,0,0,1,V0.1,      DEV1,    IR1800,
2019/04/04 - 13:42:24.494374,86.477,45.34457778930664,18.891679763793945,46.325035095214844,27.316478729248047,2.4901044368743896,27.32621955871582,0,28.612716674804688,27.16619110107422,28.72397804260254,27.070947647094727,0.0,27.083251953125,Continuous,None,False,False,False,False,False,False,4320,137,PowOn,Awake,Idle,33221,33021,0,0,0,0,0,False,False,False,False,False,False,False,False,False,False,False,False,False,False,False,False,False,False,False,False,False,False,False,False,False,False,False,False,293,207,211,1000,15,0,0,False,ReadOnly,0,0,0,0,1,V0.1,      DEV1,    IR1800,
2019/04/04 - 13:42:25.535676,87.478,45.46794509887695,18.891679763793945,46.325035095214844,27.27752113342285,2.4901044368743896,27.32621955871582,0,28.64449691772461,27.16619110107422,28.72397804260254,27.070947647094727,0.0,27.083251953125,Continuous,None,False,False,False,False,False,False,4320,137,PowOn,Awake,Idle,33221,33022,0,0,0,0,0,False,False,False,False,False,False,False,False,False,False,False,False,False,False,False,False,False,False,False,False,False,False,False,False,False,False,False,False,293,207,211,1000,15,0,0,False,ReadOnly,0,0,0,0,1,V0.1,      DEV1,    IR1800,
2019/04/04 - 13:42:26.510618,88.483,45.487422943115234,18.891679763793945,46.325035095214844,27.274272918701172,2.4901044368743896,27.32621955871582,0,28.660415649414062,27.16619110107422,28.72397804260254,27.089405059814453,0.0,27.089405059814453,Continuous,None,False,False,False,False,False,False,4320,137,PowOn,Awake,Idle,33224,33022,0,0,0,0,0,False,False,False,False,False,False,False,False,False,False,False,False,False,False,False,False,False,False,False,False,False,False,False,False,False,False,False,False,293,207,211,1000,15,0,0,False,ReadOnly,0,0,0,0,1,V0.1,      DEV1,    IR1800,
2019/04/04 - 13:42:27.496701,89.480,45.32184982299805,18.891679763793945,46.325035095214844,27.293752670288086,2.4901044368743896,27.32621955871582,0,28.64449691772461,27.16619110107422,28.72397804260254,27.077098846435547,0.0,27.089405059814453,Continuous,None,False,False,False,False,False,False,4320,137,PowOn,Awake,Idle,33222,32988,0,0,0,0,0,False,False,False,False,False,False,False,False,False,False,False,False,False,False,False,False,False,False,False,False,False,False,False,False,False,False,False,False,293,207,211,1000,15,0,0,False,ReadOnly,0,0,0,0,1,V0.1,      DEV1,    IR1800,
2019/04/04 - 13:42:28.525075,90.478,45.40301513671875,18.891679763793945,46.325035095214844,27.26453399658203,2.4901044368743896,27.32621955871582,0,28.73989486694336,27.16619110107422,28.73989486694336,27.083251953125,0.0,27.089405059814453,Continuous,None,False,False,False,False,False,False,4320,137,PowOn,Awake,Idle,33223,32996,0,0,0,0,0,False,False,False,False,False,False,False,False,False,False,False,False,False,False,False,False,False,False,False,False,False,False,False,False,False,False,False,False,293,207,211,1000,15,0,0,False,ReadOnly,0,0,0,0,1,V0.1,      DEV1,    IR1800,
2019/04/04 - 13:42:30.839652,92.811,45.44846725463867,18.891679763793945,46.325035095214844,27.2807674407959,2.4901044368743896,27.32621955871582,0,28.708086013793945,27.16619110107422,28.73989486694336,27.077098846435547,0.0,27.089405059814453,Continuous,None,False,False,False,False,False,False,4320,137,PowOn,Awake,Idle,33222,33006,0,0,0,0,0,False,False,False,False,False,False,False,False,False,False,False,False,False,False,False,False,False,False,False,False,False,False,False,False,False,False,False,False,293,0,211,1000,15,0,0,False,ReadOnly,0,0,0,0,1,V0.1,      DEV1,    IR1800,
2019/04/04 - 13:42:30.927656,92.918,45.44846725463867,18.891679763793945,46.325035095214844,27.2807674407959,2.4901044368743896,27.32621955871582,0,28.708086013793945,27.16619110107422,28.73989486694336,27.077098846435547,0.0,27.089405059814453,Continuous,None,False,False,False,False,False,False,4320,137,PowOn,Awake,Idle,33222,33006,0,0,0,0,0,False,False,False,False,False,False,False,False,False,False,False,False,False,False,False,False,False,False,False,False,False,False,False,False,False,False,False,False,293,0,211,1000,15,0,0,False,ReadOnly,0,0,0,0,1,V0.1,      DEV1,    IR1800,
2019/04/04 - 13:42:31.510212,93.482,45.503658294677734,18.891679763793945,46.325035095214844,27.306739807128906,2.4901044368743896,27.32621955871582,0,28.73989486694336,27.16619110107422,28.73989486694336,27.077098846435547,0.0,27.089405059814453,Continuous,None,False,False,False,False,False,False,4320,137,PowOn,Awake,Idle,33222,33007,0,0,0,0,0,False,False,False,False,False,False,False,False,False,False,False,False,False,False,False,False,False,False,False,False,False,False,False,False,False,False,False,False,293,207,211,1000,15,0,0,False,ReadOnly,0,0,0,0,1,V0.1,      DEV1,    IR1800,
2019/04/04 - 13:42:34.306774,96.251,45.43223190307617,18.891679763793945,46.325035095214844,27.309986114501953,2.4901044368743896,27.32621955871582,0,28.676305770874023,27.16619110107422,28.771677017211914,27.077098846435547,0.0,27.089405059814453,Continuous,None,False,False,False,False,False,False,4320,137,PowOn,Awake,Idle,33222,33001,0,0,0,0,0,False,False,False,False,False,False,False,False,False,False,False,False,False,False,False,False,False,False,False,False,False,False,False,False,False,False,False,False,293,0,211,1000,14,0,0,False,ReadOnly,0,0,0,0,1,V0.1,      DEV1,    IR1800,
2019/04/04 - 13:42:34.395756,96.384,45.43223190307617,18.891679763793945,46.325035095214844,27.309986114501953,2.4901044368743896,27.32621955871582,0,28.676305770874023,27.16619110107422,28.771677017211914,27.077098846435547,0.0,27.089405059814453,Continuous,None,False,False,False,False,False,False,4320,137,PowOn,Awake,Idle,33222,33001,0,0,0,0,0,False,False,False,False,False,False,False,False,False,False,False,False,False,False,False,False,False,False,False,False,False,False,False,False,False,False,False,False,293,0,211,1000,14,0,0,False,ReadOnly,0,0,0,0,1,V0.1,      DEV1,    IR1800,
2019/04/04 - 13:42:34.491829,96.479,45.43223190307617,18.891679763793945,46.325035095214844,27.309986114501953,2.4901044368743896,27.32621955871582,0,28.676305770874023,27.16619110107422,28.771677017211914,27.077098846435547,0.0,27.089405059814453,Continuous,None,False,False,False,False,False,False,4320,137,PowOn,Awake,Idle,33222,33001,0,0,0,0,0,False,False,False,False,False,False,False,False,False,False,False,False,False,False,False,False,False,False,False,False,False,False,False,False,False,False,False,False,293,0,211,1000,14,0,0,False,ReadOnly,0,0,0,0,1,V0.1,      DEV1,    IR1800,
2019/04/04 - 13:42:35.493200,97.472,45.409507751464844,18.891679763793945,46.325035095214844,27.319725036621094,2.4901044368743896,27.32621955871582,0,28.81937599182129,27.16619110107422,28.81937599182129,27.089405059814453,0.0,27.089405059814453,Continuous,None,False,False,False,False,False,False,4320,137,PowOn,Awake,Idle,33224,32995,0,0,0,0,0,False,False,False,False,False,False,False,False,False,False,False,False,False,False,False,False,False,False,False,False,False,False,False,False,False,False,False,False,293,207,211,1000,15,0,0,False,ReadOnly,0,0,0,0,1,V0.1,      DEV1,    IR1800,
2019/04/04 - 13:42:36.500583,98.476,45.3835334777832,18.891679763793945,46.325035095214844,27.293752670288086,2.4901044368743896,27.32621955871582,0,28.708086013793945,27.16619110107422,28.81937599182129,27.083251953125,0.0,27.089405059814453,Continuous,None,False,False,False,False,False,False,4320,137,PowOn,Awake,Idle,33223,32994,0,0,0,0,0,False,False,False,False,False,False,False,False,False,False,False,False,False,False,False,False,False,False,False,False,False,False,False,False,False,False,False,False,293,206,211,1000,15,0,0,False,ReadOnly,0,0,0,0,1,V0.1,      DEV1,    IR1800,
2019/04/04 - 13:42:37.511099,99.473,45.3997688293457,18.891679763793945,46.325035095214844,27.284013748168945,2.4901044368743896,27.32621955871582,0,28.771677017211914,27.16619110107422,28.81937599182129,27.083251953125,0.0,27.089405059814453,Continuous,None,False,False,False,False,False,False,4320,137,PowOn,Awake,Idle,33223,32993,0,0,0,0,0,False,False,False,False,False,False,False,False,False,False,False,False,False,False,False,False,False,False,False,False,False,False,False,False,False,False,False,False,293,207,211,1000,15,0,0,False,ReadOnly,0,0,0,0,1,V0.1,      DEV1,    IR1800,
2019/04/04 - 13:42:38.501982,100.474,45.41600036621094,18.891679763793945,46.325035095214844,27.30024528503418,2.4901044368743896,27.32621955871582,0,28.787567138671875,27.16619110107422,28.81937599182129,27.083251953125,0.0,27.089405059814453,Continuous,None,False,False,False,False,False,False,4320,137,PowOn,Awake,Idle,33223,32985,0,0,0,0,0,False,False,False,False,False,False,False,False,False,False,False,False,False,False,False,False,False,False,False,False,False,False,False,False,False,False,False,False,293,207,211,1000,15,0,0,False,ReadOnly,0,0,0,0,1,V0.1,      DEV1,    IR1800,
2019/04/04 - 13:42:39.520350,101.475,45.47443771362305,18.891679763793945,46.325035095214844,27.293752670288086,2.4901044368743896,27.32621955871582,0,28.803457260131836,27.16619110107422,28.81937599182129,27.077098846435547,0.0,27.089405059814453,Continuous,None,False,False,False,False,False,False,4320,137,PowOn,Awake,Idle,33222,32982,0,0,0,0,0,False,False,False,False,False,False,False,False,False,False,False,False,False,False,False,False,False,False,False,False,False,False,False,False,False,False,False,False,293,207,211,1000,15,0,0,False,ReadOnly,0,0,0,0,1,V0.1,      DEV1,    IR1800,
2019/04/04 - 13:42:42.159192,104.123,45.36730194091797,18.891679763793945,46.325035095214844,27.32621955871582,2.4901044368743896,27.332712173461914,0,28.72397804260254,27.16619110107422,28.81937599182129,27.083251953125,0.0,27.089405059814453,Continuous,None,False,False,False,False,False,False,4320,137,PowOn,Awake,Idle,33223,32988,0,0,0,0,0,False,False,False,False,False,False,False,False,False,False,False,False,False,False,False,False,False,False,False,False,False,False,False,False,False,False,False,False,293,0,211,1000,15,0,0,False,ReadOnly,0,0,0,0,1,V0.1,      DEV1,    IR1800,
2019/04/04 - 13:42:42.255136,104.232,45.36730194091797,18.891679763793945,46.325035095214844,27.32621955871582,2.4901044368743896,27.332712173461914,0,28.72397804260254,27.16619110107422,28.81937599182129,27.083251953125,0.0,27.089405059814453,Continuous,None,False,False,False,False,False,False,4320,137,PowOn,Awake,Idle,33223,32988,0,0,0,0,0,False,False,False,False,False,False,False,False,False,False,False,False,False,False,False,False,False,False,False,False,False,False,False,False,False,False,False,False,293,0,211,1000,15,0,0,False,ReadOnly,0,0,0,0,1,V0.1,      DEV1,    IR1800,
2019/04/04 - 13:42:42.529566,104.473,45.36730194091797,18.891679763793945,46.325035095214844,27.32621955871582,2.4901044368743896,27.332712173461914,0,28.72397804260254,27.16619110107422,28.81937599182129,27.083251953125,0.0,27.089405059814453,Continuous,None,False,False,False,False,False,False,4320,137,PowOn,Awake,Idle,33223,32988,0,0,0,0,0,False,False,False,False,False,False,False,False,False,False,False,False,False,False,False,False,False,False,False,False,False,False,False,False,False,False,False,False,293,0,211,1000,15,0,0,False,ReadOnly,0,0,0,0,1,V0.1,      DEV1,    IR1800,
2019/04/04 - 13:42:43.503323,105.473,45.3900260925293,18.891679763793945,46.325035095214844,27.293752670288086,2.4901044368743896,27.332712173461914,0,28.787567138671875,27.16619110107422,28.81937599182129,27.083251953125,0.0,27.089405059814453,Continuous,None,False,False,False,False,False,False,4320,137,PowOn,Awake,Idle,33223,32996,0,0,0,0,0,False,False,False,False,False,False,False,False,False,False,False,False,False,False,False,False,False,False,False,False,False,False,False,False,False,False,False,False,293,207,211,1000,15,0,0,False,ReadOnly,0,0,0,0,1,V0.1,      DEV1,    IR1800,
2019/04/04 - 13:42:45.729031,107.672,45.49066925048828,18.891679763793945,46.325035095214844,27.30024528503418,2.4901044368743896,27.332712173461914,0,28.72397804260254,27.16619110107422,28.81937599182129,27.083251953125,0.0,27.089405059814453,Continuous,None,False,False,False,False,False,False,4320,137,PowOn,Awake,Idle,33223,32996,0,0,0,0,0,False,False,False,False,False,False,False,False,False,False,False,False,False,False,False,False,False,False,False,False,False,False,False,False,False,False,False,False,293,0,211,1000,15,0,0,False,ReadOnly,0,0,0,0,1,V0.1,      DEV1,    IR1800,
2019/04/04 - 13:42:45.824145,107.800,45.49066925048828,18.891679763793945,46.325035095214844,27.30024528503418,2.4901044368743896,27.332712173461914,0,28.72397804260254,27.16619110107422,28.81937599182129,27.083251953125,0.0,27.089405059814453,Continuous,None,False,False,False,False,False,False,4320,137,PowOn,Awake,Idle,33223,32996,0,0,0,0,0,False,False,False,False,False,False,False,False,False,False,False,False,False,False,False,False,False,False,False,False,False,False,False,False,False,False,False,False,293,0,211,1000,15,0,0,False,ReadOnly,0,0,0,0,1,V0.1,      DEV1,    IR1800,
2019/04/04 - 13:42:46.510933,108.472,45.46145248413086,18.891679763793945,46.325035095214844,27.319725036621094,2.4901044368743896,27.332712173461914,0,28.708086013793945,27.16619110107422,28.81937599182129,27.089405059814453,0.0,27.089405059814453,Continuous,None,False,False,False,False,False,False,4320,137,PowOn,Awake,Idle,33224,33001,0,0,0,0,0,False,False,False,False,False,False,False,False,False,False,False,False,False,False,False,False,False,False,False,False,False,False,False,False,False,False,False,False,293,207,211,1000,15,0,0,False,ReadOnly,0,0,0,0,1,V0.1,      DEV1,    IR1800,
2019/04/04 - 13:42:49.142248,111.96,45.419246673583984,18.891679763793945,46.325035095214844,27.313232421875,2.4901044368743896,27.332712173461914,0,28.708086013793945,27.16619110107422,28.81937599182129,27.083251953125,0.0,27.089405059814453,Continuous,None,False,False,False,False,False,False,4320,137,PowOn,Awake,Idle,33223,33001,0,0,0,0,0,False,False,False,False,False,False,False,False,False,False,False,False,False,False,False,False,False,False,False,False,False,False,False,False,False,False,False,False,293,0,211,1000,15,0,0,False,ReadOnly,0,0,0,0,1,V0.1,      DEV1,    IR1800,
2019/04/04 - 13:42:49.237193,111.199,45.419246673583984,18.891679763793945,46.325035095214844,27.313232421875,2.4901044368743896,27.332712173461914,0,28.708086013793945,27.16619110107422,28.81937599182129,27.083251953125,0.0,27.089405059814453,Continuous,None,False,False,False,False,False,False,4320,137,PowOn,Awake,Idle,33223,33001,0,0,0,0,0,False,False,False,False,False,False,False,False,False,False,False,False,False,False,False,False,False,False,False,False,False,False,False,False,False,False,False,False,293,0,211,1000,15,0,0,False,ReadOnly,0,0,0,0,1,V0.1,      DEV1,    IR1800,
2019/04/04 - 13:42:49.512326,111.468,45.419246673583984,18.891679763793945,46.325035095214844,27.313232421875,2.4901044368743896,27.332712173461914,0,28.708086013793945,27.16619110107422,28.81937599182129,27.083251953125,0.0,27.089405059814453,Continuous,None,False,False,False,False,False,False,4320,137,PowOn,Awake,Idle,33223,33001,0,0,0,0,0,False,False,False,False,False,False,False,False,False,False,False,False,False,False,False,False,False,False,False,False,False,False,False,False,False,False,False,False,293,0,211,1000,15,0,0,False,ReadOnly,0,0,0,0,1,V0.1,      DEV1,    IR1800,
2019/04/04 - 13:42:50.531847,112.465,45.48417663574219,18.891679763793945,46.325035095214844,27.329465866088867,2.4901044368743896,27.332712173461914,0,28.708086013793945,27.16619110107422,28.81937599182129,27.083251953125,0.0,27.089405059814453,Continuous,None,False,False,False,False,False,False,4320,137,PowOn,Awake,Idle,33223,32985,0,0,0,0,0,False,False,False,False,False,False,False,False,False,False,False,False,False,False,False,False,False,False,False,False,False,False,False,False,False,False,False,False,293,207,211,1000,15,0,0,False,ReadOnly,0,0,0,0,1,V0.1,      DEV1,    IR1800,
2019/04/04 - 13:42:51.500840,113.467,45.438724517822266,18.891679763793945,46.325035095214844,27.316478729248047,2.4901044368743896,27.332712173461914,0,28.85115623474121,27.16619110107422,28.85115623474121,27.095556259155273,0.0,27.095556259155273,Continuous,None,False,False,False,False,False,False,4320,137,PowOn,Awake,Idle,33225,32996,0,0,0,0,0,False,False,False,False,False,False,False,False,False,False,False,False,False,False,False,False,False,False,False,False,False,False,False,False,False,False,False,False,293,206,211,1000,14,0,0,False,ReadOnly,0,0,0,0,1,V0.1,      DEV1,    IR1800,
2019/04/04 - 13:42:52.516325,114.467,45.52962875366211,18.891679763793945,46.325035095214844,27.27752113342285,2.4901044368743896,27.332712173461914,0,28.803457260131836,27.16619110107422,28.85115623474121,27.095556259155273,0.0,27.095556259155273,Continuous,None,False,False,False,False,False,False,4320,137,PowOn,Awake,Idle,33225,32975,0,0,0,0,0,False,False,False,False,False,False,False,False,False,False,False,False,False,False,False,False,False,False,False,False,False,False,False,False,False,False,False,False,293,207,211,1000,15,0,0,False,ReadOnly,0,0,0,0,1,V0.1,      DEV1,    IR1800,
2019/04/04 - 13:42:53.509553,115.467,45.44197082519531,18.891679763793945,46.325035095214844,27.319725036621094,2.4901044368743896,27.332712173461914,0,28.882936477661133,27.16619110107422,28.882936477661133,27.107860565185547,0.0,27.107860565185547,Continuous,None,False,False,False,False,False,False,4320,137,PowOn,Awake,Idle,33227,32987,0,0,0,0,0,False,False,False,False,False,False,False,False,False,False,False,False,False,False,False,False,False,False,False,False,False,False,False,False,False,False,False,False,293,206,211,1000,15,0,0,False,ReadOnly,0,0,0,0,1,V0.1,      DEV1,    IR1800,
2019/04/04 - 13:42:54.517574,116.466,45.45820617675781,18.891679763793945,46.325035095214844,27.287260055541992,2.4901044368743896,27.332712173461914,0,28.914745330810547,27.16619110107422,28.914745330810547,27.107860565185547,0.0,27.107860565185547,Continuous,None,False,False,False,False,False,False,4320,137,PowOn,Awake,Idle,33227,32996,0,0,0,0,0,False,False,False,False,False,False,False,False,False,False,False,False,False,False,False,False,False,False,False,False,False,False,False,False,False,False,False,False,293,207,211,1000,15,0,0,False,ReadOnly,0,0,0,0,1,V0.1,      DEV1,    IR1800,
2019/04/04 - 13:42:55.520777,117.465,45.409507751464844,18.891679763793945,46.325035095214844,27.274272918701172,2.4901044368743896,27.332712173461914,0,28.73989486694336,27.16619110107422,28.914745330810547,27.101709365844727,0.0,27.107860565185547,Continuous,None,False,False,False,False,False,False,4320,137,PowOn,Awake,Idle,33226,33012,0,0,0,0,0,False,False,False,False,False,False,False,False,False,False,False,False,False,False,False,False,False,False,False,False,False,False,False,False,False,False,False,False,293,206,211,1000,15,0,0,False,ReadOnly,0,0,0,0,1,V0.1,      DEV1,    IR1800,
2019/04/04 - 13:42:56.506318,118.463,45.523136138916016,18.891679763793945,46.325035095214844,27.313232421875,2.4901044368743896,27.332712173461914,0,28.73989486694336,27.16619110107422,28.914745330810547,27.095556259155273,0.0,27.107860565185547,Continuous,None,False,False,False,False,False,False,4320,137,PowOn,Awake,Idle,33225,33014,0,0,0,0,0,False,False,False,False,False,False,False,False,False,False,False,False,False,False,False,False,False,False,False,False,False,False,False,False,False,False,False,False,293,207,211,1000,15,0,0,False,ReadOnly,0,0,0,0,1,V0.1,      DEV1,    IR1800,
2019/04/04 - 13:42:57.540287,119.463,45.35756301879883,18.891679763793945,46.325035095214844,27.274272918701172,2.4901044368743896,27.332712173461914,0,28.755786895751953,27.16619110107422,28.914745330810547,27.107860565185547,0.0,27.107860565185547,Continuous,None,False,False,False,False,False,False,4320,137,PowOn,Awake,Idle,33227,33014,0,0,0,0,0,False,False,False,False,False,False,False,False,False,False,False,False,False,False,False,False,False,False,False,False,False,False,False,False,False,False,False,False,293,206,211,1000,15,0,0,False,ReadOnly,0,0,0,0,1,V0.1,      DEV1,    IR1800,
2019/04/04 - 13:42:58.501568,120.460,45.37704086303711,18.891679763793945,46.325035095214844,27.296998977661133,2.4901044368743896,27.332712173461914,0,28.81937599182129,27.16619110107422,28.914745330810547,27.107860565185547,0.0,27.107860565185547,Continuous,None,False,False,False,False,False,False,4320,137,PowOn,Awake,Idle,33227,33018,0,0,0,0,0,False,False,False,False,False,False,False,False,False,False,False,False,False,False,False,False,False,False,False,False,False,False,False,False,False,False,False,False,293,207,211,1000,15,0,0,False,ReadOnly,0,0,0,0,1,V0.1,      DEV1,    IR1800,
2019/04/04 - 13:42:59.507646,121.462,45.351070404052734,18.891679763793945,46.325035095214844,27.2807674407959,2.4901044368743896,27.332712173461914,0,28.803457260131836,27.16619110107422,28.914745330810547,27.107860565185547,0.0,27.107860565185547,Continuous,None,False,False,False,False,False,False,4320,137,PowOn,Awake,Idle,33227,33016,0,0,0,0,0,False,False,False,False,False,False,False,False,False,False,False,False,False,False,False,False,False,False,False,False,False,False,False,False,False,False,False,False,293,207,211,1000,15,0,0,False,ReadOnly,0,0,0,0,1,V0.1,      DEV1,    IR1800,
2019/04/04 - 13:43:00.505823,122.461,45.40301513671875,18.891679763793945,46.325035095214844,27.313232421875,2.4901044368743896,27.332712173461914,0,28.803457260131836,27.16619110107422,28.914745330810547,27.107860565185547,0.0,27.107860565185547,Continuous,None,False,False,False,False,False,False,4320,137,PowOn,Awake,Idle,33227,33015,0,0,0,0,0,False,False,False,False,False,False,False,False,False,False,False,False,False,False,False,False,False,False,False,False,False,False,False,False,False,False,False,False,293,207,211,1000,15,0,0,False,ReadOnly,0,0,0,0,1,V0.1,      DEV1,    IR1800,
2019/04/04 - 13:43:01.507516,123.461,45.419246673583984,18.891679763793945,46.325035095214844,27.293752670288086,2.4901044368743896,27.332712173461914,0,28.81937599182129,27.16619110107422,28.914745330810547,27.107860565185547,0.0,27.107860565185547,Continuous,None,False,False,False,False,False,False,4320,137,PowOn,Awake,Idle,33227,33015,0,0,0,0,0,False,False,False,False,False,False,False,False,False,False,False,False,False,False,False,False,False,False,False,False,False,False,False,False,False,False,False,False,293,207,211,1000,15,0,0,False,ReadOnly,0,0,0,0,1,V0.1,      DEV1,    IR1800,
2019/04/04 - 13:43:02.508803,124.462,45.464698791503906,18.891679763793945,46.325035095214844,27.30349349975586,2.4901044368743896,27.332712173461914,0,28.803457260131836,27.16619110107422,28.914745330810547,27.114013671875,0.0,27.114013671875,Continuous,None,False,False,False,False,False,False,4320,137,PowOn,Awake,Idle,33228,33015,0,0,0,0,0,False,False,False,False,False,False,False,False,False,False,False,False,False,False,False,False,False,False,False,False,False,False,False,False,False,False,False,False,293,207,211,1000,15,0,0,False,ReadOnly,0,0,0,0,1,V0.1,      DEV1,    IR1800,
2019/04/04 - 13:43:03.504283,125.460,45.41600036621094,18.891679763793945,46.325035095214844,27.284013748168945,2.4901044368743896,27.332712173461914,0,28.83526611328125,27.16619110107422,28.914745330810547,27.120166778564453,0.0,27.120166778564453,Continuous,None,False,False,False,False,False,False,4320,137,PowOn,Awake,Idle,33229,33013,0,0,0,0,0,False,False,False,False,False,False,False,False,False,False,False,False,False,False,False,False,False,False,False,False,False,False,False,False,False,False,False,False,293,207,211,1000,15,0,0,False,ReadOnly,0,0,0,0,1,V0.1,      DEV1,    IR1800,
2019/04/04 - 13:43:06.099286,128.56,45.36405563354492,18.891679763793945,46.325035095214844,27.271026611328125,2.4901044368743896,27.332712173461914,0,28.867046356201172,27.16619110107422,28.914745330810547,27.114013671875,0.0,27.120166778564453,Continuous,None,False,False,False,False,False,False,4320,137,PowOn,Awake,Idle,33228,33015,0,0,0,0,0,False,False,False,False,False,False,False,False,False,False,False,False,False,False,False,False,False,False,False,False,False,False,False,False,False,False,False,False,293,0,211,1000,15,0,0,False,ReadOnly,0,0,0,0,1,V0.1,      DEV1,    IR1800,
2019/04/04 - 13:43:06.189191,128.161,45.36405563354492,18.891679763793945,46.325035095214844,27.271026611328125,2.4901044368743896,27.332712173461914,0,28.867046356201172,27.16619110107422,28.914745330810547,27.114013671875,0.0,27.120166778564453,Continuous,None,False,False,False,False,False,False,4320,137,PowOn,Awake,Idle,33228,33015,0,0,0,0,0,False,False,False,False,False,False,False,False,False,False,False,False,False,False,False,False,False,False,False,False,False,False,False,False,False,False,False,False,293,0,211,1000,15,0,0,False,ReadOnly,0,0,0,0,1,V0.1,      DEV1,    IR1800,
2019/04/04 - 13:43:06.516451,128.458,45.36405563354492,18.891679763793945,46.325035095214844,27.271026611328125,2.4901044368743896,27.332712173461914,0,28.867046356201172,27.16619110107422,28.914745330810547,27.114013671875,0.0,27.120166778564453,Continuous,None,False,False,False,False,False,False,4320,137,PowOn,Awake,Idle,33228,33015,0,0,0,0,0,False,False,False,False,False,False,False,False,False,False,False,False,False,False,False,False,False,False,False,False,False,False,False,False,False,False,False,False,293,0,211,1000,15,0,0,False,ReadOnly,0,0,0,0,1,V0.1,      DEV1,    IR1800,
2019/04/04 - 13:43:07.496741,129.457,45.35431671142578,18.891679763793945,46.325035095214844,27.306739807128906,2.4901044368743896,27.332712173461914,0,28.81937599182129,27.16619110107422,28.914745330810547,27.120166778564453,0.0,27.120166778564453,Continuous,None,False,False,False,False,False,False,4320,137,PowOn,Awake,Idle,33229,33016,0,0,0,0,0,False,False,False,False,False,False,False,False,False,False,False,False,False,False,False,False,False,False,False,False,False,False,False,False,False,False,False,False,293,207,211,1000,15,0,0,False,ReadOnly,0,0,0,0,1,V0.1,      DEV1,    IR1800,
2019/04/04 - 13:43:08.528122,130.465,45.3835334777832,18.891679763793945,46.325035095214844,27.306739807128906,2.4901044368743896,27.332712173461914,0,28.83526611328125,27.16619110107422,28.914745330810547,27.132471084594727,0.0,27.132471084594727,Continuous,None,False,False,False,False,False,False,4320,137,PowOn,Awake,Idle,33231,33015,0,0,0,0,0,False,False,False,False,False,False,False,False,False,False,False,False,False,False,False,False,False,False,False,False,False,False,False,False,False,False,False,False,293,207,211,1000,15,0,0,False,ReadOnly,0,0,0,0,1,V0.1,      DEV1,    IR1800,
2019/04/04 - 13:43:09.516485,131.459,45.37704086303711,18.891679763793945,46.325035095214844,27.287260055541992,2.4901044368743896,27.332712173461914,0,28.867046356201172,27.16619110107422,28.914745330810547,27.126317977905273,0.0,27.132471084594727,Continuous,None,False,False,False,False,False,False,4320,137,PowOn,Awake,Idle,33230,33016,0,0,0,0,0,False,False,False,False,False,False,False,False,False,False,False,False,False,False,False,False,False,False,False,False,False,False,False,False,False,False,False,False,293,207,211,1000,15,0,0,False,ReadOnly,0,0,0,0,1,V0.1,      DEV1,    IR1800,
2019/04/04 - 13:43:10.521998,132.460,45.428985595703125,18.891679763793945,46.325035095214844,27.29050636291504,2.4901044368743896,27.332712173461914,0,28.85115623474121,27.16619110107422,28.914745330810547,27.120166778564453,0.0,27.132471084594727,Continuous,None,False,False,False,False,False,False,4320,137,PowOn,Awake,Idle,33229,33017,0,0,0,0,0,False,False,False,False,False,False,False,False,False,False,False,False,False,False,False,False,False,False,False,False,False,False,False,False,False,False,False,False,293,206,211,1000,14,0,0,False,ReadOnly,0,0,0,0,1,V0.1,      DEV1,    IR1800,
2019/04/04 - 13:43:11.520330,133.460,45.503658294677734,18.891679763793945,46.325035095214844,27.27752113342285,2.4901044368743896,27.332712173461914,0,28.898855209350586,27.16619110107422,28.914745330810547,27.138622283935547,0.0,27.138622283935547,Continuous,None,False,False,False,False,False,False,4320,137,PowOn,Awake,Idle,33232,33017,0,0,0,0,0,False,False,False,False,False,False,False,False,False,False,False,False,False,False,False,False,False,False,False,False,False,False,False,False,False,False,False,False,293,207,211,1000,15,0,0,False,ReadOnly,0,0,0,0,1,V0.1,      DEV1,    IR1800,
2019/04/04 - 13:43:12.500740,134.457,45.44197082519531,18.891679763793945,46.325035095214844,27.284013748168945,2.4901044368743896,27.332712173461914,0,28.81937599182129,27.16619110107422,28.914745330810547,27.132471084594727,0.0,27.138622283935547,Continuous,None,False,False,False,False,False,False,4320,137,PowOn,Awake,Idle,33231,33018,0,0,0,0,0,False,False,False,False,False,False,False,False,False,False,False,False,False,False,False,False,False,False,False,False,False,False,False,False,False,False,False,False,293,206,211,1000,14,0,0,False,ReadOnly,0,0,0,0,1,V0.1,      DEV1,    IR1800,
2019/04/04 - 13:43:13.526137,135.457,45.4062614440918,18.891679763793945,46.325035095214844,27.313232421875,2.4901044368743896,27.332712173461914,0,28.867046356201172,27.16619110107422,28.914745330810547,27.144775390625,0.0,27.144775390625,Continuous,None,False,False,False,False,False,False,4320,137,PowOn,Awake,Idle,33233,33019,0,0,0,0,0,False,False,False,False,False,False,False,False,False,False,False,False,False,False,False,False,False,False,False,False,False,False,False,False,False,False,False,False,293,207,211,1000,15,0,0,False,ReadOnly,0,0,0,0,1,V0.1,      DEV1,    IR1800,
2019/04/04 - 13:43:14.524630,136.456,45.266658782958984,18.891679763793945,46.325035095214844,27.274272918701172,2.4901044368743896,27.332712173461914,0,28.81937599182129,27.16619110107422,28.914745330810547,27.138622283935547,0.0,27.144775390625,Continuous,None,False,False,False,False,False,False,4320,137,PowOn,Awake,Idle,33232,33016,0,0,0,0,0,False,False,False,False,False,False,False,False,False,False,False,False,False,False,False,False,False,False,False,False,False,False,False,False,False,False,False,False,293,206,211,1000,15,0,0,False,ReadOnly,0,0,0,0,1,V0.1,      DEV1,    IR1800,
2019/04/04 - 13:43:15.507030,137.457,45.41600036621094,18.891679763793945,46.325035095214844,27.29050636291504,2.4901044368743896,27.332712173461914,0,28.771677017211914,27.16619110107422,28.914745330810547,27.144775390625,0.0,27.144775390625,Continuous,None,False,False,False,False,False,False,4320,137,PowOn,Awake,Idle,33233,33017,0,0,0,0,0,False,False,False,False,False,False,False,False,False,False,False,False,False,False,False,False,False,False,False,False,False,False,False,False,False,False,False,False,293,207,211,1000,15,0,0,False,ReadOnly,0,0,0,0,1,V0.1,      DEV1,    IR1800,
2019/04/04 - 13:43:16.497496,138.454,45.3900260925293,18.891679763793945,46.325035095214844,27.30024528503418,2.4901044368743896,27.332712173461914,0,28.787567138671875,27.16619110107422,28.914745330810547,27.138622283935547,0.0,27.144775390625,Continuous,None,False,False,False,False,False,False,4320,137,PowOn,Awake,Idle,33232,33017,0,0,0,0,0,False,False,False,False,False,False,False,False,False,False,False,False,False,False,False,False,False,False,False,False,False,False,False,False,False,False,False,False,293,206,211,1000,15,0,0,False,ReadOnly,0,0,0,0,1,V0.1,      DEV1,    IR1800,
2019/04/04 - 13:43:17.510755,139.454,45.513397216796875,18.891679763793945,46.325035095214844,27.284013748168945,2.4901044368743896,27.332712173461914,0,28.85115623474121,27.16619110107422,28.914745330810547,27.144775390625,0.0,27.144775390625,Continuous,None,False,False,False,False,False,False,4320,137,PowOn,Awake,Idle,33233,33018,0,0,0,0,0,False,False,False,False,False,False,False,False,False,False,False,False,False,False,False,False,False,False,False,False,False,False,False,False,False,False,False,False,293,207,211,1000,15,0,0,False,ReadOnly,0,0,0,0,1,V0.1,      DEV1,    IR1800,
2019/04/04 - 13:43:18.521936,140.459,45.37704086303711,18.891679763793945,46.325035095214844,27.29050636291504,2.4901044368743896,27.332712173461914,0,28.73989486694336,27.16619110107422,28.914745330810547,27.144775390625,0.0,27.144775390625,Continuous,None,False,False,False,False,False,False,4320,137,PowOn,Awake,Idle,33233,33017,0,0,0,0,0,False,False,False,False,False,False,False,False,False,False,False,False,False,False,False,False,False,False,False,False,False,False,False,False,False,False,False,False,293,207,211,1000,15,0,0,False,ReadOnly,0,0,0,0,1,V0.1,      DEV1,    IR1800,
2019/04/04 - 13:43:19.552081,141.456,45.419246673583984,18.891679763793945,46.325035095214844,27.30024528503418,2.4901044368743896,27.332712173461914,0,28.867046356201172,27.16619110107422,28.914745330810547,27.138622283935547,0.0,27.144775390625,Continuous,None,False,False,False,False,False,False,4320,137,PowOn,Awake,Idle,33232,33019,0,0,0,0,0,False,False,False,False,False,False,False,False,False,False,False,False,False,False,False,False,False,False,False,False,False,False,False,False,False,False,False,False,293,207,211,1000,15,0,0,False,ReadOnly,0,0,0,0,1,V0.1,      DEV1,    IR1800,
2019/04/04 - 13:43:20.543940,142.453,45.46794509887695,18.891679763793945,46.325035095214844,27.30024528503418,2.4901044368743896,27.332712173461914,0,28.867046356201172,27.16619110107422,28.914745330810547,27.150928497314453,0.0,27.150928497314453,Continuous,None,False,False,False,False,False,False,4320,137,PowOn,Awake,Idle,33234,33018,0,0,0,0,0,False,False,False,False,False,False,False,False,False,False,False,False,False,False,False,False,False,False,False,False,False,False,False,False,False,False,False,False,293,207,211,1000,15,0,0,False,ReadOnly,0,0,0,0,1,V0.1,      DEV1,    IR1800,
2019/04/04 - 13:43:21.517641,143.451,45.45171356201172,18.891679763793945,46.325035095214844,27.306739807128906,2.4901044368743896,27.332712173461914,0,28.803457260131836,27.16619110107422,28.914745330810547,27.144775390625,0.0,27.150928497314453,Continuous,None,False,False,False,False,False,False,4320,137,PowOn,Awake,Idle,33233,33019,0,0,0,0,0,False,False,False,False,False,False,False,False,False,False,False,False,False,False,False,False,False,False,False,False,False,False,False,False,False,False,False,False,293,207,211,1000,15,0,0,False,ReadOnly,0,0,0,0,1,V0.1,      DEV1,    IR1800,
2019/04/04 - 13:43:22.518273,144.451,45.41600036621094,18.891679763793945,46.325035095214844,27.30349349975586,2.4901044368743896,27.332712173461914,0,28.81937599182129,27.16619110107422,28.914745330810547,27.144775390625,0.0,27.150928497314453,Continuous,None,False,False,False,False,False,False,4320,137,PowOn,Awake,Idle,33233,33020,0,0,0,0,0,False,False,False,False,False,False,False,False,False,False,False,False,False,False,False,False,False,False,False,False,False,False,False,False,False,False,False,False,293,207,211,1000,15,0,0,False,ReadOnly,0,0,0,0,1,V0.1,      DEV1,    IR1800,
2019/04/04 - 13:43:23.506967,145.454,45.45171356201172,18.891679763793945,46.325035095214844,27.296998977661133,2.4901044368743896,27.332712173461914,0,28.898855209350586,27.16619110107422,28.914745330810547,27.144775390625,0.0,27.150928497314453,Continuous,None,False,False,False,False,False,False,4320,137,PowOn,Awake,Idle,33233,33017,0,0,0,0,0,False,False,False,False,False,False,False,False,False,False,False,False,False,False,False,False,False,False,False,False,False,False,False,False,False,False,False,False,293,207,211,1000,15,0,0,False,ReadOnly,0,0,0,0,1,V0.1,      DEV1,    IR1800,
2019/04/04 - 13:43:24.506876,146.449,45.37379455566406,18.891679763793945,46.325035095214844,27.316478729248047,2.4901044368743896,27.332712173461914,0,28.803457260131836,27.16619110107422,28.914745330810547,27.150928497314453,0.0,27.150928497314453,Continuous,None,False,False,False,False,False,False,4320,137,PowOn,Awake,Idle,33234,33018,0,0,0,0,0,False,False,False,False,False,False,False,False,False,False,False,False,False,False,False,False,False,False,False,False,False,False,False,False,False,False,False,False,293,207,211,1000,15,0,0,False,ReadOnly,0,0,0,0,1,V0.1,      DEV1,    IR1800,
2019/04/04 - 13:43:25.517367,147.450,45.438724517822266,18.891679763793945,46.325035095214844,27.293752670288086,2.4901044368743896,27.332712173461914,0,28.882936477661133,27.16619110107422,28.914745330810547,27.150928497314453,0.0,27.150928497314453,Continuous,None,False,False,False,False,False,False,4320,137,PowOn,Awake,Idle,33234,33017,0,0,0,0,0,False,False,False,False,False,False,False,False,False,False,False,False,False,False,False,False,False,False,False,False,False,False,False,False,False,False,False,False,293,207,211,1000,15,0,0,False,ReadOnly,0,0,0,0,1,V0.1,      DEV1,    IR1800,
2019/04/04 - 13:43:26.500279,148.450,45.40301513671875,18.891679763793945,46.325035095214844,27.267780303955078,2.4901044368743896,27.332712173461914,0,28.81937599182129,27.16619110107422,28.914745330810547,27.150928497314453,0.0,27.150928497314453,Continuous,None,False,False,False,False,False,False,4320,137,PowOn,Awake,Idle,33234,33017,0,0,0,0,0,False,False,False,False,False,False,False,False,False,False,False,False,False,False,False,False,False,False,False,False,False,False,False,False,False,False,False,False,293,207,211,1000,15,0,0,False,ReadOnly,0,0,0,0,1,V0.1,      DEV1,    IR1800,
2019/04/04 - 13:43:27.505471,149.453,45.41275405883789,18.891679763793945,46.325035095214844,27.293752670288086,2.4901044368743896,27.332712173461914,0,28.85115623474121,27.16619110107422,28.914745330810547,27.150928497314453,0.0,27.150928497314453,Continuous,None,False,False,False,False,False,False,4320,137,PowOn,Awake,Idle,33234,33019,0,0,0,0,0,False,False,False,False,False,False,False,False,False,False,False,False,False,False,False,False,False,False,False,False,False,False,False,False,False,False,False,False,293,207,211,1000,15,0,0,False,ReadOnly,0,0,0,0,1,V0.1,      DEV1,    IR1800,
