Time,Runtime,Current3V3,Current3V3Min,Current3V3Max,CurrentHTPA,CurrentHTPAMin,CurrentHTPAMax,CurrentCubeDock3V3_1,TemperatureMCU,TemperatureMCUMin,TemperatureMCUMax,TemperatureHTPA,TemperatureHTPAMin,TemperatureHTPAMax,ADSSampleMode,HTPACalibLevel,HILEnabled,HILBusy,HILEnableEdgeDet,HILEnableLensDistCorr,HILEnablePolyFit,HILEnableAttEst,HTPADeviceID,HTPATableNumber,HtpaPowerState,HtpaWakeState,HtpaCaptureState,HtpaPTAT,HtpaVdd,HTPAImageLastMin,HTPAImageLastMean,HTPAImageLastMax,HTPAImageAllTimeMin,HTPAImageAllTimeMax,3V3OverCurrent,3V3UnderCurrent,HTPAOverCurrent,HTPAUnderCurrent,Timer1sOverRun,MCUOverTemperature,MCUUnderTemperature,HTPAOverTemperature,HTPAUnderTemperature,HTPACalibLookupOutOfRange,HTPANotResponding,HTPAConfigMismatch,HTPASpiTimeout,CommsTcSlotsBuffFull,CommsTcParamBuffFull,CommsUartProtError,CommsUartMsgIncomplete,CommsUartTcParamOverflow,UARTTxOverflow,CommsTcInvalidID,CommsTcInvalidPar,CommsTcInvalidParLen,CommsTcTimeout,CommsTlmInvalidID,UARTTxReadingEmptyBuffer,UARTRxByteOverrun,UARTRxFramingError,UartTxTimeout,SwStartupTime,SwProcessingTime,SwProcessingTimeMax,SwLoopTime,SwImgCaptureTime,SwLensDistCorrTime,SwEstimationTime,RadEnabled,RadMode,RadFaultEvents,RadLastFaultIndex,RadCurrIteration,RadCurrSeed,InterfaceVersion,FirmwareVersion,CubeIR SN,IRCAM SN,
2019/04/04 - 14:02:45.264618,6.48,45.4062614440918,18.073549270629883,45.591312408447266,27.34894371032715,2.4933509826660156,27.34894371032715,0,28.755786895751953,27.325149536132812,28.755786895751953,0.0,0.0,0.0,Idle,None,False,False,False,False,False,False,4320,137,PowOn,Awake,Idle,0,0,0,0,0,0,0,False,False,False,False,True,False,False,False,False,False,False,False,False,False,False,False,False,False,False,False,False,False,False,False,False,False,False,False,1676,0,0,1000,0,0,0,False,ReadOnly,0,0,0,0,1,V0.1,      DEV1,    IR1800,
2019/04/04 - 14:02:47.034560,7.852,45.37379455566406,18.073549270629883,45.591312408447266,27.34894371032715,2.4933509826660156,27.34894371032715,0,28.787567138671875,27.325149536132812,28.787567138671875,0.0,0.0,0.0,Idle,None,False,False,False,False,False,False,4320,137,PowOn,Awake,Idle,0,0,0,0,0,0,0,False,False,False,False,True,False,False,False,False,False,False,False,False,False,False,False,False,False,False,False,False,False,False,False,False,False,False,False,1676,0,0,1000,0,0,0,False,ReadOnly,0,0,0,0,1,V0.1,      DEV1,    IR1800,
2019/04/04 - 14:02:48.022046,8.852,45.409507751464844,18.073549270629883,45.591312408447266,27.37166976928711,2.4933509826660156,27.37166976928711,0,28.755786895751953,27.325149536132812,28.787567138671875,0.0,0.0,0.0,Idle,None,False,False,False,False,False,False,4320,137,PowOn,Awake,Idle,0,0,0,0,0,0,0,False,False,False,False,True,False,False,False,False,False,False,False,False,False,False,False,False,False,False,False,False,False,False,False,False,False,False,False,1676,0,0,1000,0,0,0,False,ReadOnly,0,0,0,0,1,V0.1,      DEV1,    IR1800,
2019/04/04 - 14:02:49.011110,9.851,45.36730194091797,18.073549270629883,45.591312408447266,27.374916076660156,2.4933509826660156,27.374916076660156,0,28.771677017211914,27.325149536132812,28.787567138671875,0.0,0.0,0.0,Idle,None,False,False,False,False,False,False,4320,137,PowOn,Awake,Idle,0,0,0,0,0,0,0,False,False,False,False,True,False,False,False,False,False,False,False,False,False,False,False,False,False,False,False,False,False,False,False,False,False,False,False,1676,0,0,1000,0,0,0,False,ReadOnly,0,0,0,0,1,V0.1,      DEV1,    IR1800,
2019/04/04 - 14:02:51.053931,11.886,45.43223190307617,18.073549270629883,45.591312408447266,27.358684539794922,2.4933509826660156,27.381410598754883,0,28.803457260131836,27.325149536132812,28.83526611328125,0.0,0.0,0.0,Idle,None,False,False,False,False,False,False,4320,137,PowOn,Awake,Idle,0,0,0,0,0,0,0,False,False,False,False,True,False,False,False,False,False,False,False,False,False,False,False,False,False,False,False,False,False,False,False,False,False,False,False,1676,0,0,1000,0,0,0,False,ReadOnly,0,0,0,0,1,V0.1,      DEV1,    IR1800,
2019/04/04 - 14:02:51.133924,11.921,45.43223190307617,18.073549270629883,45.591312408447266,27.358684539794922,2.4933509826660156,27.381410598754883,0,28.803457260131836,27.325149536132812,28.83526611328125,0.0,0.0,0.0,Idle,None,False,False,False,False,False,False,4320,137,PowOn,Awake,Idle,0,0,0,0,0,0,0,False,False,False,False,True,False,False,False,False,False,False,False,False,False,False,False,False,False,False,False,False,False,False,False,False,False,False,False,1676,0,0,1000,0,0,0,False,ReadOnly,0,0,0,0,1,V0.1,      DEV1,    IR1800,
2019/04/04 - 14:02:52.018151,12.851,45.454959869384766,18.073549270629883,45.591312408447266,27.381410598754883,2.4933509826660156,27.381410598754883,0,28.771677017211914,27.325149536132812,28.83526611328125,0.0,0.0,0.0,Idle,None,False,False,False,False,False,False,4320,137,PowOn,Awake,Idle,0,0,0,0,0,0,0,False,False,False,False,True,False,False,False,False,False,False,False,False,False,False,False,False,False,False,False,False,False,False,False,False,False,False,False,1676,0,0,1000,0,0,0,False,ReadOnly,0,0,0,0,1,V0.1,      DEV1,    IR1800,
2019/04/04 - 14:02:53.034859,13.850,45.477684020996094,18.073549270629883,45.591312408447266,27.41712188720703,2.4933509826660156,27.41712188720703,0,28.882936477661133,27.325149536132812,28.882936477661133,0.0,0.0,0.0,Idle,None,False,False,False,False,False,False,4320,137,PowOn,Awake,Idle,0,0,0,0,0,0,0,False,False,False,False,True,False,False,False,False,False,False,False,False,False,False,False,False,False,False,False,False,False,False,False,False,False,False,False,1676,0,0,1000,0,0,0,False,ReadOnly,0,0,0,0,1,V0.1,      DEV1,    IR1800,
2019/04/04 - 14:02:54.023979,14.850,45.38677978515625,18.073549270629883,45.591312408447266,27.391149520874023,2.4933509826660156,27.41712188720703,0,28.81937599182129,27.325149536132812,28.882936477661133,0.0,0.0,0.0,Idle,None,False,False,False,False,False,False,4320,137,PowOn,Awake,Idle,0,0,0,0,0,0,0,False,False,False,False,True,False,False,False,False,False,False,False,False,False,False,False,False,False,False,False,False,False,False,False,False,False,False,False,1676,0,0,1000,0,0,0,False,ReadOnly,0,0,0,0,1,V0.1,      DEV1,    IR1800,
2019/04/04 - 14:02:55.039066,15.849,45.523136138916016,18.073549270629883,45.591312408447266,27.39439582824707,2.4933509826660156,27.41712188720703,0,28.882936477661133,27.325149536132812,28.882936477661133,0.0,0.0,0.0,Idle,None,False,False,False,False,False,False,4320,137,PowOn,Awake,Idle,0,0,0,0,0,0,0,False,False,False,False,True,False,False,False,False,False,False,False,False,False,False,False,False,False,False,False,False,False,False,False,False,False,False,False,1676,0,0,1000,0,0,0,False,ReadOnly,0,0,0,0,1,V0.1,      DEV1,    IR1800,
2019/04/04 - 14:02:56.034248,16.850,45.503658294677734,18.073549270629883,45.591312408447266,27.391149520874023,2.4933509826660156,27.41712188720703,0,28.867046356201172,27.325149536132812,28.882936477661133,0.0,0.0,0.0,Idle,None,False,False,False,False,False,False,4320,137,PowOn,Awake,Idle,0,0,0,0,0,0,0,False,False,False,False,True,False,False,False,False,False,False,False,False,False,False,False,False,False,False,False,False,False,False,False,False,False,False,False,1676,0,0,1000,0,0,0,False,ReadOnly,0,0,0,0,1,V0.1,      DEV1,    IR1800,
2019/04/04 - 14:02:57.012692,17.850,45.51664352416992,18.073549270629883,45.591312408447266,27.391149520874023,2.4933509826660156,27.41712188720703,0,28.787567138671875,27.325149536132812,28.882936477661133,0.0,0.0,0.0,Idle,None,False,False,False,False,False,False,4320,137,PowOn,Awake,Idle,0,0,0,0,0,0,0,False,False,False,False,True,False,False,False,False,False,False,False,False,False,False,False,False,False,False,False,False,False,False,False,False,False,False,False,1676,0,0,1000,0,0,0,False,ReadOnly,0,0,0,0,1,V0.1,      DEV1,    IR1800,
2019/04/04 - 14:02:58.023203,18.848,45.37704086303711,18.073549270629883,45.591312408447266,27.404136657714844,2.4933509826660156,27.41712188720703,0,28.771677017211914,27.325149536132812,28.882936477661133,0.0,0.0,0.0,Idle,None,False,False,False,False,False,False,4320,137,PowOn,Awake,Idle,0,0,0,0,0,0,0,False,False,False,False,True,False,False,False,False,False,False,False,False,False,False,False,False,False,False,False,False,False,False,False,False,False,False,False,1676,0,0,1000,0,0,0,False,ReadOnly,0,0,0,0,1,V0.1,      DEV1,    IR1800,
2019/04/04 - 14:02:59.009617,19.847,45.43223190307617,18.073549270629883,45.591312408447266,27.413875579833984,2.4933509826660156,27.41712188720703,0,28.930635452270508,27.325149536132812,28.930635452270508,27.0093994140625,0.0,27.0093994140625,Continuous,None,False,False,False,False,False,False,4320,137,PowOn,Awake,Idle,33211,33026,-324,-258,-9,-324,0,False,False,False,False,True,False,False,False,False,False,False,False,False,False,False,False,False,False,False,False,False,False,False,False,False,False,False,False,1676,216,216,1000,195,0,1,False,ReadOnly,0,0,0,0,1,V0.1,      DEV1,    IR1800,
2019/04/04 - 14:03:00.023808,20.848,45.51988983154297,18.073549270629883,45.591312408447266,27.287260055541992,2.4933509826660156,27.41712188720703,0,28.882936477661133,27.325149536132812,28.930635452270508,27.0093994140625,0.0,27.0093994140625,Continuous,None,False,False,False,False,False,False,4320,137,PowOn,Awake,Idle,33211,33022,-326,-260,-12,-326,0,False,False,False,False,True,False,False,False,False,False,False,False,False,False,False,False,False,False,False,False,False,False,False,False,False,False,False,False,1676,212,216,1000,192,0,0,False,ReadOnly,0,0,0,0,1,V0.1,      DEV1,    IR1800,
2019/04/04 - 14:03:01.009039,21.848,45.56534194946289,18.073549270629883,45.591312408447266,27.284013748168945,2.4933509826660156,27.41712188720703,0,28.898855209350586,27.325149536132812,28.930635452270508,27.0093994140625,0.0,27.0093994140625,Continuous,None,False,False,False,False,False,False,4320,137,PowOn,Awake,Idle,33211,33020,-324,-260,-10,-326,0,False,False,False,False,True,False,False,False,False,False,False,False,False,False,False,False,False,False,False,False,False,False,False,False,False,False,False,False,1676,213,216,1000,192,0,1,False,ReadOnly,0,0,0,0,1,V0.1,      DEV1,    IR1800,
2019/04/04 - 14:03:02.045689,22.848,45.41600036621094,18.073549270629883,45.591312408447266,27.30349349975586,2.4933509826660156,27.41712188720703,0,28.882936477661133,27.325149536132812,28.930635452270508,27.015552520751953,0.0,27.015552520751953,Continuous,None,False,False,False,False,False,False,4320,137,PowOn,Awake,Idle,33212,33023,-325,-260,-9,-326,0,False,False,False,False,True,False,False,False,False,False,False,False,False,False,False,False,False,False,False,False,False,False,False,False,False,False,False,False,1676,212,216,1000,192,0,0,False,ReadOnly,0,0,0,0,1,V0.1,      DEV1,    IR1800,
2019/04/04 - 14:03:04.172548,24.993,45.58806610107422,18.073549270629883,45.591312408447266,27.29050636291504,2.4933509826660156,27.41712188720703,0,28.83526611328125,27.325149536132812,28.930635452270508,27.015552520751953,0.0,27.015552520751953,Continuous,None,False,False,False,False,False,False,4320,137,PowOn,Awake,Capturing,33212,33021,-325,-261,-9,-326,0,False,False,False,False,True,False,False,False,False,False,False,False,False,False,False,False,False,False,False,False,False,False,False,False,False,False,False,False,1676,0,216,1000,192,0,1,False,ReadOnly,0,0,0,0,1,V0.1,      DEV1,    IR1800,
2019/04/04 - 14:03:04.251512,25.91,45.58806610107422,18.073549270629883,45.591312408447266,27.29050636291504,2.4933509826660156,27.41712188720703,0,28.83526611328125,27.325149536132812,28.930635452270508,27.015552520751953,0.0,27.015552520751953,Continuous,None,False,False,False,False,False,False,4320,137,PowOn,Awake,Capturing,33212,33021,-325,-261,-9,-326,0,False,False,False,False,True,False,False,False,False,False,False,False,False,False,False,False,False,False,False,False,False,False,False,False,False,False,False,False,1676,0,216,1000,192,0,1,False,ReadOnly,0,0,0,0,1,V0.1,      DEV1,    IR1800,
2019/04/04 - 14:03:05.006960,25.845,45.41275405883789,18.073549270629883,45.591312408447266,27.29050636291504,2.4933509826660156,27.41712188720703,0,28.882936477661133,27.325149536132812,28.930635452270508,27.021703720092773,0.0,27.021703720092773,Continuous,None,False,False,False,False,False,False,4320,137,PowOn,Awake,Idle,33213,33022,-323,-261,-7,-326,0,False,False,False,False,True,False,False,False,False,False,False,False,False,False,False,False,False,False,False,False,False,False,False,False,False,False,False,False,1676,212,216,1000,192,0,0,False,ReadOnly,0,0,0,0,1,V0.1,      DEV1,    IR1800,
2019/04/04 - 14:03:06.034308,26.845,45.46794509887695,18.073549270629883,45.591312408447266,27.274272918701172,2.4933509826660156,27.41712188720703,0,28.867046356201172,27.325149536132812,28.930635452270508,27.015552520751953,0.0,27.021703720092773,Continuous,None,False,False,False,False,False,False,4320,137,PowOn,Awake,Idle,33212,33022,-324,-261,-13,-326,0,False,False,False,False,True,False,False,False,False,False,False,False,False,False,False,False,False,False,False,False,False,False,False,False,False,False,False,False,1676,212,216,1000,192,0,0,False,ReadOnly,0,0,0,0,1,V0.1,      DEV1,    IR1800,
2019/04/04 - 14:03:07.012868,27.843,45.52638244628906,18.073549270629883,45.591312408447266,27.274272918701172,2.4933509826660156,27.41712188720703,0,28.914745330810547,27.325149536132812,28.930635452270508,27.0093994140625,0.0,27.021703720092773,Continuous,None,False,False,False,False,False,False,4320,137,PowOn,Awake,Idle,33211,33025,-323,-261,-14,-326,0,False,False,False,False,True,False,False,False,False,False,False,False,False,False,False,False,False,False,False,False,False,False,False,False,False,False,False,False,1676,212,216,1000,192,0,0,False,ReadOnly,0,0,0,0,1,V0.1,      DEV1,    IR1800,
2019/04/04 - 14:03:09.755654,30.577,45.48093032836914,18.073549270629883,45.591312408447266,27.30349349975586,2.4933509826660156,27.41712188720703,0,28.83526611328125,27.325149536132812,28.930635452270508,27.015552520751953,0.0,27.021703720092773,Continuous,None,False,False,False,False,False,False,4320,137,PowOn,Awake,Idle,33212,33023,-323,-237,-35,-326,0,False,False,False,False,True,False,False,False,False,False,False,False,False,False,False,False,False,False,False,False,False,False,False,False,False,False,False,False,1676,0,216,1000,192,0,1,False,ReadOnly,0,0,0,0,1,V0.1,      DEV1,    IR1800,
2019/04/04 - 14:03:09.841775,30.672,45.48093032836914,18.073549270629883,45.591312408447266,27.30349349975586,2.4933509826660156,27.41712188720703,0,28.83526611328125,27.325149536132812,28.930635452270508,27.015552520751953,0.0,27.021703720092773,Continuous,None,False,False,False,False,False,False,4320,137,PowOn,Awake,Idle,33212,33023,-323,-237,-35,-326,0,False,False,False,False,True,False,False,False,False,False,False,False,False,False,False,False,False,False,False,False,False,False,False,False,False,False,False,False,1676,0,216,1000,192,0,1,False,ReadOnly,0,0,0,0,1,V0.1,      DEV1,    IR1800,
2019/04/04 - 14:03:10.013194,30.844,45.48093032836914,18.073549270629883,45.591312408447266,27.30349349975586,2.4933509826660156,27.41712188720703,0,28.83526611328125,27.325149536132812,28.930635452270508,27.015552520751953,0.0,27.021703720092773,Continuous,None,False,False,False,False,False,False,4320,137,PowOn,Awake,Idle,33212,33023,-323,-237,-35,-326,0,False,False,False,False,True,False,False,False,False,False,False,False,False,False,False,False,False,False,False,False,False,False,False,False,False,False,False,False,1676,0,216,1000,192,0,1,False,ReadOnly,0,0,0,0,1,V0.1,      DEV1,    IR1800,
2019/04/04 - 14:03:11.020099,31.842,45.549110412597656,18.073549270629883,45.591312408447266,27.30024528503418,2.4933509826660156,27.41712188720703,0,28.85115623474121,27.325149536132812,28.930635452270508,27.003223419189453,0.0,27.021703720092773,Continuous,None,False,False,False,False,False,False,4320,137,PowOn,Awake,Idle,33210,33023,-323,-231,-65,-326,0,False,False,False,False,True,False,False,False,False,False,False,False,False,False,False,False,False,False,False,False,False,False,False,False,False,False,False,False,1676,212,216,1000,192,0,0,False,ReadOnly,0,0,0,0,1,V0.1,      DEV1,    IR1800,
2019/04/04 - 14:03:12.024086,32.843,45.49716567993164,18.073549270629883,45.591312408447266,27.30024528503418,2.4933509826660156,27.41712188720703,0,28.83526611328125,27.325149536132812,28.930635452270508,27.015552520751953,0.0,27.021703720092773,Continuous,None,False,False,False,False,False,False,4320,137,PowOn,Awake,Idle,33212,33023,-327,-251,-11,-327,0,False,False,False,False,True,False,False,False,False,False,False,False,False,False,False,False,False,False,False,False,False,False,False,False,False,False,False,False,1676,212,216,1000,192,0,1,False,ReadOnly,0,0,0,0,1,V0.1,      DEV1,    IR1800,
