Time,Runtime,Current3V3,Current3V3Min,Current3V3Max,CurrentHTPA,CurrentHTPAMin,CurrentHTPAMax,CurrentCubeDock3V3_1,TemperatureMCU,TemperatureMCUMin,TemperatureMCUMax,TemperatureHTPA,TemperatureHTPAMin,TemperatureHTPAMax,ADSSampleMode,HTPACalibLevel,HILEnabled,HILBusy,HILEnableEdgeDet,HILEnableLensDistCorr,HILEnablePolyFit,HILEnableAttEst,HTPADeviceID,HTPATableNumber,HtpaPowerState,HtpaWakeState,HtpaCaptureState,HtpaPTAT,HtpaVdd,HTPAImageLastMin,HTPAImageLastMean,HTPAImageLastMax,HTPAImageAllTimeMin,HTPAImageAllTimeMax,3V3OverCurrent,3V3UnderCurrent,HTPAOverCurrent,HTPAUnderCurrent,Timer1sOverRun,MCUOverTemperature,MCUUnderTemperature,HTPAOverTemperature,HTPAUnderTemperature,HTPACalibLookupOutOfRange,HTPANotResponding,HTPAConfigMismatch,HTPASpiTimeout,CommsTcSlotsBuffFull,CommsTcParamBuffFull,CommsUartProtError,CommsUartMsgIncomplete,CommsUartTcParamOverflow,UARTTxOverflow,CommsTcInvalidID,CommsTcInvalidPar,CommsTcInvalidParLen,CommsTcTimeout,CommsTlmInvalidID,UARTTxReadingEmptyBuffer,UARTRxByteOverrun,UARTRxFramingError,UartTxTimeout,SwStartupTime,SwProcessingTime,SwProcessingTimeMax,SwLoopTime,SwImgCaptureTime,SwLensDistCorrTime,SwEstimationTime,RadEnabled,RadMode,RadFaultEvents,RadLastFaultIndex,RadCurrIteration,RadCurrSeed,InterfaceVersion,FirmwareVersion,CubeIR SN,IRCAM SN,
2019/04/04 - 16:43:36.855655,9346.437,45.571834564208984,18.203411102294922,46.13024139404297,27.30349349975586,2.4965975284576416,27.540491104125977,0,29.105485916137695,27.19797134399414,29.312145233154297,27.292455673217773,0.0,27.397069931030273,Continuous,Tobj,False,False,False,False,False,False,4320,137,PowOn,Awake,Idle,33257,33024,0,2707,3169,-331,3176,False,False,False,False,True,False,False,False,False,False,False,False,False,False,False,False,False,False,False,False,False,False,False,False,False,False,False,False,1668,355,357,1000,320,11,2,False,ReadOnly,0,0,0,0,1,V0.1,      DEV1,    IR1800,
2019/04/04 - 16:43:37.817361,9347.438,45.42573928833008,18.203411102294922,46.13024139404297,27.309986114501953,2.4965975284576416,27.540491104125977,0,29.13729476928711,27.19797134399414,29.312145233154297,27.292455673217773,0.0,27.397069931030273,Continuous,Tobj,False,False,False,False,False,False,4320,137,PowOn,Awake,Idle,33257,33026,0,2707,3167,-331,3176,False,False,False,False,True,False,False,False,False,False,False,False,False,False,False,False,False,False,False,False,False,False,False,False,False,False,False,False,1668,356,357,1000,321,12,2,False,ReadOnly,0,0,0,0,1,V0.1,      DEV1,    IR1800,
2019/04/04 - 16:43:38.791940,9348.436,45.42573928833008,18.203411102294922,46.13024139404297,27.30349349975586,2.4965975284576416,27.540491104125977,0,29.089595794677734,27.19797134399414,29.312145233154297,27.2801513671875,0.0,27.397069931030273,Continuous,Tobj,False,False,False,False,False,False,4320,137,PowOn,Awake,Idle,33255,33023,0,2708,3170,-331,3176,False,False,False,False,True,False,False,False,False,False,False,False,False,False,False,False,False,False,False,False,False,False,False,False,False,False,False,False,1668,355,357,1000,320,11,2,False,ReadOnly,0,0,0,0,1,V0.1,      DEV1,    IR1800,
2019/04/04 - 16:43:39.824836,9349.437,45.5426139831543,18.203411102294922,46.13024139404297,27.309986114501953,2.4965975284576416,27.540491104125977,0,29.089595794677734,27.19797134399414,29.312145233154297,27.292455673217773,0.0,27.397069931030273,Continuous,Tobj,False,False,False,False,False,False,4320,137,PowOn,Awake,Idle,33257,33025,0,2712,3169,-331,3176,False,False,False,False,True,False,False,False,False,False,False,False,False,False,False,False,False,False,False,False,False,False,False,False,False,False,False,False,1668,355,357,1000,321,12,1,False,ReadOnly,0,0,0,0,1,V0.1,      DEV1,    IR1800,
2019/04/04 - 16:43:40.817076,9350.436,45.513397216796875,18.203411102294922,46.13024139404297,27.296998977661133,2.4965975284576416,27.540491104125977,0,27.976879119873047,27.19797134399414,29.312145233154297,27.298608779907227,0.0,27.397069931030273,Continuous,Tobj,False,False,False,False,False,False,4320,137,PowOn,Awake,Idle,33258,33024,0,2736,3146,-331,3176,False,False,False,False,True,False,False,False,False,False,False,False,False,False,False,False,False,False,False,False,False,False,False,False,False,False,False,False,1668,355,357,1000,320,12,2,False,ReadOnly,0,0,0,0,1,V0.1,      DEV1,    IR1800,
2019/04/04 - 16:43:42.912014,9352.540,45.56534194946289,18.203411102294922,46.13024139404297,27.319725036621094,2.4965975284576416,27.540491104125977,0,29.184965133666992,27.19797134399414,29.312145233154297,27.298608779907227,0.0,27.397069931030273,Continuous,Tobj,False,False,False,False,False,False,4320,137,PowOn,Awake,Idle,33258,33024,0,2736,3146,-331,3176,False,False,False,False,True,False,False,False,False,False,False,False,False,False,False,False,False,False,False,False,False,False,False,False,False,False,False,False,1668,0,357,1000,320,12,2,False,ReadOnly,0,0,0,0,1,V0.1,      DEV1,    IR1800,
2019/04/04 - 16:43:42.997023,9352.638,45.56534194946289,18.203411102294922,46.13024139404297,27.319725036621094,2.4965975284576416,27.540491104125977,0,29.184965133666992,27.19797134399414,29.312145233154297,27.298608779907227,0.0,27.397069931030273,Continuous,Tobj,False,False,False,False,False,False,4320,137,PowOn,Awake,Idle,33258,33024,0,2736,3146,-331,3176,False,False,False,False,True,False,False,False,False,False,False,False,False,False,False,False,False,False,False,False,False,False,False,False,False,False,False,False,1668,0,357,1000,320,12,2,False,ReadOnly,0,0,0,0,1,V0.1,      DEV1,    IR1800,
2019/04/04 - 16:43:43.822412,9353.434,45.513397216796875,18.203411102294922,46.13024139404297,27.30024528503418,2.4965975284576416,27.540491104125977,0,29.280336380004883,27.19797134399414,29.312145233154297,27.292455673217773,0.0,27.397069931030273,Continuous,Tobj,False,False,False,False,False,False,4320,137,PowOn,Awake,Idle,33257,33025,0,2742,3150,-331,3176,False,False,False,False,True,False,False,False,False,False,False,False,False,False,False,False,False,False,False,False,False,False,False,False,False,False,False,False,1668,355,357,1000,320,12,2,False,ReadOnly,0,0,0,0,1,V0.1,      DEV1,    IR1800,
2019/04/04 - 16:43:44.831905,9354.434,45.49391555786133,18.203411102294922,46.13024139404297,27.309986114501953,2.4965975284576416,27.540491104125977,0,29.15318489074707,27.19797134399414,29.312145233154297,27.292455673217773,0.0,27.397069931030273,Continuous,Tobj,False,False,False,False,False,False,4320,137,PowOn,Awake,Idle,33257,33025,0,2744,3139,-331,3176,False,False,False,False,True,False,False,False,False,False,False,False,False,False,False,False,False,False,False,False,False,False,False,False,False,False,False,False,1668,354,357,1000,319,12,1,False,ReadOnly,0,0,0,0,1,V0.1,      DEV1,    IR1800,
2019/04/04 - 16:43:45.803490,9355.432,45.43223190307617,18.203411102294922,46.13024139404297,27.306739807128906,2.4965975284576416,27.540491104125977,0,29.15318489074707,27.19797134399414,29.312145233154297,27.298608779907227,0.0,27.397069931030273,Continuous,Tobj,False,False,False,False,False,False,4320,137,PowOn,Awake,Idle,33258,33022,0,2743,3168,-331,3176,False,False,False,False,True,False,False,False,False,False,False,False,False,False,False,False,False,False,False,False,False,False,False,False,False,False,False,False,1668,355,357,1000,320,12,2,False,ReadOnly,0,0,0,0,1,V0.1,      DEV1,    IR1800,
2019/04/04 - 16:43:47.806812,9357.449,45.40301513671875,18.203411102294922,46.13024139404297,27.313232421875,2.4965975284576416,27.540491104125977,0,29.121376037597656,27.19797134399414,29.312145233154297,27.298608779907227,0.0,27.397069931030273,Continuous,Tobj,False,False,False,False,False,False,4320,137,PowOn,Awake,Idle,33258,33022,0,2743,3168,-331,3176,False,False,False,False,True,False,False,False,False,False,False,False,False,False,False,False,False,False,False,False,False,False,False,False,False,False,False,False,1668,0,357,1000,320,12,2,False,ReadOnly,0,0,0,0,1,V0.1,      DEV1,    IR1800,
2019/04/04 - 16:43:47.885800,9357.530,45.40301513671875,18.203411102294922,46.13024139404297,27.313232421875,2.4965975284576416,27.540491104125977,0,29.121376037597656,27.19797134399414,29.312145233154297,27.298608779907227,0.0,27.397069931030273,Continuous,Tobj,False,False,False,False,False,False,4320,137,PowOn,Awake,Idle,33258,33022,0,2743,3168,-331,3176,False,False,False,False,True,False,False,False,False,False,False,False,False,False,False,False,False,False,False,False,False,False,False,False,False,False,False,False,1668,0,357,1000,320,12,2,False,ReadOnly,0,0,0,0,1,V0.1,      DEV1,    IR1800,
2019/04/04 - 16:43:48.827159,9358.431,45.5523567199707,18.203411102294922,46.13024139404297,27.313232421875,2.4965975284576416,27.540491104125977,0,29.16907501220703,27.19797134399414,29.312145233154297,27.292455673217773,0.0,27.397069931030273,Continuous,Tobj,False,False,False,False,False,False,4320,137,PowOn,Awake,Idle,33257,33020,0,2745,3145,-331,3176,False,False,False,False,True,False,False,False,False,False,False,False,False,False,False,False,False,False,False,False,False,False,False,False,False,False,False,False,1668,355,357,1000,320,11,2,False,ReadOnly,0,0,0,0,1,V0.1,      DEV1,    IR1800,
2019/04/04 - 16:43:51.483912,9361.114,45.591312408447266,18.203411102294922,46.13024139404297,27.306739807128906,2.4965975284576416,27.540491104125977,0,29.216773986816406,27.19797134399414,29.312145233154297,27.292455673217773,0.0,27.397069931030273,Continuous,Tobj,False,False,False,False,False,False,4320,137,PowOn,Awake,Idle,33257,33010,0,2748,3138,-331,3176,False,False,False,False,True,False,False,False,False,False,False,False,False,False,False,False,False,False,False,False,False,False,False,False,False,False,False,False,1668,0,357,1000,320,12,2,False,ReadOnly,0,0,0,0,1,V0.1,      DEV1,    IR1800,
2019/04/04 - 16:43:51.563938,9361.205,45.591312408447266,18.203411102294922,46.13024139404297,27.306739807128906,2.4965975284576416,27.540491104125977,0,29.216773986816406,27.19797134399414,29.312145233154297,27.292455673217773,0.0,27.397069931030273,Continuous,Tobj,False,False,False,False,False,False,4320,137,PowOn,Awake,Idle,33257,33010,0,2748,3138,-331,3176,False,False,False,False,True,False,False,False,False,False,False,False,False,False,False,False,False,False,False,False,False,False,False,False,False,False,False,False,1668,0,357,1000,320,12,2,False,ReadOnly,0,0,0,0,1,V0.1,      DEV1,    IR1800,
2019/04/04 - 16:43:51.831520,9361.439,45.591312408447266,18.203411102294922,46.13024139404297,27.306739807128906,2.4965975284576416,27.540491104125977,0,29.216773986816406,27.19797134399414,29.312145233154297,27.292455673217773,0.0,27.397069931030273,Continuous,Tobj,False,False,False,False,False,False,4320,137,PowOn,Awake,Idle,33257,33010,0,2748,3138,-331,3176,False,False,False,False,True,False,False,False,False,False,False,False,False,False,False,False,False,False,False,False,False,False,False,False,False,False,False,False,1668,0,357,1000,320,12,2,False,ReadOnly,0,0,0,0,1,V0.1,      DEV1,    IR1800,
2019/04/04 - 16:43:52.832775,9362.432,45.51988983154297,18.203411102294922,46.13024139404297,27.36193084716797,2.4965975284576416,27.540491104125977,0,29.248554229736328,27.19797134399414,29.312145233154297,27.292455673217773,0.0,27.397069931030273,Continuous,Tobj,False,False,False,False,False,False,4320,137,PowOn,Awake,Idle,33257,33014,0,2749,3136,-331,3176,False,False,False,False,True,False,False,False,False,False,False,False,False,False,False,False,False,False,False,False,False,False,False,False,False,False,False,False,1668,355,357,1000,320,11,2,False,ReadOnly,0,0,0,0,1,V0.1,      DEV1,    IR1800,
2019/04/04 - 16:43:53.799437,9363.431,45.5426139831543,18.203411102294922,46.13024139404297,27.316478729248047,2.4965975284576416,27.540491104125977,0,29.200855255126953,27.19797134399414,29.312145233154297,27.286304473876953,0.0,27.397069931030273,Continuous,Tobj,False,False,False,False,False,False,4320,137,PowOn,Awake,Idle,33256,33012,0,2749,3136,-331,3176,False,False,False,False,True,False,False,False,False,False,False,False,False,False,False,False,False,False,False,False,False,False,False,False,False,False,False,False,1668,355,357,1000,320,12,2,False,ReadOnly,0,0,0,0,1,V0.1,      DEV1,    IR1800,
2019/04/04 - 16:43:54.799036,9364.430,45.44521713256836,18.203411102294922,46.13024139404297,27.319725036621094,2.4965975284576416,27.540491104125977,0,29.26444435119629,27.19797134399414,29.312145233154297,27.286304473876953,0.0,27.397069931030273,Continuous,Tobj,False,False,False,False,False,False,4320,137,PowOn,Awake,Idle,33256,33012,0,2739,3155,-331,3176,False,False,False,False,True,False,False,False,False,False,False,False,False,False,False,False,False,False,False,False,False,False,False,False,False,False,False,False,1668,355,357,1000,320,11,2,False,ReadOnly,0,0,0,0,1,V0.1,      DEV1,    IR1800,
2019/04/04 - 16:43:55.836481,9365.428,45.52962875366211,18.203411102294922,46.13024139404297,27.284013748168945,2.4965975284576416,27.540491104125977,0,29.216773986816406,27.19797134399414,29.312145233154297,27.292455673217773,0.0,27.397069931030273,Continuous,Tobj,False,False,False,False,False,False,4320,137,PowOn,Awake,Idle,33257,33016,0,2764,3139,-331,3176,False,False,False,False,True,False,False,False,False,False,False,False,False,False,False,False,False,False,False,False,False,False,False,False,False,False,False,False,1668,354,357,1000,319,12,1,False,ReadOnly,0,0,0,0,1,V0.1,      DEV1,    IR1800,
2019/04/04 - 16:43:56.796026,9366.428,45.51015090942383,18.203411102294922,46.13024139404297,27.293752670288086,2.4965975284576416,27.540491104125977,0,29.232664108276367,27.19797134399414,29.312145233154297,27.292455673217773,0.0,27.397069931030273,Continuous,Tobj,False,False,False,False,False,False,4320,137,PowOn,Awake,Idle,33257,33008,0,2771,3140,-331,3176,False,False,False,False,True,False,False,False,False,False,False,False,False,False,False,False,False,False,False,False,False,False,False,False,False,False,False,False,1668,355,357,1000,320,12,2,False,ReadOnly,0,0,0,0,1,V0.1,      DEV1,    IR1800,
2019/04/04 - 16:43:57.839682,9367.431,45.52962875366211,18.203411102294922,46.13024139404297,27.309986114501953,2.4965975284576416,27.540491104125977,0,29.26444435119629,27.19797134399414,29.312145233154297,27.298608779907227,0.0,27.397069931030273,Continuous,Tobj,False,False,False,False,False,False,4320,137,PowOn,Awake,Idle,33258,33008,0,2761,3141,-331,3176,False,False,False,False,True,False,False,False,False,False,False,False,False,False,False,False,False,False,False,False,False,False,False,False,False,False,False,False,1668,354,357,1000,319,12,1,False,ReadOnly,0,0,0,0,1,V0.1,      DEV1,    IR1800,
2019/04/04 - 16:44:00.494864,9370.111,45.57508087158203,18.203411102294922,46.13024139404297,27.32621955871582,2.4965975284576416,27.540491104125977,0,29.26444435119629,27.19797134399414,29.312145233154297,27.286304473876953,0.0,27.397069931030273,Continuous,Tobj,False,False,False,False,False,False,4320,137,PowOn,Awake,Idle,33256,33008,0,2759,3142,-331,3176,False,False,False,False,True,False,False,False,False,False,False,False,False,False,False,False,False,False,False,False,False,False,False,False,False,False,False,False,1668,0,357,1000,320,11,2,False,ReadOnly,0,0,0,0,1,V0.1,      DEV1,    IR1800,
2019/04/04 - 16:44:00.578952,9370.212,45.57508087158203,18.203411102294922,46.13024139404297,27.32621955871582,2.4965975284576416,27.540491104125977,0,29.26444435119629,27.19797134399414,29.312145233154297,27.286304473876953,0.0,27.397069931030273,Continuous,Tobj,False,False,False,False,False,False,4320,137,PowOn,Awake,Idle,33256,33008,0,2759,3142,-331,3176,False,False,False,False,True,False,False,False,False,False,False,False,False,False,False,False,False,False,False,False,False,False,False,False,False,False,False,False,1668,0,357,1000,320,11,2,False,ReadOnly,0,0,0,0,1,V0.1,      DEV1,    IR1800,
2019/04/04 - 16:44:00.791864,9370.425,45.57508087158203,18.203411102294922,46.13024139404297,27.32621955871582,2.4965975284576416,27.540491104125977,0,29.26444435119629,27.19797134399414,29.312145233154297,27.286304473876953,0.0,27.397069931030273,Continuous,Tobj,False,False,False,False,False,False,4320,137,PowOn,Awake,Idle,33256,33008,0,2759,3142,-331,3176,False,False,False,False,True,False,False,False,False,False,False,False,False,False,False,False,False,False,False,False,False,False,False,False,False,False,False,False,1668,0,357,1000,320,11,2,False,ReadOnly,0,0,0,0,1,V0.1,      DEV1,    IR1800,
2019/04/04 - 16:44:01.832808,9371.427,45.44846725463867,18.203411102294922,46.13024139404297,27.332712173461914,2.4965975284576416,27.540491104125977,0,29.280336380004883,27.19797134399414,29.312145233154297,27.292455673217773,0.0,27.397069931030273,Continuous,Tobj,False,False,False,False,False,False,4320,137,PowOn,Awake,Idle,33257,33013,0,2759,3139,-331,3176,False,False,False,False,True,False,False,False,False,False,False,False,False,False,False,False,False,False,False,False,False,False,False,False,False,False,False,False,1668,354,357,1000,319,11,2,False,ReadOnly,0,0,0,0,1,V0.1,      DEV1,    IR1800,
2019/04/04 - 16:44:02.802253,9372.424,45.41275405883789,18.203411102294922,46.13024139404297,27.313232421875,2.4965975284576416,27.540491104125977,0,29.26444435119629,27.19797134399414,29.312145233154297,27.298608779907227,0.0,27.397069931030273,Continuous,Tobj,False,False,False,False,False,False,4320,137,PowOn,Awake,Idle,33258,33013,0,2759,3148,-331,3176,False,False,False,False,True,False,False,False,False,False,False,False,False,False,False,False,False,False,False,False,False,False,False,False,False,False,False,False,1668,355,357,1000,320,12,2,False,ReadOnly,0,0,0,0,1,V0.1,      DEV1,    IR1800,
2019/04/04 - 16:44:03.833861,9373.424,45.42573928833008,18.203411102294922,46.13024139404297,27.32297134399414,2.4965975284576416,27.540491104125977,0,29.312145233154297,27.19797134399414,29.312145233154297,27.292455673217773,0.0,27.397069931030273,Continuous,Tobj,False,False,False,False,False,False,4320,137,PowOn,Awake,Idle,33257,33012,0,2759,3145,-331,3176,False,False,False,False,True,False,False,False,False,False,False,False,False,False,False,False,False,False,False,False,False,False,False,False,False,False,False,False,1668,354,357,1000,319,11,2,False,ReadOnly,0,0,0,0,1,V0.1,      DEV1,    IR1800,
2019/04/04 - 16:44:06.633624,9376.250,45.46145248413086,18.203411102294922,46.13024139404297,27.30349349975586,2.4965975284576416,27.540491104125977,0,29.34392547607422,27.19797134399414,29.34392547607422,27.292455673217773,0.0,27.397069931030273,Continuous,Tobj,False,False,False,False,False,False,4320,137,PowOn,Awake,Idle,33257,33011,0,2759,3166,-331,3176,False,False,False,False,True,False,False,False,False,False,False,False,False,False,False,False,False,False,False,False,False,False,False,False,False,False,False,False,1668,0,357,1000,320,12,2,False,ReadOnly,0,0,0,0,1,V0.1,      DEV1,    IR1800,
2019/04/04 - 16:44:06.721597,9376.349,45.46145248413086,18.203411102294922,46.13024139404297,27.30349349975586,2.4965975284576416,27.540491104125977,0,29.34392547607422,27.19797134399414,29.34392547607422,27.292455673217773,0.0,27.397069931030273,Continuous,Tobj,False,False,False,False,False,False,4320,137,PowOn,Awake,Idle,33257,33011,0,2759,3166,-331,3176,False,False,False,False,True,False,False,False,False,False,False,False,False,False,False,False,False,False,False,False,False,False,False,False,False,False,False,False,1668,0,357,1000,320,12,2,False,ReadOnly,0,0,0,0,1,V0.1,      DEV1,    IR1800,
2019/04/04 - 16:44:06.814732,9376.443,45.46145248413086,18.203411102294922,46.13024139404297,27.30349349975586,2.4965975284576416,27.540491104125977,0,29.34392547607422,27.19797134399414,29.34392547607422,27.292455673217773,0.0,27.397069931030273,Continuous,Tobj,False,False,False,False,False,False,4320,137,PowOn,Awake,Idle,33257,33011,0,2759,3166,-331,3176,False,False,False,False,True,False,False,False,False,False,False,False,False,False,False,False,False,False,False,False,False,False,False,False,False,False,False,False,1668,0,357,1000,320,12,2,False,ReadOnly,0,0,0,0,1,V0.1,      DEV1,    IR1800,
2019/04/04 - 16:44:07.822998,9377.425,45.50041198730469,18.203411102294922,46.13024139404297,27.316478729248047,2.4965975284576416,27.540491104125977,0,29.312145233154297,27.19797134399414,29.34392547607422,27.292455673217773,0.0,27.397069931030273,Continuous,Tobj,False,False,False,False,False,False,4320,137,PowOn,Awake,Idle,33257,33010,0,2760,3172,-331,3176,False,False,False,False,True,False,False,False,False,False,False,False,False,False,False,False,False,False,False,False,False,False,False,False,False,False,False,False,1668,355,357,1000,320,11,2,False,ReadOnly,0,0,0,0,1,V0.1,      DEV1,    IR1800,
2019/04/04 - 16:44:08.827511,9378.424,45.545860290527344,18.203411102294922,46.13024139404297,27.319725036621094,2.4965975284576416,27.540491104125977,0,29.248554229736328,27.19797134399414,29.34392547607422,27.298608779907227,0.0,27.397069931030273,Continuous,Tobj,False,False,False,False,False,False,4320,137,PowOn,Awake,Idle,33258,33010,0,2756,3170,-331,3176,False,False,False,False,True,False,False,False,False,False,False,False,False,False,False,False,False,False,False,False,False,False,False,False,False,False,False,False,1668,355,357,1000,320,12,2,False,ReadOnly,0,0,0,0,1,V0.1,      DEV1,    IR1800,
2019/04/04 - 16:44:09.865901,9379.422,45.581573486328125,18.203411102294922,46.13024139404297,27.319725036621094,2.4965975284576416,27.540491104125977,0,29.375734329223633,27.19797134399414,29.375734329223633,27.292455673217773,0.0,27.397069931030273,Continuous,Tobj,False,False,False,False,False,False,4320,137,PowOn,Awake,Idle,33257,33011,0,2708,3171,-331,3176,False,False,False,False,True,False,False,False,False,False,False,False,False,False,False,False,False,False,False,False,False,False,False,False,False,False,False,False,1668,356,357,1000,321,12,2,False,ReadOnly,0,0,0,0,1,V0.1,      DEV1,    IR1800,
2019/04/04 - 16:44:10.807508,9380.421,45.50690460205078,18.203411102294922,46.13024139404297,27.313232421875,2.4965975284576416,27.540491104125977,0,29.34392547607422,27.19797134399414,29.375734329223633,27.286304473876953,0.0,27.397069931030273,Continuous,Tobj,False,False,False,False,False,False,4320,137,PowOn,Awake,Idle,33256,33010,0,2708,3173,-331,3176,False,False,False,False,True,False,False,False,False,False,False,False,False,False,False,False,False,False,False,False,False,False,False,False,False,False,False,False,1668,355,357,1000,320,11,2,False,ReadOnly,0,0,0,0,1,V0.1,      DEV1,    IR1800,
2019/04/04 - 16:44:11.845693,9381.422,45.477684020996094,18.203411102294922,46.13024139404297,27.296998977661133,2.4965975284576416,27.540491104125977,0,29.34392547607422,27.19797134399414,29.375734329223633,27.304759979248047,0.0,27.397069931030273,Continuous,Tobj,False,False,False,False,False,False,4320,137,PowOn,Awake,Idle,33259,33011,0,2708,3171,-331,3176,False,False,False,False,True,False,False,False,False,False,False,False,False,False,False,False,False,False,False,False,False,False,False,False,False,False,False,False,1668,356,357,1000,321,12,2,False,ReadOnly,0,0,0,0,1,V0.1,      DEV1,    IR1800,
2019/04/04 - 16:44:12.808027,9382.421,45.51664352416992,18.203411102294922,46.13024139404297,27.306739807128906,2.4965975284576416,27.540491104125977,0,29.26444435119629,27.19797134399414,29.375734329223633,27.292455673217773,0.0,27.397069931030273,Continuous,Tobj,False,False,False,False,False,False,4320,137,PowOn,Awake,Idle,33257,33012,0,2708,3172,-331,3176,False,False,False,False,True,False,False,False,False,False,False,False,False,False,False,False,False,False,False,False,False,False,False,False,False,False,False,False,1668,355,357,1000,320,11,2,False,ReadOnly,0,0,0,0,1,V0.1,      DEV1,    IR1800,
2019/04/04 - 16:44:13.825678,9383.421,45.5361213684082,18.203411102294922,46.13024139404297,27.319725036621094,2.4965975284576416,27.540491104125977,0,29.407514572143555,27.19797134399414,29.407514572143555,27.292455673217773,0.0,27.397069931030273,Continuous,Tobj,False,False,False,False,False,False,4320,137,PowOn,Awake,Idle,33257,33011,0,2708,3170,-331,3176,False,False,False,False,True,False,False,False,False,False,False,False,False,False,False,False,False,False,False,False,False,False,False,False,False,False,False,False,1668,356,357,1000,321,12,2,False,ReadOnly,0,0,0,0,1,V0.1,      DEV1,    IR1800,
2019/04/04 - 16:44:14.811095,9384.423,45.562095642089844,18.203411102294922,46.13024139404297,27.316478729248047,2.4965975284576416,27.540491104125977,0,29.26444435119629,27.19797134399414,29.407514572143555,27.298608779907227,0.0,27.397069931030273,Continuous,Tobj,False,False,False,False,False,False,4320,137,PowOn,Awake,Idle,33258,33012,0,2708,3172,-331,3176,False,False,False,False,True,False,False,False,False,False,False,False,False,False,False,False,False,False,False,False,False,False,False,False,False,False,False,False,1668,355,357,1000,320,11,2,False,ReadOnly,0,0,0,0,1,V0.1,      DEV1,    IR1800,
2019/04/04 - 16:44:15.842643,9385.422,45.487422943115234,18.203411102294922,46.13024139404297,27.319725036621094,2.4965975284576416,27.540491104125977,0,29.232664108276367,27.19797134399414,29.407514572143555,27.286304473876953,0.0,27.397069931030273,Continuous,Tobj,False,False,False,False,False,False,4320,137,PowOn,Awake,Idle,33256,33013,0,2708,3171,-331,3176,False,False,False,False,True,False,False,False,False,False,False,False,False,False,False,False,False,False,False,False,False,False,False,False,False,False,False,False,1668,356,357,1000,321,12,2,False,ReadOnly,0,0,0,0,1,V0.1,      DEV1,    IR1800,
2019/04/04 - 16:44:16.827008,9386.419,45.51015090942383,18.203411102294922,46.13024139404297,27.30024528503418,2.4965975284576416,27.540491104125977,0,29.26444435119629,27.19797134399414,29.407514572143555,27.292455673217773,0.0,27.397069931030273,Continuous,Tobj,False,False,False,False,False,False,4320,137,PowOn,Awake,Idle,33257,33015,0,2708,3171,-331,3176,False,False,False,False,True,False,False,False,False,False,False,False,False,False,False,False,False,False,False,False,False,False,False,False,False,False,False,False,1668,355,357,1000,320,11,2,False,ReadOnly,0,0,0,0,1,V0.1,      DEV1,    IR1800,
2019/04/04 - 16:44:17.830471,9387.418,45.46145248413086,18.203411102294922,46.13024139404297,27.306739807128906,2.4965975284576416,27.540491104125977,0,29.105485916137695,27.19797134399414,29.407514572143555,27.286304473876953,0.0,27.397069931030273,Continuous,Tobj,False,False,False,False,False,False,4320,137,PowOn,Awake,Idle,33256,33013,0,2708,3172,-331,3176,False,False,False,False,True,False,False,False,False,False,False,False,False,False,False,False,False,False,False,False,False,False,False,False,False,False,False,False,1668,356,357,1000,321,12,2,False,ReadOnly,0,0,0,0,1,V0.1,      DEV1,    IR1800,
2019/04/04 - 16:44:18.828989,9388.417,45.571834564208984,18.203411102294922,46.13024139404297,27.319725036621094,2.4965975284576416,27.540491104125977,0,29.312145233154297,27.19797134399414,29.407514572143555,27.298608779907227,0.0,27.397069931030273,Continuous,Tobj,False,False,False,False,False,False,4320,137,PowOn,Awake,Idle,33258,33014,0,2708,3171,-331,3176,False,False,False,False,True,False,False,False,False,False,False,False,False,False,False,False,False,False,False,False,False,False,False,False,False,False,False,False,1668,355,357,1000,320,11,2,False,ReadOnly,0,0,0,0,1,V0.1,      DEV1,    IR1800,
2019/04/04 - 16:44:19.812543,9389.419,45.51015090942383,18.203411102294922,46.13024139404297,27.32297134399414,2.4965975284576416,27.540491104125977,0,29.280336380004883,27.19797134399414,29.407514572143555,27.292455673217773,0.0,27.397069931030273,Continuous,Tobj,False,False,False,False,False,False,4320,137,PowOn,Awake,Idle,33257,33013,0,2707,3169,-331,3176,False,False,False,False,True,False,False,False,False,False,False,False,False,False,False,False,False,False,False,False,False,False,False,False,False,False,False,False,1668,356,357,1000,321,12,2,False,ReadOnly,0,0,0,0,1,V0.1,      DEV1,    IR1800,
2019/04/04 - 16:44:20.814827,9390.417,45.61404037475586,18.203411102294922,46.13024139404297,27.316478729248047,2.4965975284576416,27.540491104125977,0,29.35981559753418,27.19797134399414,29.407514572143555,27.292455673217773,0.0,27.397069931030273,Continuous,Tobj,False,False,False,False,False,False,4320,137,PowOn,Awake,Idle,33257,33013,0,2707,3168,-331,3176,False,False,False,False,True,False,False,False,False,False,False,False,False,False,False,False,False,False,False,False,False,False,False,False,False,False,False,False,1668,355,357,1000,320,11,2,False,ReadOnly,0,0,0,0,1,V0.1,      DEV1,    IR1800,
2019/04/04 - 16:44:21.812832,9391.416,45.409507751464844,18.203411102294922,46.13024139404297,27.29050636291504,2.4965975284576416,27.540491104125977,0,29.184965133666992,27.19797134399414,29.407514572143555,27.292455673217773,0.0,27.397069931030273,Continuous,Tobj,False,False,False,False,False,False,4320,137,PowOn,Awake,Idle,33257,33011,0,2707,3170,-331,3176,False,False,False,False,True,False,False,False,False,False,False,False,False,False,False,False,False,False,False,False,False,False,False,False,False,False,False,False,1668,355,357,1000,321,12,1,False,ReadOnly,0,0,0,0,1,V0.1,      DEV1,    IR1800,
2019/04/04 - 16:44:22.835117,9392.419,45.59455871582031,18.203411102294922,46.13024139404297,27.309986114501953,2.4965975284576416,27.540491104125977,0,29.232664108276367,27.19797134399414,29.407514572143555,27.298608779907227,0.0,27.397069931030273,Continuous,Tobj,False,False,False,False,False,False,4320,137,PowOn,Awake,Idle,33258,33013,0,2708,3169,-331,3176,False,False,False,False,True,False,False,False,False,False,False,False,False,False,False,False,False,False,False,False,False,False,False,False,False,False,False,False,1668,355,357,1000,320,11,2,False,ReadOnly,0,0,0,0,1,V0.1,      DEV1,    IR1800,
2019/04/04 - 16:44:23.801706,9393.414,45.5588493347168,18.203411102294922,46.13024139404297,27.293752670288086,2.4965975284576416,27.540491104125977,0,29.248554229736328,27.19797134399414,29.407514572143555,27.3109130859375,0.0,27.397069931030273,Continuous,Tobj,False,False,False,False,False,False,4320,137,PowOn,Awake,Idle,33260,33014,0,2707,3170,-331,3176,False,False,False,False,True,False,False,False,False,False,False,False,False,False,False,False,False,False,False,False,False,False,False,False,False,False,False,False,1668,355,357,1000,320,12,1,False,ReadOnly,0,0,0,0,1,V0.1,      DEV1,    IR1800,
2019/04/04 - 16:44:24.823172,9394.416,45.58806610107422,18.203411102294922,46.13024139404297,27.309986114501953,2.4965975284576416,27.540491104125977,0,29.200855255126953,27.19797134399414,29.407514572143555,27.292455673217773,0.0,27.397069931030273,Continuous,Tobj,False,False,False,False,False,False,4320,137,PowOn,Awake,Idle,33257,33016,0,2707,3167,-331,3176,False,False,False,False,True,False,False,False,False,False,False,False,False,False,False,False,False,False,False,False,False,False,False,False,False,False,False,False,1668,355,357,1000,320,12,2,False,ReadOnly,0,0,0,0,1,V0.1,      DEV1,    IR1800,
2019/04/04 - 16:44:25.798813,9395.415,45.38677978515625,18.203411102294922,46.13024139404297,27.306739807128906,2.4965975284576416,27.540491104125977,0,29.26444435119629,27.19797134399414,29.407514572143555,27.304759979248047,0.0,27.397069931030273,Continuous,Tobj,False,False,False,False,False,False,4320,137,PowOn,Awake,Idle,33259,33012,0,2707,3172,-331,3176,False,False,False,False,True,False,False,False,False,False,False,False,False,False,False,False,False,False,False,False,False,False,False,False,False,False,False,False,1668,355,357,1000,320,12,1,False,ReadOnly,0,0,0,0,1,V0.1,      DEV1,    IR1800,
2019/04/04 - 16:44:26.810641,9396.419,45.46794509887695,18.203411102294922,46.13024139404297,27.306739807128906,2.4965975284576416,27.540491104125977,0,29.26444435119629,27.19797134399414,29.407514572143555,27.298608779907227,0.0,27.397069931030273,Continuous,Tobj,False,False,False,False,False,False,4320,137,PowOn,Awake,Idle,33258,33012,0,2707,3167,-331,3176,False,False,False,False,True,False,False,False,False,False,False,False,False,False,False,False,False,False,False,False,False,False,False,False,False,False,False,False,1668,356,357,1000,321,12,2,False,ReadOnly,0,0,0,0,1,V0.1,      DEV1,    IR1800,
2019/04/04 - 16:44:27.829134,9397.414,45.47119140625,18.203411102294922,46.13024139404297,27.319725036621094,2.4965975284576416,27.540491104125977,0,29.328035354614258,27.19797134399414,29.407514572143555,27.304759979248047,0.0,27.397069931030273,Continuous,Tobj,False,False,False,False,False,False,4320,137,PowOn,Awake,Idle,33259,33014,0,2707,3165,-331,3176,False,False,False,False,True,False,False,False,False,False,False,False,False,False,False,False,False,False,False,False,False,False,False,False,False,False,False,False,1668,355,357,1000,320,12,1,False,ReadOnly,0,0,0,0,1,V0.1,      DEV1,    IR1800,
2019/04/04 - 16:44:28.823761,9398.416,45.47119140625,18.203411102294922,46.13024139404297,27.306739807128906,2.4965975284576416,27.540491104125977,0,29.248554229736328,27.19797134399414,29.407514572143555,27.292455673217773,0.0,27.397069931030273,Continuous,Tobj,False,False,False,False,False,False,4320,137,PowOn,Awake,Idle,33257,33011,0,2707,3170,-331,3176,False,False,False,False,True,False,False,False,False,False,False,False,False,False,False,False,False,False,False,False,False,False,False,False,False,False,False,False,1668,356,357,1000,321,12,2,False,ReadOnly,0,0,0,0,1,V0.1,      DEV1,    IR1800,
2019/04/04 - 16:44:29.827440,9399.414,45.55560302734375,18.203411102294922,46.13024139404297,27.2807674407959,2.4965975284576416,27.540491104125977,0,29.296253204345703,27.19797134399414,29.407514572143555,27.304759979248047,0.0,27.397069931030273,Continuous,Tobj,False,False,False,False,False,False,4320,137,PowOn,Awake,Idle,33259,33012,0,2707,3168,-331,3176,False,False,False,False,True,False,False,False,False,False,False,False,False,False,False,False,False,False,False,False,False,False,False,False,False,False,False,False,1668,355,357,1000,320,11,2,False,ReadOnly,0,0,0,0,1,V0.1,      DEV1,    IR1800,
2019/04/04 - 16:44:30.807077,9400.420,45.503658294677734,18.203411102294922,46.13024139404297,27.329465866088867,2.4965975284576416,27.540491104125977,0,29.296253204345703,27.19797134399414,29.407514572143555,27.304759979248047,0.0,27.397069931030273,Continuous,Tobj,False,False,False,False,False,False,4320,137,PowOn,Awake,Idle,33259,33013,0,2707,3168,-331,3176,False,False,False,False,True,False,False,False,False,False,False,False,False,False,False,False,False,False,False,False,False,False,False,False,False,False,False,False,1668,356,357,1000,321,12,2,False,ReadOnly,0,0,0,0,1,V0.1,      DEV1,    IR1800,
2019/04/04 - 16:44:31.801009,9401.410,45.42249298095703,18.203411102294922,46.13024139404297,27.293752670288086,2.4965975284576416,27.540491104125977,0,29.16907501220703,27.19797134399414,29.407514572143555,27.292455673217773,0.0,27.397069931030273,Continuous,Tobj,False,False,False,False,False,False,4320,137,PowOn,Awake,Idle,33257,33014,0,2707,3164,-331,3176,False,False,False,False,True,False,False,False,False,False,False,False,False,False,False,False,False,False,False,False,False,False,False,False,False,False,False,False,1668,355,357,1000,320,11,2,False,ReadOnly,0,0,0,0,1,V0.1,      DEV1,    IR1800,
2019/04/04 - 16:44:32.828424,9402.413,45.52638244628906,18.203411102294922,46.13024139404297,27.339204788208008,2.4965975284576416,27.540491104125977,0,29.26444435119629,27.19797134399414,29.407514572143555,27.304759979248047,0.0,27.397069931030273,Continuous,Tobj,False,False,False,False,False,False,4320,137,PowOn,Awake,Idle,33259,33013,0,2707,3169,-331,3176,False,False,False,False,True,False,False,False,False,False,False,False,False,False,False,False,False,False,False,False,False,False,False,False,False,False,False,False,1668,356,357,1000,321,12,2,False,ReadOnly,0,0,0,0,1,V0.1,      DEV1,    IR1800,
2019/04/04 - 16:44:33.845901,9403.412,45.61404037475586,18.203411102294922,46.13024139404297,27.30024528503418,2.4965975284576416,27.540491104125977,0,29.280336380004883,27.19797134399414,29.407514572143555,27.304759979248047,0.0,27.397069931030273,Continuous,Tobj,False,False,False,False,False,False,4320,137,PowOn,Awake,Idle,33259,33013,0,2707,3170,-331,3176,False,False,False,False,True,False,False,False,False,False,False,False,False,False,False,False,False,False,False,False,False,False,False,False,False,False,False,False,1668,355,357,1000,320,11,2,False,ReadOnly,0,0,0,0,1,V0.1,      DEV1,    IR1800,
2019/04/04 - 16:44:34.828389,9404.411,45.51664352416992,18.203411102294922,46.13024139404297,27.32297134399414,2.4965975284576416,27.540491104125977,0,29.16907501220703,27.19797134399414,29.407514572143555,27.3109130859375,0.0,27.397069931030273,Continuous,Tobj,False,False,False,False,False,False,4320,137,PowOn,Awake,Idle,33260,33011,0,2707,3168,-331,3176,False,False,False,False,True,False,False,False,False,False,False,False,False,False,False,False,False,False,False,False,False,False,False,False,False,False,False,False,1668,356,357,1000,321,12,2,False,ReadOnly,0,0,0,0,1,V0.1,      DEV1,    IR1800,
2019/04/04 - 16:44:35.807158,9405.410,45.513397216796875,18.203411102294922,46.13024139404297,27.32621955871582,2.4965975284576416,27.540491104125977,0,29.296253204345703,27.19797134399414,29.407514572143555,27.304759979248047,0.0,27.397069931030273,Continuous,Tobj,False,False,False,False,False,False,4320,137,PowOn,Awake,Idle,33259,33015,0,2707,3168,-331,3176,False,False,False,False,True,False,False,False,False,False,False,False,False,False,False,False,False,False,False,False,False,False,False,False,False,False,False,False,1668,355,357,1000,320,11,2,False,ReadOnly,0,0,0,0,1,V0.1,      DEV1,    IR1800,
2019/04/04 - 16:44:36.834714,9406.412,45.57508087158203,18.203411102294922,46.13024139404297,27.313232421875,2.4965975284576416,27.540491104125977,0,29.26444435119629,27.19797134399414,29.407514572143555,27.304759979248047,0.0,27.397069931030273,Continuous,Tobj,False,False,False,False,False,False,4320,137,PowOn,Awake,Idle,33259,33015,0,2707,3167,-331,3176,False,False,False,False,True,False,False,False,False,False,False,False,False,False,False,False,False,False,False,False,False,False,False,False,False,False,False,False,1668,356,357,1000,321,12,2,False,ReadOnly,0,0,0,0,1,V0.1,      DEV1,    IR1800,
2019/04/04 - 16:44:37.826149,9407.408,45.5588493347168,18.203411102294922,46.13024139404297,27.306739807128906,2.4965975284576416,27.540491104125977,0,29.26444435119629,27.19797134399414,29.407514572143555,27.298608779907227,0.0,27.397069931030273,Continuous,Tobj,False,False,False,False,False,False,4320,137,PowOn,Awake,Idle,33258,33014,0,2707,3169,-331,3176,False,False,False,False,True,False,False,False,False,False,False,False,False,False,False,False,False,False,False,False,False,False,False,False,False,False,False,False,1668,355,357,1000,320,11,2,False,ReadOnly,0,0,0,0,1,V0.1,      DEV1,    IR1800,
2019/04/04 - 16:44:38.824653,9408.408,45.38677978515625,18.203411102294922,46.13024139404297,27.313232421875,2.4965975284576416,27.540491104125977,0,29.200855255126953,27.19797134399414,29.407514572143555,27.3109130859375,0.0,27.397069931030273,Continuous,Tobj,False,False,False,False,False,False,4320,137,PowOn,Awake,Idle,33260,33013,0,2707,3165,-331,3176,False,False,False,False,True,False,False,False,False,False,False,False,False,False,False,False,False,False,False,False,False,False,False,False,False,False,False,False,1668,356,357,1000,321,12,2,False,ReadOnly,0,0,0,0,1,V0.1,      DEV1,    IR1800,
2019/04/04 - 16:44:39.846585,9409.410,45.56534194946289,18.203411102294922,46.13024139404297,27.30349349975586,2.4965975284576416,27.540491104125977,0,29.232664108276367,27.19797134399414,29.407514572143555,27.298608779907227,0.0,27.397069931030273,Continuous,Tobj,False,False,False,False,False,False,4320,137,PowOn,Awake,Idle,33258,33013,0,2707,3170,-331,3176,False,False,False,False,True,False,False,False,False,False,False,False,False,False,False,False,False,False,False,False,False,False,False,False,False,False,False,False,1668,355,357,1000,320,11,2,False,ReadOnly,0,0,0,0,1,V0.1,      DEV1,    IR1800,
2019/04/04 - 16:44:40.844752,9410.408,45.477684020996094,18.203411102294922,46.13024139404297,27.306739807128906,2.4965975284576416,27.540491104125977,0,29.232664108276367,27.19797134399414,29.407514572143555,27.3109130859375,0.0,27.397069931030273,Continuous,Tobj,False,False,False,False,False,False,4320,137,PowOn,Awake,Idle,33260,33014,0,2707,3166,-331,3176,False,False,False,False,True,False,False,False,False,False,False,False,False,False,False,False,False,False,False,False,False,False,False,False,False,False,False,False,1668,356,357,1000,321,12,2,False,ReadOnly,0,0,0,0,1,V0.1,      DEV1,    IR1800,
2019/04/04 - 16:44:41.839289,9411.406,45.46145248413086,18.203411102294922,46.13024139404297,27.319725036621094,2.4965975284576416,27.540491104125977,0,29.248554229736328,27.19797134399414,29.407514572143555,27.3109130859375,0.0,27.397069931030273,Continuous,Tobj,False,False,False,False,False,False,4320,137,PowOn,Awake,Idle,33260,33014,0,2707,3168,-331,3176,False,False,False,False,True,False,False,False,False,False,False,False,False,False,False,False,False,False,False,False,False,False,False,False,False,False,False,False,1668,355,357,1000,320,11,2,False,ReadOnly,0,0,0,0,1,V0.1,      DEV1,    IR1800,
2019/04/04 - 16:44:42.843741,9412.407,45.51988983154297,18.203411102294922,46.13024139404297,27.319725036621094,2.4965975284576416,27.540491104125977,0,29.216773986816406,27.19797134399414,29.407514572143555,27.3109130859375,0.0,27.397069931030273,Continuous,Tobj,False,False,False,False,False,False,4320,137,PowOn,Awake,Idle,33260,33015,0,2707,3169,-331,3176,False,False,False,False,True,False,False,False,False,False,False,False,False,False,False,False,False,False,False,False,False,False,False,False,False,False,False,False,1668,355,357,1000,321,12,1,False,ReadOnly,0,0,0,0,1,V0.1,      DEV1,    IR1800,
2019/04/04 - 16:44:43.838094,9413.408,45.5361213684082,18.203411102294922,46.13024139404297,27.29050636291504,2.4965975284576416,27.540491104125977,0,29.184965133666992,27.19797134399414,29.407514572143555,27.304759979248047,0.0,27.397069931030273,Continuous,Tobj,False,False,False,False,False,False,4320,137,PowOn,Awake,Idle,33259,33014,0,2707,3167,-331,3176,False,False,False,False,True,False,False,False,False,False,False,False,False,False,False,False,False,False,False,False,False,False,False,False,False,False,False,False,1668,355,357,1000,320,11,2,False,ReadOnly,0,0,0,0,1,V0.1,      DEV1,    IR1800,
2019/04/04 - 16:44:44.840832,9414.407,45.52962875366211,18.203411102294922,46.13024139404297,27.30349349975586,2.4965975284576416,27.540491104125977,0,29.216773986816406,27.19797134399414,29.407514572143555,27.304759979248047,0.0,27.397069931030273,Continuous,Tobj,False,False,False,False,False,False,4320,137,PowOn,Awake,Idle,33259,33015,0,2707,3172,-331,3176,False,False,False,False,True,False,False,False,False,False,False,False,False,False,False,False,False,False,False,False,False,False,False,False,False,False,False,False,1668,355,357,1000,320,12,1,False,ReadOnly,0,0,0,0,1,V0.1,      DEV1,    IR1800,
2019/04/04 - 16:44:45.829931,9415.406,45.3997688293457,18.203411102294922,46.13024139404297,27.32297134399414,2.4965975284576416,27.540491104125977,0,29.16907501220703,27.19797134399414,29.407514572143555,27.298608779907227,0.0,27.397069931030273,Continuous,Tobj,False,False,False,False,False,False,4320,137,PowOn,Awake,Idle,33258,33013,0,2707,3170,-331,3176,False,False,False,False,True,False,False,False,False,False,False,False,False,False,False,False,False,False,False,False,False,False,False,False,False,False,False,False,1668,355,357,1000,320,12,2,False,ReadOnly,0,0,0,0,1,V0.1,      DEV1,    IR1800,
2019/04/04 - 16:44:46.850222,9416.413,45.47443771362305,18.203411102294922,46.13024139404297,27.329465866088867,2.4965975284576416,27.540491104125977,0,29.216773986816406,27.19797134399414,29.407514572143555,27.304759979248047,0.0,27.397069931030273,Continuous,Tobj,False,False,False,False,False,False,4320,137,PowOn,Awake,Idle,33259,33015,0,2707,3168,-331,3176,False,False,False,False,True,False,False,False,False,False,False,False,False,False,False,False,False,False,False,False,False,False,False,False,False,False,False,False,1668,355,357,1000,320,12,1,False,ReadOnly,0,0,0,0,1,V0.1,      DEV1,    IR1800,
2019/04/04 - 16:44:47.830840,9417.404,45.51988983154297,18.203411102294922,46.13024139404297,27.30349349975586,2.4965975284576416,27.540491104125977,0,29.200855255126953,27.19797134399414,29.407514572143555,27.298608779907227,0.0,27.397069931030273,Continuous,Tobj,False,False,False,False,False,False,4320,137,PowOn,Awake,Idle,33258,33014,0,2707,3167,-331,3176,False,False,False,False,True,False,False,False,False,False,False,False,False,False,False,False,False,False,False,False,False,False,False,False,False,False,False,False,1668,356,357,1000,321,12,2,False,ReadOnly,0,0,0,0,1,V0.1,      DEV1,    IR1800,
2019/04/04 - 16:44:48.833626,9418.404,45.45820617675781,18.203411102294922,46.13024139404297,27.30349349975586,2.4965975284576416,27.540491104125977,0,29.200855255126953,27.19797134399414,29.407514572143555,27.304759979248047,0.0,27.397069931030273,Continuous,Tobj,False,False,False,False,False,False,4320,137,PowOn,Awake,Idle,33259,33014,0,2707,3166,-331,3176,False,False,False,False,True,False,False,False,False,False,False,False,False,False,False,False,False,False,False,False,False,False,False,False,False,False,False,False,1668,355,357,1000,320,11,1,False,ReadOnly,0,0,0,0,1,V0.1,      DEV1,    IR1800,
2019/04/04 - 16:44:49.832705,9419.406,45.545860290527344,18.203411102294922,46.13024139404297,27.306739807128906,2.4965975284576416,27.540491104125977,0,29.216773986816406,27.19797134399414,29.407514572143555,27.304759979248047,0.0,27.397069931030273,Continuous,Tobj,False,False,False,False,False,False,4320,137,PowOn,Awake,Idle,33259,33013,0,2707,3170,-331,3176,False,False,False,False,True,False,False,False,False,False,False,False,False,False,False,False,False,False,False,False,False,False,False,False,False,False,False,False,1668,356,357,1000,321,12,2,False,ReadOnly,0,0,0,0,1,V0.1,      DEV1,    IR1800,
2019/04/04 - 16:44:50.843213,9420.405,45.503658294677734,18.203411102294922,46.13024139404297,27.342451095581055,2.4965975284576416,27.540491104125977,0,29.280336380004883,27.19797134399414,29.407514572143555,27.298608779907227,0.0,27.397069931030273,Continuous,Tobj,False,False,False,False,False,False,4320,137,PowOn,Awake,Idle,33258,33014,0,2707,3168,-331,3176,False,False,False,False,True,False,False,False,False,False,False,False,False,False,False,False,False,False,False,False,False,False,False,False,False,False,False,False,1668,355,357,1000,320,11,2,False,ReadOnly,0,0,0,0,1,V0.1,      DEV1,    IR1800,
2019/04/04 - 16:44:51.835631,9421.402,45.503658294677734,18.203411102294922,46.13024139404297,27.316478729248047,2.4965975284576416,27.540491104125977,0,29.15318489074707,27.19797134399414,29.407514572143555,27.298608779907227,0.0,27.397069931030273,Continuous,Tobj,False,False,False,False,False,False,4320,137,PowOn,Awake,Idle,33258,33013,0,2707,3166,-331,3176,False,False,False,False,True,False,False,False,False,False,False,False,False,False,False,False,False,False,False,False,False,False,False,False,False,False,False,False,1668,356,357,1000,321,12,2,False,ReadOnly,0,0,0,0,1,V0.1,      DEV1,    IR1800,
2019/04/04 - 16:44:52.842047,9422.403,45.44521713256836,18.203411102294922,46.13024139404297,27.32621955871582,2.4965975284576416,27.540491104125977,0,29.280336380004883,27.19797134399414,29.407514572143555,27.292455673217773,0.0,27.397069931030273,Continuous,Tobj,False,False,False,False,False,False,4320,137,PowOn,Awake,Idle,33257,33013,0,2707,3167,-331,3176,False,False,False,False,True,False,False,False,False,False,False,False,False,False,False,False,False,False,False,False,False,False,False,False,False,False,False,False,1668,355,357,1000,320,11,2,False,ReadOnly,0,0,0,0,1,V0.1,      DEV1,    IR1800,
2019/04/04 - 16:44:53.825488,9423.402,45.571834564208984,18.203411102294922,46.13024139404297,27.306739807128906,2.4965975284576416,27.540491104125977,0,29.232664108276367,27.19797134399414,29.407514572143555,27.304759979248047,0.0,27.397069931030273,Continuous,Tobj,False,False,False,False,False,False,4320,137,PowOn,Awake,Idle,33259,33014,0,2707,3167,-331,3176,False,False,False,False,True,False,False,False,False,False,False,False,False,False,False,False,False,False,False,False,False,False,False,False,False,False,False,False,1668,356,357,1000,321,12,2,False,ReadOnly,0,0,0,0,1,V0.1,      DEV1,    IR1800,
2019/04/04 - 16:44:54.846313,9424.401,45.46794509887695,18.203411102294922,46.13024139404297,27.309986114501953,2.4965975284576416,27.540491104125977,0,29.216773986816406,27.19797134399414,29.407514572143555,27.304759979248047,0.0,27.397069931030273,Continuous,Tobj,False,False,False,False,False,False,4320,137,PowOn,Awake,Idle,33259,33014,0,2707,3169,-331,3176,False,False,False,False,True,False,False,False,False,False,False,False,False,False,False,False,False,False,False,False,False,False,False,False,False,False,False,False,1668,355,357,1000,320,11,2,False,ReadOnly,0,0,0,0,1,V0.1,      DEV1,    IR1800,
2019/04/04 - 16:44:55.837172,9425.401,45.5426139831543,18.203411102294922,46.13024139404297,27.29050636291504,2.4965975284576416,27.540491104125977,0,29.26444435119629,27.19797134399414,29.407514572143555,27.304759979248047,0.0,27.397069931030273,Continuous,Tobj,False,False,False,False,False,False,4320,137,PowOn,Awake,Idle,33259,33013,0,2707,3164,-331,3176,False,False,False,False,True,False,False,False,False,False,False,False,False,False,False,False,False,False,False,False,False,False,False,False,False,False,False,False,1668,356,357,1000,321,12,2,False,ReadOnly,0,0,0,0,1,V0.1,      DEV1,    IR1800,
2019/04/04 - 16:44:56.834711,9426.403,45.62702560424805,18.203411102294922,46.13024139404297,27.33595848083496,2.4965975284576416,27.540491104125977,0,29.184965133666992,27.19797134399414,29.407514572143555,27.298608779907227,0.0,27.397069931030273,Continuous,Tobj,False,False,False,False,False,False,4320,137,PowOn,Awake,Idle,33258,33012,0,2707,3168,-331,3176,False,False,False,False,True,False,False,False,False,False,False,False,False,False,False,False,False,False,False,False,False,False,False,False,False,False,False,False,1668,355,357,1000,320,11,2,False,ReadOnly,0,0,0,0,1,V0.1,      DEV1,    IR1800,
2019/04/04 - 16:44:57.829077,9427.401,45.5426139831543,18.203411102294922,46.13024139404297,27.319725036621094,2.4965975284576416,27.540491104125977,0,29.216773986816406,27.19797134399414,29.407514572143555,27.292455673217773,0.0,27.397069931030273,Continuous,Tobj,False,False,False,False,False,False,4320,137,PowOn,Awake,Idle,33257,33013,0,2707,3170,-331,3176,False,False,False,False,True,False,False,False,False,False,False,False,False,False,False,False,False,False,False,False,False,False,False,False,False,False,False,False,1668,356,357,1000,321,12,2,False,ReadOnly,0,0,0,0,1,V0.1,      DEV1,    IR1800,
2019/04/04 - 16:44:58.810835,9428.398,45.64325714111328,18.203411102294922,46.13024139404297,27.355438232421875,2.4965975284576416,27.540491104125977,0,29.200855255126953,27.19797134399414,29.407514572143555,27.304759979248047,0.0,27.397069931030273,Continuous,Tobj,False,False,False,False,False,False,4320,137,PowOn,Awake,Idle,33259,33013,0,2707,3164,-331,3176,False,False,False,False,True,False,False,False,False,False,False,False,False,False,False,False,False,False,False,False,False,False,False,False,False,False,False,False,1668,355,357,1000,320,11,2,False,ReadOnly,0,0,0,0,1,V0.1,      DEV1,    IR1800,
2019/04/04 - 16:44:59.845034,9429.399,45.393272399902344,18.203411102294922,46.13024139404297,27.339204788208008,2.4965975284576416,27.540491104125977,0,29.200855255126953,27.19797134399414,29.407514572143555,27.298608779907227,0.0,27.397069931030273,Continuous,Tobj,False,False,False,False,False,False,4320,137,PowOn,Awake,Idle,33258,33013,0,2707,3168,-331,3176,False,False,False,False,True,False,False,False,False,False,False,False,False,False,False,False,False,False,False,False,False,False,False,False,False,False,False,False,1668,356,357,1000,321,12,2,False,ReadOnly,0,0,0,0,1,V0.1,      DEV1,    IR1800,
2019/04/04 - 16:45:00.842636,9430.400,45.523136138916016,18.203411102294922,46.13024139404297,27.32297134399414,2.4965975284576416,27.540491104125977,0,29.184965133666992,27.19797134399414,29.407514572143555,27.292455673217773,0.0,27.397069931030273,Continuous,Tobj,False,False,False,False,False,False,4320,137,PowOn,Awake,Idle,33257,33015,0,2707,3168,-331,3176,False,False,False,False,True,False,False,False,False,False,False,False,False,False,False,False,False,False,False,False,False,False,False,False,False,False,False,False,1668,355,357,1000,320,11,2,False,ReadOnly,0,0,0,0,1,V0.1,      DEV1,    IR1800,
2019/04/04 - 16:45:01.806976,9431.397,45.52962875366211,18.203411102294922,46.13024139404297,27.316478729248047,2.4965975284576416,27.540491104125977,0,29.232664108276367,27.19797134399414,29.407514572143555,27.304759979248047,0.0,27.397069931030273,Continuous,Tobj,False,False,False,False,False,False,4320,137,PowOn,Awake,Idle,33259,33012,0,2707,3170,-331,3176,False,False,False,False,True,False,False,False,False,False,False,False,False,False,False,False,False,False,False,False,False,False,False,False,False,False,False,False,1668,355,357,1000,321,12,1,False,ReadOnly,0,0,0,0,1,V0.1,      DEV1,    IR1800,
2019/04/04 - 16:45:02.843475,9432.404,45.513397216796875,18.203411102294922,46.13024139404297,27.32297134399414,2.4965975284576416,27.540491104125977,0,29.232664108276367,27.19797134399414,29.407514572143555,27.298608779907227,0.0,27.397069931030273,Continuous,Tobj,False,False,False,False,False,False,4320,137,PowOn,Awake,Idle,33258,33012,0,2707,3164,-331,3176,False,False,False,False,True,False,False,False,False,False,False,False,False,False,False,False,False,False,False,False,False,False,False,False,False,False,False,False,1668,355,357,1000,320,11,2,False,ReadOnly,0,0,0,0,1,V0.1,      DEV1,    IR1800,
2019/04/04 - 16:45:03.840920,9433.400,45.43223190307617,18.203411102294922,46.13024139404297,27.30024528503418,2.4965975284576416,27.540491104125977,0,29.26444435119629,27.19797134399414,29.407514572143555,27.304759979248047,0.0,27.397069931030273,Continuous,Tobj,False,False,False,False,False,False,4320,137,PowOn,Awake,Idle,33259,33014,0,2707,3167,-331,3176,False,False,False,False,True,False,False,False,False,False,False,False,False,False,False,False,False,False,False,False,False,False,False,False,False,False,False,False,1668,355,357,1000,320,12,1,False,ReadOnly,0,0,0,0,1,V0.1,      DEV1,    IR1800,
2019/04/04 - 16:45:04.826307,9434.397,45.487422943115234,18.203411102294922,46.13024139404297,27.30024528503418,2.4965975284576416,27.540491104125977,0,29.232664108276367,27.19797134399414,29.407514572143555,27.304759979248047,0.0,27.397069931030273,Continuous,Tobj,False,False,False,False,False,False,4320,137,PowOn,Awake,Idle,33259,33012,0,2707,3168,-331,3176,False,False,False,False,True,False,False,False,False,False,False,False,False,False,False,False,False,False,False,False,False,False,False,False,False,False,False,False,1668,355,357,1000,320,12,2,False,ReadOnly,0,0,0,0,1,V0.1,      DEV1,    IR1800,
2019/04/04 - 16:45:05.811051,9435.395,45.49066925048828,18.203411102294922,46.13024139404297,27.329465866088867,2.4965975284576416,27.540491104125977,0,29.200855255126953,27.19797134399414,29.407514572143555,27.298608779907227,0.0,27.397069931030273,Continuous,Tobj,False,False,False,False,False,False,4320,137,PowOn,Awake,Idle,33258,33013,0,2707,3168,-331,3176,False,False,False,False,True,False,False,False,False,False,False,False,False,False,False,False,False,False,False,False,False,False,False,False,False,False,False,False,1668,355,357,1000,320,12,1,False,ReadOnly,0,0,0,0,1,V0.1,      DEV1,    IR1800,
2019/04/04 - 16:45:06.832487,9436.396,45.523136138916016,18.203411102294922,46.13024139404297,27.313232421875,2.4965975284576416,27.540491104125977,0,29.296253204345703,27.19797134399414,29.407514572143555,27.304759979248047,0.0,27.397069931030273,Continuous,Tobj,False,False,False,False,False,False,4320,137,PowOn,Awake,Idle,33259,33014,0,2707,3170,-331,3176,False,False,False,False,True,False,False,False,False,False,False,False,False,False,False,False,False,False,False,False,False,False,False,False,False,False,False,False,1668,356,357,1000,321,12,2,False,ReadOnly,0,0,0,0,1,V0.1,      DEV1,    IR1800,
2019/04/04 - 16:45:07.841895,9437.396,45.49391555786133,18.203411102294922,46.13024139404297,27.329465866088867,2.4965975284576416,27.540491104125977,0,29.296253204345703,27.19797134399414,29.407514572143555,27.298608779907227,0.0,27.397069931030273,Continuous,Tobj,False,False,False,False,False,False,4320,137,PowOn,Awake,Idle,33258,33013,0,2707,3171,-331,3176,False,False,False,False,True,False,False,False,False,False,False,False,False,False,False,False,False,False,False,False,False,False,False,False,False,False,False,False,1668,355,357,1000,320,12,1,False,ReadOnly,0,0,0,0,1,V0.1,      DEV1,    IR1800,
2019/04/04 - 16:45:08.818581,9438.400,45.62702560424805,18.203411102294922,46.13024139404297,27.30349349975586,2.4965975284576416,27.540491104125977,0,29.248554229736328,27.19797134399414,29.407514572143555,27.304759979248047,0.0,27.397069931030273,Continuous,Tobj,False,False,False,False,False,False,4320,137,PowOn,Awake,Idle,33259,33016,0,2707,3168,-331,3176,False,False,False,False,True,False,False,False,False,False,False,False,False,False,False,False,False,False,False,False,False,False,False,False,False,False,False,False,1668,356,357,1000,321,12,2,False,ReadOnly,0,0,0,0,1,V0.1,      DEV1,    IR1800,
2019/04/04 - 16:45:09.827067,9439.395,45.513397216796875,18.203411102294922,46.13024139404297,27.32621955871582,2.4965975284576416,27.540491104125977,0,29.184965133666992,27.19797134399414,29.407514572143555,27.298608779907227,0.0,27.397069931030273,Continuous,Tobj,False,False,False,False,False,False,4320,137,PowOn,Awake,Idle,33258,33014,0,2707,3167,-331,3176,False,False,False,False,True,False,False,False,False,False,False,False,False,False,False,False,False,False,False,False,False,False,False,False,False,False,False,False,1668,355,357,1000,320,11,2,False,ReadOnly,0,0,0,0,1,V0.1,      DEV1,    IR1800,
2019/04/04 - 16:45:10.828472,9440.397,45.57508087158203,18.203411102294922,46.13024139404297,27.32621955871582,2.4965975284576416,27.540491104125977,0,29.26444435119629,27.19797134399414,29.407514572143555,27.292455673217773,0.0,27.397069931030273,Continuous,Tobj,False,False,False,False,False,False,4320,137,PowOn,Awake,Idle,33257,33014,0,2707,3170,-331,3176,False,False,False,False,True,False,False,False,False,False,False,False,False,False,False,False,False,False,False,False,False,False,False,False,False,False,False,False,1668,356,357,1000,321,12,2,False,ReadOnly,0,0,0,0,1,V0.1,      DEV1,    IR1800,
2019/04/04 - 16:45:11.815109,9441.394,45.5426139831543,18.203411102294922,46.13024139404297,27.339204788208008,2.4965975284576416,27.540491104125977,0,29.200855255126953,27.19797134399414,29.407514572143555,27.298608779907227,0.0,27.397069931030273,Continuous,Tobj,False,False,False,False,False,False,4320,137,PowOn,Awake,Idle,33258,33014,0,2707,3168,-331,3176,False,False,False,False,True,False,False,False,False,False,False,False,False,False,False,False,False,False,False,False,False,False,False,False,False,False,False,False,1668,355,357,1000,320,11,2,False,ReadOnly,0,0,0,0,1,V0.1,      DEV1,    IR1800,
2019/04/04 - 16:45:12.847411,9442.393,45.49391555786133,18.203411102294922,46.13024139404297,27.313232421875,2.4965975284576416,27.540491104125977,0,29.296253204345703,27.19797134399414,29.407514572143555,27.3109130859375,0.0,27.397069931030273,Continuous,Tobj,False,False,False,False,False,False,4320,137,PowOn,Awake,Idle,33260,33016,0,2707,3168,-331,3176,False,False,False,False,True,False,False,False,False,False,False,False,False,False,False,False,False,False,False,False,False,False,False,False,False,False,False,False,1668,356,357,1000,321,12,2,False,ReadOnly,0,0,0,0,1,V0.1,      DEV1,    IR1800,
2019/04/04 - 16:45:13.836782,9443.392,45.48093032836914,18.203411102294922,46.13024139404297,27.287260055541992,2.4965975284576416,27.540491104125977,0,29.328035354614258,27.19797134399414,29.407514572143555,27.304759979248047,0.0,27.397069931030273,Continuous,Tobj,False,False,False,False,False,False,4320,137,PowOn,Awake,Idle,33259,33015,0,2707,3165,-331,3176,False,False,False,False,True,False,False,False,False,False,False,False,False,False,False,False,False,False,False,False,False,False,False,False,False,False,False,False,1668,355,357,1000,320,11,2,False,ReadOnly,0,0,0,0,1,V0.1,      DEV1,    IR1800,
2019/04/04 - 16:45:14.831158,9444.394,45.46145248413086,18.203411102294922,46.13024139404297,27.30024528503418,2.4965975284576416,27.540491104125977,0,29.200855255126953,27.19797134399414,29.407514572143555,27.304759979248047,0.0,27.397069931030273,Continuous,Tobj,False,False,False,False,False,False,4320,137,PowOn,Awake,Idle,33259,33015,0,2707,3165,-331,3176,False,False,False,False,True,False,False,False,False,False,False,False,False,False,False,False,False,False,False,False,False,False,False,False,False,False,False,False,1668,356,357,1000,321,12,2,False,ReadOnly,0,0,0,0,1,V0.1,      DEV1,    IR1800,
2019/04/04 - 16:45:15.831607,9445.392,45.513397216796875,18.203411102294922,46.13024139404297,27.332712173461914,2.4965975284576416,27.540491104125977,0,29.26444435119629,27.19797134399414,29.407514572143555,27.304759979248047,0.0,27.397069931030273,Continuous,Tobj,False,False,False,False,False,False,4320,137,PowOn,Awake,Idle,33259,33014,0,2707,3161,-331,3176,False,False,False,False,True,False,False,False,False,False,False,False,False,False,False,False,False,False,False,False,False,False,False,False,False,False,False,False,1668,355,357,1000,320,11,2,False,ReadOnly,0,0,0,0,1,V0.1,      DEV1,    IR1800,
