2019/04/04 - 12:08:47.572902 | MAIN                | App started running
2019/04/04 - 12:09:06.662930 | CommsUART           | Successfully connected to COM8.
2019/04/04 - 12:09:10.136891 | App                 | Device is Responding
