2019/04/04 - 11:09:14.464886 | MAIN                | App started running
2019/04/04 - 11:09:18.329872 | CommsUART           | Successfully connected to COM8.
2019/04/04 - 11:09:18.959945 | App                 | Device is Responding
2019/04/04 - 11:09:21.685587 | App                 | Setting ADS SampleMode: Continuous.
