Time,Runtime,Current3V3,Current3V3Min,Current3V3Max,CurrentHTPA,CurrentHTPAMin,CurrentHTPAMax,CurrentCubeDock3V3_1,TemperatureMCU,TemperatureMCUMin,TemperatureMCUMax,TemperatureHTPA,TemperatureHTPAMin,TemperatureHTPAMax,VoltageMCU,VoltageMCUMin,VoltageMCUMax,VoltageHTPA,VoltageHTPAMin,VoltageHTPAMax,ADSSampleMode,HTPACalibLevel,HILEnabled,HILBusy,HILEnableImgVddComp,HILEnableImgTobjCalib,HILEnableEdgeDet,HILEnableLensDistCorr,HILEnablePolyFit,HILEnableAttEst,HTPADeviceID,HTPATableNumber,HtpaPowerState,HtpaWakeState,HtpaCaptureState,HtpaPTAT,HtpaVdd,HTPAImageLastMin,HTPAImageLastMean,HTPAImageLastMax,HTPAImageAllTimeMin,HTPAImageAllTimeMax,SRAM2ParityError,FlashCorruption,3V3OverCurrent,HTPAOverCurrent,Timer1sOverRun,MCUOverTemperature,MCUUnderTemperature,HTPAOverTemperature,HTPAUnderTemperature,HTPACalibLookupOutOfRange,HTPAIntegrationTimeout,HTPANotResponding,HTPAConfigMismatch,HTPASpiTimeout,CommsTcSlotsBuffFull,CommsTcParamBuffFull,CommsUartProtError,CommsUartMsgIncomplete,CommsUartTcParamOverflow,UARTTxOverflow,CommsTcInvalidID,CommsTcInvalidPar,CommsTcInvalidParLen,CommsTcTimeout,CommsTlmInvalidID,UARTTxReadingEmptyBuffer,UARTRxByteOverrun,UARTRxFramingError,UartTxTimeout,FRAMStatusNotResponding,FRAMDeviceNotFound,FRAMSpiTimeout,ConfigRewrittenFromMemory,ConfigExtMemorySlotOverwritten,ConfigNoConfigFoundInMemory,ConfigNumOfValidFramSlots,ConfigNumOfValidFlashSlots,ConfigNotSaved,ConfigDataLoss,SwStartupTime,SwProcessingTime,SwProcessingTimeMax,SwLoopTime,SwLoopTimeMax,SwImgCaptureTime,SwLensDistCorrTime,SwEstimationTime,SwConfigRefreshMaxTime,SwConfigCheckMemoryMaxTime,SwAdcMeasurementTime,DetectedBitFlips,FlashFaults,FlashLastFaultAddress,RadNumOfFaultsLast,RadNumOfFaultsTotal,RadLastFaultIndex,RadIterationsCompleted,RadMode,RadCheckSRAM,RadCheckFRAM,SRAM2ParityCheckEnabled,InterfaceVersion,FirmwareVersion,IRCAM SN,
2019/10/24 - 16:49:09.887645,3,21.622028350830078,21.472686767578125,21.622028350830078,26.76131820678711,26.741840362548828,42.30580520629883,-,30.234447479248047,29.60987663269043,42.28204345703125,0.0,0.0,0.0,3.2960000038146973,3.2960000038146973,3.302999973297119,0.0,0.0,0.0,Idle,Tobj,False,False,False,False,False,False,False,False,4297,137,On,On,Idle,0,0,0,0,0,0,0,False,False,False,False,False,False,False,False,False,False,False,False,False,False,False,False,False,False,False,False,False,False,False,False,False,False,False,False,False,True,True,False,False,False,False,0,3,False,False,32,0,0,1000,1000,0,0,0,0,0,8,0,0,0,0,0,0,1,Disabled,False,False,True,1,V0.1,    IR1800,
2019/10/24 - 16:49:15.653055,9,21.52463150024414,21.472686767578125,21.622028350830078,0.3311481773853302,0.3311481773853302,42.30580520629883,-,29.952388763427734,29.60987663269043,42.28204345703125,0.0,0.0,0.0,3.305000066757202,3.2960000038146973,3.305000066757202,0.0,0.0,0.0,Idle,Tobj,False,False,False,False,False,False,False,False,4297,137,On,Off,Idle,0,0,0,0,0,0,0,False,False,False,False,False,False,False,False,False,False,False,False,False,False,False,False,False,False,False,False,False,False,False,False,False,False,False,False,False,True,True,False,False,False,False,0,3,False,False,32,0,0,1000,1000,0,0,0,0,0,8,0,0,0,0,0,0,1,Disabled,False,False,True,1,V0.1,    IR1800,
2019/10/24 - 16:49:18.278665,12,21.59605598449707,21.472686767578125,21.622028350830078,26.624963760375977,0.3181619942188263,42.30580520629883,-,30.818666458129883,29.60987663269043,42.28204345703125,0.0,0.0,0.0,3.2980000972747803,3.2960000038146973,3.306999921798706,0.0,0.0,0.0,Idle,Tobj,False,False,False,False,False,False,False,False,4297,137,On,On,Idle,0,0,0,0,0,0,0,False,False,False,False,False,False,False,False,False,False,False,False,False,False,False,False,False,False,False,False,False,False,False,False,False,False,False,False,False,True,True,False,False,False,False,0,3,False,False,32,0,0,1000,1000,0,0,0,0,0,8,0,0,0,0,0,0,1,Disabled,False,False,True,1,V0.1,    IR1800,
2019/10/24 - 16:49:23.355369,17,21.589563369750977,21.472686767578125,21.6350154876709,26.650936126708984,0.3181619942188263,42.30580520629883,-,30.677656173706055,29.60987663269043,42.28204345703125,0.0,0.0,0.0,3.2980000972747803,3.2960000038146973,3.306999921798706,0.0,0.0,0.0,Single,Tobj,False,False,False,False,False,False,False,False,4297,137,On,On,Idle,32981,33547,3003,3031,3130,0,0,False,False,False,False,False,False,False,False,False,False,False,False,False,False,False,False,False,False,False,False,False,False,False,False,False,False,False,False,False,True,True,False,False,False,False,0,3,False,False,32,0,0,1000,1000,326,0,0,0,0,8,0,0,0,0,0,0,1,Disabled,False,False,True,1,V0.1,    IR1800,
2019/10/24 - 16:49:31.460246,25,21.719425201416016,21.472686767578125,21.777862548828125,26.93663215637207,0.3181619942188263,42.30580520629883,-,30.758249282836914,29.60987663269043,42.28204345703125,28.2230224609375,0.0,28.2230224609375,3.2980000972747803,3.2960000038146973,3.306999921798706,3.298099994659424,0.0,3.298099994659424,Idle,Tobj,False,False,False,False,False,False,False,False,4297,137,On,On,Idle,32981,33547,3003,3031,3130,0,3130,False,False,False,False,False,False,False,False,False,False,False,False,False,False,False,False,False,False,False,False,False,False,False,False,False,False,False,False,False,True,True,False,False,False,False,0,3,False,False,32,0,459,1000,1000,326,0,0,0,0,8,0,0,0,0,0,0,1,Disabled,False,False,True,1,V0.1,    IR1800,
2019/10/24 - 16:49:46.756646,40,21.693452835083008,21.472686767578125,21.790849685668945,26.95935821533203,0.3181619942188263,42.30580520629883,-,30.91939926147461,29.60987663269043,42.28204345703125,28.359277725219727,0.0,28.359277725219727,3.2960000038146973,3.2960000038146973,3.306999921798706,3.300299882888794,0.0,3.300299882888794,Idle,Tobj,False,False,False,False,False,False,False,False,4297,137,On,On,Idle,33003,33545,2987,3013,3123,0,3130,False,False,False,False,False,False,False,False,False,False,False,False,False,False,False,False,False,False,False,False,False,False,False,False,False,False,False,False,False,True,True,False,False,False,False,0,3,False,False,32,0,459,1000,1000,325,0,0,0,0,8,0,0,0,0,0,0,1,Disabled,False,False,True,1,V0.1,    IR1800,
