2019/10/24 - 17:35:51.624655 | MAIN                | App started running
2019/10/24 - 17:35:57.474569 | CommsUART           | Successfully connected to COM8.
2019/10/24 - 17:35:58.338747 | App                 | Device is Responding
2019/10/24 - 17:36:18.524758 | App                 | Setting HTPA Wake State: Sleep.
2019/10/24 - 17:36:23.061455 | App                 | Setting HTPA Wake State: Wake Up.
2019/10/24 - 17:36:25.653275 | App                 | Setting ADS SampleMode: Single.
2019/10/24 - 17:36:32.981531 | App                 | Setting ADS SampleMode: Single.
2019/10/24 - 17:37:25.932993 | App                 | Setting ADS SampleMode: Single.
2019/10/24 - 17:37:36.333261 | App                 | Setting ADS SampleMode: Single.
2019/10/24 - 17:37:55.564726 | App                 | Setting HTPA Wake State: Sleep.
2019/10/24 - 17:37:59.948340 | App                 | Setting HTPA Wake State: Wake Up.
2019/10/24 - 17:38:01.380848 | App                 | Setting ADS SampleMode: Single.
2019/10/24 - 17:38:12.636965 | App                 | Setting ADS SampleMode: Single.
2019/10/24 - 17:38:16.253164 | App                 | Setting ADS SampleMode: Single.
