2019/10/24 - 16:49:02.906910 | MAIN                | App started running
2019/10/24 - 16:49:08.352258 | CommsUART           | Successfully connected to COM8.
2019/10/24 - 16:49:09.599818 | App                 | Device is Responding
2019/10/24 - 16:49:13.391179 | App                 | Setting HTPA Wake State: Sleep.
2019/10/24 - 16:49:16.407773 | App                 | Setting HTPA Wake State: Wake Up.
2019/10/24 - 16:49:22.071268 | App                 | Setting ADS SampleMode: Single.
2019/10/24 - 16:49:34.454989 | App                 | Setting ADS SampleMode: Single.
2019/10/24 - 16:51:19.556774 | EXCEPTION           | Traceback (most recent call last):
  File "C:/Users/heinw/Documents/CubeSpace/CubeIR/Software Design/GUI-Python/app_threaded.py", line 564, in slot_echo
    if self.loggers: self.loggers['data'].log_data(self.data_to_log)
  File "C:\Users\heinw\Documents\CubeSpace\CubeIR\Software Design\GUI-Python\logger.py", line 57, in log_data
    self._write(ttp + '\n')
  File "C:\Users\heinw\Documents\CubeSpace\CubeIR\Software Design\GUI-Python\logger.py", line 66, in _write
    with open(self.path + self.filename, "a") as file: file.write(text)
PermissionError: [Errno 13] Permission denied: 'Logs/Logs_2019_10_24/data_log_20191024_1649.csv'

2019/10/24 - 16:51:20.085282 | EXCEPTION           | Traceback (most recent call last):
  File "C:/Users/heinw/Documents/CubeSpace/CubeIR/Software Design/GUI-Python/app_threaded.py", line 564, in slot_echo
    if self.loggers: self.loggers['data'].log_data(self.data_to_log)
  File "C:\Users\heinw\Documents\CubeSpace\CubeIR\Software Design\GUI-Python\logger.py", line 57, in log_data
    self._write(ttp + '\n')
  File "C:\Users\heinw\Documents\CubeSpace\CubeIR\Software Design\GUI-Python\logger.py", line 66, in _write
    with open(self.path + self.filename, "a") as file: file.write(text)
PermissionError: [Errno 13] Permission denied: 'Logs/Logs_2019_10_24/data_log_20191024_1649.csv'

2019/10/24 - 16:51:20.532912 | EXCEPTION           | Traceback (most recent call last):
  File "C:/Users/heinw/Documents/CubeSpace/CubeIR/Software Design/GUI-Python/app_threaded.py", line 564, in slot_echo
    if self.loggers: self.loggers['data'].log_data(self.data_to_log)
  File "C:\Users\heinw\Documents\CubeSpace\CubeIR\Software Design\GUI-Python\logger.py", line 57, in log_data
    self._write(ttp + '\n')
  File "C:\Users\heinw\Documents\CubeSpace\CubeIR\Software Design\GUI-Python\logger.py", line 66, in _write
    with open(self.path + self.filename, "a") as file: file.write(text)
PermissionError: [Errno 13] Permission denied: 'Logs/Logs_2019_10_24/data_log_20191024_1649.csv'

