Time,Runtime,Current3V3,Current3V3Min,Current3V3Max,CurrentHTPA,CurrentHTPAMin,CurrentHTPAMax,CurrentCubeDock3V3_1,TemperatureMCU,TemperatureMCUMin,TemperatureMCUMax,TemperatureHTPA,TemperatureHTPAMin,TemperatureHTPAMax,VoltageMCU,VoltageMCUMin,VoltageMCUMax,VoltageHTPA,VoltageHTPAMin,VoltageHTPAMax,ADSSampleMode,HTPACalibLevel,HILEnabled,HILBusy,HILEnableImgVddComp,HILEnableImgTobjCalib,HILEnableEdgeDet,HILEnableLensDistCorr,HILEnablePolyFit,HILEnableAttEst,HTPADeviceID,HTPATableNumber,HtpaPowerState,HtpaWakeState,HtpaCaptureState,HtpaPTAT,HtpaVdd,HTPAImageLastMin,HTPAImageLastMean,HTPAImageLastMax,HTPAImageAllTimeMin,HTPAImageAllTimeMax,SRAM2ParityError,FlashCorruption,3V3OverCurrent,HTPAOverCurrent,Timer1sOverRun,MCUOverTemperature,MCUUnderTemperature,HTPAOverTemperature,HTPAUnderTemperature,HTPACalibLookupOutOfRange,HTPAIntegrationTimeError,HTPANotResponding,HTPAConfigMismatch,HTPASpiTimeout,CommsTcSlotsBuffFull,CommsTcParamBuffFull,CommsUartProtError,CommsUartMsgIncomplete,CommsUartTcParamOverflow,UARTTxOverflow,CommsTcInvalidID,CommsTcInvalidPar,CommsTcInvalidParLen,CommsTcTimeout,CommsTlmInvalidID,UARTTxReadingEmptyBuffer,UARTRxByteOverrun,UARTRxFramingError,UartTxTimeout,FRAMStatusNotResponding,FRAMDeviceNotFound,FRAMSpiTimeout,ConfigRewrittenFromMemory,ConfigExtMemorySlotOverwritten,ConfigNoConfigFoundInMemory,ConfigNumOfValidFramSlots,ConfigNumOfValidFlashSlots,ConfigNotSaved,ConfigDataLoss,SwStartupTime,SwProcessingTime,SwProcessingTimeMax,SwLoopTime,SwLoopTimeMax,SwImgCaptureTime,SwLensDistCorrTime,SwEstimationTime,SwConfigRefreshMaxTime,SwConfigCheckMemoryMaxTime,SwAdcMeasurementTime,SwHtpaIntegrationTime,DetectedBitFlips,FlashFaults,FlashLastFaultAddress,RadNumOfFaultsLast,RadNumOfFaultsTotal,RadLastFaultIndex,RadIterationsCompleted,RadMode,RadCheckSRAM,RadCheckFRAM,SRAM2ParityCheckEnabled,InterfaceVersion,FirmwareVersion,IRCAM SN,
2019/10/25 - 08:59:43.596177,91,22.868703842163086,22.836238861083984,24.388090133666992,26.676908493041992,26.287322998046875,41.86751937866211,-,28.098886489868164,26.587915420532227,28.179479598999023,25.993505477905273,0.0,25.999683380126953,3.2980000972747803,3.2960000038146973,3.299999952316284,3.2620999813079834,0.0,3.262200117111206,Continuous,Tobj,False,False,False,False,False,False,False,False,4297,137,On,On,Capturing,32621,33561,2957,3002,3130,0,3140,False,False,False,False,False,False,False,False,False,False,True,False,False,False,False,False,False,False,False,False,False,False,False,False,False,False,False,False,False,True,True,False,False,False,False,0,3,False,False,32,534,536,1000,1000,384,13,2,0,0,8,35,0,0,0,0,0,0,1,Disabled,False,False,True,1,V0.1,    IR1800,
2019/10/25 - 08:59:48.346268,96,22.966100692749023,22.94662094116211,22.966100692749023,26.673662185668945,26.673662185668945,26.676908493041992,-,28.179479598999023,28.038469314575195,28.179479598999023,25.9873046875,25.9873046875,25.993505477905273,3.2980000972747803,3.2980000972747803,3.2980000972747803,3.26200008392334,3.26200008392334,3.2620999813079834,Continuous,Tobj,False,False,False,False,False,False,False,False,4297,137,On,On,Idle,32620,33561,2954,3001,3133,2954,3133,False,False,False,False,False,False,False,False,False,False,True,False,False,False,False,False,False,False,False,False,False,False,False,False,False,False,False,False,False,False,False,False,False,False,False,0,3,False,False,0,533,533,1000,1000,383,13,2,0,0,8,35,0,0,0,0,0,0,1,Disabled,False,False,False,1,V0.1,    IR1800,
2019/10/25 - 08:59:50.458543,-,-,-,-,-,-,-,-,-,-,-,-,-,-,-,-,-,-,-,-,-,-,False,False,False,False,False,False,False,False,-,-,On,On,Idle,32621,33563,2956,3001,3129,2954,3133,-,-,-,-,-,-,-,-,-,-,-,-,-,-,-,-,-,-,-,-,-,-,-,-,-,-,-,-,-,-,-,-,False,False,False,0,3,False,False,-,-,-,-,-,-,-,-,-,-,-,-,-,-,-,0,0,0,1,Disabled,False,False,-,-,-,-,
2019/10/25 - 08:59:50.745722,99,22.88818359375,22.88818359375,22.966100692749023,26.6704158782959,26.6704158782959,26.683401107788086,-,28.139202117919922,28.038469314575195,28.179479598999023,25.993505477905273,25.9873046875,25.993505477905273,3.2980000972747803,3.2980000972747803,3.2980000972747803,3.2620999813079834,3.26200008392334,3.2620999813079834,Continuous,Tobj,False,False,False,False,False,False,False,False,4297,137,On,On,Capturing,32621,33563,2956,3001,3129,2954,3133,False,False,False,False,False,False,False,False,False,False,True,False,False,False,False,False,False,False,False,False,False,False,False,False,False,False,False,False,False,False,False,False,False,False,False,0,3,False,False,0,533,533,1000,1000,383,13,2,0,0,8,35,0,0,0,0,0,0,1,Disabled,False,False,False,1,V0.1,    IR1800,
2019/10/25 - 08:59:53.993425,102,22.849224090576172,22.849224090576172,22.966100692749023,26.68989372253418,26.65418243408203,26.69314193725586,-,28.19961929321289,28.038469314575195,28.19961929321289,25.999683380126953,25.9873046875,26.005859375,3.2980000972747803,3.2980000972747803,3.2980000972747803,3.262200117111206,3.26200008392334,3.2623000144958496,Idle,Tobj,False,False,False,False,False,False,False,False,4297,137,On,On,Idle,32622,33560,2958,3001,3132,2954,3133,False,False,False,False,False,False,False,False,False,False,True,False,False,False,False,False,False,False,False,False,False,False,False,False,False,False,False,False,False,False,False,False,False,False,False,0,3,False,False,0,0,534,1000,1000,384,13,1,0,0,8,35,0,0,0,0,0,0,1,Disabled,False,False,False,1,V0.1,    IR1800,
2019/10/25 - 08:59:56.615552,104,22.9206485748291,22.9206485748291,22.9206485748291,26.65418243408203,26.65418243408203,26.65418243408203,-,28.159339904785156,28.159339904785156,28.159339904785156,25.999683380126953,25.999683380126953,25.999683380126953,3.2980000972747803,3.2980000972747803,3.2980000972747803,3.262200117111206,3.262200117111206,3.262200117111206,Idle,Tobj,False,False,False,False,False,False,False,False,4297,137,On,On,Idle,32622,33560,32767,0,-32768,32767,-32768,False,False,False,False,False,False,False,False,False,False,False,False,False,False,False,False,False,False,False,False,False,False,False,False,False,False,False,False,False,False,False,False,False,False,False,0,3,False,False,0,0,0,1000,1000,0,0,0,0,0,0,0,0,0,0,0,0,0,1,Disabled,False,False,False,1,V0.1,    IR1800,
2019/10/25 - 09:00:45.423128,21,23.024538040161133,22.99207305908203,24.4140625,26.56003189086914,26.475622177124023,42.08503723144531,-,28.19961929321289,26.849817276000977,28.19961929321289,0.0,0.0,0.0,3.2960000038146973,3.2960000038146973,3.2980000972747803,0.0,0.0,0.0,Idle,Tobj,False,False,False,False,False,False,False,False,4297,137,On,On,Idle,0,0,0,0,0,0,0,False,False,False,False,False,False,False,False,False,False,False,False,False,False,False,False,False,False,False,False,False,False,False,False,False,False,False,False,False,True,True,False,False,False,False,0,3,False,False,32,0,0,1000,1000,0,0,0,0,0,8,0,0,0,0,0,0,0,1,Disabled,False,False,True,1,V0.1,    IR1800,
2019/10/25 - 09:00:46.437286,22,22.972593307495117,22.972593307495117,24.4140625,26.521074295043945,26.475622177124023,42.08503723144531,-,28.038469314575195,26.849817276000977,28.19961929321289,0.0,0.0,0.0,3.2960000038146973,3.2960000038146973,3.2980000972747803,0.0,0.0,0.0,Idle,Tobj,False,False,False,False,False,False,False,False,4297,137,On,On,Idle,0,0,0,0,0,0,0,False,False,False,False,False,False,False,False,False,False,False,False,False,False,False,False,False,False,False,False,False,False,False,False,False,False,False,False,False,True,True,False,False,False,False,0,3,False,False,32,0,0,1000,1000,0,0,0,0,0,8,0,0,0,0,0,0,0,1,Disabled,False,False,True,1,V0.1,    IR1800,
2019/10/25 - 09:00:47.390054,22,22.99207305908203,22.972593307495117,24.4140625,26.521074295043945,26.475622177124023,42.08503723144531,-,28.098886489868164,26.849817276000977,28.19961929321289,0.0,0.0,0.0,3.2960000038146973,3.2960000038146973,3.2980000972747803,0.0,0.0,0.0,Idle,Tobj,False,False,False,False,False,False,False,False,4297,137,On,On,Idle,0,0,0,0,0,0,0,False,False,False,False,False,False,False,False,False,False,False,False,False,False,False,False,False,False,False,False,False,False,False,False,False,False,False,False,False,True,True,False,False,False,False,0,3,False,False,32,0,0,1000,1000,0,0,0,0,0,8,0,0,0,0,0,0,0,1,Disabled,False,False,True,1,V0.1,    IR1800,
2019/10/25 - 09:00:48.397701,23,22.998565673828125,22.972593307495117,24.4140625,26.543800354003906,26.475622177124023,42.08503723144531,-,28.119062423706055,26.849817276000977,28.19961929321289,0.0,0.0,0.0,3.2960000038146973,3.2960000038146973,3.2980000972747803,0.0,0.0,0.0,Idle,Tobj,False,False,False,False,False,False,False,False,4297,137,On,On,Idle,0,0,0,0,0,0,0,False,False,False,False,False,False,False,False,False,False,False,False,False,False,False,False,False,False,False,False,False,False,False,False,False,False,False,False,False,True,True,False,False,False,False,0,3,False,False,32,0,0,1000,1000,0,0,0,0,0,8,0,0,0,0,0,0,0,1,Disabled,False,False,True,1,V0.1,    IR1800,
2019/10/25 - 09:00:49.437679,25,22.979087829589844,22.972593307495117,24.4140625,26.56328010559082,26.475622177124023,42.08503723144531,-,28.119062423706055,26.849817276000977,28.19961929321289,0.0,0.0,0.0,3.2960000038146973,3.2960000038146973,3.2980000972747803,0.0,0.0,0.0,Idle,Tobj,False,False,False,False,False,False,False,False,4297,137,On,On,Idle,0,0,0,0,0,0,0,False,False,False,False,False,False,False,False,False,False,False,False,False,False,False,False,False,False,False,False,False,False,False,False,False,False,False,False,False,True,True,False,False,False,False,0,3,False,False,32,0,0,1000,1000,0,0,0,0,0,8,0,0,0,0,0,0,0,1,Disabled,False,False,True,1,V0.1,    IR1800,
2019/10/25 - 09:00:50.462862,26,22.94662094116211,22.94662094116211,24.4140625,26.530813217163086,26.475622177124023,42.08503723144531,-,28.260072708129883,26.849817276000977,28.260072708129883,0.0,0.0,0.0,3.2960000038146973,3.2960000038146973,3.2980000972747803,0.0,0.0,0.0,Continuous,Tobj,False,False,False,False,False,False,False,False,4297,137,On,On,Capturing,0,0,0,0,0,0,0,False,False,False,False,False,False,False,False,False,False,False,False,False,False,False,False,False,False,False,False,False,False,False,False,False,False,False,False,False,True,True,False,False,False,False,0,3,False,False,32,0,0,1000,1000,0,0,0,0,0,8,27,0,0,0,0,0,0,1,Disabled,False,False,True,1,V0.1,    IR1800,
2019/10/25 - 09:00:51.437907,27,22.933635711669922,22.933635711669922,24.4140625,26.524320602416992,26.475622177124023,42.08503723144531,-,28.320526123046875,26.849817276000977,28.320526123046875,25.906787872314453,0.0,25.906787872314453,3.2960000038146973,3.2960000038146973,3.2980000972747803,3.260699987411499,0.0,3.260699987411499,Continuous,Tobj,False,False,False,False,False,False,False,False,4297,137,On,On,Capturing,32607,33561,2965,3006,3135,0,3135,False,False,False,False,False,False,False,False,False,False,False,False,False,False,False,False,False,False,False,False,False,False,False,False,False,False,False,False,False,True,True,False,False,False,False,0,3,False,False,32,493,493,1000,1000,343,13,2,0,0,8,27,0,0,0,0,0,0,1,Disabled,False,False,True,1,V0.1,    IR1800,
2019/10/25 - 09:00:52.412750,28,22.933635711669922,22.933635711669922,24.4140625,26.72560691833496,26.475622177124023,42.08503723144531,-,28.179479598999023,26.849817276000977,28.320526123046875,25.919164657592773,0.0,25.919164657592773,3.2960000038146973,3.2960000038146973,3.2980000972747803,3.2609000205993652,0.0,3.2609000205993652,Continuous,Tobj,False,False,False,False,False,False,False,False,4297,137,On,On,Capturing,32609,33561,2964,3006,3132,0,3135,False,False,False,False,False,False,False,False,False,False,False,False,False,False,False,False,False,False,False,False,False,False,False,False,False,False,False,False,False,True,True,False,False,False,False,0,3,False,False,32,493,493,1000,1000,343,13,2,0,0,8,27,0,0,0,0,0,0,1,Disabled,False,False,True,1,V0.1,    IR1800,
2019/10/25 - 09:00:53.452482,29,22.94662094116211,22.933635711669922,24.4140625,26.72560691833496,26.475622177124023,42.08503723144531,-,28.119062423706055,26.849817276000977,28.320526123046875,25.931543350219727,0.0,25.931543350219727,3.2960000038146973,3.2960000038146973,3.2980000972747803,3.2611000537872314,0.0,3.2611000537872314,Continuous,Tobj,False,False,False,False,False,False,False,False,4297,137,On,On,Capturing,32611,33561,2963,3004,3135,0,3135,False,False,False,False,False,False,False,False,False,False,False,False,False,False,False,False,False,False,False,False,False,False,False,False,False,False,False,False,False,True,True,False,False,False,False,0,3,False,False,32,493,493,1000,1000,344,13,2,0,0,9,27,0,0,0,0,0,0,1,Disabled,False,False,True,1,V0.1,    IR1800,
2019/10/25 - 09:00:54.429558,30,22.868703842163086,22.868703842163086,24.4140625,26.76131820678711,26.475622177124023,42.08503723144531,-,28.21979522705078,26.849817276000977,28.320526123046875,25.925365447998047,0.0,25.931543350219727,3.2960000038146973,3.2960000038146973,3.2980000972747803,3.260999917984009,0.0,3.2611000537872314,Continuous,Tobj,False,False,False,False,False,False,False,False,4297,137,On,On,Capturing,32610,33561,2966,3004,3130,0,3135,False,False,False,False,False,False,False,False,False,False,False,False,False,False,False,False,False,False,False,False,False,False,False,False,False,False,False,False,False,True,True,False,False,False,False,0,3,False,False,32,493,493,1000,1000,343,13,2,0,0,8,27,0,0,0,0,0,0,1,Disabled,False,False,True,1,V0.1,    IR1800,
