Time,Runtime,Current3V3,Current3V3Min,Current3V3Max,CurrentHTPA,CurrentHTPAMin,CurrentHTPAMax,CurrentCubeDock3V3_1,TemperatureMCU,TemperatureMCUMin,TemperatureMCUMax,TemperatureHTPA,TemperatureHTPAMin,TemperatureHTPAMax,VoltageMCU,VoltageMCUMin,VoltageMCUMax,VoltageHTPA,VoltageHTPAMin,VoltageHTPAMax,ADSSampleMode,HTPACalibLevel,HILEnabled,HILBusy,HILEnableImgVddComp,HILEnableImgTobjCalib,HILEnableEdgeDet,HILEnableLensDistCorr,HILEnablePolyFit,HILEnableAttEst,HTPADeviceID,HTPATableNumber,HtpaPowerState,HtpaWakeState,HtpaCaptureState,HtpaPTAT,HtpaVdd,HTPAImageLastMin,HTPAImageLastMean,HTPAImageLastMax,HTPAImageAllTimeMin,HTPAImageAllTimeMax,SRAM2ParityError,FlashCorruption,3V3OverCurrent,HTPAOverCurrent,Timer1sOverRun,MCUOverTemperature,MCUUnderTemperature,HTPAOverTemperature,HTPAUnderTemperature,HTPACalibLookupOutOfRange,HTPAIntegrationTimeError,HTPANotResponding,HTPAConfigMismatch,HTPASpiTimeout,CommsTcSlotsBuffFull,CommsTcParamBuffFull,CommsUartProtError,CommsUartMsgIncomplete,CommsUartTcParamOverflow,UARTTxOverflow,CommsTcInvalidID,CommsTcInvalidPar,CommsTcInvalidParLen,CommsTcTimeout,CommsTcCrcError,CommsTlmInvalidID,UARTTxReadingEmptyBuffer,UARTRxByteOverrun,UARTRxFramingError,UartTxTimeout,FRAMStatusNotResponding,FRAMDeviceNotFound,FRAMSpiTimeout,TcAckLastTCID,TcAckProcessed,TcAckErrStatus,TcAckParamErrIndex,ConfigRewrittenFromMemory,ConfigExtMemorySlotOverwritten,ConfigNoConfigFoundInMemory,ConfigNumOfValidFramSlots,ConfigNumOfValidFlashSlots,ConfigNotSaved,ConfigDataLoss,SwStartupTime,SwProcessingTime,SwProcessingTimeMax,SwLoopTime,SwLoopTimeMax,SwImgCaptureTime,SwLensDistCorrTime,SwEstimationTime,SwConfigRefreshMaxTime,SwConfigCheckMemoryMaxTime,SwAdcMeasurementTime,SwHtpaIntegrationTime,DetectedBitFlips,FlashFaults,FlashLastFaultAddress,MemTestSramMode,MemTestSramFaultsLastLoop,MemTestSramFaultsTotal,MemTestSramLoopNumber,MemTestSramIterateTime,MemTestFlashMode,MemTestFlashState,MemTestFlashIndex,MemTestFlashFaultPageIndex,MemTestFlashPageWriteErrors,MemTestFlashEraseErrors,MemTestFlashPageWriteTime,MemTestFlashPageReadTime,MemTestFramTimeToWait,SRAM2ParityCheckEnabled,InterfaceVersion,FirmwareVersion,IRCAM SN,
Time,Runtime,Current3V3,Current3V3Min,Current3V3Max,CurrentHTPA,CurrentHTPAMin,CurrentHTPAMax,CurrentCubeDock3V3_1,TemperatureMCU,TemperatureMCUMin,TemperatureMCUMax,TemperatureHTPA,TemperatureHTPAMin,TemperatureHTPAMax,VoltageMCU,VoltageMCUMin,VoltageMCUMax,VoltageHTPA,VoltageHTPAMin,VoltageHTPAMax,ADSSampleMode,HTPACalibLevel,HILEnabled,HILBusy,HILEnableImgVddComp,HILEnableImgTobjCalib,HILEnableEdgeDet,HILEnableLensDistCorr,HILEnablePolyFit,HILEnableAttEst,HTPADeviceID,HTPATableNumber,HtpaPowerState,HtpaWakeState,HtpaCaptureState,HtpaPTAT,HtpaVdd,HTPAImageLastMin,HTPAImageLastMean,HTPAImageLastMax,HTPAImageAllTimeMin,HTPAImageAllTimeMax,SRAM2ParityError,FlashCorruption,3V3OverCurrent,HTPAOverCurrent,Timer1sOverRun,MCUOverTemperature,MCUUnderTemperature,HTPAOverTemperature,HTPAUnderTemperature,HTPACalibLookupOutOfRange,HTPAIntegrationTimeError,HTPANotResponding,HTPAConfigMismatch,HTPASpiTimeout,CommsTcSlotsBuffFull,CommsTcParamBuffFull,CommsUartProtError,CommsUartMsgIncomplete,CommsUartTcParamOverflow,UARTTxOverflow,CommsTcInvalidID,CommsTcInvalidPar,CommsTcInvalidParLen,CommsTcTimeout,CommsTcCrcError,CommsTlmInvalidID,UARTTxReadingEmptyBuffer,UARTRxByteOverrun,UARTRxFramingError,UartTxTimeout,FRAMStatusNotResponding,FRAMDeviceNotFound,FRAMSpiTimeout,TcAckLastTCID,TcAckProcessed,TcAckErrStatus,TcAckParamErrIndex,ConfigRewrittenFromMemory,ConfigExtMemorySlotOverwritten,ConfigNoConfigFoundInMemory,ConfigNumOfValidFramSlots,ConfigNumOfValidFlashSlots,ConfigNotSaved,ConfigDataLoss,SwStartupTime,SwProcessingTime,SwProcessingTimeMax,SwLoopTime,SwLoopTimeMax,SwImgCaptureTime,SwLensDistCorrTime,SwEstimationTime,SwConfigRefreshMaxTime,SwConfigCheckMemoryMaxTime,SwAdcMeasurementTime,SwHtpaIntegrationTime,DetectedBitFlips,FlashFaults,FlashLastFaultAddress,MemTestSramMode,MemTestSramFaultsLastLoop,MemTestSramFaultsTotal,MemTestSramLoopNumber,MemTestSramIterateTime,MemTestFlashMode,MemTestFlashState,MemTestFlashIndex,MemTestFlashFaultPageIndex,MemTestFlashPageWriteErrors,MemTestFlashEraseErrors,MemTestFlashPageWriteTime,MemTestFlashPageReadTime,MemTestFramTimeToWait,SRAM2ParityCheckEnabled,InterfaceVersion,FirmwareVersion,IRCAM SN,
2019/11/01 - 12:17:30.338830,2088,22.65443229675293,22.26484489440918,25.12830352783203,26.180185317993164,25.97565269470215,26.228883743286133,-,27.77655029296875,26.809520721435547,28.179479598999023,0.0,0.0,0.0,3.2980000972747803,3.2980000972747803,3.299999952316284,0.0,0.0,0.0,Idle,Tobj,False,False,False,False,False,False,False,False,4297,137,On,On,Idle,0,0,0,0,0,0,0,False,False,False,False,False,False,False,False,False,False,False,False,False,False,False,False,False,False,False,False,False,False,False,False,False,False,False,False,False,False,False,True,False,48,True,NoError,0,False,False,True,0,0,True,False,29,0,0,1000,1000,0,0,0,0,0,8,0,0,0,0,-,-,-,-,-,-,-,-,-,-,-,-,-,-,True,1,V0.1,    IR1800,
