Time,Runtime,Current3V3,Current3V3Min,Current3V3Max,CurrentHTPA,CurrentHTPAMin,CurrentHTPAMax,CurrentCubeDock3V3_1,TemperatureMCU,TemperatureMCUMin,TemperatureMCUMax,TemperatureHTPA,TemperatureHTPAMin,TemperatureHTPAMax,ADSSampleMode,HTPACalibLevel,HILEnabled,HILBusy,HILEnableImgVddComp,HILEnableImgTobjCalib,HILEnableEdgeDet,HILEnableLensDistCorr,HILEnablePolyFit,HILEnableAttEst,HTPADeviceID,HTPATableNumber,HtpaPowerState,HtpaWakeState,HtpaCaptureState,HtpaPTAT,HtpaVdd,HTPAImageLastMin,HTPAImageLastMean,HTPAImageLastMax,HTPAImageAllTimeMin,HTPAImageAllTimeMax,3V3OverCurrent,3V3UnderCurrent,HTPAOverCurrent,HTPAUnderCurrent,Timer1sOverRun,MCUOverTemperature,MCUUnderTemperature,HTPAOverTemperature,HTPAUnderTemperature,HTPACalibLookupOutOfRange,HTPANotResponding,HTPAConfigMismatch,HTPASpiTimeout,CommsTcSlotsBuffFull,CommsTcParamBuffFull,CommsUartProtError,CommsUartMsgIncomplete,CommsUartTcParamOverflow,UARTTxOverflow,CommsTcInvalidID,CommsTcInvalidPar,CommsTcInvalidParLen,CommsTcTimeout,CommsTlmInvalidID,UARTTxReadingEmptyBuffer,UARTRxByteOverrun,UARTRxFramingError,UartTxTimeout,SwStartupTime,SwProcessingTime,SwProcessingTimeMax,SwLoopTime,SwImgCaptureTime,SwLensDistCorrTime,SwEstimationTime,RadEnabled,RadMode,RadFaultEvents,RadLastFaultIndex,RadCurrIteration,RadCurrSeed,InterfaceVersion,FirmwareVersion,CubeIR SN,IRCAM SN,
2019/09/20 - 08:07:07.940655,99.849,20.044204711914062,19.5637149810791,20.475996017456055,2.4998440742492676,2.4803647994995117,2.5063371658325195,0,26.99424171447754,25.853029251098633,27.0734920501709,0.0,0.0,0.0,Idle,None,False,False,False,False,False,False,False,False,4298,137,On,Off,Idle,0,0,32767,0,-32768,32767,-32768,False,False,False,False,False,False,False,False,False,False,True,False,False,False,False,False,False,False,False,False,False,False,False,False,False,False,False,False,1617,0,0,1000,0,0,0,False,ReadOnly,0,0,0,0,1,V0.1,      DEV1,    IR1800,
2019/09/20 - 08:07:09.657698,101.640,20.0214786529541,19.5637149810791,20.475996017456055,2.5063371658325195,2.4803647994995117,2.5063371658325195,0,27.04177474975586,25.853029251098633,27.0734920501709,0.0,0.0,0.0,Idle,None,False,False,False,False,False,False,False,False,4298,137,On,Off,Idle,0,0,32767,0,-32768,32767,-32768,False,False,False,False,False,False,False,False,False,False,True,False,False,False,False,False,False,False,False,False,False,False,False,False,False,False,False,False,1617,0,0,1000,0,0,0,False,ReadOnly,0,0,0,0,1,V0.1,      DEV1,    IR1800,
2019/09/20 - 08:07:09.921546,101.912,20.0214786529541,19.5637149810791,20.475996017456055,2.5063371658325195,2.4803647994995117,2.5063371658325195,0,27.04177474975586,25.853029251098633,27.0734920501709,0.0,0.0,0.0,Idle,None,False,False,False,False,False,False,False,False,4298,137,On,Off,Idle,0,0,32767,0,-32768,32767,-32768,False,False,False,False,False,False,False,False,False,False,True,False,False,False,False,False,False,False,False,False,False,False,False,False,False,False,False,False,1617,0,0,1000,0,0,0,False,ReadOnly,0,0,0,0,1,V0.1,      DEV1,    IR1800,
2019/09/20 - 08:07:10.166418,102.151,20.15458869934082,19.5637149810791,20.475996017456055,2.4965975284576416,2.4803647994995117,2.5063371658325195,0,27.057647705078125,25.853029251098633,27.0734920501709,0.0,0.0,0.0,Idle,None,False,False,False,False,False,False,False,False,4298,137,On,Off,Idle,0,0,32767,0,-32768,32767,-32768,False,False,False,False,False,False,False,False,False,False,True,False,False,False,False,False,False,False,False,False,False,False,False,False,False,False,False,False,1617,0,0,1000,0,0,0,False,ReadOnly,0,0,0,0,1,V0.1,      DEV1,    IR1800,
2019/09/20 - 08:07:10.402269,102.391,20.15458869934082,19.5637149810791,20.475996017456055,2.4965975284576416,2.4803647994995117,2.5063371658325195,0,27.057647705078125,25.853029251098633,27.0734920501709,0.0,0.0,0.0,Idle,None,False,False,False,False,False,False,False,False,4298,137,On,Off,Idle,0,0,32767,0,-32768,32767,-32768,False,False,False,False,False,False,False,False,False,False,True,False,False,False,False,False,False,False,False,False,False,False,False,False,False,False,False,False,1617,0,0,1000,0,0,0,False,ReadOnly,0,0,0,0,1,V0.1,      DEV1,    IR1800,
2019/09/20 - 08:07:10.633137,102.615,20.15458869934082,19.5637149810791,20.475996017456055,2.4965975284576416,2.4803647994995117,2.5063371658325195,0,27.057647705078125,25.853029251098633,27.0734920501709,0.0,0.0,0.0,Idle,None,False,False,False,False,False,False,False,False,4298,137,On,Off,Idle,0,0,32767,0,-32768,32767,-32768,False,False,False,False,False,False,False,False,False,False,True,False,False,False,False,False,False,False,False,False,False,False,False,False,False,False,False,False,1617,0,0,1000,0,0,0,False,ReadOnly,0,0,0,0,1,V0.1,      DEV1,    IR1800,
2019/09/20 - 08:07:10.854009,102.847,20.15458869934082,19.5637149810791,20.475996017456055,2.4965975284576416,2.4803647994995117,2.5063371658325195,0,27.057647705078125,25.853029251098633,27.0734920501709,0.0,0.0,0.0,Idle,None,False,False,False,False,False,False,False,False,4298,137,On,Off,Idle,0,0,32767,0,-32768,32767,-32768,False,False,False,False,False,False,False,False,False,False,True,False,False,False,False,False,False,False,False,False,False,False,False,False,False,False,False,False,1617,0,0,1000,0,0,0,False,ReadOnly,0,0,0,0,1,V0.1,      DEV1,    IR1800,
2019/09/20 - 08:07:11.075881,103.66,20.125368118286133,19.5637149810791,20.475996017456055,2.4965975284576416,2.4803647994995117,2.5063371658325195,0,26.978384017944336,25.853029251098633,27.0734920501709,0.0,0.0,0.0,Idle,None,False,False,False,False,False,False,False,False,4298,137,On,Off,Idle,0,0,32767,0,-32768,32767,-32768,False,False,False,False,False,False,False,False,False,False,True,False,False,False,False,False,False,False,False,False,False,False,False,False,False,False,False,False,1617,0,0,1000,0,0,0,False,ReadOnly,0,0,0,0,1,V0.1,      DEV1,    IR1800,
2019/09/20 - 08:07:11.293755,103.289,20.125368118286133,19.5637149810791,20.475996017456055,2.4965975284576416,2.4803647994995117,2.5063371658325195,0,26.978384017944336,25.853029251098633,27.0734920501709,0.0,0.0,0.0,Idle,None,False,False,False,False,False,False,False,False,4298,137,On,Off,Idle,0,0,32767,0,-32768,32767,-32768,False,False,False,False,False,False,False,False,False,False,True,False,False,False,False,False,False,False,False,False,False,False,False,False,False,False,False,False,1617,0,0,1000,0,0,0,False,ReadOnly,0,0,0,0,1,V0.1,      DEV1,    IR1800,
