2019/09/20 - 08:06:45.771065 | MAIN                | App started running
2019/09/20 - 08:07:06.900187 | CommsUART           | Successfully connected to COM8.
2019/09/20 - 08:07:07.634764 | App                 | Device is Responding
