Time,Runtime,Current3V3,Current3V3Min,Current3V3Max,CurrentHTPA,CurrentHTPAMin,CurrentHTPAMax,CurrentCubeDock3V3_1,TemperatureMCU,TemperatureMCUMin,TemperatureMCUMax,TemperatureHTPA,TemperatureHTPAMin,TemperatureHTPAMax,ADSSampleMode,HTPACalibLevel,HILEnabled,HILBusy,HILEnableImgVddComp,HILEnableImgTobjCalib,HILEnableEdgeDet,HILEnableLensDistCorr,HILEnablePolyFit,HILEnableAttEst,HTPADeviceID,HTPATableNumber,HtpaPowerState,HtpaWakeState,HtpaCaptureState,HtpaPTAT,HtpaVdd,HTPAImageLastMin,HTPAImageLastMean,HTPAImageLastMax,HTPAImageAllTimeMin,HTPAImageAllTimeMax,3V3OverCurrent,3V3UnderCurrent,HTPAOverCurrent,HTPAUnderCurrent,Timer1sOverRun,MCUOverTemperature,MCUUnderTemperature,HTPAOverTemperature,HTPAUnderTemperature,HTPACalibLookupOutOfRange,HTPANotResponding,HTPAConfigMismatch,HTPASpiTimeout,CommsTcSlotsBuffFull,CommsTcParamBuffFull,CommsUartProtError,CommsUartMsgIncomplete,CommsUartTcParamOverflow,UARTTxOverflow,CommsTcInvalidID,CommsTcInvalidPar,CommsTcInvalidParLen,CommsTcTimeout,CommsTlmInvalidID,UARTTxReadingEmptyBuffer,UARTRxByteOverrun,UARTRxFramingError,UartTxTimeout,SwStartupTime,SwProcessingTime,SwProcessingTimeMax,SwLoopTime,SwImgCaptureTime,SwLensDistCorrTime,SwEstimationTime,RadEnabled,RadMode,RadFaultEvents,RadLastFaultIndex,RadCurrIteration,RadCurrSeed,InterfaceVersion,FirmwareVersion,CubeIR SN,IRCAM SN,
2019/08/14 - 10:49:14.419864,25.497,46.59449768066406,20.748706817626953,47.9840202331543,27.6508731842041,2.6556785106658936,27.67684555053711,0,26.57802391052246,24.463878631591797,26.816463470458984,0.0,0.0,0.0,Idle,None,False,False,False,False,False,False,False,False,4298,137,On,On,Idle,0,0,0,0,0,0,0,False,False,False,False,False,False,False,False,False,False,False,False,False,False,False,False,False,False,False,False,False,False,False,False,False,True,False,False,1029,0,0,1000,0,0,0,False,ReadOnly,0,0,0,0,1,V0.1,      DEV1,    IR1800,
2019/08/14 - 10:49:14.822722,25.811,46.63345718383789,20.748706817626953,47.9840202331543,27.663860321044922,2.6556785106658936,27.67684555053711,0,26.57802391052246,24.463878631591797,26.816463470458984,0.0,0.0,0.0,Idle,None,False,False,False,False,False,False,False,False,4298,137,On,On,Idle,0,0,0,0,0,0,0,False,False,False,False,False,False,False,False,False,False,False,False,False,False,False,False,False,False,False,False,False,False,False,False,False,True,False,False,1029,0,0,1000,0,0,0,False,ReadOnly,0,0,0,0,1,V0.1,      DEV1,    IR1800,
2019/08/14 - 10:49:21.032294,32.325,46.4743766784668,20.748706817626953,47.9840202331543,27.64113426208496,2.6556785106658936,27.67684555053711,0,26.657503128051758,24.463878631591797,26.816463470458984,0.0,0.0,0.0,Idle,None,False,False,False,False,False,False,False,False,4298,137,On,On,Idle,0,0,0,0,0,0,0,False,False,False,False,False,False,False,False,False,False,False,False,False,False,False,False,False,False,False,False,False,False,False,False,False,True,False,False,1029,0,0,1000,0,0,0,False,ReadOnly,0,0,0,0,1,V0.1,      DEV1,    IR1800,
2019/08/14 - 10:49:23.292049,34.580,46.56852722167969,20.748706817626953,47.9840202331543,27.644380569458008,2.6556785106658936,27.67684555053711,0,26.705202102661133,24.463878631591797,26.816463470458984,0.0,0.0,0.0,Idle,None,False,False,False,False,False,False,False,False,4298,137,On,On,Idle,0,0,0,0,0,0,0,False,False,False,False,False,False,False,False,False,False,False,False,False,False,False,False,False,False,False,False,False,False,False,False,False,True,False,False,1029,0,0,1000,0,0,0,False,ReadOnly,0,0,0,0,1,V0.1,      DEV1,    IR1800,
2019/08/14 - 10:49:42.910422,54.234,46.50359344482422,46.50359344482422,46.6204719543457,27.637887954711914,27.634641647338867,27.65411949157715,0,26.816463470458984,26.689311981201172,26.816463470458984,0.0,0.0,0.0,Idle,None,False,False,False,False,False,False,False,False,4298,137,On,On,Idle,0,0,0,0,0,0,0,False,False,False,False,False,False,False,False,False,False,False,False,False,False,False,False,False,False,False,False,False,False,False,False,False,False,False,False,1029,0,0,1000,0,0,0,False,ReadOnly,0,0,0,0,1,V0.1,      DEV1,    IR1800,
2019/08/14 - 10:49:46.720923,58.23,46.51658248901367,46.50359344482422,46.6204719543457,27.65411949157715,27.624900817871094,27.65411949157715,0,26.78468132019043,26.689311981201172,26.816463470458984,0.0,0.0,0.0,Idle,None,False,False,False,False,False,False,False,False,4298,137,On,On,Idle,0,0,0,0,0,0,0,False,False,False,False,False,False,False,False,False,False,False,False,False,False,False,False,False,False,False,False,False,False,False,False,False,False,False,False,1029,0,0,1000,0,0,0,False,ReadOnly,0,0,0,0,1,V0.1,      DEV1,    IR1800,
