Time,Runtime,Current3V3,Current3V3Min,Current3V3Max,CurrentHTPA,CurrentHTPAMin,CurrentHTPAMax,CurrentCubeDock3V3_1,TemperatureMCU,TemperatureMCUMin,TemperatureMCUMax,TemperatureHTPA,TemperatureHTPAMin,TemperatureHTPAMax,ADSSampleMode,HTPACalibLevel,HILEnabled,HILBusy,HILEnableImgVddComp,HILEnableImgTobjCalib,HILEnableEdgeDet,HILEnableLensDistCorr,HILEnablePolyFit,HILEnableAttEst,HTPADeviceID,HTPATableNumber,HtpaPowerState,HtpaWakeState,HtpaCaptureState,HtpaPTAT,HtpaVdd,HTPAImageLastMin,HTPAImageLastMean,HTPAImageLastMax,HTPAImageAllTimeMin,HTPAImageAllTimeMax,3V3OverCurrent,3V3UnderCurrent,HTPAOverCurrent,HTPAUnderCurrent,Timer1sOverRun,MCUOverTemperature,MCUUnderTemperature,HTPAOverTemperature,HTPAUnderTemperature,HTPACalibLookupOutOfRange,HTPANotResponding,HTPAConfigMismatch,HTPASpiTimeout,CommsTcSlotsBuffFull,CommsTcParamBuffFull,CommsUartProtError,CommsUartMsgIncomplete,CommsUartTcParamOverflow,UARTTxOverflow,CommsTcInvalidID,CommsTcInvalidPar,CommsTcInvalidParLen,CommsTcTimeout,CommsTlmInvalidID,UARTTxReadingEmptyBuffer,UARTRxByteOverrun,UARTRxFramingError,UartTxTimeout,SwStartupTime,SwProcessingTime,SwProcessingTimeMax,SwLoopTime,SwImgCaptureTime,SwLensDistCorrTime,SwEstimationTime,RadEnabled,RadMode,RadFaultEvents,RadLastFaultIndex,RadCurrIteration,RadCurrSeed,InterfaceVersion,FirmwareVersion,CubeIR SN,IRCAM SN,
2019/08/14 - 11:01:48.046924,10.705,47.0620002746582,20.700008392333984,48.17232131958008,27.923583984375,2.6719114780426025,27.94631004333496,0,26.49854278564453,24.28901481628418,26.593942642211914,0.0,0.0,0.0,Idle,None,False,False,False,False,False,False,False,False,4298,137,On,On,Idle,0,0,0,0,0,0,0,False,False,False,False,False,False,False,False,False,False,False,False,False,False,False,False,False,False,False,False,False,False,False,False,False,False,False,False,1029,0,0,1000,0,0,0,False,ReadOnly,0,0,0,0,1,V0.1,      DEV1,    IR1800,
2019/08/14 - 11:01:50.335898,12.993,47.04252243041992,20.700008392333984,48.17232131958008,27.93332290649414,2.6719114780426025,27.94631004333496,0,26.67342185974121,24.28901481628418,26.67342185974121,0.0,0.0,0.0,Idle,None,False,False,False,False,False,False,False,False,4298,137,On,On,Idle,0,0,0,0,0,0,0,False,False,False,False,False,False,False,False,False,False,False,False,False,False,False,False,False,False,False,False,False,False,False,False,False,False,False,False,1029,0,0,1000,0,0,0,False,ReadOnly,0,0,0,0,1,V0.1,      DEV1,    IR1800,
2019/08/14 - 11:01:51.304570,14.0,46.98408508300781,20.700008392333984,48.17232131958008,27.93332290649414,2.6719114780426025,27.94631004333496,0,26.609832763671875,24.28901481628418,26.67342185974121,0.0,0.0,0.0,Idle,None,False,False,False,False,False,False,False,False,4298,137,On,On,Idle,0,0,0,0,0,0,0,False,False,False,False,False,False,False,False,False,False,False,False,False,False,False,False,False,False,False,False,False,False,False,False,False,False,False,False,1029,0,0,1000,0,0,0,False,ReadOnly,0,0,0,0,1,V0.1,      DEV1,    IR1800,
2019/08/14 - 11:01:52.298992,14.992,46.96135711669922,20.700008392333984,48.17232131958008,27.94631004333496,2.6719114780426025,27.94631004333496,0,26.625722885131836,24.28901481628418,26.67342185974121,0.0,0.0,0.0,Idle,None,False,False,False,False,False,False,False,False,4298,137,On,On,Idle,0,0,0,0,0,0,0,False,False,False,False,False,False,False,False,False,False,False,False,False,False,False,False,False,False,False,False,False,False,False,False,False,False,False,False,1029,0,0,1000,0,0,0,False,ReadOnly,0,0,0,0,1,V0.1,      DEV1,    IR1800,
2019/08/14 - 11:01:53.314719,15.999,47.03602981567383,20.700008392333984,48.17232131958008,27.920337677001953,2.6719114780426025,27.94631004333496,0,26.57802391052246,24.28901481628418,26.67342185974121,0.0,0.0,0.0,Idle,None,False,False,False,False,False,False,False,False,4298,137,On,On,Idle,0,0,0,0,0,0,0,False,False,False,False,False,False,False,False,False,False,False,False,False,False,False,False,False,False,False,False,False,False,False,False,False,False,False,False,1029,0,0,1000,0,0,0,False,ReadOnly,0,0,0,0,1,V0.1,      DEV1,    IR1800,
2019/08/14 - 11:01:54.312214,16.991,47.029537200927734,20.700008392333984,48.17232131958008,27.926830291748047,2.6719114780426025,27.94631004333496,0,26.657503128051758,24.28901481628418,26.67342185974121,0.0,0.0,0.0,Idle,None,False,False,False,False,False,False,False,False,4298,137,On,On,Idle,0,0,0,0,0,0,0,False,False,False,False,False,False,False,False,False,False,False,False,False,False,False,False,False,False,False,False,False,False,False,False,False,False,False,False,1029,0,0,1000,0,0,0,False,ReadOnly,0,0,0,0,1,V0.1,      DEV1,    IR1800,
2019/08/14 - 11:01:55.330877,17.998,47.029537200927734,20.700008392333984,48.17232131958008,27.926830291748047,2.6719114780426025,27.94631004333496,0,26.657503128051758,24.28901481628418,26.67342185974121,0.0,0.0,0.0,Continuous,None,False,False,False,False,False,False,False,False,4298,137,On,On,Capturing,0,0,0,0,0,0,0,False,False,False,False,False,False,False,False,False,False,False,False,False,False,False,False,False,False,False,False,False,False,False,False,False,False,False,False,1029,0,0,1000,0,0,0,False,ReadOnly,0,0,0,0,1,V0.1,      DEV1,    IR1800,
2019/08/14 - 11:01:56.305373,18.990,46.96135711669922,20.700008392333984,48.17232131958008,27.93657112121582,2.6719114780426025,27.94631004333496,0,26.641613006591797,24.28901481628418,26.67342185974121,23.385204315185547,0.0,23.385204315185547,Continuous,None,False,False,False,False,False,False,False,False,4298,137,On,On,Capturing,32676,32589,-274,-221,-20,-274,0,False,False,False,False,False,False,False,False,False,False,False,False,False,False,False,False,False,False,False,False,False,False,False,False,False,False,False,False,1029,265,265,1000,187,0,0,False,ReadOnly,0,0,0,0,1,V0.1,      DEV1,    IR1800,
2019/08/14 - 11:01:57.294045,19.997,47.02629089355469,20.700008392333984,48.17232131958008,27.97228240966797,2.6719114780426025,27.97228240966797,0,26.705202102661133,24.28901481628418,26.705202102661133,23.397558212280273,0.0,23.397558212280273,Continuous,None,False,False,False,False,False,False,False,False,4298,137,On,On,Capturing,32678,32587,-275,-222,-31,-275,0,False,False,False,False,False,False,False,False,False,False,False,False,False,False,False,False,False,False,False,False,False,False,False,False,False,False,False,False,1029,266,266,1000,188,0,0,False,ReadOnly,0,0,0,0,1,V0.1,      DEV1,    IR1800,
2019/08/14 - 11:01:58.310087,21.4,47.13667297363281,20.700008392333984,48.17232131958008,28.00474739074707,2.6719114780426025,28.00474739074707,0,26.641613006591797,24.28901481628418,26.705202102661133,23.403759002685547,0.0,23.403759002685547,Continuous,None,False,False,False,False,False,False,False,False,4298,137,On,On,Capturing,32679,32586,-283,-224,-33,-283,0,False,False,False,False,False,False,False,False,False,False,False,False,False,False,False,False,False,False,False,False,False,False,False,False,False,False,False,False,1029,266,266,1000,188,0,0,False,ReadOnly,0,0,0,0,1,V0.1,      DEV1,    IR1800,
2019/08/14 - 11:01:59.315811,21.995,47.17563247680664,20.700008392333984,48.17232131958008,27.99500846862793,2.6719114780426025,28.00474739074707,0,26.625722885131836,24.28901481628418,26.705202102661133,23.403759002685547,0.0,23.403759002685547,Continuous,None,False,False,False,False,False,False,False,False,4298,137,On,On,Capturing,32679,32585,-278,-225,-37,-283,0,False,False,False,False,False,False,False,False,False,False,False,False,False,False,False,False,False,False,False,False,False,False,False,False,False,False,False,False,1029,266,266,1000,188,0,0,False,ReadOnly,0,0,0,0,1,V0.1,      DEV1,    IR1800,
2019/08/14 - 11:02:00.349332,22.987,47.107452392578125,20.700008392333984,48.17232131958008,27.978775024414062,2.6719114780426025,28.00474739074707,0,26.67342185974121,24.28901481628418,26.705202102661133,23.403759002685547,0.0,23.403759002685547,Continuous,None,False,False,False,False,False,False,False,False,4298,137,On,On,Capturing,32679,32586,-284,-227,-38,-284,0,False,False,False,False,False,False,False,False,False,False,False,False,False,False,False,False,False,False,False,False,False,False,False,False,False,False,False,False,1029,266,266,1000,188,0,0,False,ReadOnly,0,0,0,0,1,V0.1,      DEV1,    IR1800,
2019/08/14 - 11:02:01.284726,23.994,47.24705505371094,20.700008392333984,48.17232131958008,28.014488220214844,2.6719114780426025,28.014488220214844,0,26.689311981201172,24.28901481628418,26.705202102661133,23.403759002685547,0.0,23.403759002685547,Continuous,None,False,False,False,False,False,False,False,False,4298,137,On,On,Capturing,32679,32587,-278,-228,-43,-284,0,False,False,False,False,False,False,False,False,False,False,False,False,False,False,False,False,False,False,False,False,False,False,False,False,False,False,False,False,1029,266,266,1000,188,0,0,False,ReadOnly,0,0,0,0,1,V0.1,      DEV1,    IR1800,
2019/08/14 - 11:02:02.313233,24.986,47.182125091552734,20.700008392333984,48.17232131958008,27.991762161254883,2.6719114780426025,28.014488220214844,0,26.625722885131836,24.28901481628418,26.705202102661133,23.416162490844727,0.0,23.416162490844727,Continuous,None,False,False,False,False,False,False,False,False,4298,137,On,On,Capturing,32681,32586,-283,-229,-36,-284,0,False,False,False,False,False,False,False,False,False,False,False,False,False,False,False,False,False,False,False,False,False,False,False,False,False,False,False,False,1029,266,266,1000,188,0,0,False,ReadOnly,0,0,0,0,1,V0.1,      DEV1,    IR1800,
2019/08/14 - 11:02:03.315160,25.994,47.165889739990234,20.700008392333984,48.17232131958008,27.988515853881836,2.6719114780426025,28.014488220214844,0,26.689311981201172,24.28901481628418,26.705202102661133,23.409961700439453,0.0,23.416162490844727,Continuous,None,False,False,False,False,False,False,False,False,4298,137,On,On,Capturing,32680,32588,-285,-230,-38,-285,0,False,False,False,False,False,False,False,False,False,False,False,False,False,False,False,False,False,False,False,False,False,False,False,False,False,False,False,False,1029,264,266,1000,186,0,0,False,ReadOnly,0,0,0,0,1,V0.1,      DEV1,    IR1800,
2019/08/14 - 11:02:04.302722,26.986,47.156150817871094,20.700008392333984,48.17232131958008,27.97228240966797,2.6719114780426025,28.014488220214844,0,26.546241760253906,24.28901481628418,26.705202102661133,23.416162490844727,0.0,23.416162490844727,Continuous,None,False,False,False,False,False,False,False,False,4298,137,On,On,Capturing,32681,32587,-284,-231,-37,-285,0,False,False,False,False,False,False,False,False,False,False,False,False,False,False,False,False,False,False,False,False,False,False,False,False,False,False,False,False,1029,266,266,1000,188,0,0,False,ReadOnly,0,0,0,0,1,V0.1,      DEV1,    IR1800,
2019/08/14 - 11:02:05.296616,27.992,47.191864013671875,20.700008392333984,48.17232131958008,27.988515853881836,2.6719114780426025,28.014488220214844,0,26.625722885131836,24.28901481628418,26.705202102661133,23.422338485717773,0.0,23.422338485717773,Continuous,Vdd,False,False,False,False,False,False,False,False,4298,137,On,On,Capturing,32682,32586,30000,0,-30000,30000,-30000,False,False,False,False,False,False,False,False,False,False,False,False,False,False,False,False,False,False,False,False,False,False,False,False,False,False,False,False,1029,266,266,1000,188,0,0,False,ReadOnly,0,0,0,0,1,V0.1,      DEV1,    IR1800,
2019/08/14 - 11:02:06.311724,28.999,47.2210807800293,20.700008392333984,48.17232131958008,28.00474739074707,2.6719114780426025,28.014488220214844,0,26.689311981201172,24.28901481628418,26.705202102661133,23.428539276123047,0.0,23.428539276123047,Continuous,Vdd,False,False,False,False,False,False,False,False,4298,137,On,On,Capturing,32683,32588,-32768,-3225,202,-32768,202,False,False,False,False,False,False,False,False,False,False,False,False,False,False,False,False,False,False,False,False,False,False,False,False,False,False,False,False,1029,288,288,1000,210,0,0,False,ReadOnly,0,0,0,0,1,V0.1,      DEV1,    IR1800,
2019/08/14 - 11:02:07.322875,29.992,47.2145881652832,20.700008392333984,48.17232131958008,28.001501083374023,2.6719114780426025,28.014488220214844,0,26.593942642211914,24.28901481628418,26.705202102661133,23.422338485717773,0.0,23.428539276123047,Continuous,Vdd,False,False,False,False,False,False,False,False,4298,137,On,On,Capturing,32682,32587,-32768,-3226,201,-32768,202,False,False,False,False,False,False,False,False,False,False,False,False,False,False,False,False,False,False,False,False,False,False,False,False,False,False,False,False,1029,288,288,1000,210,0,0,False,ReadOnly,0,0,0,0,1,V0.1,      DEV1,    IR1800,
2019/08/14 - 11:02:08.283538,30.983,47.260040283203125,20.700008392333984,48.17232131958008,27.991762161254883,2.6719114780426025,28.014488220214844,0,26.657503128051758,24.28901481628418,26.705202102661133,23.428539276123047,0.0,23.428539276123047,Continuous,Vdd,False,False,False,False,False,False,False,False,4298,137,On,On,Capturing,32683,32588,-32768,-3226,199,-32768,202,False,False,False,False,False,False,False,False,False,False,False,False,False,False,False,False,False,False,False,False,False,False,False,False,False,False,False,False,1029,288,288,1000,210,0,0,False,ReadOnly,0,0,0,0,1,V0.1,      DEV1,    IR1800,
2019/08/14 - 11:02:09.304947,31.989,47.28276824951172,20.700008392333984,48.17232131958008,27.998254776000977,2.6719114780426025,28.014488220214844,0,26.67342185974121,24.28901481628418,26.705202102661133,23.434717178344727,0.0,23.434717178344727,Continuous,Vdd,False,False,False,False,False,False,False,False,4298,137,On,On,Capturing,32684,32588,-32768,-3226,198,-32768,202,False,False,False,False,False,False,False,False,False,False,False,False,False,False,False,False,False,False,False,False,False,False,False,False,False,False,False,False,1029,287,288,1000,210,0,0,False,ReadOnly,0,0,0,0,1,V0.1,      DEV1,    IR1800,
2019/08/14 - 11:02:10.333351,32.997,47.19511032104492,20.700008392333984,48.17232131958008,27.99500846862793,2.6719114780426025,28.014488220214844,0,26.689311981201172,24.28901481628418,26.705202102661133,23.434717178344727,0.0,23.434717178344727,Continuous,Vdd,False,False,False,False,False,False,False,False,4298,137,On,On,Capturing,32684,32587,-32768,-3226,198,-32768,202,False,False,False,False,False,False,False,False,False,False,False,False,False,False,False,False,False,False,False,False,False,False,False,False,False,False,False,False,1029,288,288,1000,210,0,0,False,ReadOnly,0,0,0,0,1,V0.1,      DEV1,    IR1800,
2019/08/14 - 11:02:11.339465,33.989,47.224327087402344,20.700008392333984,48.17232131958008,27.985267639160156,2.6719114780426025,28.014488220214844,0,26.721092224121094,24.28901481628418,26.721092224121094,23.428539276123047,0.0,23.434717178344727,Continuous,Vdd,False,False,False,False,False,False,False,False,4298,137,On,On,Capturing,32683,32588,-32768,-3227,201,-32768,202,False,False,False,False,False,False,False,False,False,False,False,False,False,False,False,False,False,False,False,False,False,False,False,False,False,False,False,False,1029,287,288,1000,210,0,0,False,ReadOnly,0,0,0,0,1,V0.1,      DEV1,    IR1800,
2019/08/14 - 11:02:12.288474,34.981,47.23406982421875,20.700008392333984,48.17232131958008,27.988515853881836,2.6719114780426025,28.014488220214844,0,26.67342185974121,24.28901481628418,26.721092224121094,23.434717178344727,0.0,23.434717178344727,Continuous,Vdd,False,False,False,False,False,False,False,False,4298,137,On,On,Capturing,32684,32587,-32768,-3227,198,-32768,202,False,False,False,False,False,False,False,False,False,False,False,False,False,False,False,False,False,False,False,False,False,False,False,False,False,False,False,False,1029,288,288,1000,210,0,0,False,ReadOnly,0,0,0,0,1,V0.1,      DEV1,    IR1800,
2019/08/14 - 11:02:13.314467,35.988,47.16264343261719,20.700008392333984,48.17232131958008,28.001501083374023,2.6719114780426025,28.014488220214844,0,26.641613006591797,24.28901481628418,26.721092224121094,23.44091796875,0.0,23.44091796875,Continuous,Vdd,False,False,False,False,False,False,False,False,4298,137,On,On,Capturing,32685,32587,-32768,-3228,200,-32768,202,False,False,False,False,False,False,False,False,False,False,False,False,False,False,False,False,False,False,False,False,False,False,False,False,False,False,False,False,1029,287,288,1000,209,0,0,False,ReadOnly,0,0,0,0,1,V0.1,      DEV1,    IR1800,
2019/08/14 - 11:02:14.320264,36.979,47.087974548339844,20.700008392333984,48.17232131958008,27.991762161254883,2.6719114780426025,28.014488220214844,0,26.752901077270508,24.28901481628418,26.752901077270508,23.44091796875,0.0,23.44091796875,Continuous,Vdd,False,False,False,False,False,False,False,False,4298,137,On,On,Capturing,32685,32587,-32768,-3228,202,-32768,202,False,False,False,False,False,False,False,False,False,False,False,False,False,False,False,False,False,False,False,False,False,False,False,False,False,False,False,False,1029,288,288,1000,210,0,0,False,ReadOnly,0,0,0,0,1,V0.1,      DEV1,    IR1800,
2019/08/14 - 11:02:15.319426,37.987,47.049015045166016,20.700008392333984,48.17232131958008,27.985267639160156,2.6719114780426025,28.014488220214844,0,26.705202102661133,24.28901481628418,26.752901077270508,23.434717178344727,0.0,23.44091796875,Continuous,Vdd,False,False,False,False,False,False,False,False,4298,137,On,On,Capturing,32684,32588,-32768,-3228,200,-32768,202,False,False,False,False,False,False,False,False,False,False,False,False,False,False,False,False,False,False,False,False,False,False,False,False,False,False,False,False,1029,287,288,1000,209,0,0,False,ReadOnly,0,0,0,0,1,V0.1,      DEV1,    IR1800,
2019/08/14 - 11:02:16.288609,38.978,47.049015045166016,20.700008392333984,48.17232131958008,27.95929527282715,2.6719114780426025,28.014488220214844,0,26.705202102661133,24.28901481628418,26.752901077270508,23.434717178344727,0.0,23.44091796875,Continuous,Vdd,False,False,False,False,False,False,False,False,4298,137,On,On,Capturing,32684,32586,-32768,-3228,199,-32768,202,False,False,False,False,False,False,False,False,False,False,False,False,False,False,False,False,False,False,False,False,False,False,False,False,False,False,False,False,1029,288,288,1000,210,0,0,False,ReadOnly,0,0,0,0,1,V0.1,      DEV1,    IR1800,
2019/08/14 - 11:02:17.319381,39.985,47.058753967285156,20.700008392333984,48.17232131958008,27.985267639160156,2.6719114780426025,28.014488220214844,0,26.705202102661133,24.28901481628418,26.752901077270508,23.434717178344727,0.0,23.44091796875,Continuous,Vdd,False,False,False,False,False,False,False,False,4298,137,On,On,Capturing,32684,32589,-32768,-3228,194,-32768,202,False,False,False,False,False,False,False,False,False,False,False,False,False,False,False,False,False,False,False,False,False,False,False,False,False,False,False,False,1029,287,288,1000,209,0,0,False,ReadOnly,0,0,0,0,1,V0.1,      DEV1,    IR1800,
2019/08/14 - 11:02:18.340874,40.992,46.990577697753906,20.700008392333984,48.17232131958008,27.98202133178711,2.6719114780426025,28.014488220214844,0,26.67342185974121,24.28901481628418,26.752901077270508,23.44091796875,0.0,23.44091796875,Continuous,Vdd,False,False,False,False,False,False,False,False,4298,137,On,On,Capturing,32685,32587,-32768,-3228,196,-32768,202,False,False,False,False,False,False,False,False,False,False,False,False,False,False,False,False,False,False,False,False,False,False,False,False,False,False,False,False,1029,288,288,1000,210,0,0,False,ReadOnly,0,0,0,0,1,V0.1,      DEV1,    IR1800,
2019/08/14 - 11:02:19.332819,41.984,46.97759246826172,20.700008392333984,48.17232131958008,27.98202133178711,2.6719114780426025,28.014488220214844,0,26.657503128051758,24.28901481628418,26.752901077270508,23.434717178344727,0.0,23.44091796875,Continuous,Vdd,False,False,False,False,False,False,False,False,4298,137,On,On,Capturing,32684,32586,-32768,-3228,201,-32768,202,False,False,False,False,False,False,False,False,False,False,False,False,False,False,False,False,False,False,False,False,False,False,False,False,False,False,False,False,1029,288,288,1000,210,0,0,False,ReadOnly,0,0,0,0,1,V0.1,      DEV1,    IR1800,
2019/08/14 - 11:02:20.295794,42.975,46.97759246826172,20.700008392333984,48.17232131958008,27.988515853881836,2.6719114780426025,28.014488220214844,0,26.657503128051758,24.28901481628418,26.752901077270508,23.44091796875,0.0,23.44091796875,Continuous,Vdd,False,False,False,False,False,False,False,False,4298,137,On,On,Capturing,32685,32589,-32768,-3228,197,-32768,202,False,False,False,False,False,False,False,False,False,False,False,False,False,False,False,False,False,False,False,False,False,False,False,False,False,False,False,False,1029,288,288,1000,210,0,0,False,ReadOnly,0,0,0,0,1,V0.1,      DEV1,    IR1800,
2019/08/14 - 11:02:21.324647,43.982,46.89967346191406,20.700008392333984,48.17232131958008,27.97228240966797,2.6719114780426025,28.014488220214844,0,26.689311981201172,24.28901481628418,26.752901077270508,23.447118759155273,0.0,23.447118759155273,Continuous,Vdd,False,False,False,False,False,False,False,False,4298,137,On,On,Capturing,32686,32588,-32768,-3229,199,-32768,202,False,False,False,False,False,False,False,False,False,False,False,False,False,False,False,False,False,False,False,False,False,False,False,False,False,False,False,False,1029,288,288,1000,210,0,0,False,ReadOnly,0,0,0,0,1,V0.1,      DEV1,    IR1800,
2019/08/14 - 11:02:22.299556,44.990,46.9970703125,20.700008392333984,48.17232131958008,27.998254776000977,2.6719114780426025,28.014488220214844,0,26.641613006591797,24.28901481628418,26.752901077270508,23.434717178344727,0.0,23.447118759155273,Continuous,Vdd,False,False,False,False,False,False,False,False,4298,137,On,On,Capturing,32684,32587,-32768,-3229,199,-32768,202,False,False,False,False,False,False,False,False,False,False,False,False,False,False,False,False,False,False,False,False,False,False,False,False,False,False,False,False,1029,288,288,1000,210,0,0,False,ReadOnly,0,0,0,0,1,V0.1,      DEV1,    IR1800,
2019/08/14 - 11:02:23.315427,45.981,47.156150817871094,20.700008392333984,48.17232131958008,27.965789794921875,2.6719114780426025,28.014488220214844,0,26.705202102661133,24.28901481628418,26.752901077270508,23.44091796875,0.0,23.447118759155273,Continuous,Vdd,False,False,False,False,False,False,False,False,4298,137,On,On,Capturing,32685,32587,-32768,-3229,195,-32768,202,False,False,False,False,False,False,False,False,False,False,False,False,False,False,False,False,False,False,False,False,False,False,False,False,False,False,False,False,1029,288,288,1000,210,0,0,False,ReadOnly,0,0,0,0,1,V0.1,      DEV1,    IR1800,
2019/08/14 - 11:02:24.320326,46.973,46.9321403503418,20.700008392333984,48.17232131958008,27.97228240966797,2.6719114780426025,28.014488220214844,0,26.705202102661133,24.28901481628418,26.752901077270508,23.447118759155273,0.0,23.447118759155273,Continuous,Tobj,False,False,False,False,False,False,False,False,4298,137,On,On,Capturing,32686,32587,30000,0,-30000,30000,-30000,False,False,False,False,False,False,False,False,False,False,False,False,False,False,False,False,False,False,False,False,False,False,False,False,False,False,False,False,1029,288,288,1000,210,0,0,False,ReadOnly,0,0,0,0,1,V0.1,      DEV1,    IR1800,
2019/08/14 - 11:02:25.341267,47.981,47.087974548339844,20.700008392333984,48.17232131958008,27.969036102294922,2.6719114780426025,28.014488220214844,0,26.752901077270508,24.28901481628418,26.752901077270508,23.434717178344727,0.0,23.447118759155273,Continuous,Tobj,False,False,False,False,False,False,False,False,4298,137,On,On,Capturing,32684,32587,0,2683,3128,0,3128,False,False,False,False,False,False,False,False,False,False,False,False,False,False,False,False,False,False,False,False,False,False,False,False,False,False,False,False,1029,394,394,1000,316,0,0,False,ReadOnly,0,0,0,0,1,V0.1,      DEV1,    IR1800,
2019/08/14 - 11:02:26.330851,48.988,47.33795928955078,20.700008392333984,48.17232131958008,27.99500846862793,2.6719114780426025,28.014488220214844,0,26.689311981201172,24.28901481628418,26.752901077270508,23.434717178344727,0.0,23.447118759155273,Continuous,Tobj,False,False,False,False,False,False,False,False,4298,137,On,On,Capturing,32684,32586,0,2683,3131,0,3131,False,False,False,False,False,False,False,False,False,False,False,False,False,False,False,False,False,False,False,False,False,False,False,False,False,False,False,False,1029,394,394,1000,315,0,0,False,ReadOnly,0,0,0,0,1,V0.1,      DEV1,    IR1800,
2019/08/14 - 11:02:27.315661,49.979,47.03602981567383,20.700008392333984,48.17232131958008,27.94631004333496,2.6719114780426025,28.014488220214844,0,26.76879119873047,24.28901481628418,26.76879119873047,23.434717178344727,0.0,23.447118759155273,Continuous,Tobj,False,False,False,False,False,False,False,False,4298,137,On,On,Capturing,32684,32584,0,2683,3133,0,3133,False,False,False,False,False,False,False,False,False,False,False,False,False,False,False,False,False,False,False,False,False,False,False,False,False,False,False,False,1029,394,394,1000,316,0,0,False,ReadOnly,0,0,0,0,1,V0.1,      DEV1,    IR1800,
