2019/08/14 - 10:43:05.135816 | MAIN                | App started running
2019/08/14 - 10:43:09.088869 | CommsUART           | Successfully connected to COM8.
2019/08/14 - 10:43:09.535219 | App                 | Device is Responding
2019/08/14 - 10:43:15.620343 | EXCEPTION           | Traceback (most recent call last):
  File "C:/Users/heinw/Documents/CubeSpace/CubeIR/Software Design/GUI-Python/app_threaded.py", line 180, in butt_fcn_setptatvdd
    'Setting HTPA internal PTAT to %d and VddDigits to %d.' % (ptat, vdd),
TypeError: %d format: a number is required, not str

2019/08/14 - 10:43:32.098578 | MAIN                | App started running
2019/08/14 - 10:43:36.279279 | CommsUART           | Successfully connected to COM8.
2019/08/14 - 10:43:37.079407 | App                 | Device is Responding
2019/08/14 - 10:43:44.604111 | App                 | Setting HTPA internal PTAT to 32805 and VddDigits to 32580.
2019/08/14 - 10:43:59.468094 | App                 | Setting HTPA internal PTAT to 32805 and VddDigits to 32580.
