2019/08/14 - 10:45:33.984732 | MAIN                | App started running
2019/08/14 - 10:45:38.181645 | CommsUART           | Successfully connected to COM8.
2019/08/14 - 10:45:39.492302 | App                 | Device is Responding
2019/08/14 - 10:45:46.308828 | App                 | Setting HTPA internal PTAT to 32805 and VddDigits to 32580.
