2019/08/14 - 11:10:36.561562 | MAIN                | App started running
2019/08/14 - 11:10:43.146615 | CommsUART           | Successfully connected to COM8.
2019/08/14 - 11:10:44.457955 | App                 | Device is Responding
2019/08/14 - 11:10:52.383655 | App                 | Setting ADS SampleMode: Continuous.
2019/08/14 - 11:18:16.288447 | App                 | Setting HTPA Calibration Level: Tobj.
