Time,Runtime,Current3V3,Current3V3Min,Current3V3Max,CurrentHTPA,CurrentHTPAMin,CurrentHTPAMax,CurrentCubeDock3V3_1,TemperatureMCU,TemperatureMCUMin,TemperatureMCUMax,TemperatureHTPA,TemperatureHTPAMin,TemperatureHTPAMax,ADSSampleMode,HTPACalibLevel,HILEnabled,HILBusy,HILEnableEdgeDet,HILEnableLensDistCorr,HILEnablePolyFit,HILEnableAttEst,HTPADeviceID,HTPATableNumber,HtpaPowerState,HtpaWakeState,HtpaCaptureState,HtpaPTAT,HtpaVdd,HTPAImageLastMin,HTPAImageLastMean,HTPAImageLastMax,HTPAImageAllTimeMin,HTPAImageAllTimeMax,3V3OverCurrent,3V3UnderCurrent,HTPAOverCurrent,HTPAUnderCurrent,Timer1sOverRun,MCUOverTemperature,MCUUnderTemperature,HTPAOverTemperature,HTPAUnderTemperature,HTPACalibLookupOutOfRange,HTPANotResponding,HTPAConfigMismatch,HTPASpiTimeout,CommsTcSlotsBuffFull,CommsTcParamBuffFull,CommsUartProtError,CommsUartMsgIncomplete,CommsUartTcParamOverflow,UARTTxOverflow,CommsTcInvalidID,CommsTcInvalidPar,CommsTcInvalidParLen,CommsTcTimeout,CommsTlmInvalidID,UARTTxReadingEmptyBuffer,UARTRxByteOverrun,UARTRxFramingError,UartTxTimeout,SwStartupTime,SwProcessingTime,SwProcessingTimeMax,SwLoopTime,SwImgCaptureTime,SwLensDistCorrTime,SwEstimationTime,RadEnabled,RadMode,RadFaultEvents,RadLastFaultIndex,RadCurrIteration,RadCurrSeed,InterfaceVersion,FirmwareVersion,CubeIR SN,IRCAM SN,
2019/07/30 - 16:35:54.290821,40.588,44.455020904541016,23.268030166625977,54.57776641845703,26.829496383666992,2.600487232208252,27.47880744934082,0,29.064836502075195,27.8602294921875,36.054744720458984,0.0,0.0,0.0,Idle,None,False,False,False,False,False,False,4320,137,PowOn,Awake,Idle,0,0,0,0,0,0,0,False,False,False,False,False,False,False,False,False,False,False,False,False,False,False,False,False,False,False,False,False,False,False,False,False,False,False,False,1029,0,0,1000,0,0,0,False,ReadOnly,0,0,0,0,1,V0.1,      DEV1,    IR1800,
2019/07/30 - 16:35:54.903274,41.307,44.4842414855957,23.268030166625977,54.57776641845703,26.839235305786133,2.600487232208252,27.47880744934082,0,29.12824249267578,27.8602294921875,36.054744720458984,0.0,0.0,0.0,Idle,None,False,False,False,False,False,False,4320,137,PowOn,Awake,Idle,0,0,0,0,0,0,0,False,False,False,False,False,False,False,False,False,False,False,False,False,False,False,False,False,False,False,False,False,False,False,False,False,False,False,False,1029,0,0,1000,0,0,0,False,ReadOnly,0,0,0,0,1,V0.1,      DEV1,    IR1800,
2019/07/30 - 16:35:55.641083,42.26,44.36736297607422,23.268030166625977,54.57776641845703,26.839235305786133,2.600487232208252,27.47880744934082,0,29.033145904541016,27.8602294921875,36.054744720458984,0.0,0.0,0.0,Idle,None,False,False,False,False,False,False,4320,137,PowOn,Awake,Idle,0,0,0,0,0,0,0,False,False,False,False,False,False,False,False,False,False,False,False,False,False,False,False,False,False,False,False,False,False,False,False,False,False,False,False,1029,0,0,1000,0,0,0,False,ReadOnly,0,0,0,0,1,V0.1,      DEV1,    IR1800,
2019/07/30 - 16:35:55.892674,42.298,44.36736297607422,23.268030166625977,54.57776641845703,26.839235305786133,2.600487232208252,27.47880744934082,0,29.033145904541016,27.8602294921875,36.054744720458984,0.0,0.0,0.0,Idle,None,False,False,False,False,False,False,4320,137,PowOn,Awake,Idle,0,0,0,0,0,0,0,False,False,False,False,False,False,False,False,False,False,False,False,False,False,False,False,False,False,False,False,False,False,False,False,False,False,False,False,1029,0,0,1000,0,0,0,False,ReadOnly,0,0,0,0,1,V0.1,      DEV1,    IR1800,
2019/07/30 - 16:35:56.140149,42.534,44.36736297607422,23.268030166625977,54.57776641845703,26.839235305786133,2.600487232208252,27.47880744934082,0,29.033145904541016,27.8602294921875,36.054744720458984,0.0,0.0,0.0,Idle,None,False,False,False,False,False,False,4320,137,PowOn,Awake,Idle,0,0,0,0,0,0,0,False,False,False,False,False,False,False,False,False,False,False,False,False,False,False,False,False,False,False,False,False,False,False,False,False,False,False,False,1029,0,0,1000,0,0,0,False,ReadOnly,0,0,0,0,1,V0.1,      DEV1,    IR1800,
2019/07/30 - 16:35:56.396919,42.781,44.36736297607422,23.268030166625977,54.57776641845703,26.839235305786133,2.600487232208252,27.47880744934082,0,29.033145904541016,27.8602294921875,36.054744720458984,0.0,0.0,0.0,Idle,None,False,False,False,False,False,False,4320,137,PowOn,Awake,Idle,0,0,0,0,0,0,0,False,False,False,False,False,False,False,False,False,False,False,False,False,False,False,False,False,False,False,False,False,False,False,False,False,False,False,False,1029,0,0,1000,0,0,0,False,ReadOnly,0,0,0,0,1,V0.1,      DEV1,    IR1800,
2019/07/30 - 16:35:56.635045,43.37,44.396583557128906,23.268030166625977,54.57776641845703,26.848976135253906,2.600487232208252,27.47880744934082,0,29.017301559448242,27.8602294921875,36.054744720458984,0.0,0.0,0.0,Idle,None,False,False,False,False,False,False,4320,137,PowOn,Awake,Idle,0,0,0,0,0,0,0,False,False,False,False,False,False,False,False,False,False,False,False,False,False,False,False,False,False,False,False,False,False,False,False,False,False,False,False,1029,0,0,1000,0,0,0,False,ReadOnly,0,0,0,0,1,V0.1,      DEV1,    IR1800,
2019/07/30 - 16:35:56.872670,43.276,44.396583557128906,23.268030166625977,54.57776641845703,26.848976135253906,2.600487232208252,27.47880744934082,0,29.017301559448242,27.8602294921875,36.054744720458984,0.0,0.0,0.0,Idle,None,False,False,False,False,False,False,4320,137,PowOn,Awake,Idle,0,0,0,0,0,0,0,False,False,False,False,False,False,False,False,False,False,False,False,False,False,False,False,False,False,False,False,False,False,False,False,False,False,False,False,1029,0,0,1000,0,0,0,False,ReadOnly,0,0,0,0,1,V0.1,      DEV1,    IR1800,
2019/07/30 - 16:35:57.118659,43.514,44.396583557128906,23.268030166625977,54.57776641845703,26.848976135253906,2.600487232208252,27.47880744934082,0,29.017301559448242,27.8602294921875,36.054744720458984,0.0,0.0,0.0,Idle,None,False,False,False,False,False,False,4320,137,PowOn,Awake,Idle,0,0,0,0,0,0,0,False,False,False,False,False,False,False,False,False,False,False,False,False,False,False,False,False,False,False,False,False,False,False,False,False,False,False,False,1029,0,0,1000,0,0,0,False,ReadOnly,0,0,0,0,1,V0.1,      DEV1,    IR1800,
2019/07/30 - 16:35:57.356866,43.759,44.396583557128906,23.268030166625977,54.57776641845703,26.848976135253906,2.600487232208252,27.47880744934082,0,29.017301559448242,27.8602294921875,36.054744720458984,0.0,0.0,0.0,Idle,None,False,False,False,False,False,False,4320,137,PowOn,Awake,Idle,0,0,0,0,0,0,0,False,False,False,False,False,False,False,False,False,False,False,False,False,False,False,False,False,False,False,False,False,False,False,False,False,False,False,False,1029,0,0,1000,0,0,0,False,ReadOnly,0,0,0,0,1,V0.1,      DEV1,    IR1800,
2019/07/30 - 16:35:57.624346,43.998,44.41281509399414,23.268030166625977,54.57776641845703,26.829496383666992,2.600487232208252,27.47880744934082,0,29.112398147583008,27.8602294921875,36.054744720458984,0.0,0.0,0.0,Idle,None,False,False,False,False,False,False,4320,137,PowOn,Awake,Idle,0,0,0,0,0,0,0,False,False,False,False,False,False,False,False,False,False,False,False,False,False,False,False,False,False,False,False,False,False,False,False,False,False,False,False,1029,0,0,1000,0,0,0,False,ReadOnly,0,0,0,0,1,V0.1,      DEV1,    IR1800,
2019/07/30 - 16:35:57.866944,44.265,44.41281509399414,23.268030166625977,54.57776641845703,26.829496383666992,2.600487232208252,27.47880744934082,0,29.112398147583008,27.8602294921875,36.054744720458984,0.0,0.0,0.0,Idle,None,False,False,False,False,False,False,4320,137,PowOn,Awake,Idle,0,0,0,0,0,0,0,False,False,False,False,False,False,False,False,False,False,False,False,False,False,False,False,False,False,False,False,False,False,False,False,False,False,False,False,1029,0,0,1000,0,0,0,False,ReadOnly,0,0,0,0,1,V0.1,      DEV1,    IR1800,
