Time,Runtime,Current3V3,Current3V3Min,Current3V3Max,CurrentHTPA,CurrentHTPAMin,CurrentHTPAMax,CurrentCubeDock3V3_1,TemperatureMCU,TemperatureMCUMin,TemperatureMCUMax,TemperatureHTPA,TemperatureHTPAMin,TemperatureHTPAMax,ADSSampleMode,HTPACalibLevel,HILEnabled,HILBusy,HILEnableEdgeDet,HILEnableLensDistCorr,HILEnablePolyFit,HILEnableAttEst,HTPADeviceID,HTPATableNumber,HtpaPowerState,HtpaWakeState,HtpaCaptureState,HtpaPTAT,HtpaVdd,HTPAImageLastMin,HTPAImageLastMean,HTPAImageLastMax,HTPAImageAllTimeMin,HTPAImageAllTimeMax,3V3OverCurrent,3V3UnderCurrent,HTPAOverCurrent,HTPAUnderCurrent,Timer1sOverRun,MCUOverTemperature,MCUUnderTemperature,HTPAOverTemperature,HTPAUnderTemperature,HTPACalibLookupOutOfRange,HTPANotResponding,HTPAConfigMismatch,HTPASpiTimeout,CommsTcSlotsBuffFull,CommsTcParamBuffFull,CommsUartProtError,CommsUartMsgIncomplete,CommsUartTcParamOverflow,UARTTxOverflow,CommsTcInvalidID,CommsTcInvalidPar,CommsTcInvalidParLen,CommsTcTimeout,CommsTlmInvalidID,UARTTxReadingEmptyBuffer,UARTRxByteOverrun,UARTRxFramingError,UartTxTimeout,SwStartupTime,SwProcessingTime,SwProcessingTimeMax,SwLoopTime,SwLensDistCorrTime,SwEstimationTime,RadEnabled,RadMode,RadFaultEvents,RadLastFaultIndex,RadCurrIteration,RadCurrSeed,InterfaceVersion,FirmwareVersion,CubeIR SN,IRCAM SN,
2019/04/01 - 16:27:45.918162,8.972,18.021604537963867,18.021604537963867,18.307300567626953,2.5030906200408936,2.4738717079162598,2.5030906200408936,0,26.307804107666016,25.910404205322266,26.307804107666016,0.0,0.0,0.0,Idle,None,False,False,False,False,False,False,4320,137,PowOn,Sleep,Idle,0,0,5,4,3,2,1,False,False,False,False,True,False,False,False,False,False,True,False,False,False,False,False,False,False,False,False,False,False,False,False,False,False,False,False,1343,0,0,1000,0,0,False,ReadOnly,0,0,0,0,1,V0.1,      DEV1,    IR1800,
2019/04/01 - 16:35:44.612088,16.258,18.09952163696289,17.98264503479004,20.61235237121582,2.4803647994995117,2.470625162124634,2.4933509826660156,0,26.307804107666016,25.910404205322266,26.419063568115234,0.0,0.0,0.0,Idle,None,False,False,False,False,False,False,4320,137,PowOn,Sleep,Idle,0,0,5,4,3,2,1,False,False,False,False,False,False,False,False,False,False,True,False,False,False,False,False,False,False,False,False,False,False,False,False,False,False,False,False,926,0,0,1000,0,0,False,ReadOnly,0,0,0,0,1,V0.1,      DEV1,    IR1800,
2019/04/01 - 16:35:45.126950,16.786,18.09952163696289,17.98264503479004,20.61235237121582,2.4803647994995117,2.470625162124634,2.4933509826660156,0,26.307804107666016,25.910404205322266,26.419063568115234,0.0,0.0,0.0,Idle,None,False,False,False,False,False,False,4320,137,PowOn,Sleep,Idle,0,0,5,4,3,2,1,False,False,False,False,False,False,False,False,False,False,True,False,False,False,False,False,False,False,False,False,False,False,False,False,False,False,False,False,926,0,0,1000,0,0,False,ReadOnly,0,0,0,0,1,V0.1,      DEV1,    IR1800,
2019/04/01 - 16:35:45.317170,16.978,18.09952163696289,17.98264503479004,20.61235237121582,2.4803647994995117,2.470625162124634,2.4933509826660156,0,26.307804107666016,25.910404205322266,26.419063568115234,0.0,0.0,0.0,Idle,None,False,False,False,False,False,False,4320,137,PowOn,Sleep,Idle,0,0,5,4,3,2,1,False,False,False,False,False,False,False,False,False,False,True,False,False,False,False,False,False,False,False,False,False,False,False,False,False,False,False,False,926,0,0,1000,0,0,False,ReadOnly,0,0,0,0,1,V0.1,      DEV1,    IR1800,
2019/04/01 - 16:35:45.501265,17.161,18.021604537963867,17.98264503479004,20.61235237121582,2.4836113452911377,2.470625162124634,2.4933509826660156,0,26.276023864746094,25.910404205322266,26.419063568115234,0.0,0.0,0.0,Idle,None,False,False,False,False,False,False,4320,137,PowOn,Sleep,Idle,0,0,5,4,3,2,1,False,False,False,False,False,False,False,False,False,False,True,False,False,False,False,False,False,False,False,False,False,False,False,False,False,False,False,False,926,0,0,1000,0,0,False,ReadOnly,0,0,0,0,1,V0.1,      DEV1,    IR1800,
2019/04/01 - 16:35:45.695469,17.353,18.021604537963867,17.98264503479004,20.61235237121582,2.4836113452911377,2.470625162124634,2.4933509826660156,0,26.276023864746094,25.910404205322266,26.419063568115234,0.0,0.0,0.0,Idle,None,False,False,False,False,False,False,4320,137,PowOn,Sleep,Idle,0,0,5,4,3,2,1,False,False,False,False,False,False,False,False,False,False,True,False,False,False,False,False,False,False,False,False,False,False,False,False,False,False,False,False,926,0,0,1000,0,0,False,ReadOnly,0,0,0,0,1,V0.1,      DEV1,    IR1800,
2019/04/01 - 16:35:45.869545,17.530,18.021604537963867,17.98264503479004,20.61235237121582,2.4836113452911377,2.470625162124634,2.4933509826660156,0,26.276023864746094,25.910404205322266,26.419063568115234,0.0,0.0,0.0,Idle,None,False,False,False,False,False,False,4320,137,PowOn,Sleep,Idle,0,0,5,4,3,2,1,False,False,False,False,False,False,False,False,False,False,True,False,False,False,False,False,False,False,False,False,False,False,False,False,False,False,False,False,926,0,0,1000,0,0,False,ReadOnly,0,0,0,0,1,V0.1,      DEV1,    IR1800,
2019/04/01 - 16:35:46.028465,17.689,18.021604537963867,17.98264503479004,20.61235237121582,2.4836113452911377,2.470625162124634,2.4933509826660156,0,26.276023864746094,25.910404205322266,26.419063568115234,0.0,0.0,0.0,Idle,None,False,False,False,False,False,False,4320,137,PowOn,Sleep,Idle,0,0,5,4,3,2,1,False,False,False,False,False,False,False,False,False,False,True,False,False,False,False,False,False,False,False,False,False,False,False,False,False,False,False,False,926,0,0,1000,0,0,False,ReadOnly,0,0,0,0,1,V0.1,      DEV1,    IR1800,
2019/04/01 - 16:35:46.206363,17.865,18.021604537963867,17.98264503479004,20.61235237121582,2.4836113452911377,2.470625162124634,2.4933509826660156,0,26.276023864746094,25.910404205322266,26.419063568115234,0.0,0.0,0.0,Idle,None,False,False,False,False,False,False,4320,137,PowOn,Sleep,Idle,0,0,5,4,3,2,1,False,False,False,False,False,False,False,False,False,False,True,False,False,False,False,False,False,False,False,False,False,False,False,False,False,False,False,False,926,0,0,1000,0,0,False,ReadOnly,0,0,0,0,1,V0.1,      DEV1,    IR1800,
2019/04/01 - 16:51:42.691056,25.781,17.352813720703125,17.151527404785156,18.69688606262207,2.4803647994995117,2.467378616333008,2.6751580238342285,0,26.419063568115234,25.592485427856445,26.419063568115234,0.0,0.0,0.0,Idle,None,False,False,False,False,False,False,4320,137,PowOn,Sleep,Idle,0,0,5,4,3,2,1,False,False,False,False,False,False,False,False,False,False,True,False,False,False,False,False,False,False,False,False,False,False,False,False,False,False,False,False,1207,0,0,1000,0,0,False,ReadOnly,0,0,0,0,1,V0.1,      DEV1,    IR1800,
2019/04/01 - 16:51:43.388528,26.485,17.268404006958008,17.151527404785156,18.69688606262207,2.4836113452911377,2.467378616333008,2.6751580238342285,0,26.45087242126465,25.592485427856445,26.45087242126465,0.0,0.0,0.0,Idle,None,False,False,False,False,False,False,4320,137,PowOn,Sleep,Idle,0,0,5,4,3,2,1,False,False,False,False,False,False,False,False,False,False,True,False,False,False,False,False,False,False,False,False,False,False,False,False,False,False,False,False,1207,0,0,1000,0,0,False,ReadOnly,0,0,0,0,1,V0.1,      DEV1,    IR1800,
2019/04/01 - 16:51:43.560673,26.661,17.268404006958008,17.151527404785156,18.69688606262207,2.4836113452911377,2.467378616333008,2.6751580238342285,0,26.45087242126465,25.592485427856445,26.45087242126465,0.0,0.0,0.0,Idle,None,False,False,False,False,False,False,4320,137,PowOn,Sleep,Idle,0,0,5,4,3,2,1,False,False,False,False,False,False,False,False,False,False,True,False,False,False,False,False,False,False,False,False,False,False,False,False,False,False,False,False,1207,0,0,1000,0,0,False,ReadOnly,0,0,0,0,1,V0.1,      DEV1,    IR1800,
2019/04/01 - 16:51:43.729581,26.828,17.268404006958008,17.151527404785156,18.69688606262207,2.4836113452911377,2.467378616333008,2.6751580238342285,0,26.45087242126465,25.592485427856445,26.45087242126465,0.0,0.0,0.0,Idle,None,False,False,False,False,False,False,4320,137,PowOn,Sleep,Idle,0,0,5,4,3,2,1,False,False,False,False,False,False,False,False,False,False,True,False,False,False,False,False,False,False,False,False,False,False,False,False,False,False,False,False,1207,0,0,1000,0,0,False,ReadOnly,0,0,0,0,1,V0.1,      DEV1,    IR1800,
2019/04/01 - 16:51:59.683516,42.773,17.39501953125,17.151527404785156,18.69688606262207,2.4836113452911377,2.467378616333008,2.6751580238342285,0,26.403173446655273,25.592485427856445,26.546241760253906,0.0,0.0,0.0,Idle,None,False,False,False,False,False,False,4320,137,PowOn,Sleep,Idle,0,0,5,4,3,2,1,False,False,False,False,False,False,False,False,False,False,True,False,False,False,False,False,False,False,False,False,False,False,False,False,False,False,False,False,1207,0,0,1000,0,0,False,ReadOnly,0,0,0,0,1,V0.1,      DEV1,    IR1800,
2019/04/01 - 16:51:59.867009,42.957,17.39501953125,17.151527404785156,18.69688606262207,2.4836113452911377,2.467378616333008,2.6751580238342285,0,26.403173446655273,25.592485427856445,26.546241760253906,0.0,0.0,0.0,Idle,None,False,False,False,False,False,False,4320,137,PowOn,Sleep,Idle,0,0,5,4,3,2,1,False,False,False,False,False,False,False,False,False,False,True,False,False,False,False,False,False,False,False,False,False,False,False,False,False,False,False,False,1207,0,0,1000,0,0,False,ReadOnly,0,0,0,0,1,V0.1,      DEV1,    IR1800,
2019/04/01 - 16:52:00.051889,43.141,17.317102432250977,17.151527404785156,18.69688606262207,2.4868578910827637,2.467378616333008,2.6751580238342285,0,26.530351638793945,25.592485427856445,26.546241760253906,0.0,0.0,0.0,Idle,None,False,False,False,False,False,False,4320,137,PowOn,Sleep,Idle,0,0,5,4,3,2,1,False,False,False,False,False,False,False,False,False,False,True,False,False,False,False,False,False,False,False,False,False,False,False,False,False,False,False,False,1207,0,0,1000,0,0,False,ReadOnly,0,0,0,0,1,V0.1,      DEV1,    IR1800,
2019/04/01 - 16:52:00.227268,43.317,17.317102432250977,17.151527404785156,18.69688606262207,2.4868578910827637,2.467378616333008,2.6751580238342285,0,26.530351638793945,25.592485427856445,26.546241760253906,0.0,0.0,0.0,Idle,None,False,False,False,False,False,False,4320,137,PowOn,Sleep,Idle,0,0,5,4,3,2,1,False,False,False,False,False,False,False,False,False,False,True,False,False,False,False,False,False,False,False,False,False,False,False,False,False,False,False,False,1207,0,0,1000,0,0,False,ReadOnly,0,0,0,0,1,V0.1,      DEV1,    IR1800,
2019/04/01 - 16:52:00.402265,43.493,17.317102432250977,17.151527404785156,18.69688606262207,2.4868578910827637,2.467378616333008,2.6751580238342285,0,26.530351638793945,25.592485427856445,26.546241760253906,0.0,0.0,0.0,Idle,None,False,False,False,False,False,False,4320,137,PowOn,Sleep,Idle,0,0,5,4,3,2,1,False,False,False,False,False,False,False,False,False,False,True,False,False,False,False,False,False,False,False,False,False,False,False,False,False,False,False,False,1207,0,0,1000,0,0,False,ReadOnly,0,0,0,0,1,V0.1,      DEV1,    IR1800,
2019/04/01 - 16:52:00.610175,43.701,17.317102432250977,17.151527404785156,18.69688606262207,2.4868578910827637,2.467378616333008,2.6751580238342285,0,26.530351638793945,25.592485427856445,26.546241760253906,0.0,0.0,0.0,Idle,None,False,False,False,False,False,False,4320,137,PowOn,Sleep,Idle,0,0,5,4,3,2,1,False,False,False,False,False,False,False,False,False,False,True,False,False,False,False,False,False,False,False,False,False,False,False,False,False,False,False,False,1207,0,0,1000,0,0,False,ReadOnly,0,0,0,0,1,V0.1,      DEV1,    IR1800,
2019/04/01 - 16:52:00.807152,43.901,17.317102432250977,17.151527404785156,18.69688606262207,2.4868578910827637,2.467378616333008,2.6751580238342285,0,26.530351638793945,25.592485427856445,26.546241760253906,0.0,0.0,0.0,Idle,None,False,False,False,False,False,False,4320,137,PowOn,Sleep,Idle,0,0,5,4,3,2,1,False,False,False,False,False,False,False,False,False,False,True,False,False,False,False,False,False,False,False,False,False,False,False,False,False,False,False,False,1207,0,0,1000,0,0,False,ReadOnly,0,0,0,0,1,V0.1,      DEV1,    IR1800,
2019/04/01 - 16:52:00.993281,44.85,17.307363510131836,17.151527404785156,18.69688606262207,2.4868578910827637,2.467378616333008,2.6751580238342285,0,26.434982299804688,25.592485427856445,26.546241760253906,0.0,0.0,0.0,Idle,None,False,False,False,False,False,False,4320,137,PowOn,Sleep,Idle,0,0,5,4,3,2,1,False,False,False,False,False,False,False,False,False,False,True,False,False,False,False,False,False,False,False,False,False,False,False,False,False,False,False,False,1207,0,0,1000,0,0,False,ReadOnly,0,0,0,0,1,V0.1,      DEV1,    IR1800,
2019/04/01 - 16:52:01.201451,44.293,17.307363510131836,17.151527404785156,18.69688606262207,2.4868578910827637,2.467378616333008,2.6751580238342285,0,26.434982299804688,25.592485427856445,26.546241760253906,0.0,0.0,0.0,Idle,None,False,False,False,False,False,False,4320,137,PowOn,Sleep,Idle,0,0,5,4,3,2,1,False,False,False,False,False,False,False,False,False,False,True,False,False,False,False,False,False,False,False,False,False,False,False,False,False,False,False,False,1207,0,0,1000,0,0,False,ReadOnly,0,0,0,0,1,V0.1,      DEV1,    IR1800,
2019/04/01 - 16:52:01.409342,44.485,17.307363510131836,17.151527404785156,18.69688606262207,2.4868578910827637,2.467378616333008,2.6751580238342285,0,26.434982299804688,25.592485427856445,26.546241760253906,0.0,0.0,0.0,Idle,None,False,False,False,False,False,False,4320,137,PowOn,Sleep,Idle,0,0,5,4,3,2,1,False,False,False,False,False,False,False,False,False,False,True,False,False,False,False,False,False,False,False,False,False,False,False,False,False,False,False,False,1207,0,0,1000,0,0,False,ReadOnly,0,0,0,0,1,V0.1,      DEV1,    IR1800,
2019/04/01 - 16:52:01.802893,44.892,17.307363510131836,17.151527404785156,18.69688606262207,2.4868578910827637,2.467378616333008,2.6751580238342285,0,26.434982299804688,25.592485427856445,26.546241760253906,0.0,0.0,0.0,Idle,None,False,False,False,False,False,False,4320,137,PowOn,Sleep,Idle,0,0,5,4,3,2,1,False,False,False,False,False,False,False,False,False,False,True,False,False,False,False,False,False,False,False,False,False,False,False,False,False,False,False,False,1207,0,0,1000,0,0,False,ReadOnly,0,0,0,0,1,V0.1,      DEV1,    IR1800,
2019/04/01 - 16:52:02.046125,45.116,17.330087661743164,17.151527404785156,18.69688606262207,2.4901044368743896,2.467378616333008,2.6751580238342285,0,26.46676254272461,25.592485427856445,26.546241760253906,0.0,0.0,0.0,Idle,None,False,False,False,False,False,False,4320,137,PowOn,Sleep,Idle,0,0,5,4,3,2,1,False,False,False,False,False,False,False,False,False,False,True,False,False,False,False,False,False,False,False,False,False,False,False,False,False,False,False,False,1207,0,0,1000,0,0,False,ReadOnly,0,0,0,0,1,V0.1,      DEV1,    IR1800,
2019/04/01 - 16:52:02.232235,45.324,17.330087661743164,17.151527404785156,18.69688606262207,2.4901044368743896,2.467378616333008,2.6751580238342285,0,26.46676254272461,25.592485427856445,26.546241760253906,0.0,0.0,0.0,Idle,None,False,False,False,False,False,False,4320,137,PowOn,Sleep,Idle,0,0,5,4,3,2,1,False,False,False,False,False,False,False,False,False,False,True,False,False,False,False,False,False,False,False,False,False,False,False,False,False,False,False,False,1207,0,0,1000,0,0,False,ReadOnly,0,0,0,0,1,V0.1,      DEV1,    IR1800,
