Time,Runtime,Current3V3,Current3V3Min,Current3V3Max,CurrentHTPA,CurrentHTPAMin,CurrentHTPAMax,CurrentCubeDock3V3_1,TemperatureMCU,TemperatureMCUMin,TemperatureMCUMax,TemperatureHTPA,TemperatureHTPAMin,TemperatureHTPAMax,ADSSampleMode,HTPACalibLevel,HILEnabled,HILBusy,HILEnableEdgeDet,HILEnableLensDistCorr,HILEnablePolyFit,HILEnableAttEst,HTPADeviceID,HTPATableNumber,HtpaPowerState,HtpaWakeState,HtpaCaptureState,HtpaPTAT,HtpaVdd,HTPAImageLastMin,HTPAImageLastMean,HTPAImageLastMax,HTPAImageAllTimeMin,HTPAImageAllTimeMax,3V3OverCurrent,3V3UnderCurrent,HTPAOverCurrent,HTPAUnderCurrent,Timer1sOverRun,MCUOverTemperature,MCUUnderTemperature,HTPAOverTemperature,HTPAUnderTemperature,HTPACalibLookupOutOfRange,HTPANotResponding,HTPAConfigMismatch,HTPASpiTimeout,CommsTcSlotsBuffFull,CommsTcParamBuffFull,CommsUartProtError,CommsUartMsgIncomplete,CommsUartTcParamOverflow,UARTTxOverflow,CommsTcInvalidID,CommsTcInvalidPar,CommsTcInvalidParLen,CommsTcTimeout,CommsTlmInvalidID,UARTTxReadingEmptyBuffer,UARTRxByteOverrun,UARTRxFramingError,UartTxTimeout,SwStartupTime,SwProcessingTime,SwProcessingTimeMax,SwLoopTime,SwLensDistCorrTime,SwEstimationTime,RadEnabled,RadMode,RadFaultEvents,RadLastFaultIndex,RadCurrIteration,RadCurrSeed,InterfaceVersion,FirmwareVersion,CubeIR SN,IRCAM SN,
2019/04/01 - 11:31:02.106189,1368.525,17.5800724029541,17.216459274291992,18.10926055908203,2.5063371658325195,2.470625162124634,2.6686646938323975,0,27.913288116455078,26.609832763671875,27.960988998413086,0.0,0.0,0.0,Idle,None,True,False,False,False,True,True,4320,137,PowOn,Sleep,Idle,0,0,5,4,3,2,1,False,False,False,False,False,False,False,False,False,False,True,False,False,False,False,False,False,False,False,False,False,False,False,False,False,False,False,False,1207,0,530,1000,0,0,False,ReadOnly,0,0,0,0,1,V0.1,      DEV1,    IR1800,
2019/04/01 - 11:31:03.110682,1369.512,17.40475845336914,17.216459274291992,18.10926055908203,2.4965975284576416,2.470625162124634,2.6686646938323975,0,27.881507873535156,26.609832763671875,27.960988998413086,0.0,0.0,0.0,Idle,None,True,False,False,False,True,True,4320,137,PowOn,Sleep,Idle,0,0,5,4,3,2,1,False,False,False,False,False,False,False,False,False,False,True,False,False,False,False,False,False,False,False,False,False,False,False,False,False,False,False,False,1207,0,530,1000,0,0,False,ReadOnly,0,0,0,0,1,V0.1,      DEV1,    IR1800,
2019/04/01 - 11:31:04.095409,1370.512,17.55734634399414,17.216459274291992,18.10926055908203,2.4933509826660156,2.470625162124634,2.6686646938323975,0,27.80202865600586,26.609832763671875,27.960988998413086,0.0,0.0,0.0,Idle,None,True,False,False,False,True,True,4320,137,PowOn,Sleep,Idle,0,0,5,4,3,2,1,False,False,False,False,False,False,False,False,False,False,True,False,False,False,False,False,False,False,False,False,False,False,False,False,False,False,False,False,1207,0,530,1000,0,0,False,ReadOnly,0,0,0,0,1,V0.1,      DEV1,    IR1800,
2019/04/01 - 11:31:05.067952,1371.508,17.5151424407959,17.216459274291992,18.10926055908203,2.4901044368743896,2.470625162124634,2.6686646938323975,0,27.83380889892578,26.609832763671875,27.960988998413086,0.0,0.0,0.0,Idle,None,True,False,False,False,True,True,4320,137,PowOn,Sleep,Idle,0,0,5,4,3,2,1,False,False,False,False,False,False,False,False,False,False,True,False,False,False,False,False,False,False,False,False,False,False,False,False,False,False,False,False,1207,0,530,1000,0,0,False,ReadOnly,0,0,0,0,1,V0.1,      DEV1,    IR1800,
2019/04/01 - 11:31:06.072287,1372.508,17.576826095581055,17.216459274291992,18.10926055908203,2.4933509826660156,2.470625162124634,2.6686646938323975,0,27.976879119873047,26.609832763671875,27.976879119873047,0.0,0.0,0.0,Idle,None,True,False,False,False,True,True,4320,137,PowOn,Sleep,Idle,0,0,5,4,3,2,1,False,False,False,False,False,False,False,False,False,False,True,False,False,False,False,False,False,False,False,False,False,False,False,False,False,False,False,False,1207,0,530,1000,0,0,False,ReadOnly,0,0,0,0,1,V0.1,      DEV1,    IR1800,
