2019/04/01 - 16:23:47.975564 | MAIN                | App started running
2019/04/01 - 16:27:44.161592 | CommsUART           | Successfully connected to COM8.
2019/04/01 - 16:27:45.766252 | App                 | Device is Responding
2019/04/01 - 16:27:51.981394 | App                 | Setting ADS SampleMode: Single.
2019/04/01 - 16:28:01.861465 | App                 | Setting ADS SampleMode: Single.
2019/04/01 - 16:28:13.988635 | App                 | Setting ADS SampleMode: Single.
2019/04/01 - 16:28:29.564684 | App                 | Setting ADS SampleMode: Single.
2019/04/01 - 16:28:43.069067 | App                 | Setting ADS SampleMode: Single.
2019/04/01 - 16:28:57.469054 | App                 | Setting ADS SampleMode: Single.
2019/04/01 - 16:29:19.300279 | App                 | Setting ADS SampleMode: Single.
2019/04/01 - 16:35:48.771102 | App                 | Setting ADS SampleMode: Continuous.
2019/04/01 - 16:58:07.265061 | App                 | Device Not Responding: [<bound method TCTLM.get_identification of <tctlm_wrapper.TCTLM_SignalWrapper object at 0x000001CB82F60318>>. 'NoneType' object is not subscriptable]
2019/04/01 - 16:58:07.286048 | EXCEPTION           | Traceback (most recent call last):
  File "C:\Users\heinw\Documents\CubeSpace\CubeIR\Software Design\GUI-Python\tctlm_wrapper.py", line 50, in slot_update_all_fields
    tlms['Identification'] = self.attempt_comms(self.get_identification, raise_exception=True)
  File "C:\Users\heinw\Documents\CubeSpace\CubeIR\Software Design\GUI-Python\tctlm_wrapper.py", line 43, in attempt_comms
    raise e
  File "C:\Users\heinw\Documents\CubeSpace\CubeIR\Software Design\GUI-Python\tctlm_wrapper.py", line 36, in attempt_comms
    rx = tctlm(*params)
  File "C:\Users\heinw\Documents\CubeSpace\CubeIR\Software Design\GUI-Python\tctlm.py", line 61, in get_identification
    rx = self.comms.tlm(128)
  File "C:\Users\heinw\Documents\CubeSpace\CubeIR\Software Design\GUI-Python\comms.py", line 48, in tlm
    return self.receive_response()
  File "C:\Users\heinw\Documents\CubeSpace\CubeIR\Software Design\GUI-Python\comms.py", line 62, in receive_response
    byte = self.uart.read_byte()[0]         # This call should have the time out that
TypeError: 'NoneType' object is not subscriptable

During handling of the above exception, another exception occurred:

Traceback (most recent call last):
  File "C:\Users\heinw\Documents\CubeSpace\CubeIR\Software Design\GUI-Python\tctlm_wrapper.py", line 66, in slot_update_all_fields
    except (self.comms.ProtocolError, self.comms.NoResponseError):
AttributeError: 'Comms' object has no attribute 'NoResponseError'

