2019/04/01 - 11:31:23.389396 | MAIN                | App started running
2019/04/01 - 11:31:27.538928 | CommsUART           | Successfully connected to COM8.
2019/04/01 - 11:31:28.321429 | App                 | Device is Responding
2019/04/01 - 11:31:30.175123 | App                 | Setting ADS HIL: Disabled.
2019/04/01 - 11:31:30.179120 | EXCEPTION           | Traceback (most recent call last):
  File "C:/Users/heinw/Documents/CubeSpace/CubeIR/Software Design/GUI-Python/app_threaded.py", line 90, in <lambda>
    self.ui.butt_hildisable.clicked.connect(lambda x: self.butt_fcn_ads_set_HIL(enable=False))
  File "C:/Users/heinw/Documents/CubeSpace/CubeIR/Software Design/GUI-Python/app_threaded.py", line 321, in butt_fcn_ads_set_HIL
    self._sig_set_ads_hilmode.emit(enable, force_sample)
TypeError: AppThreaded._sig_set_ads_hilmode[bool, bool, bool, bool, bool, bool] signal has 6 argument(s) but 2 provided

