2019/07/24 - 08:21:17.419843 | MAIN                | App started running
2019/07/24 - 08:21:22.067429 | CommsUART           | Successfully connected to COM8.
2019/07/24 - 08:21:22.505056 | App                 | Device is Responding
2019/07/24 - 08:21:28.398789 | App                 | Setting ADS SampleMode: Single.
2019/07/24 - 08:21:37.662628 | App                 | Setting HTPA Calibration Level: Tobj.
2019/07/24 - 08:21:39.310423 | App                 | Setting ADS SampleMode: Single.
2019/07/24 - 08:22:06.901762 | App                 | Setting ADS SampleMode: Single.
2019/07/24 - 08:22:18.429860 | App                 | Setting HTPA Calibration Level: None.
2019/07/24 - 08:22:20.502487 | App                 | Setting ADS SampleMode: Single.
2019/07/24 - 08:23:54.557707 | App                 | Setting ADS SampleMode: Single.
2019/07/24 - 08:24:04.357488 | App                 | Setting HTPA Calibration Level: Tobj.
2019/07/24 - 08:24:06.349859 | App                 | Setting ADS SampleMode: Single.
2019/07/24 - 08:24:20.662170 | App                 | Setting ADS SampleMode: Single.
2019/07/24 - 08:24:28.821580 | App                 | Setting HTPA Calibration Level: None.
2019/07/24 - 08:24:31.101258 | App                 | Setting ADS SampleMode: Single.
2019/07/24 - 08:24:42.069429 | App                 | Setting HTPA Calibration Level: Tobj.
2019/07/24 - 08:24:45.029689 | App                 | Setting ADS SampleMode: Single.
2019/07/24 - 08:24:53.301143 | App                 | Setting HTPA Calibration Level: Vdd.
2019/07/24 - 08:24:55.581225 | App                 | Setting ADS SampleMode: Single.
