  42.00000,  42.00000,  42.00000,  42.00000,  42.00000,  42.00000,  42.00000,  42.00000,  42.00000,  42.00000,  42.00000,  42.00000,  42.00000,  42.00000,  42.00000,  29.00000,  29.00000,  28.00000,  27.00000,  31.00000,  18.00000,  28.00000,  19.00000,  26.00000,  31.00000,  29.00000,  24.00000,  27.00000,  26.00000,  18.00000,  26.00000,  22.00000,  19.00000,  18.00000,  27.00000,  32.00000,  34.00000,  32.00000,  29.00000,  30.00000,  30.00000,  28.00000,  38.00000,  33.00000,  32.00000,  35.00000,  30.00000,  23.00000,  29.00000,  38.00000,  31.00000,  33.00000,  29.00000,  31.00000,  29.00000,  40.00000,  36.00000,  37.00000,  29.00000,  30.00000,  36.00000,  36.00000,  38.00000,  31.00000,  30.00000,  29.00000,  42.00000,  42.00000,  42.00000,  42.00000,  42.00000,  42.00000,  42.00000,  42.00000,  42.00000,  42.00000,  42.00000,  42.00000,  42.00000,  42.00000
  42.00000,  42.00000,  42.00000,  42.00000,  42.00000,  42.00000,  42.00000,  42.00000,  42.00000,  42.00000,  42.00000,  42.00000,  42.00000,  42.00000,  29.00000,  22.00000,  26.00000,  24.00000,  26.00000,  21.00000,  26.00000,  26.00000,  17.00000,  24.00000,  36.00000,  30.00000,  34.00000,  25.00000,  28.00000,  28.00000,  30.00000,  24.00000,  33.00000,  35.00000,  27.00000,  31.00000,  31.00000,  29.00000,  31.00000,  29.00000,  33.00000,  38.00000,  34.00000,  38.00000,  33.00000,  30.00000,  31.00000,  38.00000,  32.00000,  36.00000,  36.00000,  37.00000,  38.00000,  32.00000,  29.00000,  33.00000,  22.00000,  34.00000,  37.00000,  34.00000,  35.00000,  33.00000,  25.00000,  33.00000,  34.00000,  33.00000,  38.00000,  42.00000,  42.00000,  42.00000,  42.00000,  42.00000,  42.00000,  42.00000,  42.00000,  42.00000,  42.00000,  42.00000,  42.00000,  42.00000
  42.00000,  42.00000,  42.00000,  42.00000,  42.00000,  42.00000,  42.00000,  42.00000,  42.00000,  42.00000,  42.00000,  42.00000,  42.00000,  29.00000,  30.00000,  27.00000,  30.00000,  25.00000,  24.00000,  21.00000,  20.00000,  28.00000,  26.00000,  31.00000,  31.00000,  31.00000,  25.00000,  29.00000,  32.00000,  29.00000,  27.00000,  26.00000,  27.00000,  31.00000,  31.00000,  31.00000,  28.00000,  30.00000,  32.00000,  35.00000,  36.00000,  30.00000,  24.00000,  38.00000,  35.00000,  28.00000,  32.00000,  32.00000,  28.00000,  26.00000,  30.00000,  30.00000,  30.00000,  39.00000,  32.00000,  34.00000,  37.00000,  33.00000,  27.00000,  32.00000,  39.00000,  33.00000,  29.00000,  31.00000,  28.00000,  25.00000,  33.00000,  36.00000,  42.00000,  42.00000,  42.00000,  42.00000,  42.00000,  42.00000,  42.00000,  42.00000,  42.00000,  42.00000,  42.00000,  42.00000
  42.00000,  42.00000,  42.00000,  42.00000,  42.00000,  42.00000,  42.00000,  42.00000,  42.00000,  42.00000,  42.00000,  42.00000,  29.00000,  34.00000,  26.00000,  24.00000,  23.00000,  31.00000,  24.00000,  24.00000,  33.00000,  23.00000,  29.00000,  35.00000,  28.00000,  31.00000,  31.00000,  30.00000,  29.00000,  31.00000,  34.00000,  31.00000,  30.00000,  25.00000,  33.00000,  37.00000,  35.00000,  37.00000,  31.00000,  31.00000,  25.00000,  32.00000,  24.00000,  31.00000,  31.00000,  30.00000,  36.00000,  29.00000,  37.00000,  28.00000,  28.00000,  31.00000,  29.00000,  32.00000,  35.00000,  35.00000,  38.00000,  36.00000,  34.00000,  34.00000,  41.00000,  22.00000,  35.00000,  35.00000,  29.00000,  32.00000,  34.00000,  37.00000,  36.00000,  42.00000,  42.00000,  42.00000,  42.00000,  42.00000,  42.00000,  42.00000,  42.00000,  42.00000,  42.00000,  42.00000
  42.00000,  42.00000,  42.00000,  42.00000,  42.00000,  42.00000,  42.00000,  42.00000,  42.00000,  42.00000,  42.00000,  31.00000,  25.00000,  27.00000,  28.00000,  25.00000,  19.00000,  31.00000,  23.00000,  25.00000,  23.00000,  26.00000,  31.00000,  34.00000,  24.00000,  32.00000,  33.00000,  33.00000,  34.00000,  36.00000,  29.00000,  28.00000,  29.00000,  27.00000,  38.00000,  24.00000,  34.00000,  37.00000,  33.00000,  34.00000,  31.00000,  32.00000,  34.00000,  31.00000,  31.00000,  31.00000,  37.00000,  28.00000,  33.00000,  37.00000,  34.00000,  37.00000,  32.00000,  36.00000,  40.00000,  36.00000,  41.00000,  32.00000,  37.00000,  34.00000,  33.00000,  33.00000,  31.00000,  34.00000,  34.00000,  32.00000,  34.00000,  31.00000,  29.00000,  36.00000,  42.00000,  42.00000,  42.00000,  42.00000,  42.00000,  42.00000,  42.00000,  42.00000,  42.00000,  42.00000
  42.00000,  42.00000,  42.00000,  42.00000,  42.00000,  42.00000,  42.00000,  42.00000,  42.00000,  42.00000,  32.00000,  36.00000,  32.00000,  30.00000,  31.00000,  31.00000,  26.00000,  29.00000,  26.00000,  27.00000,  40.00000,  34.00000,  35.00000,  30.00000,  34.00000,  31.00000,  30.00000,  34.00000,  35.00000,  36.00000,  35.00000,  32.00000,  39.00000,  37.00000,  29.00000,  33.00000,  34.00000,  32.00000,  32.00000,  29.00000,  32.00000,  32.00000,  29.00000,  29.00000,  32.00000,  31.00000,  37.00000,  35.00000,  34.00000,  39.00000,  29.00000,  33.00000,  25.00000,  42.00000,  37.00000,  40.00000,  38.00000,  36.00000,  33.00000,  38.00000,  38.00000,  40.00000,  41.00000,  38.00000,  35.00000,  35.00000,  39.00000,  38.00000,  35.00000,  44.00000,  32.00000,  42.00000,  42.00000,  42.00000,  42.00000,  42.00000,  42.00000,  42.00000,  42.00000,  42.00000
  42.00000,  42.00000,  42.00000,  42.00000,  42.00000,  42.00000,  42.00000,  42.00000,  42.00000,  34.00000,  31.00000,  40.00000,  31.00000,  32.00000,  33.00000,  22.00000,  25.00000,  27.00000,  29.00000,  29.00000,  35.00000,  39.00000,  36.00000,  33.00000,  38.00000,  33.00000,  36.00000,  33.00000,  27.00000,  39.00000,  36.00000,  40.00000,  25.00000,  33.00000,  37.00000,  35.00000,  30.00000,  35.00000,  34.00000,  34.00000,  34.00000,  26.00000,  33.00000,  39.00000,  30.00000,  33.00000,  37.00000,  34.00000,  34.00000,  34.00000,  41.00000,  33.00000,  35.00000,  33.00000,  40.00000,  34.00000,  35.00000,  45.00000,  35.00000,  38.00000,  37.00000,  38.00000,  37.00000,  37.00000,  36.00000,  37.00000,  42.00000,  32.00000,  32.00000,  37.00000,  37.00000,  39.00000,  42.00000,  42.00000,  42.00000,  42.00000,  42.00000,  42.00000,  42.00000,  42.00000
  42.00000,  42.00000,  42.00000,  42.00000,  42.00000,  42.00000,  42.00000,  42.00000,  29.00000,  23.00000,  38.00000,  34.00000,  28.00000,  33.00000,  32.00000,  28.00000,  25.00000,  29.00000,  25.00000,  34.00000,  35.00000,  40.00000,  31.00000,  34.00000,  34.00000,  36.00000,  38.00000,  31.00000,  33.00000,  41.00000,  35.00000,  34.00000,  32.00000,  38.00000,  33.00000,  35.00000,  39.00000,  40.00000,  32.00000,  31.00000,  33.00000,  36.00000,  35.00000,  34.00000,  36.00000,  34.00000,  34.00000,  30.00000,  43.00000,  37.00000,  30.00000,  34.00000,  31.00000,  43.00000,  36.00000,  40.00000,  31.00000,  34.00000,  39.00000,  34.00000,  37.00000,  44.00000,  41.00000,  44.00000,  32.00000,  36.00000,  37.00000,  32.00000,  28.00000,  37.00000,  33.00000,  35.00000,  42.00000,  42.00000,  42.00000,  42.00000,  42.00000,  42.00000,  42.00000,  42.00000
  42.00000,  42.00000,  42.00000,  42.00000,  42.00000,  42.00000,  42.00000,  43.00000,  41.00000,  38.00000,  29.00000,  40.00000,  36.00000,  40.00000,  41.00000,  34.00000,  40.00000,  34.00000,  31.00000,  35.00000,  28.00000,  23.00000,  36.00000,  32.00000,  36.00000,  43.00000,  35.00000,  39.00000,  31.00000,  34.00000,  35.00000,  39.00000,  35.00000,  29.00000,  36.00000,  37.00000,  37.00000,  43.00000,  40.00000,  41.00000,  31.00000,  36.00000,  32.00000,  38.00000,  37.00000,  42.00000,  40.00000,  35.00000,  38.00000,  44.00000,  40.00000,  33.00000,  43.00000,  44.00000,  40.00000,  41.00000,  42.00000,  40.00000,  35.00000,  39.00000,  46.00000,  41.00000,  44.00000,  35.00000,  46.00000,  32.00000,  41.00000,  38.00000,  43.00000,  52.00000,  42.00000,  45.00000,  39.00000,  43.00000,  42.00000,  42.00000,  42.00000,  42.00000,  42.00000,  42.00000
  42.00000,  42.00000,  42.00000,  42.00000,  42.00000,  42.00000,  42.00000,  44.00000,  37.00000,  38.00000,  41.00000,  40.00000,  45.00000,  39.00000,  44.00000,  39.00000,  36.00000,  35.00000,  32.00000,  40.00000,  42.00000,  41.00000,  38.00000,  41.00000,  39.00000,  39.00000,  42.00000,  36.00000,  36.00000,  41.00000,  36.00000,  34.00000,  41.00000,  36.00000,  33.00000,  37.00000,  37.00000,  40.00000,  36.00000,  39.00000,  41.00000,  37.00000,  41.00000,  40.00000,  38.00000,  42.00000,  40.00000,  40.00000,  45.00000,  45.00000,  46.00000,  39.00000,  42.00000,  36.00000,  40.00000,  37.00000,  39.00000,  40.00000,  49.00000,  47.00000,  46.00000,  43.00000,  43.00000,  47.00000,  41.00000,  51.00000,  44.00000,  43.00000,  42.00000,  46.00000,  53.00000,  48.00000,  48.00000,  45.00000,  42.00000,  42.00000,  42.00000,  42.00000,  42.00000,  42.00000
  42.00000,  42.00000,  42.00000,  42.00000,  42.00000,  42.00000,  40.00000,  47.00000,  39.00000,  36.00000,  43.00000,  34.00000,  42.00000,  42.00000,  39.00000,  38.00000,  37.00000,  36.00000,  47.00000,  41.00000,  41.00000,  44.00000,  42.00000,  41.00000,  41.00000,  43.00000,  40.00000,  34.00000,  43.00000,  35.00000,  39.00000,  38.00000,  37.00000,  37.00000,  43.00000,  38.00000,  36.00000,  36.00000,  35.00000,  36.00000,  38.00000,  41.00000,  40.00000,  40.00000,  42.00000,  37.00000,  35.00000,  37.00000,  36.00000,  36.00000,  38.00000,  39.00000,  41.00000,  42.00000,  38.00000,  44.00000,  42.00000,  43.00000,  41.00000,  46.00000,  44.00000,  50.00000,  48.00000,  44.00000,  46.00000,  48.00000,  49.00000,  43.00000,  42.00000,  40.00000,  48.00000,  51.00000,  46.00000,  40.00000,  47.00000,  42.00000,  42.00000,  42.00000,  42.00000,  42.00000
  42.00000,  42.00000,  42.00000,  42.00000,  42.00000,  40.00000,  51.00000,  48.00000,  42.00000,  41.00000,  45.00000,  37.00000,  43.00000,  42.00000,  35.00000,  37.00000,  35.00000,  40.00000,  45.00000,  36.00000,  33.00000,  40.00000,  40.00000,  39.00000,  34.00000,  38.00000,  39.00000,  36.00000,  40.00000,  36.00000,  34.00000,  47.00000,  39.00000,  38.00000,  42.00000,  41.00000,  40.00000,  38.00000,  42.00000,  36.00000,  37.00000,  40.00000,  35.00000,  41.00000,  42.00000,  42.00000,  43.00000,  40.00000,  39.00000,  38.00000,  36.00000,  44.00000,  45.00000,  53.00000,  49.00000,  45.00000,  44.00000,  46.00000,  46.00000,  51.00000,  49.00000,  44.00000,  52.00000,  46.00000,  54.00000,  52.00000,  58.00000,  51.00000,  51.00000,  48.00000,  51.00000,  45.00000,  54.00000,  46.00000,  42.00000,  53.00000,  42.00000,  42.00000,  42.00000,  42.00000
  42.00000,  42.00000,  42.00000,  42.00000,  42.00000,  39.00000,  36.00000,  44.00000,  35.00000,  41.00000,  36.00000,  46.00000,  39.00000,  37.00000,  35.00000,  37.00000,  34.00000,  42.00000,  44.00000,  39.00000,  41.00000,  43.00000,  34.00000,  45.00000,  38.00000,  40.00000,  39.00000,  38.00000,  40.00000,  38.00000,  36.00000,  45.00000,  38.00000,  32.00000,  35.00000,  47.00000,  38.00000,  44.00000,  43.00000,  38.00000,  40.00000,  38.00000,  46.00000,  38.00000,  43.00000,  49.00000,  36.00000,  36.00000,  40.00000,  38.00000,  47.00000,  45.00000,  47.00000,  45.00000,  45.00000,  45.00000,  44.00000,  45.00000,  44.00000,  42.00000,  46.00000,  46.00000,  44.00000,  43.00000,  51.00000,  57.00000,  52.00000,  44.00000,  47.00000,  49.00000,  62.00000,  52.00000,  48.00000,  47.00000,  54.00000,  57.00000,  42.00000,  42.00000,  42.00000,  42.00000
  42.00000,  42.00000,  42.00000,  42.00000,  41.00000,  43.00000,  35.00000,  39.00000,  36.00000,  39.00000,  52.00000,  44.00000,  48.00000,  38.00000,  41.00000,  41.00000,  39.00000,  43.00000,  37.00000,  30.00000,  40.00000,  37.00000,  41.00000,  39.00000,  49.00000,  37.00000,  43.00000,  46.00000,  42.00000,  38.00000,  41.00000,  45.00000,  37.00000,  44.00000,  37.00000,  40.00000,  38.00000,  38.00000,  37.00000,  34.00000,  37.00000,  41.00000,  35.00000,  42.00000,  38.00000,  46.00000,  42.00000,  41.00000,  50.00000,  40.00000,  38.00000,  47.00000,  38.00000,  45.00000,  47.00000,  45.00000,  40.00000,  44.00000,  46.00000,  47.00000,  42.00000,  46.00000,  47.00000,  41.00000,  49.00000,  48.00000,  50.00000,  43.00000,  45.00000,  57.00000,  46.00000,  54.00000,  43.00000,  46.00000,  55.00000,  54.00000,  48.00000,  42.00000,  42.00000,  42.00000
  42.00000,  42.00000,  42.00000,  42.00000,  44.00000,  39.00000,  40.00000,  45.00000,  43.00000,  43.00000,  46.00000,  44.00000,  42.00000,  38.00000,  37.00000,  40.00000,  36.00000,  29.00000,  42.00000,  43.00000,  43.00000,  41.00000,  47.00000,  39.00000,  40.00000,  36.00000,  41.00000,  44.00000,  34.00000,  42.00000,  43.00000,  45.00000,  35.00000,  40.00000,  37.00000,  42.00000,  38.00000,  39.00000,  41.00000,  33.00000,  42.00000,  34.00000,  35.00000,  47.00000,  38.00000,  33.00000,  41.00000,  39.00000,  44.00000,  39.00000,  38.00000,  36.00000,  40.00000,  44.00000,  40.00000,  43.00000,  38.00000,  51.00000,  40.00000,  46.00000,  46.00000,  42.00000,  43.00000,  48.00000,  45.00000,  53.00000,  41.00000,  47.00000,  44.00000,  40.00000,  48.00000,  53.00000,  53.00000,  49.00000,  52.00000,  58.00000,  48.00000,  42.00000,  42.00000,  42.00000
  42.00000,  42.00000,  42.00000,  37.00000,  43.00000,  42.00000,  38.00000,  44.00000,  44.00000,  36.00000,  39.00000,  46.00000,  41.00000,  43.00000,  41.00000,  35.00000,  35.00000,  37.00000,  37.00000,  35.00000,  42.00000,  42.00000,  49.00000,  36.00000,  41.00000,  40.00000,  45.00000,  40.00000,  41.00000,  41.00000,  44.00000,  35.00000,  37.00000,  49.00000,  34.00000,  40.00000,  42.00000,  39.00000,  37.00000,  39.00000,  40.00000,  43.00000,  39.00000,  34.00000,  42.00000,  46.00000,  38.00000,  43.00000,  40.00000,  38.00000,  43.00000,  38.00000,  41.00000,  39.00000,  34.00000,  43.00000,  41.00000,  39.00000,  43.00000,  44.00000,  41.00000,  43.00000,  50.00000,  40.00000,  44.00000,  50.00000,  39.00000,  40.00000,  46.00000,  43.00000,  51.00000,  50.00000,  46.00000,  50.00000,  50.00000,  56.00000,  54.00000,  52.00000,  42.00000,  42.00000
  42.00000,  42.00000,  42.00000,  42.00000,  44.00000,  44.00000,  37.00000,  43.00000,  43.00000,  53.00000,  39.00000,  37.00000,  43.00000,  48.00000,  44.00000,  40.00000,  42.00000,  35.00000,  33.00000,  42.00000,  33.00000,  28.00000,  39.00000,  37.00000,  42.00000,  37.00000,  36.00000,  38.00000,  36.00000,  32.00000,  37.00000,  37.00000,  39.00000,  35.00000,  39.00000,  41.00000,  37.00000,  46.00000,  45.00000,  41.00000,  39.00000,  38.00000,  44.00000,  40.00000,  41.00000,  43.00000,  42.00000,  38.00000,  45.00000,  48.00000,  45.00000,  37.00000,  43.00000,  45.00000,  47.00000,  44.00000,  44.00000,  45.00000,  36.00000,  48.00000,  46.00000,  47.00000,  45.00000,  48.00000,  47.00000,  38.00000,  51.00000,  34.00000,  44.00000,  47.00000,  50.00000,  55.00000,  48.00000,  45.00000,  50.00000,  47.00000,  48.00000,  56.00000,  42.00000,  42.00000
  42.00000,  42.00000,  46.00000,  38.00000,  44.00000,  44.00000,  40.00000,  45.00000,  43.00000,  38.00000,  39.00000,  46.00000,  43.00000,  40.00000,  43.00000,  34.00000,  38.00000,  38.00000,  40.00000,  40.00000,  44.00000,  45.00000,  39.00000,  47.00000,  40.00000,  41.00000,  43.00000,  34.00000,  35.00000,  38.00000,  40.00000,  34.00000,  42.00000,  35.00000,  41.00000,  37.00000,  46.00000,  40.00000,  36.00000,  44.00000,  42.00000,  42.00000,  38.00000,  43.00000,  44.00000,  41.00000,  45.00000,  43.00000,  43.00000,  48.00000,  46.00000,  45.00000,  43.00000,  46.00000,  46.00000,  39.00000,  40.00000,  42.00000,  44.00000,  44.00000,  43.00000,  47.00000,  43.00000,  47.00000,  49.00000,  45.00000,  46.00000,  45.00000,  47.00000,  46.00000,  52.00000,  56.00000,  56.00000,  48.00000,  51.00000,  51.00000,  54.00000,  58.00000,  57.00000,  42.00000
  42.00000,  42.00000,  42.00000,  51.00000,  47.00000,  44.00000,  47.00000,  50.00000,  39.00000,  42.00000,  43.00000,  33.00000,  40.00000,  41.00000,  39.00000,  41.00000,  39.00000,  39.00000,  46.00000,  47.00000,  39.00000,  50.00000,  46.00000,  43.00000,  45.00000,  44.00000,  38.00000,  37.00000,  40.00000,  41.00000,  35.00000,  36.00000,  37.00000,  34.00000,  44.00000,  39.00000,  41.00000,  40.00000,  42.00000,  40.00000,  41.00000,  41.00000,  44.00000,  43.00000,  43.00000,  43.00000,  37.00000,  41.00000,  42.00000,  41.00000,  47.00000,  40.00000,  41.00000,  45.00000,  34.00000,  39.00000,  49.00000,  44.00000,  43.00000,  50.00000,  45.00000,  46.00000,  46.00000,  47.00000,  52.00000,  39.00000,  51.00000,  48.00000,  54.00000,  54.00000,  44.00000,  48.00000,  51.00000,  48.00000,  53.00000,  53.00000,  53.00000,  56.00000,  54.00000,  42.00000
  42.00000,  42.00000,  50.00000,  53.00000,  45.00000,  43.00000,  52.00000,  45.00000,  41.00000,  49.00000,  51.00000,  44.00000,  43.00000,  44.00000,  43.00000,  39.00000,  44.00000,  44.00000,  38.00000,  43.00000,  44.00000,  37.00000,  41.00000,  43.00000,  34.00000,  41.00000,  41.00000,  39.00000,  38.00000,  40.00000,  38.00000,  44.00000,  36.00000,  33.00000,  41.00000,  40.00000,  38.00000,  42.00000,  44.00000,  36.00000,  39.00000,  40.00000,  39.00000,  48.00000,  46.00000,  55.00000,  50.00000,  51.00000,  46.00000,  40.00000,  44.00000,  46.00000,  39.00000,  49.00000,  40.00000,  46.00000,  47.00000,  50.00000,  47.00000,  42.00000,  46.00000,  43.00000,  49.00000,  44.00000,  47.00000,  46.00000,  54.00000,  50.00000,  47.00000,  44.00000,  49.00000,  47.00000,  56.00000,  51.00000,  48.00000,  60.00000,  48.00000,  57.00000,  65.00000,  42.00000
  42.00000,  59.00000,  43.00000,  42.00000,  52.00000,  45.00000,  41.00000,  36.00000,  42.00000,  50.00000,  42.00000,  45.00000,  41.00000,  40.00000,  41.00000,  39.00000,  36.00000,  47.00000,  44.00000,  48.00000,  37.00000,  41.00000,  38.00000,  42.00000,  41.00000,  44.00000,  44.00000,  40.00000,  40.00000,  40.00000,  40.00000,  45.00000,  43.00000,  34.00000,  43.00000,  42.00000,  39.00000,  43.00000,  40.00000,  39.00000,  39.00000,  40.00000,  42.00000,  41.00000,  41.00000,  62.00000,  50.00000,  61.00000,  47.00000,  43.00000,  52.00000,  40.00000,  48.00000,  37.00000,  41.00000,  45.00000,  44.00000,  45.00000,  47.00000,  42.00000,  43.00000,  47.00000,  46.00000,  46.00000,  57.00000,  56.00000,  54.00000,  53.00000,  50.00000,  47.00000,  60.00000,  54.00000,  59.00000,  57.00000,  55.00000,  53.00000,  49.00000,  61.00000,  53.00000,  66.00000
  42.00000,  49.00000,  42.00000,  45.00000,  41.00000,  45.00000,  41.00000,  41.00000,  43.00000,  46.00000,  49.00000,  43.00000,  42.00000,  40.00000,  41.00000,  42.00000,  43.00000,  45.00000,  42.00000,  39.00000,  40.00000,  40.00000,  41.00000,  39.00000,  40.00000,  44.00000,  39.00000,  39.00000,  44.00000,  43.00000,  49.00000,  41.00000,  43.00000,  33.00000,  42.00000,  39.00000,  40.00000,  42.00000,  52.00000,  45.00000,  33.00000,  41.00000,  38.00000,  40.00000,  43.00000,  49.00000,  47.00000,  44.00000,  49.00000,  44.00000,  43.00000,  45.00000,  48.00000,  49.00000,  43.00000,  46.00000,  44.00000,  51.00000,  44.00000,  44.00000,  46.00000,  47.00000,  45.00000,  48.00000,  33.00000,  54.00000,  49.00000,  51.00000,  44.00000,  52.00000,  48.00000,  46.00000,  49.00000,  52.00000,  53.00000,  55.00000,  45.00000,  58.00000,  66.00000,  74.00000
  42.00000,  53.00000,  48.00000,  57.00000,  46.00000,  45.00000,  46.00000,  45.00000,  45.00000,  47.00000,  50.00000,  47.00000,  50.00000,  44.00000,  42.00000,  49.00000,  47.00000,  36.00000,  47.00000,  41.00000,  41.00000,  42.00000,  45.00000,  37.00000,  46.00000,  40.00000,  45.00000,  46.00000,  36.00000,  46.00000,  41.00000,  44.00000,  40.00000,  50.00000,  42.00000,  40.00000,  37.00000,  39.00000,  42.00000,  42.00000,  42.00000,  35.00000,  40.00000,  47.00000,  47.00000,  43.00000,  46.00000,  46.00000,  52.00000,  40.00000,  52.00000,  50.00000,  41.00000,  37.00000,  44.00000,  43.00000,  44.00000,  49.00000,  42.00000,  50.00000,  46.00000,  48.00000,  45.00000,  47.00000,  51.00000,  54.00000,  52.00000,  50.00000,  46.00000,  49.00000,  51.00000,  45.00000,  52.00000,  54.00000,  51.00000,  56.00000,  53.00000,  60.00000,  55.00000,  61.00000
  42.00000,  48.00000,  40.00000,  36.00000,  45.00000,  37.00000,  37.00000,  45.00000,  43.00000,  38.00000,  39.00000,  39.00000,  41.00000,  43.00000,  43.00000,  40.00000,  36.00000,  39.00000,  38.00000,  39.00000,  35.00000,  45.00000,  44.00000,  38.00000,  37.00000,  41.00000,  44.00000,  43.00000,  40.00000,  45.00000,  40.00000,  38.00000,  46.00000,  38.00000,  37.00000,  37.00000,  41.00000,  38.00000,  38.00000,  40.00000,  38.00000,  40.00000,  43.00000,  39.00000,  39.00000,  45.00000,  39.00000,  37.00000,  44.00000,  44.00000,  46.00000,  46.00000,  38.00000,  39.00000,  39.00000,  48.00000,  46.00000,  48.00000,  45.00000,  46.00000,  47.00000,  45.00000,  44.00000,  47.00000,  42.00000,  52.00000,  50.00000,  51.00000,  46.00000,  51.00000,  51.00000,  56.00000,  59.00000,  50.00000,  49.00000,  51.00000,  51.00000,  51.00000,  51.00000,  57.00000
  48.00000,  44.00000,  52.00000,  43.00000,  53.00000,  45.00000,  35.00000,  44.00000,  44.00000,  47.00000,  39.00000,  49.00000,  44.00000,  43.00000,  39.00000,  40.00000,  44.00000,  41.00000,  40.00000,  33.00000,  34.00000,  32.00000,  35.00000,  40.00000,  42.00000,  32.00000,  35.00000,  46.00000,  41.00000,  38.00000,  37.00000,  44.00000,  41.00000,  36.00000,  43.00000,  39.00000,  44.00000,  43.00000,  42.00000,  40.00000,  38.00000,  42.00000,  46.00000,  51.00000,  40.00000,  47.00000,  43.00000,  37.00000,  47.00000,  50.00000,  49.00000,  45.00000,  43.00000,  44.00000,  39.00000,  52.00000,  48.00000,  46.00000,  42.00000,  52.00000,  46.00000,  47.00000,  47.00000,  49.00000,  47.00000,  54.00000,  53.00000,  49.00000,  51.00000,  52.00000,  46.00000,  53.00000,  52.00000,  43.00000,  46.00000,  55.00000,  55.00000,  53.00000,  52.00000,  53.00000
  46.00000,  45.00000,  48.00000,  39.00000,  47.00000,  39.00000,  43.00000,  48.00000,  45.00000,  40.00000,  41.00000,  52.00000,  39.00000,  44.00000,  43.00000,  37.00000,  39.00000,  42.00000,  39.00000,  42.00000,  36.00000,  52.00000,  41.00000,  46.00000,  42.00000,  41.00000,  45.00000,  37.00000,  41.00000,  44.00000,  46.00000,  37.00000,  45.00000,  43.00000,  41.00000,  41.00000,  38.00000,  40.00000,  39.00000,  44.00000,  43.00000,  42.00000,  39.00000,  42.00000,  39.00000,  45.00000,  41.00000,  46.00000,  42.00000,  47.00000,  47.00000,  50.00000,  51.00000,  52.00000,  44.00000,  47.00000,  45.00000,  51.00000,  50.00000,  54.00000,  51.00000,  48.00000,  53.00000,  55.00000,  53.00000,  59.00000,  55.00000,  48.00000,  47.00000,  48.00000,  50.00000,  53.00000,  56.00000,  54.00000,  48.00000,  53.00000,  47.00000,  56.00000,  58.00000,  52.00000
  45.00000,  44.00000,  52.00000,  50.00000,  43.00000,  45.00000,  39.00000,  46.00000,  45.00000,  45.00000,  41.00000,  39.00000,  38.00000,  41.00000,  41.00000,  45.00000,  49.00000,  41.00000,  39.00000,  39.00000,  44.00000,  43.00000,  46.00000,  44.00000,  47.00000,  45.00000,  41.00000,  43.00000,  44.00000,  36.00000,  38.00000,  36.00000,  48.00000,  41.00000,  40.00000,  40.00000,  38.00000,  36.00000,  39.00000,  44.00000,  44.00000,  38.00000,  36.00000,  45.00000,  46.00000,  44.00000,  41.00000,  44.00000,  41.00000,  41.00000,  45.00000,  42.00000,  42.00000,  51.00000,  47.00000,  47.00000,  51.00000,  53.00000,  54.00000,  49.00000,  51.00000,  51.00000,  52.00000,  52.00000,  45.00000,  43.00000,  48.00000,  53.00000,  56.00000,  48.00000,  45.00000,  52.00000,  50.00000,  53.00000,  51.00000,  55.00000,  56.00000,  54.00000,  56.00000,  57.00000
  43.00000,  45.00000,  49.00000,  44.00000,  41.00000,  43.00000,  47.00000,  49.00000,  44.00000,  38.00000,  49.00000,  47.00000,  41.00000,  49.00000,  45.00000,  43.00000,  39.00000,  45.00000,  44.00000,  32.00000,  41.00000,  40.00000,  41.00000,  45.00000,  46.00000,  43.00000,  42.00000,  44.00000,  42.00000,  40.00000,  37.00000,  41.00000,  46.00000,  39.00000,  35.00000,  44.00000,  41.00000,  46.00000,  40.00000,  43.00000,  36.00000,  42.00000,  42.00000,  42.00000,  45.00000,  38.00000,  46.00000,  34.00000,  45.00000,  42.00000,  46.00000,  48.00000,  47.00000,  56.00000,  65.00000,  49.00000,  53.00000,  42.00000,  44.00000,  46.00000,  49.00000,  46.00000,  48.00000,  47.00000,  46.00000,  47.00000,  49.00000,  44.00000,  57.00000,  53.00000,  48.00000,  51.00000,  53.00000,  59.00000,  49.00000,  49.00000,  51.00000,  50.00000,  56.00000,  53.00000
  55.00000,  50.00000,  45.00000,  44.00000,  46.00000,  38.00000,  47.00000,  47.00000,  44.00000,  41.00000,  41.00000,  46.00000,  44.00000,  46.00000,  40.00000,  34.00000,  35.00000,  43.00000,  39.00000,  44.00000,  43.00000,  45.00000,  43.00000,  47.00000,  41.00000,  45.00000,  45.00000,  49.00000,  43.00000,  46.00000,  39.00000,  45.00000,  44.00000,  40.00000,  43.00000,  54.00000,  49.00000,  44.00000,  42.00000,  37.00000,  40.00000,  37.00000,  46.00000,  38.00000,  40.00000,  54.00000,  50.00000,  49.00000,  37.00000,  48.00000,  54.00000,  42.00000,  52.00000,  43.00000,  47.00000,  46.00000,  43.00000,  42.00000,  41.00000,  55.00000,  42.00000,  45.00000,  49.00000,  50.00000,  52.00000,  50.00000,  47.00000,  51.00000,  52.00000,  46.00000,  61.00000,  52.00000,  50.00000,  51.00000,  55.00000,  55.00000,  52.00000,  52.00000,  50.00000,  47.00000
  47.00000,  53.00000,  48.00000,  48.00000,  47.00000,  46.00000,  39.00000,  46.00000,  48.00000,  46.00000,  46.00000,  42.00000,  44.00000,  37.00000,  45.00000,  44.00000,  41.00000,  41.00000,  38.00000,  43.00000,  44.00000,  43.00000,  44.00000,  40.00000,  48.00000,  42.00000,  39.00000,  43.00000,  44.00000,  46.00000,  45.00000,  42.00000,  48.00000,  48.00000,  39.00000,  45.00000,  43.00000,  38.00000,  44.00000,  46.00000,  40.00000,  40.00000,  40.00000,  42.00000,  48.00000,  44.00000,  46.00000,  45.00000,  44.00000,  39.00000,  45.00000,  45.00000,  46.00000,  44.00000,  48.00000,  43.00000,  37.00000,  47.00000,  44.00000,  45.00000,  44.00000,  48.00000,  46.00000,  53.00000,  50.00000,  49.00000,  51.00000,  52.00000,  52.00000,  52.00000,  49.00000,  49.00000,  50.00000,  49.00000,  61.00000,  48.00000,  54.00000,  54.00000,  57.00000,  50.00000
  48.00000,  53.00000,  52.00000,  42.00000,  48.00000,  46.00000,  47.00000,  41.00000,  45.00000,  42.00000,  48.00000,  44.00000,  46.00000,  48.00000,  48.00000,  42.00000,  39.00000,  34.00000,  39.00000,  45.00000,  42.00000,  45.00000,  48.00000,  41.00000,  43.00000,  39.00000,  45.00000,  47.00000,  41.00000,  45.00000,  43.00000,  46.00000,  40.00000,  37.00000,  42.00000,  41.00000,  42.00000,  43.00000,  45.00000,  38.00000,  45.00000,  34.00000,  51.00000,  39.00000,  48.00000,  35.00000,  44.00000,  49.00000,  39.00000,  42.00000,  46.00000,  45.00000,  43.00000,  44.00000,  48.00000,  43.00000,  38.00000,  51.00000,  43.00000,  48.00000,  44.00000,  49.00000,  45.00000,  47.00000,  48.00000,  46.00000,  52.00000,  51.00000,  36.00000,  46.00000,  52.00000,  50.00000,  55.00000,  52.00000,  59.00000,  51.00000,  54.00000,  47.00000,  54.00000,  50.00000
  49.00000,  47.00000,  45.00000,  43.00000,  44.00000,  43.00000,  38.00000,  43.00000,  44.00000,  35.00000,  39.00000,  44.00000,  43.00000,  44.00000,  47.00000,  39.00000,  39.00000,  40.00000,  44.00000,  41.00000,  39.00000,  39.00000,  47.00000,  41.00000,  35.00000,  43.00000,  47.00000,  45.00000,  41.00000,  38.00000,  47.00000,  43.00000,  44.00000,  38.00000,  39.00000,  41.00000,  40.00000,  44.00000,  38.00000,  36.00000,  38.00000,  37.00000,  42.00000,  34.00000,  46.00000,  48.00000,  44.00000,  39.00000,  47.00000,  38.00000,  41.00000,  46.00000,  39.00000,  40.00000,  40.00000,  44.00000,  41.00000,  47.00000,  45.00000,  44.00000,  49.00000,  48.00000,  48.00000,  47.00000,  48.00000,  47.00000,  47.00000,  49.00000,  38.00000,  52.00000,  45.00000,  52.00000,  53.00000,  41.00000,  43.00000,  54.00000,  55.00000,  57.00000,  52.00000,  52.00000
  49.00000,  54.00000,  46.00000,  45.00000,  44.00000,  48.00000,  50.00000,  37.00000,  49.00000,  43.00000,  38.00000,  45.00000,  45.00000,  39.00000,  42.00000,  44.00000,  41.00000,  49.00000,  41.00000,  44.00000,  39.00000,  38.00000,  39.00000,  38.00000,  34.00000,  30.00000,  33.00000,  38.00000,  47.00000,  34.00000,  49.00000,  40.00000,  45.00000,  43.00000,  46.00000,  42.00000,  47.00000,  41.00000,  39.00000,  37.00000,  43.00000,  46.00000,  47.00000,  40.00000,  44.00000,  44.00000,  44.00000,  39.00000,  45.00000,  43.00000,  46.00000,  41.00000,  49.00000,  40.00000,  43.00000,  48.00000,  47.00000,  45.00000,  53.00000,  48.00000,  47.00000,  46.00000,  45.00000,  50.00000,  46.00000,  51.00000,  43.00000,  45.00000,  46.00000,  47.00000,  48.00000,  46.00000,  57.00000,  50.00000,  51.00000,  50.00000,  54.00000,  55.00000,  58.00000,  57.00000
  50.00000,  55.00000,  41.00000,  45.00000,  43.00000,  41.00000,  41.00000,  42.00000,  47.00000,  46.00000,  42.00000,  40.00000,  43.00000,  50.00000,  44.00000,  47.00000,  44.00000,  39.00000,  45.00000,  39.00000,  42.00000,  44.00000,  36.00000,  45.00000,  40.00000,  46.00000,  46.00000,  45.00000,  49.00000,  39.00000,  49.00000,  45.00000,  39.00000,  40.00000,  41.00000,  45.00000,  39.00000,  41.00000,  45.00000,  45.00000,  44.00000,  41.00000,  42.00000,  46.00000,  42.00000,  43.00000,  42.00000,  45.00000,  49.00000,  45.00000,  41.00000,  46.00000,  48.00000,  48.00000,  44.00000,  42.00000,  44.00000,  50.00000,  49.00000,  44.00000,  44.00000,  48.00000,  45.00000,  54.00000,  53.00000,  50.00000,  47.00000,  53.00000,  57.00000,  50.00000,  48.00000,  51.00000,  53.00000,  56.00000,  48.00000,  53.00000,  51.00000,  47.00000,  54.00000,  56.00000
  50.00000,  54.00000,  48.00000,  45.00000,  41.00000,  43.00000,  47.00000,  41.00000,  46.00000,  45.00000,  42.00000,  45.00000,  46.00000,  41.00000,  45.00000,  45.00000,  41.00000,  45.00000,  46.00000,  38.00000,  44.00000,  51.00000,  46.00000,  44.00000,  48.00000,  35.00000,  43.00000,  44.00000,  47.00000,  42.00000,  37.00000,  47.00000,  42.00000,  46.00000,  41.00000,  44.00000,  46.00000,  38.00000,  43.00000,  39.00000,  46.00000,  44.00000,  39.00000,  39.00000,  43.00000,  45.00000,  40.00000,  47.00000,  38.00000,  48.00000,  44.00000,  39.00000,  43.00000,  48.00000,  45.00000,  48.00000,  46.00000,  52.00000,  51.00000,  46.00000,  48.00000,  45.00000,  52.00000,  46.00000,  50.00000,  55.00000,  49.00000,  56.00000,  56.00000,  46.00000,  52.00000,  53.00000,  56.00000,  57.00000,  56.00000,  52.00000,  45.00000,  44.00000,  50.00000,  57.00000
  44.00000,  49.00000,  44.00000,  50.00000,  47.00000,  51.00000,  39.00000,  40.00000,  43.00000,  37.00000,  41.00000,  46.00000,  45.00000,  44.00000,  44.00000,  46.00000,  48.00000,  46.00000,  52.00000,  44.00000,  47.00000,  41.00000,  45.00000,  46.00000,  44.00000,  42.00000,  38.00000,  41.00000,  46.00000,  45.00000,  42.00000,  41.00000,  45.00000,  45.00000,  43.00000,  46.00000,  41.00000,  39.00000,  44.00000,  42.00000,  43.00000,  42.00000,  48.00000,  38.00000,  46.00000,  40.00000,  46.00000,  49.00000,  37.00000,  46.00000,  44.00000,  37.00000,  46.00000,  50.00000,  44.00000,  47.00000,  45.00000,  47.00000,  46.00000,  52.00000,  48.00000,  45.00000,  54.00000,  48.00000,  50.00000,  52.00000,  53.00000,  54.00000,  39.00000,  52.00000,  51.00000,  46.00000,  53.00000,  49.00000,  52.00000,  55.00000,  55.00000,  52.00000,  56.00000,  58.00000
  50.00000,  50.00000,  52.00000,  48.00000,  48.00000,  50.00000,  50.00000,  40.00000,  48.00000,  43.00000,  43.00000,  47.00000,  44.00000,  52.00000,  48.00000,  50.00000,  46.00000,  41.00000,  49.00000,  42.00000,  38.00000,  42.00000,  35.00000,  38.00000,  39.00000,  46.00000,  48.00000,  38.00000,  49.00000,  50.00000,  46.00000,  44.00000,  45.00000,  54.00000,  45.00000,  40.00000,  48.00000,  45.00000,  49.00000,  43.00000,  45.00000,  46.00000,  44.00000,  42.00000,  41.00000,  46.00000,  41.00000,  45.00000,  41.00000,  40.00000,  41.00000,  44.00000,  49.00000,  45.00000,  51.00000,  44.00000,  48.00000,  53.00000,  51.00000,  53.00000,  54.00000,  48.00000,  51.00000,  48.00000,  54.00000,  52.00000,  55.00000,  56.00000,  50.00000,  40.00000,  55.00000,  53.00000,  55.00000,  55.00000,  57.00000,  52.00000,  47.00000,  43.00000,  58.00000,  53.00000
  59.00000,  47.00000,  43.00000,  51.00000,  42.00000,  50.00000,  46.00000,  42.00000,  44.00000,  50.00000,  50.00000,  43.00000,  44.00000,  42.00000,  48.00000,  46.00000,  45.00000,  41.00000,  39.00000,  42.00000,  40.00000,  42.00000,  36.00000,  42.00000,  32.00000,  35.00000,  39.00000,  46.00000,  45.00000,  44.00000,  46.00000,  44.00000,  49.00000,  41.00000,  46.00000,  44.00000,  43.00000,  44.00000,  47.00000,  48.00000,  49.00000,  43.00000,  50.00000,  36.00000,  48.00000,  42.00000,  40.00000,  41.00000,  48.00000,  49.00000,  41.00000,  46.00000,  47.00000,  40.00000,  48.00000,  40.00000,  52.00000,  48.00000,  45.00000,  49.00000,  47.00000,  52.00000,  51.00000,  45.00000,  49.00000,  51.00000,  55.00000,  53.00000,  47.00000,  50.00000,  48.00000,  51.00000,  54.00000,  59.00000,  42.00000,  52.00000,  58.00000,  50.00000,  54.00000,  52.00000
  52.00000,  42.00000,  51.00000,  46.00000,  47.00000,  48.00000,  45.00000,  39.00000,  35.00000,  41.00000,  43.00000,  52.00000,  43.00000,  46.00000,  44.00000,  39.00000,  44.00000,  41.00000,  39.00000,  39.00000,  37.00000,  45.00000,  37.00000,  35.00000,  38.00000,  39.00000,  41.00000,  47.00000,  45.00000,  41.00000,  40.00000,  43.00000,  47.00000,  45.00000,  48.00000,  45.00000,  46.00000,  45.00000,  48.00000,  44.00000,  45.00000,  48.00000,  45.00000,  45.00000,  44.00000,  47.00000,  44.00000,  39.00000,  44.00000,  45.00000,  46.00000,  39.00000,  40.00000,  44.00000,  48.00000,  49.00000,  47.00000,  46.00000,  47.00000,  49.00000,  44.00000,  44.00000,  49.00000,  48.00000,  52.00000,  56.00000,  49.00000,  52.00000,  41.00000,  55.00000,  49.00000,  50.00000,  50.00000,  52.00000,  58.00000,  47.00000,  54.00000,  53.00000,  56.00000,  46.00000
  42.00000,  44.00000,  44.00000,  48.00000,  45.00000,  55.00000,  40.00000,  41.00000,  41.00000,  34.00000,  42.00000,  46.00000,  44.00000,  42.00000,  49.00000,  39.00000,  40.00000,  46.00000,  43.00000,  41.00000,  45.00000,  40.00000,  37.00000,  47.00000,  36.00000,  41.00000,  41.00000,  41.00000,  34.00000,  47.00000,  44.00000,  35.00000,  40.00000,  46.00000,  42.00000,  37.00000,  41.00000,  40.00000,  44.00000,  40.00000,  40.00000,  50.00000,  44.00000,  49.00000,  40.00000,  41.00000,  46.00000,  46.00000,  54.00000,  41.00000,  44.00000,  47.00000,  44.00000,  47.00000,  41.00000,  48.00000,  43.00000,  52.00000,  44.00000,  47.00000,  44.00000,  47.00000,  50.00000,  49.00000,  44.00000,  41.00000,  42.00000,  46.00000,  53.00000,  46.00000,  47.00000,  53.00000,  53.00000,  62.00000,  48.00000,  52.00000,  51.00000,  58.00000,  50.00000,  42.00000
  47.00000,  51.00000,  45.00000,  41.00000,  42.00000,  47.00000,  46.00000,  42.00000,  41.00000,  49.00000,  42.00000,  46.00000,  44.00000,  37.00000,  44.00000,  46.00000,  43.00000,  48.00000,  43.00000,  39.00000,  37.00000,  42.00000,  41.00000,  41.00000,  34.00000,  37.00000,  44.00000,  31.00000,  40.00000,  41.00000,  45.00000,  36.00000,  47.00000,  39.00000,  46.00000,  47.00000,  48.00000,  36.00000,  39.00000,  43.00000,  45.00000,  50.00000,  40.00000,  43.00000,  44.00000,  45.00000,  47.00000,  37.00000,  45.00000,  40.00000,  48.00000,  50.00000,  49.00000,  46.00000,  43.00000,  43.00000,  46.00000,  42.00000,  49.00000,  51.00000,  39.00000,  47.00000,  37.00000,  48.00000,  52.00000,  56.00000,  49.00000,  44.00000,  45.00000,  44.00000,  45.00000,  44.00000,  53.00000,  50.00000,  50.00000,  46.00000,  48.00000,  50.00000,  51.00000,  60.00000
  42.00000,  55.00000,  49.00000,  44.00000,  42.00000,  46.00000,  49.00000,  43.00000,  45.00000,  48.00000,  48.00000,  38.00000,  55.00000,  41.00000,  46.00000,  45.00000,  37.00000,  48.00000,  50.00000,  42.00000,  40.00000,  44.00000,  41.00000,  47.00000,  41.00000,  40.00000,  45.00000,  39.00000,  42.00000,  34.00000,  45.00000,  46.00000,  43.00000,  31.00000,  49.00000,  44.00000,  46.00000,  47.00000,  49.00000,  51.00000,  48.00000,  41.00000,  43.00000,  47.00000,  42.00000,  45.00000,  45.00000,  46.00000,  49.00000,  40.00000,  50.00000,  40.00000,  50.00000,  47.00000,  50.00000,  48.00000,  49.00000,  53.00000,  48.00000,  47.00000,  51.00000,  50.00000,  51.00000,  52.00000,  54.00000,  51.00000,  50.00000,  48.00000,  54.00000,  57.00000,  48.00000,  51.00000,  53.00000,  55.00000,  54.00000,  58.00000,  53.00000,  53.00000,  51.00000,  52.00000
  42.00000,  57.00000,  46.00000,  49.00000,  44.00000,  37.00000,  46.00000,  38.00000,  48.00000,  51.00000,  46.00000,  47.00000,  48.00000,  44.00000,  48.00000,  50.00000,  45.00000,  50.00000,  47.00000,  40.00000,  41.00000,  41.00000,  41.00000,  43.00000,  38.00000,  39.00000,  40.00000,  43.00000,  45.00000,  47.00000,  47.00000,  52.00000,  50.00000,  57.00000,  44.00000,  40.00000,  54.00000,  43.00000,  40.00000,  45.00000,  43.00000,  47.00000,  46.00000,  45.00000,  43.00000,  51.00000,  40.00000,  45.00000,  46.00000,  48.00000,  50.00000,  47.00000,  45.00000,  48.00000,  49.00000,  43.00000,  44.00000,  50.00000,  50.00000,  48.00000,  53.00000,  50.00000,  56.00000,  40.00000,  50.00000,  49.00000,  49.00000,  54.00000,  61.00000,  47.00000,  49.00000,  47.00000,  50.00000,  56.00000,  49.00000,  52.00000,  52.00000,  49.00000,  54.00000,  53.00000
  42.00000,  50.00000,  50.00000,  52.00000,  49.00000,  46.00000,  42.00000,  44.00000,  37.00000,  44.00000,  52.00000,  50.00000,  48.00000,  44.00000,  49.00000,  48.00000,  46.00000,  42.00000,  51.00000,  49.00000,  42.00000,  36.00000,  46.00000,  42.00000,  43.00000,  43.00000,  42.00000,  47.00000,  43.00000,  50.00000,  44.00000,  49.00000,  54.00000,  52.00000,  50.00000,  47.00000,  47.00000,  47.00000,  42.00000,  46.00000,  35.00000,  47.00000,  54.00000,  47.00000,  47.00000,  45.00000,  45.00000,  52.00000,  39.00000,  47.00000,  46.00000,  44.00000,  51.00000,  50.00000,  43.00000,  47.00000,  49.00000,  48.00000,  44.00000,  46.00000,  52.00000,  49.00000,  55.00000,  47.00000,  48.00000,  51.00000,  53.00000,  54.00000,  41.00000,  52.00000,  51.00000,  45.00000,  48.00000,  46.00000,  51.00000,  60.00000,  53.00000,  52.00000,  52.00000,  51.00000
  42.00000,  58.00000,  44.00000,  51.00000,  48.00000,  50.00000,  49.00000,  48.00000,  39.00000,  42.00000,  48.00000,  48.00000,  45.00000,  44.00000,  45.00000,  48.00000,  49.00000,  44.00000,  45.00000,  42.00000,  41.00000,  45.00000,  38.00000,  43.00000,  43.00000,  45.00000,  37.00000,  43.00000,  41.00000,  40.00000,  43.00000,  50.00000,  43.00000,  52.00000,  46.00000,  44.00000,  50.00000,  46.00000,  39.00000,  47.00000,  45.00000,  54.00000,  46.00000,  49.00000,  47.00000,  47.00000,  43.00000,  48.00000,  48.00000,  44.00000,  41.00000,  47.00000,  52.00000,  39.00000,  49.00000,  51.00000,  47.00000,  42.00000,  51.00000,  48.00000,  45.00000,  51.00000,  49.00000,  48.00000,  52.00000,  50.00000,  54.00000,  52.00000,  51.00000,  49.00000,  49.00000,  51.00000,  51.00000,  49.00000,  52.00000,  48.00000,  53.00000,  54.00000,  57.00000,  49.00000
  42.00000,  42.00000,  49.00000,  45.00000,  45.00000,  43.00000,  44.00000,  46.00000,  44.00000,  46.00000,  44.00000,  46.00000,  51.00000,  45.00000,  41.00000,  48.00000,  48.00000,  42.00000,  43.00000,  44.00000,  46.00000,  38.00000,  36.00000,  47.00000,  40.00000,  41.00000,  54.00000,  35.00000,  44.00000,  49.00000,  52.00000,  39.00000,  40.00000,  48.00000,  47.00000,  37.00000,  47.00000,  50.00000,  46.00000,  48.00000,  49.00000,  45.00000,  46.00000,  45.00000,  46.00000,  48.00000,  45.00000,  45.00000,  48.00000,  48.00000,  43.00000,  41.00000,  44.00000,  51.00000,  51.00000,  48.00000,  45.00000,  49.00000,  47.00000,  57.00000,  51.00000,  51.00000,  48.00000,  53.00000,  53.00000,  51.00000,  54.00000,  50.00000,  49.00000,  47.00000,  44.00000,  52.00000,  52.00000,  57.00000,  45.00000,  56.00000,  55.00000,  56.00000,  56.00000,  42.00000
  42.00000,  42.00000,  52.00000,  53.00000,  47.00000,  39.00000,  46.00000,  48.00000,  38.00000,  45.00000,  41.00000,  45.00000,  47.00000,  39.00000,  47.00000,  49.00000,  49.00000,  41.00000,  45.00000,  46.00000,  41.00000,  45.00000,  44.00000,  40.00000,  43.00000,  39.00000,  35.00000,  55.00000,  42.00000,  47.00000,  32.00000,  39.00000,  49.00000,  44.00000,  37.00000,  51.00000,  46.00000,  39.00000,  43.00000,  45.00000,  48.00000,  45.00000,  47.00000,  47.00000,  53.00000,  53.00000,  47.00000,  43.00000,  49.00000,  54.00000,  54.00000,  43.00000,  44.00000,  47.00000,  43.00000,  45.00000,  40.00000,  54.00000,  51.00000,  43.00000,  48.00000,  50.00000,  47.00000,  53.00000,  49.00000,  56.00000,  47.00000,  54.00000,  52.00000,  60.00000,  53.00000,  49.00000,  51.00000,  51.00000,  53.00000,  53.00000,  53.00000,  53.00000,  46.00000,  42.00000
  42.00000,  42.00000,  45.00000,  48.00000,  45.00000,  44.00000,  50.00000,  48.00000,  41.00000,  38.00000,  39.00000,  44.00000,  48.00000,  45.00000,  46.00000,  34.00000,  42.00000,  51.00000,  42.00000,  47.00000,  48.00000,  43.00000,  43.00000,  37.00000,  42.00000,  40.00000,  38.00000,  45.00000,  43.00000,  46.00000,  44.00000,  41.00000,  43.00000,  40.00000,  45.00000,  45.00000,  38.00000,  42.00000,  36.00000,  37.00000,  38.00000,  47.00000,  48.00000,  41.00000,  47.00000,  47.00000,  50.00000,  40.00000,  47.00000,  43.00000,  36.00000,  37.00000,  50.00000,  47.00000,  49.00000,  43.00000,  44.00000,  54.00000,  47.00000,  49.00000,  38.00000,  54.00000,  44.00000,  47.00000,  47.00000,  44.00000,  42.00000,  45.00000,  58.00000,  44.00000,  49.00000,  50.00000,  52.00000,  57.00000,  47.00000,  48.00000,  55.00000,  53.00000,  47.00000,  42.00000
  42.00000,  42.00000,  42.00000,  38.00000,  48.00000,  39.00000,  46.00000,  46.00000,  41.00000,  45.00000,  37.00000,  43.00000,  43.00000,  42.00000,  36.00000,  41.00000,  49.00000,  40.00000,  38.00000,  45.00000,  40.00000,  44.00000,  43.00000,  46.00000,  37.00000,  35.00000,  38.00000,  38.00000,  43.00000,  42.00000,  43.00000,  40.00000,  38.00000,  40.00000,  35.00000,  37.00000,  46.00000,  43.00000,  37.00000,  39.00000,  38.00000,  48.00000,  51.00000,  48.00000,  39.00000,  46.00000,  54.00000,  44.00000,  48.00000,  52.00000,  46.00000,  47.00000,  54.00000,  40.00000,  46.00000,  45.00000,  47.00000,  46.00000,  55.00000,  45.00000,  42.00000,  42.00000,  43.00000,  47.00000,  46.00000,  55.00000,  51.00000,  47.00000,  50.00000,  48.00000,  45.00000,  39.00000,  55.00000,  45.00000,  47.00000,  38.00000,  49.00000,  53.00000,  42.00000,  42.00000
  42.00000,  42.00000,  42.00000,  50.00000,  48.00000,  38.00000,  38.00000,  44.00000,  47.00000,  43.00000,  48.00000,  40.00000,  51.00000,  44.00000,  41.00000,  45.00000,  42.00000,  46.00000,  48.00000,  44.00000,  46.00000,  49.00000,  41.00000,  37.00000,  45.00000,  44.00000,  42.00000,  41.00000,  40.00000,  42.00000,  41.00000,  39.00000,  36.00000,  35.00000,  37.00000,  38.00000,  35.00000,  40.00000,  43.00000,  52.00000,  44.00000,  50.00000,  47.00000,  49.00000,  51.00000,  47.00000,  49.00000,  47.00000,  49.00000,  45.00000,  48.00000,  43.00000,  50.00000,  48.00000,  40.00000,  47.00000,  51.00000,  47.00000,  54.00000,  47.00000,  52.00000,  48.00000,  46.00000,  52.00000,  42.00000,  54.00000,  49.00000,  52.00000,  55.00000,  53.00000,  48.00000,  51.00000,  51.00000,  53.00000,  50.00000,  52.00000,  42.00000,  54.00000,  42.00000,  42.00000
  42.00000,  42.00000,  42.00000,  42.00000,  46.00000,  42.00000,  50.00000,  43.00000,  44.00000,  40.00000,  46.00000,  41.00000,  46.00000,  38.00000,  45.00000,  41.00000,  43.00000,  47.00000,  48.00000,  45.00000,  50.00000,  45.00000,  45.00000,  42.00000,  43.00000,  43.00000,  37.00000,  37.00000,  44.00000,  42.00000,  49.00000,  41.00000,  44.00000,  45.00000,  36.00000,  50.00000,  42.00000,  43.00000,  48.00000,  53.00000,  49.00000,  48.00000,  45.00000,  43.00000,  49.00000,  46.00000,  41.00000,  36.00000,  46.00000,  52.00000,  41.00000,  47.00000,  49.00000,  47.00000,  46.00000,  41.00000,  43.00000,  52.00000,  51.00000,  50.00000,  53.00000,  45.00000,  52.00000,  48.00000,  54.00000,  51.00000,  46.00000,  47.00000,  53.00000,  44.00000,  52.00000,  48.00000,  49.00000,  49.00000,  50.00000,  47.00000,  46.00000,  42.00000,  42.00000,  42.00000
  42.00000,  42.00000,  42.00000,  42.00000,  51.00000,  41.00000,  40.00000,  50.00000,  40.00000,  42.00000,  43.00000,  38.00000,  43.00000,  48.00000,  42.00000,  41.00000,  40.00000,  41.00000,  47.00000,  44.00000,  43.00000,  50.00000,  44.00000,  42.00000,  43.00000,  43.00000,  36.00000,  44.00000,  42.00000,  40.00000,  40.00000,  42.00000,  41.00000,  47.00000,  42.00000,  39.00000,  38.00000,  39.00000,  45.00000,  40.00000,  39.00000,  42.00000,  52.00000,  47.00000,  42.00000,  44.00000,  39.00000,  44.00000,  41.00000,  39.00000,  41.00000,  44.00000,  53.00000,  48.00000,  46.00000,  50.00000,  44.00000,  49.00000,  46.00000,  44.00000,  43.00000,  51.00000,  45.00000,  43.00000,  50.00000,  50.00000,  45.00000,  48.00000,  46.00000,  46.00000,  49.00000,  47.00000,  49.00000,  50.00000,  54.00000,  60.00000,  46.00000,  42.00000,  42.00000,  42.00000
  42.00000,  42.00000,  42.00000,  42.00000,  42.00000,  44.00000,  40.00000,  50.00000,  38.00000,  38.00000,  39.00000,  41.00000,  46.00000,  43.00000,  49.00000,  50.00000,  42.00000,  51.00000,  46.00000,  36.00000,  45.00000,  49.00000,  39.00000,  44.00000,  42.00000,  47.00000,  47.00000,  44.00000,  48.00000,  43.00000,  43.00000,  46.00000,  38.00000,  48.00000,  38.00000,  43.00000,  43.00000,  36.00000,  45.00000,  45.00000,  42.00000,  42.00000,  41.00000,  40.00000,  41.00000,  48.00000,  44.00000,  46.00000,  38.00000,  51.00000,  41.00000,  49.00000,  49.00000,  48.00000,  57.00000,  50.00000,  50.00000,  51.00000,  51.00000,  61.00000,  53.00000,  52.00000,  39.00000,  39.00000,  49.00000,  43.00000,  47.00000,  36.00000,  45.00000,  44.00000,  54.00000,  48.00000,  47.00000,  47.00000,  53.00000,  52.00000,  42.00000,  42.00000,  42.00000,  42.00000
  42.00000,  42.00000,  42.00000,  42.00000,  42.00000,  43.00000,  41.00000,  45.00000,  41.00000,  43.00000,  46.00000,  36.00000,  42.00000,  41.00000,  45.00000,  39.00000,  40.00000,  39.00000,  42.00000,  39.00000,  52.00000,  42.00000,  40.00000,  46.00000,  41.00000,  42.00000,  41.00000,  44.00000,  43.00000,  41.00000,  46.00000,  40.00000,  45.00000,  39.00000,  36.00000,  38.00000,  45.00000,  49.00000,  39.00000,  41.00000,  36.00000,  41.00000,  42.00000,  38.00000,  42.00000,  42.00000,  37.00000,  44.00000,  48.00000,  44.00000,  51.00000,  37.00000,  50.00000,  43.00000,  47.00000,  44.00000,  50.00000,  44.00000,  41.00000,  44.00000,  47.00000,  49.00000,  45.00000,  43.00000,  49.00000,  42.00000,  43.00000,  41.00000,  47.00000,  50.00000,  47.00000,  52.00000,  51.00000,  48.00000,  49.00000,  45.00000,  42.00000,  42.00000,  42.00000,  42.00000
  42.00000,  42.00000,  42.00000,  42.00000,  42.00000,  42.00000,  45.00000,  43.00000,  40.00000,  39.00000,  40.00000,  49.00000,  47.00000,  44.00000,  41.00000,  43.00000,  39.00000,  39.00000,  38.00000,  45.00000,  36.00000,  53.00000,  46.00000,  41.00000,  42.00000,  43.00000,  43.00000,  46.00000,  42.00000,  45.00000,  39.00000,  45.00000,  43.00000,  41.00000,  35.00000,  40.00000,  38.00000,  42.00000,  38.00000,  37.00000,  45.00000,  45.00000,  43.00000,  38.00000,  47.00000,  38.00000,  35.00000,  38.00000,  42.00000,  36.00000,  43.00000,  48.00000,  47.00000,  42.00000,  40.00000,  42.00000,  40.00000,  45.00000,  49.00000,  44.00000,  35.00000,  47.00000,  44.00000,  50.00000,  49.00000,  50.00000,  42.00000,  47.00000,  48.00000,  48.00000,  50.00000,  53.00000,  49.00000,  53.00000,  48.00000,  42.00000,  42.00000,  42.00000,  42.00000,  42.00000
  42.00000,  42.00000,  42.00000,  42.00000,  42.00000,  42.00000,  42.00000,  38.00000,  40.00000,  45.00000,  37.00000,  42.00000,  39.00000,  42.00000,  46.00000,  38.00000,  42.00000,  45.00000,  35.00000,  37.00000,  45.00000,  34.00000,  36.00000,  39.00000,  35.00000,  36.00000,  47.00000,  48.00000,  34.00000,  46.00000,  41.00000,  37.00000,  42.00000,  40.00000,  41.00000,  37.00000,  38.00000,  40.00000,  34.00000,  43.00000,  37.00000,  43.00000,  37.00000,  41.00000,  42.00000,  41.00000,  36.00000,  37.00000,  43.00000,  49.00000,  38.00000,  44.00000,  43.00000,  41.00000,  34.00000,  43.00000,  40.00000,  42.00000,  47.00000,  44.00000,  30.00000,  41.00000,  48.00000,  41.00000,  46.00000,  45.00000,  42.00000,  46.00000,  54.00000,  45.00000,  46.00000,  48.00000,  41.00000,  47.00000,  42.00000,  42.00000,  42.00000,  42.00000,  42.00000,  42.00000
  42.00000,  42.00000,  42.00000,  42.00000,  42.00000,  42.00000,  42.00000,  36.00000,  40.00000,  40.00000,  39.00000,  39.00000,  34.00000,  31.00000,  40.00000,  39.00000,  39.00000,  42.00000,  40.00000,  35.00000,  34.00000,  37.00000,  44.00000,  37.00000,  39.00000,  33.00000,  33.00000,  39.00000,  43.00000,  44.00000,  45.00000,  41.00000,  41.00000,  46.00000,  40.00000,  40.00000,  45.00000,  39.00000,  35.00000,  37.00000,  37.00000,  43.00000,  40.00000,  35.00000,  39.00000,  41.00000,  36.00000,  35.00000,  39.00000,  44.00000,  42.00000,  39.00000,  41.00000,  38.00000,  38.00000,  34.00000,  36.00000,  40.00000,  44.00000,  35.00000,  39.00000,  33.00000,  40.00000,  49.00000,  45.00000,  43.00000,  41.00000,  39.00000,  39.00000,  42.00000,  47.00000,  45.00000,  38.00000,  43.00000,  42.00000,  42.00000,  42.00000,  42.00000,  42.00000,  42.00000
  42.00000,  42.00000,  42.00000,  42.00000,  42.00000,  42.00000,  42.00000,  42.00000,  38.00000,  37.00000,  38.00000,  36.00000,  39.00000,  35.00000,  33.00000,  43.00000,  38.00000,  36.00000,  34.00000,  33.00000,  37.00000,  43.00000,  42.00000,  42.00000,  37.00000,  43.00000,  43.00000,  44.00000,  47.00000,  44.00000,  41.00000,  39.00000,  41.00000,  31.00000,  40.00000,  42.00000,  40.00000,  42.00000,  43.00000,  40.00000,  39.00000,  41.00000,  40.00000,  38.00000,  41.00000,  38.00000,  31.00000,  37.00000,  41.00000,  36.00000,  46.00000,  43.00000,  39.00000,  38.00000,  44.00000,  38.00000,  45.00000,  46.00000,  43.00000,  43.00000,  41.00000,  39.00000,  41.00000,  47.00000,  45.00000,  44.00000,  38.00000,  43.00000,  47.00000,  45.00000,  52.00000,  41.00000,  42.00000,  42.00000,  42.00000,  42.00000,  42.00000,  42.00000,  42.00000,  42.00000
  42.00000,  42.00000,  42.00000,  42.00000,  42.00000,  42.00000,  42.00000,  42.00000,  42.00000,  37.00000,  36.00000,  36.00000,  40.00000,  40.00000,  44.00000,  35.00000,  37.00000,  38.00000,  34.00000,  38.00000,  38.00000,  43.00000,  40.00000,  39.00000,  44.00000,  34.00000,  44.00000,  42.00000,  38.00000,  45.00000,  37.00000,  43.00000,  42.00000,  42.00000,  42.00000,  40.00000,  49.00000,  37.00000,  45.00000,  37.00000,  45.00000,  41.00000,  42.00000,  34.00000,  43.00000,  37.00000,  40.00000,  39.00000,  37.00000,  43.00000,  39.00000,  39.00000,  39.00000,  43.00000,  42.00000,  39.00000,  37.00000,  38.00000,  42.00000,  47.00000,  46.00000,  43.00000,  41.00000,  40.00000,  42.00000,  46.00000,  44.00000,  48.00000,  44.00000,  43.00000,  47.00000,  52.00000,  42.00000,  42.00000,  42.00000,  42.00000,  42.00000,  42.00000,  42.00000,  42.00000
  42.00000,  42.00000,  42.00000,  42.00000,  42.00000,  42.00000,  42.00000,  42.00000,  42.00000,  42.00000,  35.00000,  34.00000,  33.00000,  36.00000,  38.00000,  44.00000,  35.00000,  38.00000,  40.00000,  28.00000,  39.00000,  34.00000,  39.00000,  36.00000,  38.00000,  35.00000,  36.00000,  42.00000,  43.00000,  42.00000,  30.00000,  38.00000,  36.00000,  42.00000,  39.00000,  38.00000,  38.00000,  40.00000,  46.00000,  41.00000,  36.00000,  42.00000,  33.00000,  40.00000,  37.00000,  32.00000,  37.00000,  44.00000,  35.00000,  43.00000,  42.00000,  33.00000,  43.00000,  40.00000,  42.00000,  40.00000,  45.00000,  42.00000,  39.00000,  44.00000,  40.00000,  38.00000,  41.00000,  38.00000,  40.00000,  46.00000,  44.00000,  47.00000,  33.00000,  40.00000,  36.00000,  42.00000,  42.00000,  42.00000,  42.00000,  42.00000,  42.00000,  42.00000,  42.00000,  42.00000
  42.00000,  42.00000,  42.00000,  42.00000,  42.00000,  42.00000,  42.00000,  42.00000,  42.00000,  42.00000,  42.00000,  33.00000,  35.00000,  36.00000,  42.00000,  36.00000,  30.00000,  44.00000,  38.00000,  33.00000,  29.00000,  38.00000,  29.00000,  34.00000,  33.00000,  35.00000,  30.00000,  29.00000,  34.00000,  32.00000,  42.00000,  41.00000,  40.00000,  42.00000,  36.00000,  41.00000,  44.00000,  38.00000,  39.00000,  38.00000,  38.00000,  35.00000,  37.00000,  38.00000,  41.00000,  37.00000,  41.00000,  42.00000,  36.00000,  38.00000,  39.00000,  41.00000,  43.00000,  36.00000,  47.00000,  47.00000,  44.00000,  40.00000,  41.00000,  39.00000,  46.00000,  43.00000,  43.00000,  40.00000,  46.00000,  41.00000,  44.00000,  45.00000,  38.00000,  34.00000,  42.00000,  42.00000,  42.00000,  42.00000,  42.00000,  42.00000,  42.00000,  42.00000,  42.00000,  42.00000
  42.00000,  42.00000,  42.00000,  42.00000,  42.00000,  42.00000,  42.00000,  42.00000,  42.00000,  42.00000,  42.00000,  42.00000,  36.00000,  34.00000,  33.00000,  28.00000,  32.00000,  36.00000,  36.00000,  34.00000,  39.00000,  33.00000,  36.00000,  33.00000,  34.00000,  36.00000,  29.00000,  35.00000,  32.00000,  33.00000,  37.00000,  31.00000,  33.00000,  24.00000,  31.00000,  27.00000,  35.00000,  36.00000,  32.00000,  35.00000,  37.00000,  38.00000,  40.00000,  41.00000,  39.00000,  38.00000,  33.00000,  40.00000,  43.00000,  38.00000,  38.00000,  40.00000,  37.00000,  32.00000,  39.00000,  46.00000,  44.00000,  38.00000,  39.00000,  33.00000,  36.00000,  44.00000,  29.00000,  42.00000,  39.00000,  39.00000,  37.00000,  41.00000,  42.00000,  42.00000,  42.00000,  42.00000,  42.00000,  42.00000,  42.00000,  42.00000,  42.00000,  42.00000,  42.00000,  42.00000
  42.00000,  42.00000,  42.00000,  42.00000,  42.00000,  42.00000,  42.00000,  42.00000,  42.00000,  42.00000,  42.00000,  42.00000,  42.00000,  26.00000,  27.00000,  24.00000,  31.00000,  34.00000,  25.00000,  35.00000,  24.00000,  39.00000,  33.00000,  34.00000,  35.00000,  38.00000,  26.00000,  39.00000,  34.00000,  32.00000,  30.00000,  29.00000,  30.00000,  40.00000,  34.00000,  33.00000,  31.00000,  34.00000,  40.00000,  29.00000,  34.00000,  33.00000,  34.00000,  34.00000,  32.00000,  38.00000,  30.00000,  31.00000,  41.00000,  46.00000,  44.00000,  37.00000,  42.00000,  30.00000,  41.00000,  32.00000,  39.00000,  45.00000,  35.00000,  39.00000,  40.00000,  34.00000,  44.00000,  37.00000,  38.00000,  41.00000,  39.00000,  34.00000,  42.00000,  42.00000,  42.00000,  42.00000,  42.00000,  42.00000,  42.00000,  42.00000,  42.00000,  42.00000,  42.00000,  42.00000
  42.00000,  42.00000,  42.00000,  42.00000,  42.00000,  42.00000,  42.00000,  42.00000,  42.00000,  42.00000,  42.00000,  42.00000,  42.00000,  42.00000,  33.00000,  20.00000,  31.00000,  29.00000,  18.00000,  23.00000,  26.00000,  23.00000,  25.00000,  28.00000,  21.00000,  22.00000,  25.00000,  35.00000,  20.00000,  38.00000,  27.00000,  27.00000,  34.00000,  30.00000,  33.00000,  26.00000,  33.00000,  38.00000,  25.00000,  31.00000,  30.00000,  32.00000,  32.00000,  32.00000,  28.00000,  30.00000,  27.00000,  27.00000,  33.00000,  28.00000,  29.00000,  35.00000,  29.00000,  29.00000,  30.00000,  36.00000,  29.00000,  32.00000,  39.00000,  34.00000,  31.00000,  32.00000,  36.00000,  34.00000,  36.00000,  29.00000,  36.00000,  42.00000,  42.00000,  42.00000,  42.00000,  42.00000,  42.00000,  42.00000,  42.00000,  42.00000,  42.00000,  42.00000,  42.00000,  42.00000
