3019.00000,3019.00000,3019.00000,3019.00000,3019.00000,3019.00000,3019.00000,3019.00000,3019.00000,3019.00000,3019.00000,3019.00000,3019.00000,3019.00000,3019.00000,3022.00000,3015.00000,3019.00000,3013.00000,3009.00000,3002.00000,3014.00000,3017.00000,3000.00000,3010.00000,3004.00000,3008.00000,3009.00000,3006.00000,2998.00000,3007.00000,3008.00000,3008.00000,3007.00000,3006.00000,3004.00000,3003.00000,3004.00000,3008.00000,3008.00000,3006.00000,3001.00000,3010.00000,3013.00000,3010.00000,3005.00000,3007.00000,3007.00000,3011.00000,3013.00000,3007.00000,3003.00000,3005.00000,3018.00000,3015.00000,3010.00000,3020.00000,3020.00000,3019.00000,3016.00000,3020.00000,3024.00000,3024.00000,3016.00000,3031.00000,3031.00000,3019.00000,3019.00000,3019.00000,3019.00000,3019.00000,3019.00000,3019.00000,3019.00000,3019.00000,3019.00000,3019.00000,3019.00000,3019.00000,3019.00000
3019.00000,3019.00000,3019.00000,3019.00000,3019.00000,3019.00000,3019.00000,3019.00000,3019.00000,3019.00000,3019.00000,3019.00000,3019.00000,3019.00000,3019.00000,3020.00000,3010.00000,3010.00000,3017.00000,3009.00000,3004.00000,3004.00000,2998.00000,3000.00000,3011.00000,3005.00000,3008.00000,3001.00000,3011.00000,3002.00000,3006.00000,3004.00000,3007.00000,3005.00000,3006.00000,3008.00000,3008.00000,3007.00000,3012.00000,3010.00000,3010.00000,3006.00000,3006.00000,3008.00000,3011.00000,3013.00000,3012.00000,3016.00000,3009.00000,3011.00000,3011.00000,3015.00000,3011.00000,3014.00000,3015.00000,3020.00000,3010.00000,3016.00000,3014.00000,3020.00000,3011.00000,3014.00000,3012.00000,3022.00000,3030.00000,3028.00000,3034.00000,3019.00000,3019.00000,3019.00000,3019.00000,3019.00000,3019.00000,3019.00000,3019.00000,3019.00000,3019.00000,3019.00000,3019.00000,3019.00000
3019.00000,3019.00000,3019.00000,3019.00000,3019.00000,3019.00000,3019.00000,3019.00000,3019.00000,3019.00000,3019.00000,3019.00000,3019.00000,3025.00000,3017.00000,3017.00000,3005.00000,3016.00000,3003.00000,3005.00000,3006.00000,3010.00000,3003.00000,3010.00000,3002.00000,3010.00000,3005.00000,3009.00000,3007.00000,3007.00000,3005.00000,3003.00000,3004.00000,3008.00000,3007.00000,3003.00000,3003.00000,3002.00000,3009.00000,3004.00000,3011.00000,3005.00000,3004.00000,3008.00000,3005.00000,3012.00000,3008.00000,3007.00000,3004.00000,3010.00000,3008.00000,3014.00000,3008.00000,3014.00000,3009.00000,3012.00000,3014.00000,3020.00000,3011.00000,3022.00000,3013.00000,3012.00000,3013.00000,3014.00000,3024.00000,3021.00000,3022.00000,3032.00000,3019.00000,3019.00000,3019.00000,3019.00000,3019.00000,3019.00000,3019.00000,3019.00000,3019.00000,3019.00000,3019.00000,3019.00000
3019.00000,3019.00000,3019.00000,3019.00000,3019.00000,3019.00000,3019.00000,3019.00000,3019.00000,3019.00000,3019.00000,3019.00000,3031.00000,3024.00000,3023.00000,3006.00000,3008.00000,3015.00000,3008.00000,3008.00000,3006.00000,3004.00000,3010.00000,3013.00000,3003.00000,3003.00000,3010.00000,3007.00000,3000.00000,3003.00000,3003.00000,3005.00000,3007.00000,3002.00000,3006.00000,3006.00000,3002.00000,3012.00000,3009.00000,3005.00000,3004.00000,3006.00000,3007.00000,3009.00000,3008.00000,3006.00000,3008.00000,3008.00000,3010.00000,3005.00000,3009.00000,3009.00000,3014.00000,3011.00000,3010.00000,3011.00000,3014.00000,3015.00000,3013.00000,3017.00000,3014.00000,3007.00000,3020.00000,3029.00000,3015.00000,3017.00000,3025.00000,3019.00000,3032.00000,3019.00000,3019.00000,3019.00000,3019.00000,3019.00000,3019.00000,3019.00000,3019.00000,3019.00000,3019.00000,3019.00000
3019.00000,3019.00000,3019.00000,3019.00000,3019.00000,3019.00000,3019.00000,3019.00000,3019.00000,3019.00000,3019.00000,3023.00000,3020.00000,3025.00000,3019.00000,3013.00000,3013.00000,3012.00000,3007.00000,3005.00000,3008.00000,3001.00000,2997.00000,3011.00000,3009.00000,3006.00000,3004.00000,3003.00000,3004.00000,3002.00000,3003.00000,3003.00000,3003.00000,3005.00000,3004.00000,3004.00000,3005.00000,3009.00000,3005.00000,3007.00000,3005.00000,3007.00000,3004.00000,3005.00000,3010.00000,3003.00000,3007.00000,3008.00000,3010.00000,3011.00000,3008.00000,3007.00000,3007.00000,3006.00000,3013.00000,3016.00000,3010.00000,3014.00000,3010.00000,3017.00000,3012.00000,3015.00000,3009.00000,3015.00000,3018.00000,3008.00000,3028.00000,3033.00000,3032.00000,3033.00000,3019.00000,3019.00000,3019.00000,3019.00000,3019.00000,3019.00000,3019.00000,3019.00000,3019.00000,3019.00000
3019.00000,3019.00000,3019.00000,3019.00000,3019.00000,3019.00000,3019.00000,3019.00000,3019.00000,3019.00000,3026.00000,3022.00000,3013.00000,3015.00000,3003.00000,3013.00000,3014.00000,3003.00000,3003.00000,3009.00000,3008.00000,3008.00000,3008.00000,3006.00000,3005.00000,3005.00000,3004.00000,3009.00000,3004.00000,3005.00000,3006.00000,3004.00000,3003.00000,3007.00000,3007.00000,3005.00000,3005.00000,3011.00000,2999.00000,3007.00000,3011.00000,3006.00000,3010.00000,3006.00000,3007.00000,3012.00000,3008.00000,3006.00000,3011.00000,3011.00000,3007.00000,3007.00000,3005.00000,3008.00000,3005.00000,3011.00000,3012.00000,3018.00000,3015.00000,3011.00000,3010.00000,3020.00000,3015.00000,3019.00000,3024.00000,3019.00000,3024.00000,3034.00000,3027.00000,3026.00000,3042.00000,3019.00000,3019.00000,3019.00000,3019.00000,3019.00000,3019.00000,3019.00000,3019.00000,3019.00000
3019.00000,3019.00000,3019.00000,3019.00000,3019.00000,3019.00000,3019.00000,3019.00000,3019.00000,3025.00000,3028.00000,3024.00000,3016.00000,3019.00000,3007.00000,3008.00000,3007.00000,3008.00000,3004.00000,3008.00000,3008.00000,3009.00000,3003.00000,3011.00000,3004.00000,3010.00000,3005.00000,3003.00000,3004.00000,3002.00000,3006.00000,3002.00000,3005.00000,3009.00000,3007.00000,3002.00000,3006.00000,3008.00000,3002.00000,3010.00000,3011.00000,3000.00000,3006.00000,3004.00000,3007.00000,3004.00000,3008.00000,3007.00000,3006.00000,3009.00000,3007.00000,3009.00000,3010.00000,3003.00000,3009.00000,3011.00000,3014.00000,3012.00000,3015.00000,3012.00000,3013.00000,3014.00000,3016.00000,3018.00000,3019.00000,3019.00000,3017.00000,3022.00000,3030.00000,3038.00000,3023.00000,3040.00000,3019.00000,3019.00000,3019.00000,3019.00000,3019.00000,3019.00000,3019.00000,3019.00000
3019.00000,3019.00000,3019.00000,3019.00000,3019.00000,3019.00000,3019.00000,3019.00000,3026.00000,3017.00000,3026.00000,3022.00000,3017.00000,3015.00000,3013.00000,3010.00000,3008.00000,3008.00000,3011.00000,3008.00000,3007.00000,3009.00000,3011.00000,3007.00000,3009.00000,3008.00000,3005.00000,3003.00000,3005.00000,3002.00000,3003.00000,3004.00000,3008.00000,3006.00000,3003.00000,3009.00000,3005.00000,3009.00000,3005.00000,3010.00000,3008.00000,3010.00000,3011.00000,3009.00000,3006.00000,3008.00000,3004.00000,3008.00000,3007.00000,3008.00000,3007.00000,3009.00000,3011.00000,3010.00000,3013.00000,3009.00000,3013.00000,3013.00000,3012.00000,3001.00000,3013.00000,3010.00000,3014.00000,3011.00000,3012.00000,3010.00000,3013.00000,3018.00000,3020.00000,3029.00000,3031.00000,3031.00000,3040.00000,3019.00000,3019.00000,3019.00000,3019.00000,3019.00000,3019.00000,3019.00000
3019.00000,3019.00000,3019.00000,3019.00000,3019.00000,3019.00000,3019.00000,3038.00000,3027.00000,3036.00000,3013.00000,3018.00000,3017.00000,3018.00000,3014.00000,3015.00000,3012.00000,3011.00000,3008.00000,3009.00000,3005.00000,3003.00000,3013.00000,3006.00000,3007.00000,3006.00000,3006.00000,3007.00000,3001.00000,3009.00000,3005.00000,3005.00000,3005.00000,3006.00000,3010.00000,3003.00000,3001.00000,3005.00000,3007.00000,3006.00000,3002.00000,3008.00000,3001.00000,3005.00000,3006.00000,3006.00000,3005.00000,3001.00000,3006.00000,3009.00000,3003.00000,2998.00000,3003.00000,3004.00000,3006.00000,3005.00000,3009.00000,3009.00000,3006.00000,3010.00000,3012.00000,3011.00000,3008.00000,3011.00000,3019.00000,3009.00000,3020.00000,3018.00000,3024.00000,3032.00000,3029.00000,3035.00000,3039.00000,3046.00000,3019.00000,3019.00000,3019.00000,3019.00000,3019.00000,3019.00000
3019.00000,3019.00000,3019.00000,3019.00000,3019.00000,3019.00000,3019.00000,3043.00000,3027.00000,3024.00000,3023.00000,3026.00000,3015.00000,3019.00000,3016.00000,3011.00000,3008.00000,3004.00000,3012.00000,3011.00000,3011.00000,3009.00000,3009.00000,3007.00000,3010.00000,3011.00000,3010.00000,3008.00000,3011.00000,3002.00000,3008.00000,3005.00000,3009.00000,3007.00000,3004.00000,3010.00000,3007.00000,3004.00000,3010.00000,3009.00000,3009.00000,3004.00000,3007.00000,3003.00000,3005.00000,3005.00000,3009.00000,3007.00000,3007.00000,3008.00000,3003.00000,3008.00000,3006.00000,3006.00000,3007.00000,3010.00000,3003.00000,3008.00000,3008.00000,3012.00000,3011.00000,3014.00000,3012.00000,3015.00000,3016.00000,3017.00000,3020.00000,3019.00000,3024.00000,3027.00000,3033.00000,3030.00000,3036.00000,3047.00000,3019.00000,3019.00000,3019.00000,3019.00000,3019.00000,3019.00000
3019.00000,3019.00000,3019.00000,3019.00000,3019.00000,3019.00000,3037.00000,3040.00000,3028.00000,3024.00000,3027.00000,3021.00000,3019.00000,3017.00000,3012.00000,3013.00000,3009.00000,3011.00000,3015.00000,3007.00000,3011.00000,3013.00000,3009.00000,3007.00000,3007.00000,3013.00000,3004.00000,3010.00000,3003.00000,3009.00000,3010.00000,3002.00000,3004.00000,3006.00000,3007.00000,3011.00000,3004.00000,3004.00000,3009.00000,3006.00000,3007.00000,3004.00000,3001.00000,3006.00000,3006.00000,3003.00000,3009.00000,3006.00000,3002.00000,3006.00000,3004.00000,3010.00000,3003.00000,3008.00000,3006.00000,3008.00000,3003.00000,3007.00000,3007.00000,3011.00000,3009.00000,3009.00000,3014.00000,3018.00000,3022.00000,3017.00000,3016.00000,3016.00000,3027.00000,3029.00000,3036.00000,3028.00000,3038.00000,3041.00000,3040.00000,3019.00000,3019.00000,3019.00000,3019.00000,3019.00000
3019.00000,3019.00000,3019.00000,3019.00000,3019.00000,3036.00000,3045.00000,3030.00000,3025.00000,3021.00000,3024.00000,3019.00000,3018.00000,3017.00000,3014.00000,3014.00000,3012.00000,3010.00000,3018.00000,3009.00000,3011.00000,3008.00000,3011.00000,3013.00000,3006.00000,3012.00000,3007.00000,3007.00000,3003.00000,3004.00000,3010.00000,3002.00000,3007.00000,3006.00000,3011.00000,3008.00000,3008.00000,3007.00000,3005.00000,3004.00000,3005.00000,3004.00000,3005.00000,3008.00000,3007.00000,3007.00000,3003.00000,3005.00000,3007.00000,3005.00000,3003.00000,3010.00000,3004.00000,3011.00000,3000.00000,3006.00000,3009.00000,3008.00000,3005.00000,3007.00000,3008.00000,3008.00000,3009.00000,3012.00000,3014.00000,3018.00000,3026.00000,3018.00000,3013.00000,3023.00000,3031.00000,3031.00000,3038.00000,3044.00000,3052.00000,3062.00000,3019.00000,3019.00000,3019.00000,3019.00000
3019.00000,3019.00000,3019.00000,3019.00000,3019.00000,3042.00000,3035.00000,3031.00000,3025.00000,3017.00000,3014.00000,3017.00000,3009.00000,3014.00000,3017.00000,3012.00000,3010.00000,3010.00000,3014.00000,3012.00000,3014.00000,3008.00000,3003.00000,3006.00000,3010.00000,3008.00000,3008.00000,3007.00000,3007.00000,3007.00000,3003.00000,3006.00000,3006.00000,3003.00000,3009.00000,3010.00000,3005.00000,3011.00000,3005.00000,3002.00000,3006.00000,3009.00000,3005.00000,3002.00000,3009.00000,3008.00000,3011.00000,3004.00000,3006.00000,3011.00000,3009.00000,3007.00000,3007.00000,3004.00000,3007.00000,3007.00000,3004.00000,3011.00000,3011.00000,3007.00000,3008.00000,3014.00000,3013.00000,3014.00000,3015.00000,3016.00000,3025.00000,3019.00000,3024.00000,3022.00000,3020.00000,3036.00000,3039.00000,3036.00000,3051.00000,3065.00000,3019.00000,3019.00000,3019.00000,3019.00000
3019.00000,3019.00000,3019.00000,3019.00000,3045.00000,3030.00000,3026.00000,3033.00000,3029.00000,3018.00000,3019.00000,3015.00000,3014.00000,3018.00000,3007.00000,3010.00000,3019.00000,3011.00000,3018.00000,3007.00000,3008.00000,3010.00000,3013.00000,3009.00000,3007.00000,3008.00000,3011.00000,3011.00000,3010.00000,3015.00000,3006.00000,3008.00000,3008.00000,3004.00000,3008.00000,3005.00000,3009.00000,3012.00000,3005.00000,3007.00000,3008.00000,3004.00000,3006.00000,3009.00000,3006.00000,3011.00000,3011.00000,3011.00000,3012.00000,3012.00000,3017.00000,3013.00000,3014.00000,3007.00000,3008.00000,3010.00000,3012.00000,3015.00000,3013.00000,3014.00000,3008.00000,3016.00000,3009.00000,3011.00000,3015.00000,3020.00000,3017.00000,3021.00000,3014.00000,3023.00000,3029.00000,3032.00000,3027.00000,3039.00000,3047.00000,3053.00000,3058.00000,3019.00000,3019.00000,3019.00000
3019.00000,3019.00000,3019.00000,3019.00000,3040.00000,3035.00000,3035.00000,3020.00000,3023.00000,3025.00000,3023.00000,3024.00000,3015.00000,3013.00000,3006.00000,3014.00000,3005.00000,3005.00000,3015.00000,3007.00000,3009.00000,3013.00000,3008.00000,3009.00000,3004.00000,3012.00000,3009.00000,3007.00000,3005.00000,3006.00000,3008.00000,3005.00000,3005.00000,3006.00000,3010.00000,3001.00000,3006.00000,3005.00000,3009.00000,3010.00000,3008.00000,3007.00000,3009.00000,3012.00000,3019.00000,3021.00000,3020.00000,3022.00000,3023.00000,3024.00000,3020.00000,3016.00000,3015.00000,3010.00000,3009.00000,3011.00000,3011.00000,3017.00000,3012.00000,3015.00000,3016.00000,3014.00000,3013.00000,3014.00000,3016.00000,3017.00000,3015.00000,3024.00000,3018.00000,3025.00000,3017.00000,3035.00000,3031.00000,3034.00000,3043.00000,3055.00000,3052.00000,3019.00000,3019.00000,3019.00000
3019.00000,3019.00000,3019.00000,3034.00000,3039.00000,3030.00000,3023.00000,3026.00000,3024.00000,3023.00000,3019.00000,3018.00000,3016.00000,3012.00000,3015.00000,3008.00000,3007.00000,3009.00000,3005.00000,3008.00000,3016.00000,3009.00000,3012.00000,3005.00000,3011.00000,3004.00000,3006.00000,3008.00000,3006.00000,3006.00000,3006.00000,3002.00000,3004.00000,3007.00000,3005.00000,3007.00000,3007.00000,3003.00000,3008.00000,3007.00000,3009.00000,3013.00000,3030.00000,3024.00000,3027.00000,3032.00000,3030.00000,3035.00000,3029.00000,3030.00000,3030.00000,3027.00000,3026.00000,3018.00000,3017.00000,3009.00000,3012.00000,3006.00000,3012.00000,3008.00000,3017.00000,3012.00000,3018.00000,3019.00000,3016.00000,3020.00000,3014.00000,3014.00000,3017.00000,3017.00000,3020.00000,3029.00000,3024.00000,3033.00000,3039.00000,3055.00000,3049.00000,3067.00000,3019.00000,3019.00000
3019.00000,3019.00000,3019.00000,3039.00000,3035.00000,3029.00000,3030.00000,3026.00000,3015.00000,3027.00000,3011.00000,3013.00000,3011.00000,3017.00000,3012.00000,3010.00000,3014.00000,3013.00000,3010.00000,3009.00000,3008.00000,3007.00000,3009.00000,3005.00000,3010.00000,3004.00000,3011.00000,3008.00000,3009.00000,3007.00000,3006.00000,3009.00000,3004.00000,3003.00000,3009.00000,3005.00000,3005.00000,3005.00000,3012.00000,3015.00000,3021.00000,3026.00000,3031.00000,3028.00000,3032.00000,3031.00000,3032.00000,3028.00000,3031.00000,3034.00000,3028.00000,3030.00000,3029.00000,3026.00000,3026.00000,3015.00000,3010.00000,3008.00000,3010.00000,3012.00000,3011.00000,3008.00000,3014.00000,3013.00000,3015.00000,3012.00000,3020.00000,3013.00000,3021.00000,3025.00000,3021.00000,3029.00000,3029.00000,3023.00000,3030.00000,3043.00000,3049.00000,3059.00000,3019.00000,3019.00000
3019.00000,3019.00000,3050.00000,3040.00000,3042.00000,3030.00000,3023.00000,3026.00000,3023.00000,3022.00000,3010.00000,3020.00000,3014.00000,3017.00000,3014.00000,3015.00000,3011.00000,3011.00000,3011.00000,3012.00000,3007.00000,3012.00000,3007.00000,3009.00000,3006.00000,3004.00000,3012.00000,3008.00000,3015.00000,3011.00000,3009.00000,3008.00000,3011.00000,3007.00000,3010.00000,3007.00000,3008.00000,3006.00000,3015.00000,3025.00000,3030.00000,3031.00000,3031.00000,3030.00000,3033.00000,3032.00000,3034.00000,3035.00000,3033.00000,3034.00000,3031.00000,3033.00000,3031.00000,3033.00000,3032.00000,3029.00000,3020.00000,3009.00000,3005.00000,3012.00000,3009.00000,3010.00000,3011.00000,3012.00000,3019.00000,3013.00000,3011.00000,3021.00000,3020.00000,3021.00000,3026.00000,3025.00000,3036.00000,3030.00000,3033.00000,3051.00000,3052.00000,3059.00000,3069.00000,3019.00000
3019.00000,3019.00000,3045.00000,3043.00000,3042.00000,3025.00000,3020.00000,3024.00000,3017.00000,3014.00000,3019.00000,3017.00000,3018.00000,3012.00000,3010.00000,3012.00000,3007.00000,3011.00000,3016.00000,3010.00000,3006.00000,3015.00000,3015.00000,3009.00000,3004.00000,3012.00000,3012.00000,3006.00000,3005.00000,3010.00000,3011.00000,3009.00000,3009.00000,3011.00000,3006.00000,3012.00000,3006.00000,3015.00000,3028.00000,3030.00000,3036.00000,3030.00000,3032.00000,3031.00000,3027.00000,3032.00000,3033.00000,3035.00000,3034.00000,3033.00000,3034.00000,3038.00000,3033.00000,3035.00000,3031.00000,3036.00000,3026.00000,3017.00000,3009.00000,3010.00000,3005.00000,3011.00000,3012.00000,3015.00000,3016.00000,3019.00000,3010.00000,3023.00000,3023.00000,3022.00000,3028.00000,3021.00000,3031.00000,3032.00000,3036.00000,3046.00000,3047.00000,3063.00000,3062.00000,3019.00000
3019.00000,3019.00000,3044.00000,3034.00000,3040.00000,3022.00000,3026.00000,3023.00000,3015.00000,3018.00000,3017.00000,3016.00000,3013.00000,3009.00000,3018.00000,3010.00000,3015.00000,3006.00000,3006.00000,3013.00000,3009.00000,3009.00000,3010.00000,3009.00000,3010.00000,3010.00000,3007.00000,3005.00000,3004.00000,3005.00000,3009.00000,3007.00000,3009.00000,3006.00000,3009.00000,3010.00000,3012.00000,3023.00000,3030.00000,3032.00000,3029.00000,3033.00000,3034.00000,3035.00000,3034.00000,3033.00000,3035.00000,3039.00000,3035.00000,3031.00000,3037.00000,3032.00000,3034.00000,3038.00000,3028.00000,3033.00000,3034.00000,3032.00000,3013.00000,3008.00000,3013.00000,3009.00000,3011.00000,3015.00000,3014.00000,3014.00000,3014.00000,3007.00000,3011.00000,3014.00000,3019.00000,3026.00000,3030.00000,3021.00000,3032.00000,3044.00000,3037.00000,3057.00000,3071.00000,3019.00000
3019.00000,3058.00000,3043.00000,3033.00000,3036.00000,3030.00000,3023.00000,3020.00000,3020.00000,3017.00000,3011.00000,3012.00000,3010.00000,3012.00000,3017.00000,3010.00000,3012.00000,3013.00000,3019.00000,3012.00000,3009.00000,3008.00000,3001.00000,3011.00000,3008.00000,3008.00000,3008.00000,3009.00000,3011.00000,3009.00000,3005.00000,3010.00000,3009.00000,3009.00000,3012.00000,3014.00000,3018.00000,3030.00000,3030.00000,3036.00000,3032.00000,3038.00000,3034.00000,3031.00000,3035.00000,3040.00000,3034.00000,3038.00000,3037.00000,3035.00000,3032.00000,3035.00000,3030.00000,3031.00000,3034.00000,3034.00000,3035.00000,3032.00000,3021.00000,3015.00000,3015.00000,3017.00000,3012.00000,3012.00000,3015.00000,3010.00000,3017.00000,3018.00000,3017.00000,3016.00000,3016.00000,3024.00000,3032.00000,3026.00000,3036.00000,3047.00000,3041.00000,3057.00000,3062.00000,3074.00000
3019.00000,3055.00000,3044.00000,3031.00000,3034.00000,3022.00000,3023.00000,3025.00000,3017.00000,3013.00000,3023.00000,3015.00000,3014.00000,3014.00000,3009.00000,3010.00000,3010.00000,3009.00000,3011.00000,3007.00000,3008.00000,3013.00000,3013.00000,3012.00000,3009.00000,3011.00000,3010.00000,3010.00000,3007.00000,3010.00000,3008.00000,3006.00000,3010.00000,3007.00000,3014.00000,3017.00000,3024.00000,3035.00000,3034.00000,3036.00000,3032.00000,3032.00000,3035.00000,3035.00000,3036.00000,3035.00000,3037.00000,3037.00000,3032.00000,3034.00000,3037.00000,3033.00000,3037.00000,3035.00000,3032.00000,3031.00000,3033.00000,3036.00000,3030.00000,3018.00000,3011.00000,3016.00000,3012.00000,3011.00000,3017.00000,3015.00000,3015.00000,3024.00000,3010.00000,3013.00000,3024.00000,3028.00000,3028.00000,3028.00000,3032.00000,3036.00000,3044.00000,3049.00000,3067.00000,3079.00000
3019.00000,3050.00000,3054.00000,3032.00000,3029.00000,3022.00000,3022.00000,3018.00000,3016.00000,3017.00000,3021.00000,3019.00000,3009.00000,3011.00000,3011.00000,3011.00000,3009.00000,3010.00000,3016.00000,3012.00000,3012.00000,3012.00000,3003.00000,3010.00000,3009.00000,3010.00000,3006.00000,3009.00000,3009.00000,3009.00000,3009.00000,3012.00000,3012.00000,3018.00000,3015.00000,3018.00000,3026.00000,3029.00000,3032.00000,3034.00000,3038.00000,3029.00000,3039.00000,3031.00000,3039.00000,3042.00000,3038.00000,3041.00000,3037.00000,3039.00000,3039.00000,3038.00000,3037.00000,3031.00000,3033.00000,3034.00000,3029.00000,3036.00000,3031.00000,3028.00000,3010.00000,3011.00000,3008.00000,3013.00000,3016.00000,3011.00000,3013.00000,3019.00000,3012.00000,3019.00000,3013.00000,3023.00000,3022.00000,3032.00000,3030.00000,3040.00000,3042.00000,3051.00000,3058.00000,3068.00000
3019.00000,3039.00000,3037.00000,3035.00000,3023.00000,3025.00000,3017.00000,3018.00000,3018.00000,3012.00000,3015.00000,3017.00000,3012.00000,3011.00000,3012.00000,3010.00000,3005.00000,3009.00000,3008.00000,3008.00000,3008.00000,3011.00000,3012.00000,3009.00000,3013.00000,3011.00000,3009.00000,3010.00000,3007.00000,3013.00000,3011.00000,3010.00000,3014.00000,3013.00000,3014.00000,3020.00000,3030.00000,3031.00000,3027.00000,3035.00000,3035.00000,3033.00000,3037.00000,3036.00000,3035.00000,3034.00000,3037.00000,3036.00000,3034.00000,3035.00000,3037.00000,3034.00000,3036.00000,3036.00000,3037.00000,3035.00000,3035.00000,3033.00000,3031.00000,3023.00000,3020.00000,3010.00000,3007.00000,3012.00000,3010.00000,3016.00000,3017.00000,3016.00000,3018.00000,3017.00000,3015.00000,3022.00000,3024.00000,3026.00000,3022.00000,3031.00000,3038.00000,3043.00000,3050.00000,3064.00000
3050.00000,3041.00000,3038.00000,3025.00000,3032.00000,3030.00000,3018.00000,3019.00000,3014.00000,3017.00000,3007.00000,3015.00000,3011.00000,3014.00000,3007.00000,3012.00000,3011.00000,3016.00000,3008.00000,3002.00000,3009.00000,3008.00000,3011.00000,3009.00000,3012.00000,3000.00000,3011.00000,3007.00000,3011.00000,3007.00000,3010.00000,3013.00000,3010.00000,3013.00000,3023.00000,3026.00000,3030.00000,3032.00000,3037.00000,3034.00000,3033.00000,3033.00000,3035.00000,3040.00000,3037.00000,3034.00000,3034.00000,3036.00000,3036.00000,3043.00000,3037.00000,3034.00000,3035.00000,3036.00000,3036.00000,3036.00000,3034.00000,3034.00000,3035.00000,3034.00000,3019.00000,3014.00000,3006.00000,3010.00000,3015.00000,3010.00000,3015.00000,3004.00000,3013.00000,3015.00000,3017.00000,3019.00000,3020.00000,3014.00000,3025.00000,3036.00000,3031.00000,3041.00000,3047.00000,3062.00000
3055.00000,3039.00000,3042.00000,3039.00000,3028.00000,3023.00000,3022.00000,3025.00000,3018.00000,3017.00000,3011.00000,3013.00000,3014.00000,3015.00000,3011.00000,3011.00000,3013.00000,3008.00000,3011.00000,3016.00000,3004.00000,3014.00000,3008.00000,3011.00000,3010.00000,3012.00000,3007.00000,3013.00000,3011.00000,3006.00000,3014.00000,3018.00000,3023.00000,3026.00000,3030.00000,3033.00000,3033.00000,3035.00000,3038.00000,3035.00000,3038.00000,3036.00000,3038.00000,3037.00000,3036.00000,3037.00000,3038.00000,3040.00000,3038.00000,3040.00000,3036.00000,3037.00000,3037.00000,3039.00000,3041.00000,3036.00000,3038.00000,3032.00000,3033.00000,3034.00000,3021.00000,3016.00000,3007.00000,3011.00000,3016.00000,3012.00000,3019.00000,3019.00000,3013.00000,3015.00000,3020.00000,3023.00000,3026.00000,3028.00000,3022.00000,3038.00000,3036.00000,3040.00000,3049.00000,3052.00000
3053.00000,3041.00000,3042.00000,3029.00000,3031.00000,3029.00000,3021.00000,3023.00000,3021.00000,3014.00000,3014.00000,3009.00000,3018.00000,3011.00000,3010.00000,3013.00000,3009.00000,3011.00000,3006.00000,3016.00000,3012.00000,3013.00000,3011.00000,3005.00000,3013.00000,3015.00000,3016.00000,3010.00000,3008.00000,3020.00000,3017.00000,3020.00000,3030.00000,3033.00000,3036.00000,3036.00000,3033.00000,3032.00000,3036.00000,3033.00000,3040.00000,3033.00000,3033.00000,3033.00000,3038.00000,3040.00000,3035.00000,3039.00000,3035.00000,3035.00000,3038.00000,3043.00000,3034.00000,3043.00000,3035.00000,3036.00000,3035.00000,3033.00000,3034.00000,3033.00000,3023.00000,3013.00000,3013.00000,3011.00000,3014.00000,3016.00000,3010.00000,3018.00000,3023.00000,3019.00000,3022.00000,3015.00000,3026.00000,3030.00000,3030.00000,3035.00000,3037.00000,3040.00000,3052.00000,3060.00000
3039.00000,3039.00000,3042.00000,3032.00000,3029.00000,3019.00000,3013.00000,3022.00000,3013.00000,3014.00000,3017.00000,3020.00000,3016.00000,3017.00000,3016.00000,3009.00000,3011.00000,3017.00000,3008.00000,3010.00000,3009.00000,3009.00000,3011.00000,3011.00000,3009.00000,3016.00000,3012.00000,3011.00000,3007.00000,3011.00000,3014.00000,3020.00000,3032.00000,3033.00000,3034.00000,3034.00000,3032.00000,3036.00000,3032.00000,3032.00000,3032.00000,3031.00000,3039.00000,3035.00000,3041.00000,3032.00000,3033.00000,3036.00000,3039.00000,3036.00000,3041.00000,3040.00000,3040.00000,3040.00000,3040.00000,3034.00000,3037.00000,3035.00000,3036.00000,3033.00000,3023.00000,3016.00000,3015.00000,3015.00000,3011.00000,3016.00000,3018.00000,3009.00000,3016.00000,3019.00000,3017.00000,3020.00000,3025.00000,3026.00000,3027.00000,3034.00000,3031.00000,3040.00000,3048.00000,3047.00000
3059.00000,3042.00000,3039.00000,3033.00000,3029.00000,3028.00000,3026.00000,3023.00000,3018.00000,3011.00000,3017.00000,3015.00000,3011.00000,3017.00000,3019.00000,3010.00000,3014.00000,3016.00000,3017.00000,3020.00000,3016.00000,3011.00000,3005.00000,3011.00000,3009.00000,3008.00000,3014.00000,3013.00000,3013.00000,3015.00000,3011.00000,3019.00000,3026.00000,3029.00000,3035.00000,3039.00000,3035.00000,3036.00000,3031.00000,3035.00000,3037.00000,3034.00000,3040.00000,3035.00000,3035.00000,3035.00000,3041.00000,3039.00000,3036.00000,3040.00000,3041.00000,3036.00000,3038.00000,3032.00000,3041.00000,3038.00000,3035.00000,3036.00000,3033.00000,3036.00000,3024.00000,3016.00000,3016.00000,3015.00000,3012.00000,3016.00000,3016.00000,3020.00000,3026.00000,3018.00000,3017.00000,3021.00000,3025.00000,3025.00000,3026.00000,3030.00000,3042.00000,3039.00000,3052.00000,3050.00000
3049.00000,3042.00000,3041.00000,3023.00000,3031.00000,3024.00000,3015.00000,3029.00000,3021.00000,3015.00000,3012.00000,3017.00000,3012.00000,3016.00000,3009.00000,3018.00000,3017.00000,3012.00000,3009.00000,3013.00000,3010.00000,3012.00000,3018.00000,3013.00000,3014.00000,3012.00000,3010.00000,3016.00000,3013.00000,3012.00000,3016.00000,3016.00000,3028.00000,3026.00000,3033.00000,3036.00000,3036.00000,3036.00000,3037.00000,3036.00000,3033.00000,3037.00000,3038.00000,3034.00000,3034.00000,3035.00000,3036.00000,3037.00000,3034.00000,3038.00000,3038.00000,3037.00000,3038.00000,3033.00000,3035.00000,3039.00000,3036.00000,3038.00000,3033.00000,3030.00000,3024.00000,3021.00000,3018.00000,3016.00000,3019.00000,3021.00000,3019.00000,3024.00000,3018.00000,3022.00000,3023.00000,3022.00000,3025.00000,3022.00000,3032.00000,3027.00000,3041.00000,3042.00000,3048.00000,3053.00000
3044.00000,3043.00000,3040.00000,3028.00000,3027.00000,3019.00000,3027.00000,3018.00000,3020.00000,3012.00000,3023.00000,3013.00000,3011.00000,3014.00000,3011.00000,3009.00000,3010.00000,3012.00000,3011.00000,3016.00000,3014.00000,3012.00000,3010.00000,3010.00000,3011.00000,3011.00000,3009.00000,3008.00000,3009.00000,3010.00000,3015.00000,3014.00000,3023.00000,3021.00000,3030.00000,3023.00000,3030.00000,3032.00000,3030.00000,3035.00000,3036.00000,3030.00000,3040.00000,3031.00000,3037.00000,3036.00000,3036.00000,3039.00000,3032.00000,3041.00000,3039.00000,3038.00000,3036.00000,3031.00000,3038.00000,3038.00000,3037.00000,3038.00000,3035.00000,3029.00000,3015.00000,3016.00000,3013.00000,3013.00000,3015.00000,3014.00000,3012.00000,3021.00000,3012.00000,3019.00000,3024.00000,3023.00000,3020.00000,3029.00000,3029.00000,3031.00000,3037.00000,3036.00000,3042.00000,3052.00000
3044.00000,3040.00000,3035.00000,3025.00000,3031.00000,3020.00000,3015.00000,3021.00000,3015.00000,3017.00000,3014.00000,3016.00000,3019.00000,3011.00000,3016.00000,3013.00000,3007.00000,3010.00000,3007.00000,3009.00000,3010.00000,3007.00000,3013.00000,3007.00000,3012.00000,3011.00000,3014.00000,3011.00000,3012.00000,3013.00000,3012.00000,3011.00000,3012.00000,3019.00000,3013.00000,3023.00000,3029.00000,3032.00000,3032.00000,3036.00000,3033.00000,3036.00000,3039.00000,3032.00000,3036.00000,3036.00000,3035.00000,3038.00000,3035.00000,3040.00000,3035.00000,3035.00000,3036.00000,3032.00000,3041.00000,3033.00000,3036.00000,3033.00000,3034.00000,3024.00000,3018.00000,3016.00000,3009.00000,3017.00000,3011.00000,3013.00000,3016.00000,3011.00000,3016.00000,3019.00000,3012.00000,3018.00000,3020.00000,3018.00000,3027.00000,3028.00000,3033.00000,3047.00000,3050.00000,3049.00000
3051.00000,3050.00000,3035.00000,3031.00000,3030.00000,3027.00000,3017.00000,3012.00000,3022.00000,3017.00000,3011.00000,3008.00000,3007.00000,3009.00000,3012.00000,3010.00000,3013.00000,3012.00000,3011.00000,3013.00000,3010.00000,3002.00000,3006.00000,3006.00000,3010.00000,3008.00000,3007.00000,3010.00000,3011.00000,3010.00000,3013.00000,3017.00000,3012.00000,3016.00000,3018.00000,3014.00000,3019.00000,3029.00000,3033.00000,3033.00000,3035.00000,3037.00000,3037.00000,3040.00000,3039.00000,3038.00000,3037.00000,3036.00000,3033.00000,3040.00000,3033.00000,3041.00000,3037.00000,3036.00000,3035.00000,3041.00000,3035.00000,3037.00000,3038.00000,3026.00000,3011.00000,3014.00000,3009.00000,3012.00000,3017.00000,3017.00000,3014.00000,3012.00000,3010.00000,3014.00000,3016.00000,3017.00000,3025.00000,3019.00000,3022.00000,3032.00000,3034.00000,3047.00000,3051.00000,3059.00000
3046.00000,3043.00000,3030.00000,3031.00000,3029.00000,3021.00000,3019.00000,3015.00000,3015.00000,3017.00000,3012.00000,3011.00000,3012.00000,3015.00000,3018.00000,3012.00000,3007.00000,3008.00000,3013.00000,3011.00000,3005.00000,3012.00000,3007.00000,3012.00000,3010.00000,3013.00000,3014.00000,3011.00000,3011.00000,3012.00000,3012.00000,3013.00000,3015.00000,3015.00000,3017.00000,3011.00000,3019.00000,3026.00000,3033.00000,3033.00000,3036.00000,3032.00000,3032.00000,3038.00000,3034.00000,3034.00000,3038.00000,3037.00000,3036.00000,3036.00000,3037.00000,3040.00000,3037.00000,3036.00000,3038.00000,3037.00000,3039.00000,3035.00000,3026.00000,3024.00000,3010.00000,3015.00000,3017.00000,3011.00000,3019.00000,3017.00000,3019.00000,3020.00000,3020.00000,3019.00000,3020.00000,3019.00000,3025.00000,3026.00000,3028.00000,3034.00000,3039.00000,3037.00000,3052.00000,3049.00000
3059.00000,3040.00000,3040.00000,3031.00000,3027.00000,3029.00000,3022.00000,3020.00000,3018.00000,3015.00000,3014.00000,3012.00000,3019.00000,3014.00000,3016.00000,3008.00000,3012.00000,3017.00000,3006.00000,3011.00000,3009.00000,3013.00000,3013.00000,3009.00000,3008.00000,3008.00000,3010.00000,3011.00000,3012.00000,3009.00000,3013.00000,3018.00000,3010.00000,3014.00000,3017.00000,3016.00000,3017.00000,3017.00000,3029.00000,3033.00000,3036.00000,3035.00000,3036.00000,3042.00000,3036.00000,3038.00000,3039.00000,3036.00000,3039.00000,3037.00000,3038.00000,3036.00000,3035.00000,3031.00000,3040.00000,3035.00000,3036.00000,3024.00000,3019.00000,3018.00000,3015.00000,3017.00000,3015.00000,3015.00000,3018.00000,3011.00000,3017.00000,3016.00000,3015.00000,3018.00000,3017.00000,3020.00000,3022.00000,3030.00000,3036.00000,3030.00000,3030.00000,3040.00000,3044.00000,3057.00000
3052.00000,3040.00000,3033.00000,3032.00000,3027.00000,3026.00000,3021.00000,3018.00000,3016.00000,3017.00000,3014.00000,3013.00000,3013.00000,3015.00000,3016.00000,3011.00000,3010.00000,3013.00000,3013.00000,3007.00000,3012.00000,3012.00000,3008.00000,3014.00000,3020.00000,3013.00000,3008.00000,3010.00000,3015.00000,3015.00000,3012.00000,3014.00000,3013.00000,3016.00000,3018.00000,3019.00000,3019.00000,3015.00000,3025.00000,3027.00000,3030.00000,3039.00000,3033.00000,3039.00000,3036.00000,3034.00000,3038.00000,3042.00000,3037.00000,3038.00000,3036.00000,3039.00000,3035.00000,3038.00000,3036.00000,3034.00000,3036.00000,3028.00000,3017.00000,3017.00000,3011.00000,3012.00000,3013.00000,3015.00000,3021.00000,3017.00000,3020.00000,3015.00000,3016.00000,3015.00000,3019.00000,3021.00000,3022.00000,3028.00000,3025.00000,3029.00000,3037.00000,3049.00000,3051.00000,3063.00000
3048.00000,3045.00000,3041.00000,3031.00000,3034.00000,3030.00000,3024.00000,3018.00000,3021.00000,3017.00000,3014.00000,3017.00000,3015.00000,3015.00000,3015.00000,3013.00000,3015.00000,3003.00000,3015.00000,3016.00000,3005.00000,3010.00000,3010.00000,3009.00000,3011.00000,3014.00000,3015.00000,3006.00000,3018.00000,3010.00000,3015.00000,3010.00000,3014.00000,3011.00000,3012.00000,3018.00000,3018.00000,3018.00000,3022.00000,3021.00000,3030.00000,3033.00000,3037.00000,3035.00000,3037.00000,3038.00000,3031.00000,3038.00000,3036.00000,3036.00000,3037.00000,3037.00000,3039.00000,3031.00000,3032.00000,3031.00000,3024.00000,3018.00000,3014.00000,3011.00000,3018.00000,3010.00000,3018.00000,3017.00000,3017.00000,3019.00000,3019.00000,3016.00000,3016.00000,3017.00000,3021.00000,3020.00000,3025.00000,3027.00000,3029.00000,3035.00000,3036.00000,3034.00000,3049.00000,3061.00000
3057.00000,3042.00000,3035.00000,3035.00000,3026.00000,3029.00000,3019.00000,3019.00000,3019.00000,3017.00000,3023.00000,3009.00000,3012.00000,3010.00000,3014.00000,3016.00000,3012.00000,3011.00000,3011.00000,3014.00000,3010.00000,3010.00000,3011.00000,3010.00000,3014.00000,3009.00000,3009.00000,3013.00000,3008.00000,3009.00000,3014.00000,3015.00000,3016.00000,3014.00000,3016.00000,3015.00000,3017.00000,3014.00000,3017.00000,3023.00000,3018.00000,3024.00000,3032.00000,3030.00000,3032.00000,3033.00000,3033.00000,3037.00000,3035.00000,3037.00000,3035.00000,3031.00000,3032.00000,3030.00000,3027.00000,3026.00000,3015.00000,3014.00000,3017.00000,3012.00000,3020.00000,3017.00000,3016.00000,3014.00000,3015.00000,3019.00000,3018.00000,3017.00000,3013.00000,3017.00000,3020.00000,3023.00000,3025.00000,3031.00000,3027.00000,3034.00000,3037.00000,3037.00000,3055.00000,3055.00000
3059.00000,3044.00000,3040.00000,3030.00000,3024.00000,3017.00000,3026.00000,3022.00000,3020.00000,3017.00000,3013.00000,3010.00000,3015.00000,3019.00000,3013.00000,3015.00000,3010.00000,3009.00000,3011.00000,3009.00000,3011.00000,3010.00000,3011.00000,3007.00000,3008.00000,3006.00000,3013.00000,3014.00000,3008.00000,3010.00000,3015.00000,3010.00000,3013.00000,3014.00000,3017.00000,3016.00000,3016.00000,3019.00000,3019.00000,3020.00000,3018.00000,3023.00000,3017.00000,3028.00000,3027.00000,3030.00000,3030.00000,3036.00000,3035.00000,3034.00000,3032.00000,3029.00000,3030.00000,3026.00000,3021.00000,3017.00000,3014.00000,3012.00000,3021.00000,3013.00000,3016.00000,3015.00000,3014.00000,3017.00000,3017.00000,3014.00000,3015.00000,3026.00000,3018.00000,3024.00000,3020.00000,3019.00000,3023.00000,3026.00000,3031.00000,3029.00000,3041.00000,3050.00000,3052.00000,3048.00000
3057.00000,3040.00000,3032.00000,3032.00000,3028.00000,3026.00000,3017.00000,3019.00000,3013.00000,3020.00000,3014.00000,3014.00000,3015.00000,3015.00000,3008.00000,3007.00000,3011.00000,3010.00000,3011.00000,3016.00000,3016.00000,3007.00000,3003.00000,3016.00000,3011.00000,3006.00000,3009.00000,3005.00000,3012.00000,3008.00000,3017.00000,3008.00000,3005.00000,3012.00000,3015.00000,3009.00000,3016.00000,3013.00000,3023.00000,3026.00000,3015.00000,3017.00000,3015.00000,3024.00000,3020.00000,3023.00000,3026.00000,3031.00000,3025.00000,3023.00000,3024.00000,3027.00000,3014.00000,3019.00000,3016.00000,3017.00000,3012.00000,3014.00000,3010.00000,3013.00000,3015.00000,3017.00000,3017.00000,3011.00000,3008.00000,3013.00000,3014.00000,3012.00000,3015.00000,3019.00000,3017.00000,3018.00000,3025.00000,3029.00000,3025.00000,3029.00000,3037.00000,3045.00000,3050.00000,3049.00000
3052.00000,3052.00000,3039.00000,3040.00000,3033.00000,3034.00000,3028.00000,3018.00000,3015.00000,3021.00000,3020.00000,3017.00000,3013.00000,3012.00000,3012.00000,3015.00000,3012.00000,3013.00000,3008.00000,3014.00000,3011.00000,3006.00000,3006.00000,3007.00000,3008.00000,3010.00000,3008.00000,3006.00000,3014.00000,3008.00000,3009.00000,3011.00000,3010.00000,3011.00000,3013.00000,3010.00000,3015.00000,3015.00000,3020.00000,3015.00000,3017.00000,3016.00000,3015.00000,3021.00000,3019.00000,3017.00000,3013.00000,3011.00000,3011.00000,3010.00000,3017.00000,3015.00000,3014.00000,3012.00000,3019.00000,3017.00000,3015.00000,3014.00000,3019.00000,3015.00000,3008.00000,3018.00000,3007.00000,3014.00000,3018.00000,3012.00000,3016.00000,3013.00000,3011.00000,3021.00000,3016.00000,3019.00000,3021.00000,3029.00000,3031.00000,3032.00000,3035.00000,3057.00000,3045.00000,3064.00000
3019.00000,3055.00000,3041.00000,3037.00000,3036.00000,3030.00000,3025.00000,3024.00000,3017.00000,3025.00000,3016.00000,3014.00000,3012.00000,3011.00000,3011.00000,3014.00000,3014.00000,3015.00000,3017.00000,3017.00000,3011.00000,3012.00000,3010.00000,3011.00000,3009.00000,3007.00000,3014.00000,3009.00000,3007.00000,3001.00000,3016.00000,3012.00000,3012.00000,3011.00000,3017.00000,3009.00000,3017.00000,3014.00000,3020.00000,3016.00000,3019.00000,3010.00000,3015.00000,3017.00000,3015.00000,3017.00000,3014.00000,3013.00000,3020.00000,3016.00000,3015.00000,3016.00000,3018.00000,3013.00000,3022.00000,3023.00000,3016.00000,3013.00000,3017.00000,3018.00000,3017.00000,3014.00000,3016.00000,3018.00000,3019.00000,3020.00000,3015.00000,3020.00000,3019.00000,3025.00000,3018.00000,3022.00000,3027.00000,3032.00000,3035.00000,3035.00000,3038.00000,3042.00000,3052.00000,3066.00000
3019.00000,3056.00000,3043.00000,3041.00000,3029.00000,3029.00000,3026.00000,3025.00000,3024.00000,3018.00000,3018.00000,3016.00000,3011.00000,3012.00000,3014.00000,3015.00000,3015.00000,3013.00000,3016.00000,3009.00000,3013.00000,3010.00000,3009.00000,3012.00000,3007.00000,3012.00000,3006.00000,3009.00000,3010.00000,3013.00000,3014.00000,3014.00000,3010.00000,3013.00000,3013.00000,3012.00000,3013.00000,3014.00000,3018.00000,3014.00000,3014.00000,3012.00000,3015.00000,3018.00000,3016.00000,3019.00000,3014.00000,3012.00000,3016.00000,3016.00000,3015.00000,3014.00000,3014.00000,3015.00000,3017.00000,3013.00000,3013.00000,3016.00000,3018.00000,3015.00000,3015.00000,3017.00000,3018.00000,3015.00000,3015.00000,3017.00000,3014.00000,3018.00000,3020.00000,3020.00000,3019.00000,3023.00000,3027.00000,3027.00000,3036.00000,3030.00000,3039.00000,3048.00000,3058.00000,3065.00000
3019.00000,3057.00000,3042.00000,3043.00000,3038.00000,3029.00000,3032.00000,3025.00000,3019.00000,3020.00000,3015.00000,3017.00000,3019.00000,3014.00000,3019.00000,3021.00000,3020.00000,3013.00000,3017.00000,3007.00000,3014.00000,3013.00000,3010.00000,3006.00000,3012.00000,3007.00000,3015.00000,3009.00000,3009.00000,3015.00000,3014.00000,3010.00000,3009.00000,3013.00000,3015.00000,3021.00000,3016.00000,3015.00000,3012.00000,3010.00000,3017.00000,3018.00000,3015.00000,3016.00000,3018.00000,3015.00000,3020.00000,3018.00000,3017.00000,3016.00000,3019.00000,3017.00000,3014.00000,3018.00000,3016.00000,3019.00000,3019.00000,3018.00000,3013.00000,3017.00000,3013.00000,3016.00000,3018.00000,3022.00000,3020.00000,3021.00000,3018.00000,3023.00000,3018.00000,3021.00000,3017.00000,3023.00000,3026.00000,3034.00000,3035.00000,3040.00000,3041.00000,3058.00000,3058.00000,3072.00000
3019.00000,3069.00000,3041.00000,3045.00000,3036.00000,3038.00000,3027.00000,3018.00000,3020.00000,3023.00000,3020.00000,3020.00000,3016.00000,3014.00000,3011.00000,3018.00000,3017.00000,3017.00000,3014.00000,3013.00000,3011.00000,3013.00000,3011.00000,3007.00000,3010.00000,3008.00000,3008.00000,3008.00000,3011.00000,3007.00000,3015.00000,3010.00000,3014.00000,3011.00000,3011.00000,3015.00000,3014.00000,3017.00000,3005.00000,3013.00000,3017.00000,3012.00000,3013.00000,3015.00000,3019.00000,3015.00000,3014.00000,3017.00000,3014.00000,3014.00000,3017.00000,3013.00000,3019.00000,3012.00000,3015.00000,3017.00000,3014.00000,3015.00000,3012.00000,3016.00000,3016.00000,3015.00000,3016.00000,3020.00000,3020.00000,3020.00000,3020.00000,3019.00000,3018.00000,3020.00000,3018.00000,3024.00000,3027.00000,3033.00000,3038.00000,3043.00000,3049.00000,3050.00000,3065.00000,3075.00000
3019.00000,3019.00000,3057.00000,3040.00000,3033.00000,3032.00000,3031.00000,3023.00000,3020.00000,3023.00000,3016.00000,3020.00000,3016.00000,3017.00000,3013.00000,3016.00000,3020.00000,3015.00000,3018.00000,3014.00000,3008.00000,3011.00000,3010.00000,3008.00000,3010.00000,3012.00000,3013.00000,3008.00000,3011.00000,3009.00000,3016.00000,3007.00000,3009.00000,3010.00000,3013.00000,3006.00000,3015.00000,3012.00000,3008.00000,3015.00000,3015.00000,3013.00000,3014.00000,3014.00000,3013.00000,3008.00000,3015.00000,3018.00000,3019.00000,3017.00000,3013.00000,3013.00000,3015.00000,3013.00000,3014.00000,3020.00000,3015.00000,3014.00000,3018.00000,3014.00000,3020.00000,3020.00000,3014.00000,3019.00000,3022.00000,3024.00000,3019.00000,3025.00000,3014.00000,3019.00000,3020.00000,3029.00000,3032.00000,3037.00000,3041.00000,3044.00000,3051.00000,3049.00000,3075.00000,3019.00000
3019.00000,3019.00000,3056.00000,3046.00000,3037.00000,3025.00000,3037.00000,3024.00000,3027.00000,3026.00000,3019.00000,3015.00000,3022.00000,3021.00000,3016.00000,3017.00000,3014.00000,3015.00000,3014.00000,3011.00000,3011.00000,3010.00000,3013.00000,3009.00000,3011.00000,3005.00000,3008.00000,3011.00000,3006.00000,3011.00000,3009.00000,3008.00000,3012.00000,3015.00000,3007.00000,3015.00000,3013.00000,3012.00000,3014.00000,3009.00000,3011.00000,3014.00000,3011.00000,3017.00000,3010.00000,3014.00000,3011.00000,3017.00000,3013.00000,3015.00000,3016.00000,3014.00000,3016.00000,3015.00000,3013.00000,3015.00000,3016.00000,3014.00000,3014.00000,3015.00000,3015.00000,3015.00000,3012.00000,3020.00000,3018.00000,3020.00000,3017.00000,3026.00000,3021.00000,3024.00000,3027.00000,3024.00000,3033.00000,3033.00000,3040.00000,3049.00000,3049.00000,3055.00000,3058.00000,3019.00000
3019.00000,3019.00000,3056.00000,3057.00000,3043.00000,3029.00000,3032.00000,3024.00000,3029.00000,3022.00000,3016.00000,3010.00000,3021.00000,3020.00000,3010.00000,3011.00000,3010.00000,3019.00000,3009.00000,3011.00000,3013.00000,3010.00000,3008.00000,3007.00000,3017.00000,3007.00000,3012.00000,3009.00000,3010.00000,3008.00000,3004.00000,3009.00000,3004.00000,3007.00000,3011.00000,3011.00000,3005.00000,3009.00000,3009.00000,3005.00000,3005.00000,3014.00000,3016.00000,3010.00000,3009.00000,3015.00000,3015.00000,3019.00000,3014.00000,3015.00000,3008.00000,3013.00000,3012.00000,3016.00000,3016.00000,3011.00000,3009.00000,3014.00000,3008.00000,3012.00000,3013.00000,3018.00000,3012.00000,3013.00000,3011.00000,3020.00000,3013.00000,3019.00000,3024.00000,3026.00000,3022.00000,3025.00000,3030.00000,3036.00000,3043.00000,3039.00000,3054.00000,3058.00000,3067.00000,3019.00000
3019.00000,3019.00000,3019.00000,3048.00000,3051.00000,3041.00000,3037.00000,3033.00000,3028.00000,3018.00000,3015.00000,3018.00000,3020.00000,3021.00000,3011.00000,3014.00000,3015.00000,3010.00000,3004.00000,3014.00000,3013.00000,3007.00000,3011.00000,3008.00000,3008.00000,3011.00000,3009.00000,3009.00000,3009.00000,3010.00000,3007.00000,3013.00000,3004.00000,3009.00000,3007.00000,3003.00000,3008.00000,3006.00000,3005.00000,3010.00000,3010.00000,3014.00000,3013.00000,3021.00000,3007.00000,3017.00000,3011.00000,3014.00000,3014.00000,3016.00000,3007.00000,3017.00000,3011.00000,3014.00000,3017.00000,3020.00000,3018.00000,3017.00000,3020.00000,3016.00000,3008.00000,3023.00000,3011.00000,3015.00000,3015.00000,3021.00000,3024.00000,3015.00000,3017.00000,3024.00000,3023.00000,3028.00000,3036.00000,3036.00000,3044.00000,3035.00000,3053.00000,3069.00000,3019.00000,3019.00000
3019.00000,3019.00000,3019.00000,3055.00000,3048.00000,3042.00000,3025.00000,3033.00000,3030.00000,3027.00000,3022.00000,3027.00000,3021.00000,3017.00000,3016.00000,3014.00000,3020.00000,3010.00000,3022.00000,3019.00000,3012.00000,3010.00000,3012.00000,3010.00000,3015.00000,3008.00000,3012.00000,3013.00000,3009.00000,3010.00000,3009.00000,3011.00000,3008.00000,3008.00000,3010.00000,3008.00000,3008.00000,3010.00000,3008.00000,3013.00000,3008.00000,3013.00000,3010.00000,3012.00000,3009.00000,3015.00000,3012.00000,3014.00000,3015.00000,3014.00000,3012.00000,3014.00000,3012.00000,3011.00000,3011.00000,3017.00000,3017.00000,3018.00000,3018.00000,3020.00000,3015.00000,3023.00000,3018.00000,3021.00000,3017.00000,3029.00000,3023.00000,3022.00000,3028.00000,3036.00000,3026.00000,3027.00000,3038.00000,3041.00000,3046.00000,3054.00000,3054.00000,3065.00000,3019.00000,3019.00000
3019.00000,3019.00000,3019.00000,3019.00000,3047.00000,3042.00000,3043.00000,3033.00000,3026.00000,3022.00000,3025.00000,3014.00000,3026.00000,3017.00000,3011.00000,3005.00000,3017.00000,3016.00000,3017.00000,3010.00000,3014.00000,3013.00000,3013.00000,3012.00000,3011.00000,3014.00000,3012.00000,3008.00000,3011.00000,3009.00000,3012.00000,3011.00000,3007.00000,3010.00000,3008.00000,3017.00000,3009.00000,3006.00000,3015.00000,3014.00000,3012.00000,3009.00000,3018.00000,3020.00000,3015.00000,3020.00000,3011.00000,3008.00000,3014.00000,3015.00000,3017.00000,3013.00000,3011.00000,3012.00000,3018.00000,3015.00000,3016.00000,3018.00000,3019.00000,3019.00000,3019.00000,3020.00000,3018.00000,3020.00000,3015.00000,3023.00000,3025.00000,3020.00000,3029.00000,3027.00000,3024.00000,3035.00000,3037.00000,3042.00000,3043.00000,3049.00000,3059.00000,3019.00000,3019.00000,3019.00000
3019.00000,3019.00000,3019.00000,3019.00000,3069.00000,3046.00000,3045.00000,3041.00000,3025.00000,3022.00000,3022.00000,3018.00000,3017.00000,3019.00000,3010.00000,3015.00000,3011.00000,3013.00000,3015.00000,3012.00000,3017.00000,3013.00000,3012.00000,3013.00000,3018.00000,3011.00000,3007.00000,3014.00000,3008.00000,3011.00000,3009.00000,3008.00000,3008.00000,3011.00000,3010.00000,3013.00000,3004.00000,3007.00000,3011.00000,3009.00000,3011.00000,3014.00000,3013.00000,3014.00000,3011.00000,3012.00000,3016.00000,3011.00000,3021.00000,3010.00000,3012.00000,3012.00000,3013.00000,3015.00000,3020.00000,3022.00000,3015.00000,3019.00000,3023.00000,3014.00000,3012.00000,3018.00000,3016.00000,3016.00000,3028.00000,3027.00000,3030.00000,3020.00000,3029.00000,3030.00000,3027.00000,3038.00000,3041.00000,3048.00000,3058.00000,3061.00000,3064.00000,3019.00000,3019.00000,3019.00000
3019.00000,3019.00000,3019.00000,3019.00000,3019.00000,3054.00000,3043.00000,3040.00000,3031.00000,3033.00000,3018.00000,3019.00000,3026.00000,3027.00000,3020.00000,3018.00000,3017.00000,3018.00000,3012.00000,3018.00000,3015.00000,3015.00000,3008.00000,3014.00000,3008.00000,3012.00000,3009.00000,3013.00000,3012.00000,3009.00000,3011.00000,3007.00000,3011.00000,3006.00000,3005.00000,3013.00000,3009.00000,3008.00000,3010.00000,3005.00000,3011.00000,3006.00000,3012.00000,3010.00000,3011.00000,3008.00000,3014.00000,3011.00000,3010.00000,3013.00000,3009.00000,3017.00000,3013.00000,3015.00000,3016.00000,3008.00000,3014.00000,3018.00000,3015.00000,3023.00000,3023.00000,3021.00000,3017.00000,3019.00000,3019.00000,3020.00000,3026.00000,3023.00000,3029.00000,3026.00000,3038.00000,3046.00000,3047.00000,3050.00000,3061.00000,3060.00000,3019.00000,3019.00000,3019.00000,3019.00000
3019.00000,3019.00000,3019.00000,3019.00000,3019.00000,3060.00000,3047.00000,3046.00000,3045.00000,3037.00000,3032.00000,3021.00000,3020.00000,3018.00000,3021.00000,3019.00000,3014.00000,3011.00000,3017.00000,3014.00000,3012.00000,3017.00000,3017.00000,3014.00000,3015.00000,3015.00000,3008.00000,3006.00000,3008.00000,3010.00000,3006.00000,3017.00000,3012.00000,3009.00000,3011.00000,3009.00000,3009.00000,3009.00000,3005.00000,3012.00000,3009.00000,3012.00000,3008.00000,3007.00000,3006.00000,3006.00000,3010.00000,3015.00000,3014.00000,3014.00000,3018.00000,3016.00000,3015.00000,3013.00000,3009.00000,3014.00000,3008.00000,3011.00000,3010.00000,3020.00000,3017.00000,3012.00000,3014.00000,3022.00000,3016.00000,3024.00000,3025.00000,3025.00000,3029.00000,3034.00000,3040.00000,3041.00000,3049.00000,3059.00000,3052.00000,3074.00000,3019.00000,3019.00000,3019.00000,3019.00000
3019.00000,3019.00000,3019.00000,3019.00000,3019.00000,3019.00000,3056.00000,3048.00000,3040.00000,3036.00000,3022.00000,3029.00000,3026.00000,3027.00000,3021.00000,3016.00000,3013.00000,3013.00000,3008.00000,3014.00000,3009.00000,3018.00000,3012.00000,3012.00000,3014.00000,3009.00000,3011.00000,3010.00000,3006.00000,3011.00000,3011.00000,3011.00000,3006.00000,3014.00000,3012.00000,3011.00000,3007.00000,3015.00000,3005.00000,3006.00000,3006.00000,3006.00000,3006.00000,3003.00000,3008.00000,3013.00000,3008.00000,3010.00000,3010.00000,3013.00000,3008.00000,3020.00000,3014.00000,3009.00000,3004.00000,3014.00000,3016.00000,3014.00000,3016.00000,3022.00000,3009.00000,3019.00000,3021.00000,3021.00000,3019.00000,3022.00000,3024.00000,3029.00000,3044.00000,3033.00000,3035.00000,3051.00000,3050.00000,3066.00000,3060.00000,3019.00000,3019.00000,3019.00000,3019.00000,3019.00000
3019.00000,3019.00000,3019.00000,3019.00000,3019.00000,3019.00000,3019.00000,3038.00000,3035.00000,3041.00000,3029.00000,3029.00000,3030.00000,3018.00000,3020.00000,3017.00000,3015.00000,3017.00000,3013.00000,3012.00000,3016.00000,3002.00000,3009.00000,3016.00000,3009.00000,3003.00000,3009.00000,3007.00000,3005.00000,3007.00000,3013.00000,3006.00000,3004.00000,3011.00000,3007.00000,3010.00000,3007.00000,3010.00000,3005.00000,3010.00000,3006.00000,3008.00000,3005.00000,3010.00000,3006.00000,3010.00000,3009.00000,3011.00000,3011.00000,3012.00000,3013.00000,3016.00000,3011.00000,3012.00000,3010.00000,3014.00000,3008.00000,3008.00000,3014.00000,3013.00000,3014.00000,3019.00000,3020.00000,3014.00000,3023.00000,3035.00000,3028.00000,3028.00000,3032.00000,3042.00000,3039.00000,3048.00000,3050.00000,3066.00000,3019.00000,3019.00000,3019.00000,3019.00000,3019.00000,3019.00000
3019.00000,3019.00000,3019.00000,3019.00000,3019.00000,3019.00000,3019.00000,3052.00000,3044.00000,3033.00000,3028.00000,3029.00000,3017.00000,3020.00000,3017.00000,3015.00000,3016.00000,3015.00000,3017.00000,3017.00000,3011.00000,3005.00000,3014.00000,3007.00000,3014.00000,3014.00000,3005.00000,3012.00000,3006.00000,3005.00000,3011.00000,3014.00000,3006.00000,3013.00000,3008.00000,3007.00000,3008.00000,3012.00000,3013.00000,3006.00000,3013.00000,3011.00000,3011.00000,3015.00000,3017.00000,3014.00000,3014.00000,3011.00000,3017.00000,3020.00000,3011.00000,3017.00000,3013.00000,3013.00000,3019.00000,3019.00000,3014.00000,3013.00000,3021.00000,3017.00000,3010.00000,3017.00000,3018.00000,3022.00000,3021.00000,3022.00000,3034.00000,3031.00000,3031.00000,3036.00000,3046.00000,3051.00000,3054.00000,3053.00000,3019.00000,3019.00000,3019.00000,3019.00000,3019.00000,3019.00000
3019.00000,3019.00000,3019.00000,3019.00000,3019.00000,3019.00000,3019.00000,3019.00000,3042.00000,3043.00000,3030.00000,3021.00000,3024.00000,3020.00000,3013.00000,3020.00000,3018.00000,3015.00000,3017.00000,3018.00000,3010.00000,3012.00000,3016.00000,3013.00000,3012.00000,3010.00000,3017.00000,3011.00000,3012.00000,3011.00000,3010.00000,3010.00000,3008.00000,3012.00000,3011.00000,3007.00000,3010.00000,3013.00000,3014.00000,3016.00000,3013.00000,3009.00000,3013.00000,3015.00000,3015.00000,3010.00000,3014.00000,3014.00000,3014.00000,3011.00000,3012.00000,3023.00000,3008.00000,3013.00000,3019.00000,3019.00000,3017.00000,3016.00000,3016.00000,3024.00000,3016.00000,3023.00000,3023.00000,3026.00000,3034.00000,3030.00000,3031.00000,3038.00000,3046.00000,3044.00000,3043.00000,3054.00000,3065.00000,3019.00000,3019.00000,3019.00000,3019.00000,3019.00000,3019.00000,3019.00000
3019.00000,3019.00000,3019.00000,3019.00000,3019.00000,3019.00000,3019.00000,3019.00000,3019.00000,3041.00000,3039.00000,3026.00000,3021.00000,3011.00000,3018.00000,3028.00000,3018.00000,3022.00000,3014.00000,3014.00000,3014.00000,3017.00000,3018.00000,3010.00000,3010.00000,3010.00000,3007.00000,3013.00000,3011.00000,3007.00000,3007.00000,3014.00000,3008.00000,3012.00000,3009.00000,3008.00000,3012.00000,3004.00000,3014.00000,3014.00000,3008.00000,3011.00000,3010.00000,3015.00000,3010.00000,3016.00000,3016.00000,3014.00000,3013.00000,3015.00000,3014.00000,3017.00000,3009.00000,3018.00000,3022.00000,3014.00000,3018.00000,3013.00000,3018.00000,3018.00000,3018.00000,3023.00000,3022.00000,3026.00000,3027.00000,3031.00000,3032.00000,3037.00000,3038.00000,3050.00000,3041.00000,3073.00000,3019.00000,3019.00000,3019.00000,3019.00000,3019.00000,3019.00000,3019.00000,3019.00000
3019.00000,3019.00000,3019.00000,3019.00000,3019.00000,3019.00000,3019.00000,3019.00000,3019.00000,3019.00000,3050.00000,3037.00000,3029.00000,3023.00000,3028.00000,3024.00000,3020.00000,3021.00000,3019.00000,3008.00000,3017.00000,3016.00000,3015.00000,3010.00000,3013.00000,3008.00000,3011.00000,3008.00000,3008.00000,3015.00000,3011.00000,3008.00000,3012.00000,3011.00000,3012.00000,3004.00000,3010.00000,3009.00000,3004.00000,3011.00000,3014.00000,3016.00000,3013.00000,3017.00000,3017.00000,3015.00000,3017.00000,3019.00000,3015.00000,3015.00000,3019.00000,3015.00000,3015.00000,3017.00000,3018.00000,3018.00000,3019.00000,3022.00000,3017.00000,3023.00000,3020.00000,3022.00000,3026.00000,3029.00000,3034.00000,3038.00000,3043.00000,3046.00000,3039.00000,3041.00000,3057.00000,3019.00000,3019.00000,3019.00000,3019.00000,3019.00000,3019.00000,3019.00000,3019.00000,3019.00000
3019.00000,3019.00000,3019.00000,3019.00000,3019.00000,3019.00000,3019.00000,3019.00000,3019.00000,3019.00000,3019.00000,3044.00000,3022.00000,3023.00000,3019.00000,3022.00000,3017.00000,3019.00000,3012.00000,3023.00000,3012.00000,3019.00000,3012.00000,3012.00000,3010.00000,3009.00000,3006.00000,3010.00000,3013.00000,3005.00000,3013.00000,3009.00000,3010.00000,3009.00000,3008.00000,3009.00000,3010.00000,3011.00000,3011.00000,3010.00000,3014.00000,3012.00000,3012.00000,3010.00000,3016.00000,3013.00000,3012.00000,3017.00000,3014.00000,3011.00000,3020.00000,3017.00000,3018.00000,3019.00000,3018.00000,3025.00000,3020.00000,3020.00000,3013.00000,3020.00000,3025.00000,3026.00000,3031.00000,3030.00000,3032.00000,3037.00000,3036.00000,3049.00000,3050.00000,3052.00000,3019.00000,3019.00000,3019.00000,3019.00000,3019.00000,3019.00000,3019.00000,3019.00000,3019.00000,3019.00000
3019.00000,3019.00000,3019.00000,3019.00000,3019.00000,3019.00000,3019.00000,3019.00000,3019.00000,3019.00000,3019.00000,3019.00000,3039.00000,3033.00000,3031.00000,3023.00000,3027.00000,3025.00000,3026.00000,3011.00000,3012.00000,3012.00000,3014.00000,3017.00000,3014.00000,3012.00000,3006.00000,3010.00000,3006.00000,3007.00000,3010.00000,3006.00000,3007.00000,3009.00000,3007.00000,3007.00000,3010.00000,3001.00000,3006.00000,3016.00000,3015.00000,3012.00000,3013.00000,3014.00000,3010.00000,3017.00000,3016.00000,3022.00000,3022.00000,3017.00000,3016.00000,3021.00000,3020.00000,3012.00000,3018.00000,3021.00000,3019.00000,3023.00000,3024.00000,3016.00000,3023.00000,3030.00000,3017.00000,3035.00000,3028.00000,3027.00000,3031.00000,3048.00000,3049.00000,3019.00000,3019.00000,3019.00000,3019.00000,3019.00000,3019.00000,3019.00000,3019.00000,3019.00000,3019.00000,3019.00000
3019.00000,3019.00000,3019.00000,3019.00000,3019.00000,3019.00000,3019.00000,3019.00000,3019.00000,3019.00000,3019.00000,3019.00000,3019.00000,3043.00000,3033.00000,3021.00000,3019.00000,3032.00000,3013.00000,3024.00000,3011.00000,3015.00000,3014.00000,3011.00000,3010.00000,3008.00000,3006.00000,3008.00000,3007.00000,3004.00000,3007.00000,3003.00000,3009.00000,3013.00000,3010.00000,3008.00000,3011.00000,3011.00000,3011.00000,3005.00000,3010.00000,3004.00000,3010.00000,3008.00000,3006.00000,3012.00000,3006.00000,3007.00000,3017.00000,3020.00000,3017.00000,3022.00000,3013.00000,3014.00000,3016.00000,3018.00000,3023.00000,3024.00000,3017.00000,3022.00000,3022.00000,3024.00000,3034.00000,3035.00000,3031.00000,3045.00000,3047.00000,3059.00000,3019.00000,3019.00000,3019.00000,3019.00000,3019.00000,3019.00000,3019.00000,3019.00000,3019.00000,3019.00000,3019.00000,3019.00000
3019.00000,3019.00000,3019.00000,3019.00000,3019.00000,3019.00000,3019.00000,3019.00000,3019.00000,3019.00000,3019.00000,3019.00000,3019.00000,3019.00000,3041.00000,3025.00000,3027.00000,3025.00000,3016.00000,3016.00000,3017.00000,3005.00000,3015.00000,3012.00000,3008.00000,3000.00000,3004.00000,3008.00000,3003.00000,3006.00000,3010.00000,3012.00000,3009.00000,3001.00000,3006.00000,3005.00000,3010.00000,3010.00000,3004.00000,3009.00000,3008.00000,3010.00000,3008.00000,3008.00000,3006.00000,3010.00000,3007.00000,3008.00000,3017.00000,3008.00000,3012.00000,3018.00000,3008.00000,3016.00000,3015.00000,3018.00000,3013.00000,3017.00000,3014.00000,3019.00000,3022.00000,3035.00000,3027.00000,3030.00000,3035.00000,3046.00000,3053.00000,3019.00000,3019.00000,3019.00000,3019.00000,3019.00000,3019.00000,3019.00000,3019.00000,3019.00000,3019.00000,3019.00000,3019.00000,3019.00000
