Time,Runtime,Current3V3,Current3V3Min,Current3V3Max,CurrentHTPA,CurrentHTPAMin,CurrentHTPAMax,CurrentCubeDock3V3_1,TemperatureMCU,TemperatureMCUMin,TemperatureMCUMax,TemperatureHTPA,TemperatureHTPAMin,TemperatureHTPAMax,VoltageMCU,VoltageMCUMin,VoltageMCUMax,VoltageHTPA,VoltageHTPAMin,VoltageHTPAMax,ADSSampleMode,HTPACalibLevel,HILEnabled,HILBusy,HILEnableImgVddComp,HILEnableImgTobjCalib,HILEnableEdgeDet,HILEnableLensDistCorr,HILEnablePolyFit,HILEnableAttEst,HTPADeviceID,HTPATableNumber,HtpaPowerState,HtpaWakeState,HtpaCaptureState,HtpaPTAT,HtpaVdd,HTPAImageLastMin,HTPAImageLastMean,HTPAImageLastMax,HTPAImageAllTimeMin,HTPAImageAllTimeMax,SRAM2ParityError,FlashCorruption,3V3OverCurrent,HTPAOverCurrent,Timer1sOverRun,MCUOverTemperature,MCUUnderTemperature,HTPAOverTemperature,HTPAUnderTemperature,HTPACalibLookupOutOfRange,HTPAIntegrationTimeError,HTPANotResponding,HTPAConfigMismatch,HTPASpiTimeout,CommsTcSlotsBuffFull,CommsTcParamBuffFull,CommsUartProtError,CommsUartMsgIncomplete,CommsUartTcParamOverflow,UARTTxOverflow,CommsTcInvalidID,CommsTcInvalidPar,CommsTcInvalidParLen,CommsTcTimeout,CommsTcCrcError,CommsTlmInvalidID,UARTTxReadingEmptyBuffer,UARTRxByteOverrun,UARTRxFramingError,UartTxTimeout,FRAMStatusNotResponding,FRAMDeviceNotFound,FRAMSpiTimeout,TcAckLastTCID,TcAckProcessed,TcAckErrStatus,TcAckParamErrIndex,ConfigRewrittenFromMemory,ConfigExtMemorySlotOverwritten,ConfigNoConfigFoundInMemory,ConfigNumOfValidFramSlots,ConfigNumOfValidFlashSlots,ConfigNotSaved,ConfigDataLoss,SwStartupTime,SwProcessingTime,SwProcessingTimeMax,SwLoopTime,SwLoopTimeMax,SwImgCaptureTime,SwLensDistCorrTime,SwEstimationTime,SwConfigRefreshMaxTime,SwConfigCheckMemoryMaxTime,SwAdcMeasurementTime,SwHtpaIntegrationTime,DetectedBitFlips,FlashFaults,FlashLastFaultAddress,MemTestSramMode,MemTestSramFaultsLastLoop,MemTestSramFaultsTotal,MemTestSramLoopNumber,MemTestSramIterateTime,MemTestFlashMode,MemTestFlashState,MemTestFlashIndex,MemTestFlashFaultPageIndex,MemTestFlashPageWriteErrors,MemTestFlashEraseErrors,MemTestFlashPageWriteTime,MemTestFlashPageReadTime,MemTestFramTimeToWait,SRAM2ParityCheckEnabled,InterfaceVersion,FirmwareVersion,IRCAM SN,
2019/11/05 - 18:26:22.498016,11,24.57638931274414,22.38172149658203,24.764690399169922,212.02574157714844,211.9575653076172,212.06146240234375,-,27.222007751464844,25.64179801940918,27.283588409423828,0.0,0.0,0.0,3.2990000247955322,3.2990000247955322,3.3010001182556152,0.0,0.0,0.0,Continuous,Tobj,False,False,False,False,False,False,False,False,0,0,On,Off,Capturing,0,0,0,0,0,0,0,True,False,False,True,True,False,False,False,False,False,True,True,False,False,False,False,False,False,False,False,False,False,False,False,False,False,False,False,False,False,False,True,False,0,False,NoError,0,False,False,False,0,6,False,False,617,616,616,1000,1000,616,0,0,0,0,8,107,18,0,0,ReadOnly,0,0,60,1,ReadOnly,wait,0,0,0,0,25,22,591,True,1,V0.2,    IR1800,
2019/11/05 - 18:26:31.407872,20,24.667293548583984,22.38172149658203,24.764690399169922,212.05821228027344,211.9575653076172,212.14910888671875,-,27.447765350341797,25.64179801940918,27.529844284057617,0.0,0.0,0.0,3.3010001182556152,3.2990000247955322,3.3010001182556152,0.0,0.0,0.0,Continuous,Tobj,False,False,False,False,False,False,False,False,0,0,On,Off,Capturing,0,0,0,0,0,0,0,True,False,False,True,True,False,False,False,False,False,True,True,False,False,False,False,False,False,False,False,False,False,False,False,False,False,False,False,False,False,False,True,False,0,False,NoError,0,False,False,False,0,6,False,False,617,615,616,1000,1000,615,0,0,0,0,8,107,18,0,0,ReadOnly,0,0,210,1,ReadOnly,wait,0,0,0,0,25,22,582,True,1,V0.2,    IR1800,
2019/11/05 - 18:26:32.400297,21,24.51795196533203,22.38172149658203,24.764690399169922,212.04197692871094,211.9575653076172,212.14910888671875,-,27.611940383911133,25.64179801940918,27.611940383911133,0.0,0.0,0.0,3.3010001182556152,3.2990000247955322,3.3010001182556152,0.0,0.0,0.0,Continuous,Tobj,False,False,False,False,False,False,False,False,0,0,On,Off,Capturing,0,0,0,0,0,0,0,True,False,False,True,True,False,False,False,False,False,True,True,False,False,False,False,False,False,False,False,False,False,False,False,False,False,False,False,False,False,False,True,False,0,False,NoError,0,False,False,False,0,6,False,False,617,615,616,1000,1000,615,0,0,0,0,9,107,18,0,0,ReadOnly,0,0,84,1,ReadOnly,wait,0,0,0,0,25,22,581,True,1,V0.2,    IR1800,
2019/11/05 - 18:26:33.359746,22,24.582883834838867,22.38172149658203,24.764690399169922,211.98678588867188,211.9575653076172,212.14910888671875,-,27.611940383911133,25.64179801940918,27.611940383911133,0.0,0.0,0.0,3.2990000247955322,3.2990000247955322,3.3010001182556152,0.0,0.0,0.0,Continuous,Tobj,False,False,False,False,False,False,False,False,0,0,On,Off,Capturing,0,0,0,0,0,0,0,True,False,False,True,True,False,False,False,False,False,True,True,False,False,False,False,False,False,False,False,False,False,False,False,False,False,False,False,False,False,False,True,False,0,False,NoError,0,False,False,False,0,6,False,False,617,615,616,1000,1000,615,0,0,0,0,8,107,18,0,0,ReadOnly,0,0,215,1,ReadOnly,wait,0,0,0,0,25,22,580,True,1,V0.2,    IR1800,
2019/11/05 - 18:26:34.400146,23,24.621841430664062,22.38172149658203,24.764690399169922,211.98353576660156,211.9575653076172,212.14910888671875,-,27.488813400268555,25.64179801940918,27.611940383911133,0.0,0.0,0.0,3.2990000247955322,3.2990000247955322,3.3010001182556152,0.0,0.0,0.0,Continuous,Tobj,False,False,False,False,False,False,False,False,0,0,On,Off,Capturing,0,0,0,0,0,0,0,True,False,False,True,True,False,False,False,False,False,True,True,False,False,False,False,False,False,False,False,False,False,False,False,False,False,False,False,False,False,False,True,False,0,False,NoError,0,False,False,False,0,6,False,False,617,615,616,1000,1000,615,0,0,0,0,9,107,18,0,0,ReadOnly,0,0,89,1,ReadOnly,wait,0,0,0,0,25,22,579,True,1,V0.2,    IR1800,
