Time,Runtime,Current3V3,Current3V3Min,Current3V3Max,CurrentHTPA,CurrentHTPAMin,CurrentHTPAMax,CurrentCubeDock3V3_1,TemperatureMCU,TemperatureMCUMin,TemperatureMCUMax,TemperatureHTPA,TemperatureHTPAMin,TemperatureHTPAMax,VoltageMCU,VoltageMCUMin,VoltageMCUMax,VoltageHTPA,VoltageHTPAMin,VoltageHTPAMax,ADSSampleMode,HTPACalibLevel,HILEnabled,HILBusy,HILEnableImgVddComp,HILEnableImgTobjCalib,HILEnableEdgeDet,HILEnableLensDistCorr,HILEnablePolyFit,HILEnableAttEst,HTPADeviceID,HTPATableNumber,HtpaPowerState,HtpaWakeState,HtpaCaptureState,HtpaPTAT,HtpaVdd,HTPAImageLastMin,HTPAImageLastMean,HTPAImageLastMax,HTPAImageAllTimeMin,HTPAImageAllTimeMax,SRAM2ParityError,FlashCorruption,3V3OverCurrent,HTPAOverCurrent,Timer1sOverRun,MCUOverTemperature,MCUUnderTemperature,HTPAOverTemperature,HTPAUnderTemperature,HTPACalibLookupOutOfRange,HTPAIntegrationTimeError,HTPANotResponding,HTPAConfigMismatch,HTPASpiTimeout,CommsTcSlotsBuffFull,CommsTcParamBuffFull,CommsUartProtError,CommsUartMsgIncomplete,CommsUartTcParamOverflow,UARTTxOverflow,CommsTcInvalidID,CommsTcInvalidPar,CommsTcInvalidParLen,CommsTcTimeout,CommsTcCrcError,CommsTlmInvalidID,UARTTxReadingEmptyBuffer,UARTRxByteOverrun,UARTRxFramingError,UartTxTimeout,FRAMStatusNotResponding,FRAMDeviceNotFound,FRAMSpiTimeout,TcAckLastTCID,TcAckProcessed,TcAckErrStatus,TcAckParamErrIndex,ConfigRewrittenFromMemory,ConfigExtMemorySlotOverwritten,ConfigNoConfigFoundInMemory,ConfigNumOfValidFramSlots,ConfigNumOfValidFlashSlots,ConfigNotSaved,ConfigDataLoss,SwStartupTime,SwProcessingTime,SwProcessingTimeMax,SwLoopTime,SwLoopTimeMax,SwImgCaptureTime,SwLensDistCorrTime,SwEstimationTime,SwConfigRefreshMaxTime,SwConfigCheckMemoryMaxTime,SwAdcMeasurementTime,SwHtpaIntegrationTime,DetectedBitFlips,FlashFaults,FlashLastFaultAddress,MemTestSramMode,MemTestSramFaultsLastLoop,MemTestSramFaultsTotal,MemTestSramLoopNumber,MemTestSramIterateTime,MemTestFlashMode,MemTestFlashState,MemTestFlashIndex,MemTestFlashFaultPageIndex,MemTestFlashPageWriteErrors,MemTestFlashEraseErrors,MemTestFlashPageWriteTime,MemTestFlashPageReadTime,MemTestFramTimeToWait,SRAM2ParityCheckEnabled,InterfaceVersion,FirmwareVersion,IRCAM SN,
2019/11/05 - 18:24:09.918022,-,-,-,-,-,-,-,-,-,-,-,-,-,-,-,-,-,-,-,-,-,-,-,-,-,-,-,-,-,-,-,-,-,-,-,-,-,-,-,-,-,-,-,-,-,-,-,-,-,-,-,-,-,-,-,-,-,-,-,-,-,-,-,-,-,-,-,-,-,-,-,-,-,-,-,-,-,-,-,-,-,-,-,-,-,-,-,-,-,-,-,-,-,-,-,-,-,-,-,-,-,-,-,-,-,-,-,-,-,-,-,-,-,-,-,-,-,-,-,
2019/11/05 - 18:24:18.577024,-,-,-,-,-,-,-,-,-,-,-,-,-,-,-,-,-,-,-,-,-,-,-,-,-,-,-,-,-,-,-,-,-,-,-,-,-,-,-,-,-,-,-,-,-,-,-,-,-,-,-,-,-,-,-,-,-,-,-,-,-,-,-,-,-,-,-,-,-,-,-,-,-,-,-,-,-,-,-,-,-,-,-,-,-,-,-,-,-,-,-,-,-,-,-,-,-,-,-,-,-,-,-,-,-,-,-,-,-,-,-,-,-,-,-,-,-,-,-,
2019/11/05 - 18:24:47.144582,2,21.751890182495117,21.751890182495117,21.751890182495117,30.650686264038086,30.650686264038086,30.650686264038086,-,25.661165237426758,25.661165237426758,25.661165237426758,0.0,0.0,0.0,3.305000066757202,3.305000066757202,3.305000066757202,0.0,0.0,0.0,Continuous,Tobj,False,False,False,False,False,False,False,False,0,0,On,Off,Capturing,0,0,0,0,0,0,0,True,False,False,False,True,False,False,False,False,False,True,True,False,False,False,False,False,False,False,False,False,False,False,False,False,False,False,False,False,False,False,True,False,0,False,NoError,0,False,False,False,0,6,False,False,617,615,615,616,616,615,0,0,0,0,8,107,12,0,0,Disabled,0,0,0,1,Disabled,write,0,0,0,0,0,0,0,True,1,V0.2,    IR1800,
2019/11/05 - 18:24:48.615730,4,23.303741455078125,21.751890182495117,23.303741455078125,30.70587730407715,30.650686264038086,30.861713409423828,-,26.44688606262207,25.661165237426758,26.44688606262207,0.0,0.0,0.0,3.302999973297119,3.302999973297119,3.305000066757202,0.0,0.0,0.0,Continuous,Tobj,False,False,False,False,False,False,False,False,0,0,On,Off,Capturing,0,0,0,0,0,0,0,True,False,False,False,True,False,False,False,False,False,True,True,False,False,False,False,False,False,False,False,False,False,False,False,False,False,False,False,False,False,False,True,False,0,False,NoError,0,False,False,False,0,6,False,False,617,615,615,1000,1000,615,0,0,0,0,9,107,12,0,0,ReadOnly,0,0,172,1,ReadOnly,wait,0,0,0,0,25,22,598,True,1,V0.2,    IR1800,
