2019/04/23 - 12:00:41.579189 | MAIN                | App started running
2019/04/23 - 12:00:46.445259 | CommsUART           | Successfully connected to COM8.
2019/04/23 - 12:00:46.860116 | App                 | Device is Responding
