Time,Runtime,Current3V3,Current3V3Min,Current3V3Max,CurrentHTPA,CurrentHTPAMin,CurrentHTPAMax,CurrentCubeDock3V3_1,TemperatureMCU,TemperatureMCUMin,TemperatureMCUMax,TemperatureHTPA,TemperatureHTPAMin,TemperatureHTPAMax,VoltageMCU,VoltageMCUMin,VoltageMCUMax,VoltageHTPA,VoltageHTPAMin,VoltageHTPAMax,ADSSampleMode,HTPACalibLevel,HILEnabled,HILBusy,HILEnableImgVddComp,HILEnableImgTobjCalib,HILEnableEdgeDet,HILEnableLensDistCorr,HILEnablePolyFit,HILEnableAttEst,HTPADeviceID,HTPATableNumber,HtpaPowerState,HtpaWakeState,HtpaCaptureState,HtpaPTAT,HtpaVdd,HTPAImageLastMin,HTPAImageLastMean,HTPAImageLastMax,HTPAImageAllTimeMin,HTPAImageAllTimeMax,SRAM2ParityError,FlashCorruption,3V3OverCurrent,HTPAOverCurrent,Timer1sOverRun,MCUOverTemperature,MCUUnderTemperature,HTPAOverTemperature,HTPAUnderTemperature,HTPACalibLookupOutOfRange,HTPAIntegrationTimeout,HTPANotResponding,HTPAConfigMismatch,HTPASpiTimeout,CommsTcSlotsBuffFull,CommsTcParamBuffFull,CommsUartProtError,CommsUartMsgIncomplete,CommsUartTcParamOverflow,UARTTxOverflow,CommsTcInvalidID,CommsTcInvalidPar,CommsTcInvalidParLen,CommsTcTimeout,CommsTlmInvalidID,UARTTxReadingEmptyBuffer,UARTRxByteOverrun,UARTRxFramingError,UartTxTimeout,FRAMStatusNotResponding,FRAMDeviceNotFound,FRAMSpiTimeout,ConfigRewrittenFromMemory,ConfigExtMemorySlotOverwritten,ConfigNoConfigFoundInMemory,ConfigNumOfValidSlots,ConfigNotSaved,ConfigDataLoss,SwStartupTime,SwProcessingTime,SwProcessingTimeMax,SwLoopTime,SwLoopTimeMax,SwImgCaptureTime,SwLensDistCorrTime,SwEstimationTime,SwConfigRefreshMaxTime,SwConfigCheckMemoryMaxTime,SwAdcMeasurementTime,DetectedBitFlips,FlashFaults,FlashLastFaultAddress,RadNumOfFaultsLast,RadNumOfFaultsTotal,RadLastFaultIndex,RadIterationsCompleted,RadMode,RadCheckSRAM,RadCheckFRAM,SRAM2ParityCheckEnabled,InterfaceVersion,FirmwareVersion,CubeIR SN,IRCAM SN,
2019/10/18 - 11:21:49.549780,3189.629,17.573579788208008,17.396642684936523,17.706687927246094,35.71855163574219,35.280269622802734,35.98801803588867,-,28.51493263244629,26.708948135375977,28.638059616088867,0.0,0.0,0.0,3.2990000247955322,3.2990000247955322,3.3010001182556152,0.0,0.0,0.0,Idle,None,False,False,False,False,False,False,False,False,4298,137,On,Off,Idle,0,0,32767,0,-32768,32767,-32768,False,False,False,False,False,False,False,False,False,False,False,True,False,False,False,False,False,False,False,False,False,False,False,False,False,False,False,False,False,False,True,False,False,False,False,0,True,False,617,0,0,1000,1000,0,0,0,0,0,4,0,0,0,0,0,0,1,Disabled,False,False,True,1,V0.1,CubeIRV0.1,    IR1800,
2019/10/18 - 11:21:50.527794,3190.598,17.539491653442383,17.396642684936523,17.706687927246094,35.780235290527344,35.280269622802734,35.98801803588867,-,28.432836532592773,26.708948135375977,28.638059616088867,0.0,0.0,0.0,3.2990000247955322,3.2990000247955322,3.3010001182556152,0.0,0.0,0.0,Idle,None,False,False,False,False,False,False,False,False,4298,137,On,Off,Idle,0,0,32767,0,-32768,32767,-32768,False,False,False,False,False,False,False,False,False,False,False,True,False,False,False,False,False,False,False,False,False,False,False,False,False,False,False,False,False,False,True,False,False,False,False,0,True,False,617,0,0,1000,1000,0,0,0,0,0,4,0,0,0,0,0,0,1,Disabled,False,False,True,1,V0.1,CubeIRV0.1,    IR1800,
2019/10/18 - 11:21:51.536267,3191.606,17.589813232421875,17.396642684936523,17.706687927246094,35.767250061035156,35.280269622802734,35.98801803588867,-,28.473865509033203,26.708948135375977,28.638059616088867,0.0,0.0,0.0,3.2990000247955322,3.2990000247955322,3.3010001182556152,0.0,0.0,0.0,Idle,None,False,False,False,False,False,False,False,False,4298,137,On,Off,Idle,0,0,32767,0,-32768,32767,-32768,False,False,False,False,False,False,False,False,False,False,False,True,False,False,False,False,False,False,False,False,False,False,False,False,False,False,False,False,False,False,True,False,False,False,False,0,True,False,617,0,0,1000,1000,0,0,0,0,0,4,0,0,0,0,0,0,1,Disabled,False,False,True,1,V0.1,CubeIRV0.1,    IR1800,
2019/10/18 - 11:21:52.545128,3192.615,17.640134811401367,17.396642684936523,17.706687927246094,35.82244110107422,35.280269622802734,35.98801803588867,-,28.473865509033203,26.708948135375977,28.638059616088867,0.0,0.0,0.0,3.2990000247955322,3.2990000247955322,3.3010001182556152,0.0,0.0,0.0,Idle,None,False,False,False,False,False,False,False,False,4298,137,On,Off,Idle,0,0,32767,0,-32768,32767,-32768,False,False,False,False,False,False,False,False,False,False,False,True,False,False,False,False,False,False,False,False,False,False,False,False,False,False,False,False,False,False,True,False,False,False,False,0,True,False,617,0,0,1000,1000,0,0,0,0,0,4,0,0,0,0,0,0,1,Disabled,False,False,True,1,V0.1,CubeIRV0.1,    IR1800,
2019/10/18 - 11:21:53.505379,3193.575,17.584941864013672,17.396642684936523,17.706687927246094,35.69258117675781,35.280269622802734,35.98801803588867,-,28.330223083496094,26.708948135375977,28.638059616088867,0.0,0.0,0.0,3.2990000247955322,3.2990000247955322,3.3010001182556152,0.0,0.0,0.0,Idle,None,False,False,False,False,False,False,False,False,4298,137,On,Off,Idle,0,0,32767,0,-32768,32767,-32768,False,False,False,False,False,False,False,False,False,False,False,True,False,False,False,False,False,False,False,False,False,False,False,False,False,False,False,False,False,False,True,False,False,False,True,0,True,False,617,0,0,1000,1000,0,0,0,0,0,4,0,0,0,0,0,0,1,Disabled,False,False,True,1,V0.1,CubeIRV0.1,    IR1800,
2019/10/18 - 11:21:54.498492,3194.567,17.5800724029541,17.396642684936523,17.706687927246094,35.6406364440918,35.280269622802734,35.98801803588867,-,28.412321090698242,26.708948135375977,28.638059616088867,0.0,0.0,0.0,3.2990000247955322,3.2990000247955322,3.3010001182556152,0.0,0.0,0.0,Idle,None,False,False,False,False,False,False,False,False,4298,137,On,Off,Idle,0,0,32767,0,-32768,32767,-32768,False,False,False,False,False,False,False,False,False,False,False,True,False,False,False,False,False,False,False,False,False,False,False,False,False,False,False,False,False,False,True,False,False,False,False,0,True,False,617,0,0,1000,1000,0,0,0,0,0,4,0,0,0,0,0,0,1,Disabled,False,False,True,1,V0.1,CubeIRV0.1,    IR1800,
2019/10/18 - 11:21:55.539375,3195.608,17.56546401977539,17.396642684936523,17.706687927246094,35.71530532836914,35.280269622802734,35.98801803588867,-,28.371253967285156,26.708948135375977,28.638059616088867,0.0,0.0,0.0,3.2990000247955322,3.2990000247955322,3.3010001182556152,0.0,0.0,0.0,Idle,None,False,False,False,False,False,False,False,False,4298,137,On,Off,Idle,0,0,32767,0,-32768,32767,-32768,False,False,False,False,False,False,False,False,False,False,False,True,False,False,False,False,False,False,False,False,False,False,False,False,False,False,False,False,False,False,True,False,False,False,False,0,True,False,617,0,0,1000,1000,0,0,0,0,0,4,0,0,0,0,0,0,1,Disabled,False,False,True,1,V0.1,CubeIRV0.1,    IR1800,
2019/10/18 - 11:21:56.515666,3196.584,17.594682693481445,17.396642684936523,17.706687927246094,35.83543014526367,35.280269622802734,35.98801803588867,-,28.001873016357422,26.708948135375977,28.638059616088867,0.0,0.0,0.0,3.2990000247955322,3.2990000247955322,3.3010001182556152,0.0,0.0,0.0,Idle,None,False,False,False,False,False,False,False,False,4298,137,On,Off,Idle,0,0,32767,0,-32768,32767,-32768,False,False,False,False,False,False,False,False,False,False,False,True,False,False,False,False,False,False,False,False,False,False,False,False,False,False,False,False,False,False,True,False,False,False,False,0,True,False,617,0,0,1000,1000,0,0,0,0,0,4,0,0,0,0,0,0,1,Disabled,False,False,True,1,V0.1,CubeIRV0.1,    IR1800,
2019/10/18 - 11:21:57.524327,3197.593,17.576826095581055,17.396642684936523,17.706687927246094,35.82244110107422,35.280269622802734,35.98801803588867,-,28.371253967285156,26.708948135375977,28.638059616088867,0.0,0.0,0.0,3.2990000247955322,3.2990000247955322,3.3010001182556152,0.0,0.0,0.0,Idle,None,False,False,False,False,False,False,False,False,4298,137,On,Off,Idle,0,0,32767,0,-32768,32767,-32768,False,False,False,False,False,False,False,False,False,False,False,True,False,False,False,False,False,False,False,False,False,False,False,False,False,False,False,False,False,False,True,False,False,False,False,0,True,False,617,0,0,1000,1000,0,0,0,0,0,4,0,0,0,0,0,0,1,Disabled,False,False,True,1,V0.1,CubeIRV0.1,    IR1800,
2019/10/18 - 11:21:58.548944,3198.617,17.649873733520508,17.396642684936523,17.706687927246094,35.851661682128906,35.280269622802734,35.98801803588867,-,28.453350067138672,26.708948135375977,28.638059616088867,0.0,0.0,0.0,3.2990000247955322,3.2990000247955322,3.3010001182556152,0.0,0.0,0.0,Idle,None,False,False,False,False,False,False,False,False,4298,137,On,Off,Idle,0,0,32767,0,-32768,32767,-32768,False,False,False,False,False,False,False,False,False,False,False,True,False,False,False,False,False,False,False,False,False,False,False,False,False,False,False,False,False,False,True,False,False,False,False,0,True,False,617,0,0,1000,1000,0,0,0,0,0,4,0,0,0,0,0,0,1,Disabled,False,False,True,1,V0.1,CubeIRV0.1,    IR1800,
