Time,Runtime,Current3V3,Current3V3Min,Current3V3Max,CurrentHTPA,CurrentHTPAMin,CurrentHTPAMax,CurrentCubeDock3V3_1,TemperatureMCU,TemperatureMCUMin,TemperatureMCUMax,TemperatureHTPA,TemperatureHTPAMin,TemperatureHTPAMax,VoltageMCU,VoltageMCUMin,VoltageMCUMax,VoltageHTPA,VoltageHTPAMin,VoltageHTPAMax,ADSSampleMode,HTPACalibLevel,HILEnabled,HILBusy,HILEnableImgVddComp,HILEnableImgTobjCalib,HILEnableEdgeDet,HILEnableLensDistCorr,HILEnablePolyFit,HILEnableAttEst,HTPADeviceID,HTPATableNumber,HtpaPowerState,HtpaWakeState,HtpaCaptureState,HtpaPTAT,HtpaVdd,HTPAImageLastMin,HTPAImageLastMean,HTPAImageLastMax,HTPAImageAllTimeMin,HTPAImageAllTimeMax,SRAM2ParityError,FlashCorruption,3V3OverCurrent,HTPAOverCurrent,Timer1sOverRun,MCUOverTemperature,MCUUnderTemperature,HTPAOverTemperature,HTPAUnderTemperature,HTPACalibLookupOutOfRange,HTPAIntegrationTimeout,HTPANotResponding,HTPAConfigMismatch,HTPASpiTimeout,CommsTcSlotsBuffFull,CommsTcParamBuffFull,CommsUartProtError,CommsUartMsgIncomplete,CommsUartTcParamOverflow,UARTTxOverflow,CommsTcInvalidID,CommsTcInvalidPar,CommsTcInvalidParLen,CommsTcTimeout,CommsTlmInvalidID,UARTTxReadingEmptyBuffer,UARTRxByteOverrun,UARTRxFramingError,UartTxTimeout,FRAMStatusNotResponding,FRAMDeviceNotFound,FRAMSpiTimeout,ConfigRewrittenFromMemory,ConfigExtMemorySlotOverwritten,ConfigNoConfigFoundInMemory,ConfigNumOfValidSlots,ConfigNotSaved,ConfigDataLoss,SwStartupTime,SwProcessingTime,SwProcessingTimeMax,SwLoopTime,SwLoopTimeMax,SwImgCaptureTime,SwLensDistCorrTime,SwEstimationTime,SwConfigRefreshMaxTime,SwConfigCheckMemoryMaxTime,SwAdcMeasurementTime,DetectedBitFlips,FlashFaults,FlashLastFaultAddress,RadNumOfFaultsLast,RadNumOfFaultsTotal,RadLastFaultIndex,RadIterationsCompleted,RadMode,RadCheckSRAM,RadCheckFRAM,SRAM2ParityCheckEnabled,InterfaceVersion,FirmwareVersion,CubeIR SN,IRCAM SN,
2019/10/18 - 10:24:37.872786,12345,17.620655059814453,17.51189613342285,17.696949005126953,35.68284225463867,35.51401901245117,35.98152160644531,12345,27.878726959228516,25.949634552001953,28.022388458251953,0.0,0.0,0.0,3.3010001182556152,3.2990000247955322,3.3010001182556152,0.0,0.0,0.0,12345,12345,12345,12345,12345,12345,12345,12345,12345,12345,12345,12345,12345,12345,12345,12345,12345,12345,12345,12345,12345,12345,12345,12345,12345,12345,12345,12345,12345,12345,12345,12345,12345,12345,12345,12345,12345,12345,12345,12345,12345,12345,12345,12345,12345,12345,12345,12345,12345,12345,12345,12345,12345,12345,12345,12345,12345,12345,12345,12345,12345,12345,12345,12345,12345,12345,12345,12345,12345,12345,12345,12345,12345,12345,12345,12345,12345,12345,12345,12345,12345,12345,1,V0.1,12345,12345,
2019/10/18 - 10:24:38.829483,12345,17.627147674560547,17.51189613342285,17.696949005126953,35.738033294677734,35.51401901245117,35.98152160644531,12345,27.98135757446289,25.949634552001953,28.022388458251953,0.0,0.0,0.0,3.3010001182556152,3.2990000247955322,3.3010001182556152,0.0,0.0,0.0,12345,12345,12345,12345,12345,12345,12345,12345,12345,12345,12345,12345,12345,12345,12345,12345,12345,12345,12345,12345,12345,12345,12345,12345,12345,12345,12345,12345,12345,12345,12345,12345,12345,12345,12345,12345,12345,12345,12345,12345,12345,12345,12345,12345,12345,12345,12345,12345,12345,12345,12345,12345,12345,12345,12345,12345,12345,12345,12345,12345,12345,12345,12345,12345,12345,12345,12345,12345,12345,12345,12345,12345,12345,12345,12345,12345,12345,12345,12345,12345,12345,12345,1,V0.1,12345,12345,
2019/10/18 - 10:24:39.822184,12345,17.578449249267578,17.51189613342285,17.696949005126953,35.83543014526367,35.51401901245117,35.98152160644531,12345,27.960805892944336,25.949634552001953,28.022388458251953,0.0,0.0,0.0,3.3010001182556152,3.2990000247955322,3.3010001182556152,0.0,0.0,0.0,12345,12345,12345,12345,12345,12345,12345,12345,12345,12345,12345,12345,12345,12345,12345,12345,12345,12345,12345,12345,12345,12345,12345,12345,12345,12345,12345,12345,12345,12345,12345,12345,12345,12345,12345,12345,12345,12345,12345,12345,12345,12345,12345,12345,12345,12345,12345,12345,12345,12345,12345,12345,12345,12345,12345,12345,12345,12345,12345,12345,12345,12345,12345,12345,12345,12345,12345,12345,12345,12345,12345,12345,12345,12345,12345,12345,12345,12345,12345,12345,12345,12345,1,V0.1,12345,12345,
2019/10/18 - 10:24:40.863015,12345,17.597929000854492,17.51189613342285,17.696949005126953,35.806209564208984,35.51401901245117,35.98152160644531,12345,27.837678909301758,25.949634552001953,28.022388458251953,0.0,0.0,0.0,3.3010001182556152,3.2990000247955322,3.3010001182556152,0.0,0.0,0.0,12345,12345,12345,12345,12345,12345,12345,12345,12345,12345,12345,12345,12345,12345,12345,12345,12345,12345,12345,12345,12345,12345,12345,12345,12345,12345,12345,12345,12345,12345,12345,12345,12345,12345,12345,12345,12345,12345,12345,12345,12345,12345,12345,12345,12345,12345,12345,12345,12345,12345,12345,12345,12345,12345,12345,12345,12345,12345,12345,12345,12345,12345,12345,12345,12345,12345,12345,12345,12345,12345,12345,12345,12345,12345,12345,12345,12345,12345,12345,12345,12345,12345,1,V0.1,12345,12345,
2019/10/18 - 10:24:41.791459,12345,17.649873733520508,17.51189613342285,17.696949005126953,35.81919479370117,35.51401901245117,35.98152160644531,12345,27.878726959228516,25.949634552001953,28.022388458251953,0.0,0.0,0.0,3.3010001182556152,3.2990000247955322,3.3010001182556152,0.0,0.0,0.0,12345,12345,12345,12345,12345,12345,12345,12345,12345,12345,12345,12345,12345,12345,12345,12345,12345,12345,12345,12345,12345,12345,12345,12345,12345,12345,12345,12345,12345,12345,12345,12345,12345,12345,12345,12345,12345,12345,12345,12345,12345,12345,12345,12345,12345,12345,12345,12345,12345,12345,12345,12345,12345,12345,12345,12345,12345,12345,12345,12345,12345,12345,12345,12345,12345,12345,12345,12345,12345,12345,12345,12345,12345,12345,12345,12345,12345,12345,12345,12345,12345,12345,1,V0.1,12345,12345,
