2019/10/18 - 11:21:44.416843 | MAIN                | App started running
2019/10/18 - 11:21:48.334227 | CommsUART           | Successfully connected to COM8.
2019/10/18 - 11:21:49.245947 | App                 | Device is Responding
