2019/10/30 - 14:00:01.975072 | MAIN                | App started running
2019/10/30 - 14:00:11.810600 | UART                | Successfully connected to COM8.
2019/10/30 - 14:00:12.257343 | App                 | Device is Responding
2019/10/30 - 14:00:39.724473 | App                 | Setting Configuration name to SN: "     54321" and I2C Address to 0x20.
2019/10/30 - 14:00:41.716141 | App                 | Commanded device to save the current configuration stored in SRAM into FRAM/Flash
