2019/10/30 - 11:34:03.480369 | MAIN                | App started running
2019/10/30 - 11:34:12.761835 | UART                | Successfully connected to COM8.
2019/10/30 - 11:34:13.193061 | App                 | Device is Responding
2019/10/30 - 11:34:42.035841 | App                 | Setting Configuration name to SN: "  12345" and I2C Address to 0x20.
2019/10/30 - 11:34:56.740126 | App                 | Commanded device to save the current configuration stored in SRAM into FRAM/Flash
