Time,Runtime,Current3V3,Current3V3Min,Current3V3Max,CurrentHTPA,CurrentHTPAMin,CurrentHTPAMax,CurrentCubeDock3V3_1,TemperatureMCU,TemperatureMCUMin,TemperatureMCUMax,TemperatureHTPA,TemperatureHTPAMin,TemperatureHTPAMax,VoltageMCU,VoltageMCUMin,VoltageMCUMax,VoltageHTPA,VoltageHTPAMin,VoltageHTPAMax,ADSSampleMode,HTPACalibLevel,HILEnabled,HILBusy,HILEnableImgVddComp,HILEnableImgTobjCalib,HILEnableEdgeDet,HILEnableLensDistCorr,HILEnablePolyFit,HILEnableAttEst,HTPADeviceID,HTPATableNumber,HtpaPowerState,HtpaWakeState,HtpaCaptureState,HtpaPTAT,HtpaVdd,HTPAImageLastMin,HTPAImageLastMean,HTPAImageLastMax,HTPAImageAllTimeMin,HTPAImageAllTimeMax,SRAM2ParityError,FlashCorruption,3V3OverCurrent,HTPAOverCurrent,Timer1sOverRun,MCUOverTemperature,MCUUnderTemperature,HTPAOverTemperature,HTPAUnderTemperature,HTPACalibLookupOutOfRange,HTPAIntegrationTimeError,HTPANotResponding,HTPAConfigMismatch,HTPASpiTimeout,CommsTcSlotsBuffFull,CommsTcParamBuffFull,CommsUartProtError,CommsUartMsgIncomplete,CommsUartTcParamOverflow,UARTTxOverflow,CommsTcInvalidID,CommsTcInvalidPar,CommsTcInvalidParLen,CommsTcTimeout,CommsTcCrcError,CommsTlmInvalidID,UARTTxReadingEmptyBuffer,UARTRxByteOverrun,UARTRxFramingError,UartTxTimeout,FRAMStatusNotResponding,FRAMDeviceNotFound,FRAMSpiTimeout,TcAckLastTCID,TcAckProcessed,TcAckErrStatus,TcAckParamErrIndex,ConfigRewrittenFromMemory,ConfigExtMemorySlotOverwritten,ConfigNoConfigFoundInMemory,ConfigNumOfValidFramSlots,ConfigNumOfValidFlashSlots,ConfigNotSaved,ConfigDataLoss,SwStartupTime,SwProcessingTime,SwProcessingTimeMax,SwLoopTime,SwLoopTimeMax,SwImgCaptureTime,SwLensDistCorrTime,SwEstimationTime,SwConfigRefreshMaxTime,SwConfigCheckMemoryMaxTime,SwAdcMeasurementTime,SwHtpaIntegrationTime,DetectedBitFlips,FlashFaults,FlashLastFaultAddress,RadNumOfFaultsLast,RadNumOfFaultsTotal,RadLastFaultIndex,RadIterationsCompleted,RadMode,RadCheckSRAM,RadCheckFRAM,SRAM2ParityCheckEnabled,InterfaceVersion,FirmwareVersion,IRCAM SN,
2019/10/31 - 11:54:43.938097,34,23.303741455078125,23.141414642333984,25.0244140625,212.21405029296875,212.14585876464844,212.2627410888672,-,26.11380958557129,24.574630737304688,26.216421127319336,0.0,0.0,0.0,3.3010001182556152,3.2990000247955322,3.3010001182556152,0.0,0.0,0.0,Idle,Tobj,False,False,False,False,False,False,False,False,0,0,On,Off,Idle,0,0,0,0,0,0,0,False,False,False,True,False,False,False,False,False,False,False,True,False,False,False,False,False,False,False,False,False,False,False,False,False,False,False,False,False,False,False,True,False,0,False,NoError,0,False,False,False,0,0,False,False,618,0,0,1000,1000,0,0,0,0,0,8,0,0,0,0,68,4096,26910,0,Disabled,False,False,True,1,V0.1,    IR1800,
2019/10/31 - 11:54:55.759902,46,23.36867332458496,23.141414642333984,25.0244140625,212.20106506347656,212.1101531982422,212.2822265625,-,26.277984619140625,24.574630737304688,26.277984619140625,0.0,0.0,0.0,3.2990000247955322,3.2990000247955322,3.3010001182556152,0.0,0.0,0.0,Idle,Tobj,False,False,False,False,False,False,False,False,0,0,On,Off,Idle,0,0,0,0,0,0,0,False,False,False,True,False,False,False,False,False,False,False,True,False,False,False,False,False,False,False,False,False,False,False,False,False,False,False,False,False,False,False,True,False,0,False,NoError,0,False,False,False,0,0,False,False,618,0,0,1000,1000,0,0,0,0,0,8,0,0,0,0,0,36691,46,0,Disabled,False,True,True,1,V0.1,    IR1800,
