Time,Runtime,Current3V3,Current3V3Min,Current3V3Max,CurrentHTPA,CurrentHTPAMin,CurrentHTPAMax,CurrentCubeDock3V3_1,TemperatureMCU,TemperatureMCUMin,TemperatureMCUMax,TemperatureHTPA,TemperatureHTPAMin,TemperatureHTPAMax,VoltageMCU,VoltageMCUMin,VoltageMCUMax,VoltageHTPA,VoltageHTPAMin,VoltageHTPAMax,ADSSampleMode,HTPACalibLevel,HILEnabled,HILBusy,HILEnableImgVddComp,HILEnableImgTobjCalib,HILEnableEdgeDet,HILEnableLensDistCorr,HILEnablePolyFit,HILEnableAttEst,HTPADeviceID,HTPATableNumber,HtpaPowerState,HtpaWakeState,HtpaCaptureState,HtpaPTAT,HtpaVdd,HTPAImageLastMin,HTPAImageLastMean,HTPAImageLastMax,HTPAImageAllTimeMin,HTPAImageAllTimeMax,SRAM2ParityError,FlashCorruption,3V3OverCurrent,HTPAOverCurrent,Timer1sOverRun,MCUOverTemperature,MCUUnderTemperature,HTPAOverTemperature,HTPAUnderTemperature,HTPACalibLookupOutOfRange,HTPAIntegrationTimeError,HTPANotResponding,HTPAConfigMismatch,HTPASpiTimeout,CommsTcSlotsBuffFull,CommsTcParamBuffFull,CommsUartProtError,CommsUartMsgIncomplete,CommsUartTcParamOverflow,UARTTxOverflow,CommsTcInvalidID,CommsTcInvalidPar,CommsTcInvalidParLen,CommsTcTimeout,CommsTcCrcError,CommsTlmInvalidID,UARTTxReadingEmptyBuffer,UARTRxByteOverrun,UARTRxFramingError,UartTxTimeout,FRAMStatusNotResponding,FRAMDeviceNotFound,FRAMSpiTimeout,TcAckLastTCID,TcAckProcessed,TcAckErrStatus,TcAckParamErrIndex,ConfigRewrittenFromMemory,ConfigExtMemorySlotOverwritten,ConfigNoConfigFoundInMemory,ConfigNumOfValidFramSlots,ConfigNumOfValidFlashSlots,ConfigNotSaved,ConfigDataLoss,SwStartupTime,SwProcessingTime,SwProcessingTimeMax,SwLoopTime,SwLoopTimeMax,SwImgCaptureTime,SwLensDistCorrTime,SwEstimationTime,SwConfigRefreshMaxTime,SwConfigCheckMemoryMaxTime,SwAdcMeasurementTime,SwHtpaIntegrationTime,DetectedBitFlips,FlashFaults,FlashLastFaultAddress,RadNumOfFaultsLast,RadNumOfFaultsTotal,RadLastFaultIndex,RadIterationsCompleted,RadMode,RadCheckSRAM,RadCheckFRAM,SRAM2ParityCheckEnabled,InterfaceVersion,FirmwareVersion,IRCAM SN,
2019/10/31 - 15:38:47.266454,9,22.427173614501953,22.368736267089844,22.95960807800293,26.08279037475586,26.02110481262207,41.650001525878906,-,25.318687438964844,23.948711395263672,26.769224166870117,0.0,0.0,0.0,3.2960000038146973,3.2960000038146973,3.299999952316284,0.0,0.0,0.0,Idle,Tobj,False,False,False,False,False,False,False,False,4297,137,On,On,Idle,0,0,0,0,0,0,0,False,False,False,False,False,False,False,False,False,False,False,False,False,False,False,False,False,False,False,False,False,False,False,False,False,False,False,False,False,False,True,True,False,0,False,NoError,0,False,False,False,0,3,False,False,30,0,0,1000,1000,0,0,0,0,0,8,0,0,0,0,0,40704,257,0,Disabled,False,False,True,1,V0.1,    IR1800,
2019/10/31 - 15:38:49.040491,11,22.39470863342285,22.368736267089844,22.95960807800293,26.073049545288086,26.02110481262207,41.650001525878906,-,25.37912368774414,23.948711395263672,26.769224166870117,0.0,0.0,0.0,3.2960000038146973,3.2960000038146973,3.299999952316284,0.0,0.0,0.0,Idle,Tobj,False,False,False,False,False,False,False,False,4297,137,On,On,Idle,0,0,0,0,0,0,0,False,False,False,False,False,False,False,False,False,False,False,False,False,False,False,False,False,False,False,False,False,False,False,False,False,False,False,False,False,False,True,True,False,0,False,NoError,0,False,False,False,0,3,False,False,30,0,0,1000,1000,0,0,0,0,0,8,0,0,0,0,0,137,1000,232,ReadOnly,False,False,True,1,V0.1,    IR1800,
2019/10/31 - 15:38:50.063314,12,22.39470863342285,22.368736267089844,22.95960807800293,26.050323486328125,26.02110481262207,41.650001525878906,-,25.419422149658203,23.948711395263672,26.769224166870117,0.0,0.0,0.0,3.2960000038146973,3.2960000038146973,3.299999952316284,0.0,0.0,0.0,Idle,Tobj,False,False,False,False,False,False,False,False,4297,137,On,On,Idle,0,0,0,0,0,0,0,False,False,False,False,False,False,False,False,False,False,False,False,False,False,False,False,False,False,False,False,False,False,False,False,False,False,False,False,False,False,True,True,False,0,False,NoError,0,False,False,False,0,3,False,False,30,0,0,1000,1000,0,0,0,0,0,8,0,0,0,0,68,4096,0,0,Disabled,False,False,True,1,V0.1,    IR1800,
2019/10/31 - 15:38:51.007798,13,22.401201248168945,22.368736267089844,22.95960807800293,26.073049545288086,26.02110481262207,41.650001525878906,-,25.459699630737305,23.948711395263672,26.769224166870117,0.0,0.0,0.0,3.2960000038146973,3.2960000038146973,3.299999952316284,0.0,0.0,0.0,Idle,Tobj,False,False,False,False,False,False,False,False,4297,137,On,On,Idle,0,0,0,0,0,0,0,False,False,False,False,False,False,False,False,False,False,False,False,False,False,False,False,False,False,False,False,False,False,False,False,False,False,False,False,False,False,True,True,False,0,False,NoError,0,False,False,False,0,3,False,False,30,0,0,1000,1000,0,0,0,0,0,8,0,0,0,0,56,4096,6998,0,Disabled,False,False,True,1,V0.1,    IR1800,
2019/10/31 - 15:38:52.030600,14,22.388214111328125,22.368736267089844,22.95960807800293,26.05681800842285,26.02110481262207,41.650001525878906,-,25.64102554321289,23.948711395263672,26.769224166870117,0.0,0.0,0.0,3.2960000038146973,3.2960000038146973,3.299999952316284,0.0,0.0,0.0,Idle,Tobj,False,False,False,False,False,False,False,False,4297,137,On,On,Idle,0,0,0,0,0,0,0,False,False,False,False,False,False,False,False,False,False,False,False,False,False,False,False,False,False,False,False,False,False,False,False,False,False,False,False,False,False,True,True,False,0,False,NoError,0,False,False,False,0,3,False,False,30,0,0,1000,1000,0,0,0,0,0,8,0,0,0,0,68,4096,6998,0,Disabled,False,False,True,1,V0.1,    IR1800,
2019/10/31 - 15:38:53.038599,15,22.355749130249023,22.355749130249023,22.95960807800293,26.073049545288086,26.02110481262207,41.650001525878906,-,25.56043243408203,23.948711395263672,26.769224166870117,0.0,0.0,0.0,3.2960000038146973,3.2960000038146973,3.299999952316284,0.0,0.0,0.0,Idle,Tobj,False,False,False,False,False,False,False,False,4297,137,On,On,Idle,0,0,0,0,0,0,0,False,False,False,False,False,False,False,False,False,False,False,False,False,False,False,False,False,False,False,False,False,False,False,False,False,False,False,False,False,False,True,True,False,0,False,NoError,0,False,False,False,0,3,False,False,30,0,0,1000,1000,0,0,0,0,0,8,0,0,0,0,0,58624,0,0,Disabled,False,False,True,1,V0.1,    IR1800,
2019/10/31 - 15:38:54.046499,16,22.39470863342285,22.355749130249023,22.95960807800293,26.08279037475586,26.02110481262207,41.650001525878906,-,25.56043243408203,23.948711395263672,26.769224166870117,0.0,0.0,0.0,3.2960000038146973,3.2960000038146973,3.299999952316284,0.0,0.0,0.0,Idle,Tobj,False,False,False,False,False,False,False,False,4297,137,On,On,Idle,0,0,0,0,0,0,0,False,False,False,False,False,False,False,False,False,False,False,False,False,False,False,False,False,False,False,False,False,False,False,False,False,False,False,False,False,False,True,True,False,0,False,NoError,0,False,False,False,0,3,False,False,30,0,0,1000,1000,0,0,0,0,0,8,0,0,0,0,0,0,0,0,Disabled,False,False,True,1,V0.1,    IR1800,
2019/10/31 - 15:38:55.022532,17,22.329776763916016,22.329776763916016,22.95960807800293,26.050323486328125,26.02110481262207,41.650001525878906,-,25.64102554321289,23.948711395263672,26.769224166870117,0.0,0.0,0.0,3.2960000038146973,3.2960000038146973,3.299999952316284,0.0,0.0,0.0,Idle,Tobj,False,False,False,False,False,False,False,False,4297,137,On,On,Idle,0,0,0,0,0,0,0,False,False,False,False,False,False,False,False,False,False,False,False,False,False,False,False,False,False,False,False,False,False,False,False,False,False,False,False,False,False,True,True,False,0,False,NoError,0,False,False,False,0,3,False,False,30,0,0,1000,1000,0,0,0,0,0,8,0,0,0,0,0,0,0,0,Disabled,False,False,True,1,V0.1,    IR1800,
2019/10/31 - 15:38:56.077397,18,22.40769386291504,22.329776763916016,22.95960807800293,26.06980323791504,26.02110481262207,41.650001525878906,-,25.661165237426758,23.948711395263672,26.769224166870117,0.0,0.0,0.0,3.2960000038146973,3.2960000038146973,3.299999952316284,0.0,0.0,0.0,Idle,Tobj,False,False,False,False,False,False,False,False,4297,137,On,On,Idle,0,0,0,0,0,0,0,False,False,False,False,False,False,False,False,False,False,False,False,False,False,False,False,False,False,False,False,False,False,False,False,False,False,False,False,False,False,True,True,False,0,False,NoError,0,False,False,False,0,3,False,False,30,0,0,1000,1000,0,0,0,0,0,8,0,0,0,0,56,4096,6998,0,Disabled,False,True,True,1,V0.1,    IR1800,
2019/10/31 - 15:38:57.037790,19,22.414186477661133,22.329776763916016,22.95960807800293,26.063310623168945,26.02110481262207,41.650001525878906,-,25.56043243408203,23.948711395263672,26.769224166870117,0.0,0.0,0.0,3.2960000038146973,3.2960000038146973,3.299999952316284,0.0,0.0,0.0,Idle,Tobj,False,False,False,False,False,False,False,False,4297,137,On,On,Idle,0,0,0,0,0,0,0,False,False,False,False,False,False,False,False,False,False,False,False,False,False,False,False,False,False,False,False,False,False,False,False,False,False,False,False,False,False,True,True,False,0,False,NoError,0,False,False,False,0,3,False,False,30,0,0,1000,1000,0,0,0,0,0,8,0,0,0,0,0,137,8,0,Disabled,False,False,True,1,V0.1,    IR1800,
2019/10/31 - 15:38:58.046160,20,22.388214111328125,22.329776763916016,22.95960807800293,26.047077178955078,26.02110481262207,41.650001525878906,-,25.761898040771484,23.948711395263672,26.769224166870117,0.0,0.0,0.0,3.2960000038146973,3.2960000038146973,3.299999952316284,0.0,0.0,0.0,Idle,Tobj,False,False,False,False,False,False,False,False,4297,137,On,On,Idle,0,0,0,0,0,0,0,False,False,False,False,False,False,False,False,False,False,False,False,False,False,False,False,False,False,False,False,False,False,False,False,False,False,False,False,False,False,True,True,False,0,False,NoError,0,False,False,False,0,3,False,False,30,0,0,1000,1000,0,0,0,0,0,8,0,0,0,0,0,0,0,0,Disabled,False,False,True,1,V0.1,    IR1800,
2019/10/31 - 15:38:59.036483,21,22.388214111328125,22.329776763916016,22.95960807800293,26.06980323791504,26.02110481262207,41.650001525878906,-,25.72161865234375,23.948711395263672,26.769224166870117,0.0,0.0,0.0,3.2960000038146973,3.2960000038146973,3.299999952316284,0.0,0.0,0.0,Idle,Tobj,False,False,False,False,False,False,False,False,4297,137,On,On,Idle,0,0,0,0,0,0,0,False,False,False,False,False,False,False,False,False,False,False,False,False,False,False,False,False,False,False,False,False,False,False,False,False,False,False,False,False,False,True,True,False,0,False,NoError,0,False,False,False,0,3,False,False,30,0,0,1000,1000,0,0,0,0,0,8,0,0,0,0,0,0,0,0,Disabled,False,False,True,1,V0.1,    IR1800,
2019/10/31 - 15:39:00.044930,22,22.388214111328125,22.329776763916016,22.95960807800293,26.063310623168945,26.02110481262207,41.650001525878906,-,25.842491149902344,23.948711395263672,26.769224166870117,0.0,0.0,0.0,3.2960000038146973,3.2960000038146973,3.299999952316284,0.0,0.0,0.0,Idle,Tobj,False,False,False,False,False,False,False,False,4297,137,On,On,Idle,0,0,0,0,0,0,0,False,False,False,False,False,False,False,False,False,False,False,False,False,False,False,False,False,False,False,False,False,False,False,False,False,False,False,False,False,False,True,True,False,0,False,NoError,0,False,False,False,0,3,False,False,30,0,0,1000,1000,0,0,0,0,0,8,0,0,0,0,0,40704,6998,0,Disabled,False,False,True,1,V0.1,    IR1800,
2019/10/31 - 15:39:01.020517,23,22.414186477661133,22.329776763916016,22.95960807800293,26.073049545288086,26.02110481262207,41.650001525878906,-,25.842491149902344,23.948711395263672,26.769224166870117,0.0,0.0,0.0,3.2960000038146973,3.2960000038146973,3.299999952316284,0.0,0.0,0.0,Idle,Tobj,False,False,False,False,False,False,False,False,4297,137,On,On,Idle,0,0,0,0,0,0,0,False,False,False,False,False,False,False,False,False,False,False,False,False,False,False,False,False,False,False,False,False,False,False,False,False,False,False,False,False,False,True,True,False,0,False,NoError,0,False,False,False,0,3,False,False,30,0,0,1000,1000,0,0,0,0,0,8,0,0,0,0,0,0,21065,49,Disabled,False,True,True,1,V0.1,    IR1800,
2019/10/31 - 15:39:02.028374,24,22.329776763916016,22.329776763916016,22.95960807800293,26.066556930541992,26.02110481262207,41.650001525878906,-,25.741758346557617,23.948711395263672,26.769224166870117,0.0,0.0,0.0,3.2960000038146973,3.2960000038146973,3.299999952316284,0.0,0.0,0.0,Idle,Tobj,False,False,False,False,False,False,False,False,4297,137,On,On,Idle,0,0,0,0,0,0,0,False,False,False,False,False,False,False,False,False,False,False,False,False,False,False,False,False,False,False,False,False,False,False,False,False,False,False,False,False,False,True,True,False,0,False,NoError,0,False,False,False,0,3,False,False,30,0,0,1000,1000,0,0,0,0,0,8,0,0,0,0,0,58624,0,0,Disabled,False,False,True,1,V0.1,    IR1800,
2019/10/31 - 15:39:03.052110,25,22.362241744995117,22.329776763916016,22.95960807800293,26.050323486328125,26.02110481262207,41.650001525878906,-,25.741758346557617,23.948711395263672,26.769224166870117,0.0,0.0,0.0,3.2960000038146973,3.2960000038146973,3.299999952316284,0.0,0.0,0.0,Idle,Tobj,False,False,False,False,False,False,False,False,4297,137,On,On,Idle,0,0,0,0,0,0,0,False,False,False,False,False,False,False,False,False,False,False,False,False,False,False,False,False,False,False,False,False,False,False,False,False,False,False,False,False,False,True,True,False,0,False,NoError,0,False,False,False,0,3,False,False,30,0,0,1000,1000,0,0,0,0,0,8,0,0,0,0,0,0,0,0,Disabled,False,False,True,1,V0.1,    IR1800,
2019/10/31 - 15:39:04.045021,26,22.33626937866211,22.329776763916016,22.95960807800293,26.063310623168945,26.02110481262207,41.650001525878906,-,25.802194595336914,23.948711395263672,26.769224166870117,0.0,0.0,0.0,3.2960000038146973,3.2960000038146973,3.299999952316284,0.0,0.0,0.0,Idle,Tobj,False,False,False,False,False,False,False,False,4297,137,On,On,Idle,0,0,0,0,0,0,0,False,False,False,False,False,False,False,False,False,False,False,False,False,False,False,False,False,False,False,False,False,False,False,False,False,False,False,False,False,False,True,True,False,0,False,NoError,0,False,False,False,0,3,False,False,30,0,0,1000,1000,0,0,0,0,0,8,0,0,0,0,0,0,0,0,Disabled,False,False,True,1,V0.1,    IR1800,
2019/10/31 - 15:39:05.004545,27,22.433666229248047,22.329776763916016,22.95960807800293,26.07954216003418,26.02110481262207,41.650001525878906,-,25.802194595336914,23.948711395263672,26.769224166870117,0.0,0.0,0.0,3.2960000038146973,3.2960000038146973,3.299999952316284,0.0,0.0,0.0,Idle,Tobj,False,False,False,False,False,False,False,False,4297,137,On,On,Idle,0,0,0,0,0,0,0,False,False,False,False,False,False,False,False,False,False,False,False,False,False,False,False,False,False,False,False,False,False,False,False,False,False,False,False,False,False,True,True,False,0,False,NoError,0,False,False,False,0,3,False,False,30,0,0,1000,1000,0,0,0,0,0,8,0,0,0,0,0,0,0,0,Disabled,False,False,True,1,V0.1,    IR1800,
2019/10/31 - 15:39:06.026881,28,22.44015884399414,22.329776763916016,22.95960807800293,26.08279037475586,26.02110481262207,41.650001525878906,-,25.923084259033203,23.948711395263672,26.769224166870117,0.0,0.0,0.0,3.2960000038146973,3.2960000038146973,3.299999952316284,0.0,0.0,0.0,Idle,Tobj,False,False,False,False,False,False,False,False,4297,137,On,On,Idle,0,0,0,0,0,0,0,False,False,False,False,False,False,False,False,False,False,False,False,False,False,False,False,False,False,False,False,False,False,False,False,False,False,False,False,False,False,True,True,False,0,False,NoError,0,False,False,False,0,3,False,False,30,0,0,1000,1000,0,0,0,0,0,8,0,0,0,0,0,0,0,0,Disabled,False,False,True,1,V0.1,    IR1800,
2019/10/31 - 15:39:07.066566,29,22.362241744995117,22.329776763916016,22.95960807800293,26.086036682128906,26.02110481262207,41.650001525878906,-,25.882787704467773,23.948711395263672,26.769224166870117,0.0,0.0,0.0,3.2980000972747803,3.2960000038146973,3.299999952316284,0.0,0.0,0.0,Idle,Tobj,False,False,False,False,False,False,False,False,4297,137,On,On,Idle,0,0,0,0,0,0,0,False,False,False,False,False,False,False,False,False,False,False,False,False,False,False,False,False,False,False,False,False,False,False,False,False,False,False,False,False,False,True,True,False,0,False,NoError,0,False,False,False,0,3,False,False,30,0,0,1000,1000,0,0,0,0,0,8,0,0,0,0,48,4096,6998,0,Disabled,False,False,True,1,V0.1,    IR1800,
2019/10/31 - 15:39:08.059713,30,22.33626937866211,22.329776763916016,22.95960807800293,26.07954216003418,26.02110481262207,41.650001525878906,-,25.842491149902344,23.948711395263672,26.769224166870117,0.0,0.0,0.0,3.2960000038146973,3.2960000038146973,3.299999952316284,0.0,0.0,0.0,Idle,Tobj,False,False,False,False,False,False,False,False,4297,137,On,On,Idle,0,0,0,0,0,0,0,False,False,False,False,False,False,False,False,False,False,False,False,False,False,False,False,False,False,False,False,False,False,False,False,False,False,False,False,False,False,True,True,False,0,False,NoError,0,False,False,False,0,3,False,False,30,0,0,1000,1000,0,0,0,0,0,8,0,0,0,0,48,4096,6998,0,Disabled,False,False,True,1,V0.1,    IR1800,
2019/10/31 - 15:39:09.034551,31,22.362241744995117,22.329776763916016,22.95960807800293,26.092529296875,26.02110481262207,41.650001525878906,-,25.94322395324707,23.948711395263672,26.769224166870117,0.0,0.0,0.0,3.2960000038146973,3.2960000038146973,3.299999952316284,0.0,0.0,0.0,Idle,Tobj,False,False,False,False,False,False,False,False,4297,137,On,On,Idle,0,0,0,0,0,0,0,False,False,False,False,False,False,False,False,False,False,False,False,False,False,False,False,False,False,False,False,False,False,False,False,False,False,False,False,False,False,True,True,False,0,False,NoError,0,False,False,False,0,3,False,False,30,0,0,1000,1000,0,0,0,0,0,8,0,0,0,0,68,58624,6998,0,Disabled,False,False,True,1,V0.1,    IR1800,
2019/10/31 - 15:39:10.042299,32,22.34925651550293,22.329776763916016,22.95960807800293,26.050323486328125,26.02110481262207,41.650001525878906,-,26.02381706237793,23.948711395263672,26.769224166870117,0.0,0.0,0.0,3.2960000038146973,3.2960000038146973,3.299999952316284,0.0,0.0,0.0,Idle,Tobj,False,False,False,False,False,False,False,False,4297,137,On,On,Idle,0,0,0,0,0,0,0,False,False,False,False,False,False,False,False,False,False,False,False,False,False,False,False,False,False,False,False,False,False,False,False,False,False,False,False,False,False,True,True,False,0,False,NoError,0,False,False,False,0,3,False,False,30,0,0,1000,1000,0,0,0,0,0,8,0,0,0,0,0,0,0,0,Disabled,False,False,True,1,V0.1,    IR1800,
2019/10/31 - 15:39:11.034712,33,22.375228881835938,22.329776763916016,22.95960807800293,26.073049545288086,26.02110481262207,41.650001525878906,-,25.923084259033203,23.948711395263672,26.769224166870117,0.0,0.0,0.0,3.2980000972747803,3.2960000038146973,3.299999952316284,0.0,0.0,0.0,Idle,Tobj,False,False,False,False,False,False,False,False,4297,137,On,On,Idle,0,0,0,0,0,0,0,False,False,False,False,False,False,False,False,False,False,False,False,False,False,False,False,False,False,False,False,False,False,False,False,False,False,False,False,False,False,True,True,False,0,False,NoError,0,False,False,False,0,3,False,False,30,0,0,1000,1000,0,0,0,0,0,8,0,0,0,0,0,0,0,0,Disabled,False,False,True,1,V0.1,    IR1800,
2019/10/31 - 15:39:12.104923,34,22.414186477661133,22.329776763916016,22.95960807800293,26.076295852661133,26.02110481262207,41.650001525878906,-,26.003660202026367,23.948711395263672,26.769224166870117,0.0,0.0,0.0,3.2960000038146973,3.2960000038146973,3.299999952316284,0.0,0.0,0.0,Idle,Tobj,False,False,False,False,False,False,False,False,4297,137,On,On,Idle,0,0,0,0,0,0,0,False,False,False,False,False,False,False,False,False,False,False,False,False,False,False,False,False,False,False,False,False,False,False,False,False,False,False,False,False,False,True,True,False,0,False,NoError,0,False,False,False,0,3,False,False,30,0,0,1000,1000,0,0,0,0,0,8,0,0,0,0,201,137,1000,232,ReadOnly,False,False,True,1,V0.1,    IR1800,
2019/10/31 - 15:39:13.033167,35,22.368736267089844,22.329776763916016,22.95960807800293,26.073049545288086,26.02110481262207,41.650001525878906,-,25.963363647460938,23.948711395263672,26.769224166870117,0.0,0.0,0.0,3.2960000038146973,3.2960000038146973,3.299999952316284,0.0,0.0,0.0,Single,Tobj,False,False,False,False,False,False,False,False,4297,137,On,On,Idle,0,0,0,0,0,0,0,False,False,False,False,False,False,False,False,False,False,False,False,False,False,False,False,False,False,False,False,False,False,False,False,False,False,False,False,False,False,True,True,False,20,True,NoError,0,False,False,False,0,3,False,False,30,0,0,1000,1000,0,0,0,0,0,8,0,0,0,0,0,40704,1000,232,ReadOnly,False,False,True,1,V0.1,    IR1800,
2019/10/31 - 15:39:14.056541,36,22.44015884399414,22.329776763916016,22.95960807800293,26.066556930541992,26.02110481262207,41.650001525878906,-,26.043956756591797,23.948711395263672,26.769224166870117,22.5810546875,0.0,22.5810546875,3.2960000038146973,3.2960000038146973,3.299999952316284,3.2070000171661377,0.0,3.2070000171661377,Idle,Tobj,False,False,False,False,False,False,False,False,4297,137,On,On,Idle,32070,33610,2985,3013,3166,0,3166,False,False,False,False,False,False,False,False,False,False,False,False,False,False,False,False,False,False,False,False,False,False,False,False,False,False,False,False,False,False,True,True,False,20,True,NoError,0,False,False,False,0,3,False,False,30,491,491,1000,1000,342,13,1,0,0,8,27,0,0,0,0,491,491,86,ReadWrite,True,False,True,1,V0.1,    IR1800,
2019/10/31 - 15:39:15.066429,37,22.40769386291504,22.329776763916016,22.95960807800293,26.472375869750977,26.02110481262207,41.650001525878906,-,26.043956756591797,23.948711395263672,26.769224166870117,22.5810546875,0.0,22.5810546875,3.2960000038146973,3.2960000038146973,3.299999952316284,3.2070000171661377,0.0,3.2070000171661377,Idle,Tobj,False,False,False,False,False,False,False,False,4297,137,On,On,Idle,32070,33610,2985,3013,3166,0,3166,False,False,False,False,False,False,False,False,False,False,False,False,False,False,False,False,False,False,False,False,False,False,False,False,False,False,False,False,False,False,True,True,False,20,True,NoError,0,False,False,False,0,3,False,False,30,0,491,1000,1000,342,13,1,0,0,8,27,0,0,0,0,0,0,0,Disabled,False,False,True,1,V0.1,    IR1800,
2019/10/31 - 15:39:16.072416,38,22.39470863342285,22.329776763916016,22.95960807800293,26.51458168029785,26.02110481262207,41.650001525878906,-,26.02381706237793,23.948711395263672,26.769224166870117,22.5810546875,0.0,22.5810546875,3.2960000038146973,3.2960000038146973,3.299999952316284,3.2070000171661377,0.0,3.2070000171661377,Idle,Tobj,False,False,False,False,False,False,False,False,4297,137,On,On,Idle,32070,33610,2985,3013,3166,0,3166,False,False,False,False,False,False,False,False,False,False,False,False,False,False,False,False,False,False,False,False,False,False,False,False,False,False,False,False,False,False,True,True,False,20,True,NoError,0,False,False,False,0,3,False,False,30,0,491,1000,1000,342,13,1,0,0,8,27,0,0,0,0,4096,6998,0,ReadWrite,True,False,True,1,V0.1,    IR1800,
2019/10/31 - 15:39:17.097801,39,22.433666229248047,22.329776763916016,22.95960807800293,26.504840850830078,26.02110481262207,41.650001525878906,-,26.184986114501953,23.948711395263672,26.769224166870117,22.5810546875,0.0,22.5810546875,3.2960000038146973,3.2960000038146973,3.299999952316284,3.2070000171661377,0.0,3.2070000171661377,Idle,Tobj,False,False,False,False,False,False,False,False,4297,137,On,On,Idle,32070,33610,2985,3013,3166,0,3166,False,False,False,False,False,False,False,False,False,False,False,False,False,False,False,False,False,False,False,False,False,False,False,False,False,False,False,False,False,False,True,True,False,20,True,NoError,0,False,False,False,0,3,False,False,30,0,491,1000,1000,342,13,1,0,0,8,27,0,0,0,0,0,0,0,Disabled,False,False,True,1,V0.1,    IR1800,
2019/10/31 - 15:39:21.732654,44,22.459638595581055,22.329776763916016,22.95960807800293,26.485361099243164,26.02110481262207,41.650001525878906,-,26.205123901367188,23.948711395263672,26.769224166870117,22.5810546875,0.0,22.5810546875,3.2960000038146973,3.2960000038146973,3.299999952316284,3.2070000171661377,0.0,3.2070000171661377,Idle,Tobj,False,False,False,False,False,False,False,False,4297,137,On,On,Idle,32070,33610,2985,3013,3166,0,3166,False,False,False,False,False,False,False,False,False,False,False,False,False,False,False,False,False,False,False,False,False,False,False,False,False,False,False,False,False,False,True,True,False,20,True,NoError,0,False,False,False,0,3,False,False,30,0,491,1000,1000,342,13,1,0,0,8,27,0,0,0,0,137,8,27,Disabled,False,False,True,1,V0.1,    IR1800,
2019/10/31 - 15:39:22.036543,44,22.459638595581055,22.329776763916016,22.95960807800293,26.485361099243164,26.02110481262207,41.650001525878906,-,26.205123901367188,23.948711395263672,26.769224166870117,22.5810546875,0.0,22.5810546875,3.2960000038146973,3.2960000038146973,3.299999952316284,3.2070000171661377,0.0,3.2070000171661377,Idle,Tobj,False,False,False,False,False,False,False,False,4297,137,On,On,Idle,32070,33610,2985,3013,3166,0,3166,False,False,False,False,False,False,False,False,False,False,False,False,False,False,False,False,False,False,False,False,False,False,False,False,False,False,False,False,False,False,True,True,False,20,True,NoError,0,False,False,False,0,3,False,False,30,0,491,1000,1000,342,13,1,0,0,8,27,0,0,0,68,4096,3166,0,Disabled,False,False,True,-,-,    IR1800,
2019/10/31 - 15:39:22.372816,45,22.459638595581055,22.329776763916016,22.95960807800293,26.485361099243164,26.02110481262207,41.650001525878906,-,26.205123901367188,23.948711395263672,26.769224166870117,22.5810546875,0.0,22.5810546875,3.2960000038146973,3.2960000038146973,3.299999952316284,3.2070000171661377,0.0,3.2070000171661377,Idle,Tobj,False,False,False,False,False,False,False,False,4297,137,On,On,Idle,32070,33610,2985,3013,3166,0,3166,False,False,False,False,False,False,False,False,False,False,False,False,False,False,False,False,False,False,False,False,False,False,False,False,False,False,False,False,False,False,True,True,False,20,True,NoError,0,False,False,False,0,3,False,False,30,0,491,1000,1000,342,13,1,0,0,8,27,0,0,0,94,58625,1000,232,ReadOnly,False,False,True,1,V0.1,    IR1800,
2019/10/31 - 15:39:22.676683,45,22.433666229248047,22.329776763916016,22.95960807800293,26.485361099243164,26.02110481262207,41.650001525878906,-,26.164827346801758,23.948711395263672,26.769224166870117,22.5810546875,0.0,22.5810546875,3.2960000038146973,3.2960000038146973,3.299999952316284,3.2070000171661377,0.0,3.2070000171661377,Idle,Tobj,False,False,False,False,False,False,False,False,4297,137,On,On,Idle,32070,33610,2985,3013,3166,0,3166,False,False,False,False,False,False,False,False,False,False,False,False,False,False,False,False,False,False,False,False,False,False,False,False,False,False,False,False,False,False,True,True,False,20,True,NoError,0,False,False,False,0,3,False,False,30,0,491,1000,1000,342,13,1,0,0,8,27,0,0,0,0,0,0,0,Disabled,False,False,True,1,V0.1,    IR1800,
2019/10/31 - 15:39:22.997027,45,-,22.329776763916016,22.95960807800293,-,26.02110481262207,41.650001525878906,-,-,23.948711395263672,26.769224166870117,-,0.0,22.5810546875,-,3.2960000038146973,3.299999952316284,-,0.0,3.2070000171661377,Idle,Tobj,False,False,False,False,False,False,False,False,4297,137,On,On,Idle,32070,33610,2985,3013,3166,0,3166,False,False,False,False,False,False,False,False,False,False,False,False,False,False,False,False,False,False,False,False,False,False,False,False,False,False,False,False,False,False,True,True,False,20,True,NoError,0,False,False,False,0,3,False,False,30,0,491,1000,1000,342,13,1,0,0,8,27,0,0,0,201,58761,1000,232,ReadOnly,False,False,True,-,-,    IR1800,
2019/10/31 - 15:39:23.283266,45,22.433666229248047,22.329776763916016,22.95960807800293,26.485361099243164,26.02110481262207,41.650001525878906,-,26.164827346801758,23.948711395263672,26.769224166870117,22.5810546875,0.0,22.5810546875,3.2960000038146973,3.2960000038146973,3.299999952316284,3.2070000171661377,0.0,3.2070000171661377,Idle,Tobj,False,False,False,False,False,False,False,False,4297,137,On,On,Idle,32070,33610,2985,3013,3166,0,3166,False,False,False,False,False,False,False,False,False,False,False,False,False,False,False,False,False,False,False,False,False,False,False,False,False,False,False,False,False,False,True,True,False,20,True,NoError,0,False,False,False,0,3,False,False,30,0,491,1000,1000,342,13,1,0,0,8,27,0,0,0,0,0,0,0,Disabled,False,False,True,1,V0.1,    IR1800,
2019/10/31 - 15:39:24.068019,46,22.485610961914062,22.329776763916016,22.95960807800293,26.534059524536133,26.02110481262207,41.650001525878906,-,26.265560150146484,23.948711395263672,26.769224166870117,22.5810546875,0.0,22.5810546875,3.2960000038146973,3.2960000038146973,3.299999952316284,3.2070000171661377,0.0,3.2070000171661377,Idle,Tobj,False,False,False,False,False,False,False,False,4297,137,On,On,Idle,32070,33610,2985,3013,3166,0,3166,False,False,False,False,False,False,False,False,False,False,False,False,False,False,False,False,False,False,False,False,False,False,False,False,False,False,False,False,False,False,True,True,False,20,True,NoError,0,False,False,False,0,3,False,False,30,0,491,1000,1000,342,13,1,0,0,8,27,0,0,0,0,0,0,0,Disabled,False,False,True,1,V0.1,    IR1800,
2019/10/31 - 15:39:25.106983,47,22.414186477661133,22.329776763916016,22.95960807800293,26.52756690979004,26.02110481262207,41.650001525878906,-,26.205123901367188,23.948711395263672,26.769224166870117,22.5810546875,0.0,22.5810546875,3.2960000038146973,3.2960000038146973,3.299999952316284,3.2070000171661377,0.0,3.2070000171661377,Idle,Tobj,False,False,False,False,False,False,False,False,4297,137,On,On,Idle,32070,33610,2985,3013,3166,0,3166,False,False,False,False,False,False,False,False,False,False,False,False,False,False,False,False,False,False,False,False,False,False,False,False,False,False,False,False,False,False,True,True,False,-,-,-,-,-,-,-,-,-,-,-,30,0,491,1000,1000,342,13,1,0,0,8,27,0,0,0,-,-,-,-,-,-,-,True,1,V0.1,    IR1800,
2019/10/31 - 15:39:26.050563,48,22.47911834716797,22.329776763916016,22.95960807800293,26.524320602416992,26.02110481262207,41.650001525878906,-,26.245420455932617,23.948711395263672,26.769224166870117,22.5810546875,0.0,22.5810546875,3.2960000038146973,3.2960000038146973,3.299999952316284,3.2070000171661377,0.0,3.2070000171661377,Idle,Tobj,False,False,False,False,False,False,False,False,4297,137,On,On,Idle,32070,33610,2985,3013,3166,0,3166,False,False,False,False,False,False,False,False,False,False,False,False,False,False,False,False,False,False,False,False,False,False,False,False,False,False,False,False,False,False,True,True,False,20,True,NoError,0,False,False,False,0,3,False,False,30,0,491,1000,1000,342,13,1,0,0,8,27,0,0,0,0,4096,6998,0,ReadWrite,True,False,True,1,V0.1,    IR1800,
2019/10/31 - 15:39:31.067130,53,22.45314598083496,22.329776763916016,22.95960807800293,26.534059524536133,26.02110481262207,41.650001525878906,-,26.265560150146484,23.948711395263672,26.769224166870117,22.5810546875,0.0,22.5810546875,3.2960000038146973,3.2960000038146973,3.299999952316284,3.2070000171661377,0.0,3.2070000171661377,Idle,Tobj,False,False,False,False,False,False,False,False,4297,137,On,On,Idle,32070,33610,2985,3013,3166,0,3166,False,False,False,False,False,False,False,False,False,False,False,False,False,False,False,False,False,False,False,False,False,False,False,False,False,False,False,False,False,False,True,True,False,20,True,NoError,0,False,False,False,0,3,False,False,30,0,491,1000,1000,342,13,1,0,0,8,27,0,0,0,0,40841,6998,0,ReadWrite,True,True,True,1,V0.1,    IR1800,
2019/10/31 - 15:39:31.386287,54,22.45314598083496,22.329776763916016,22.95960807800293,26.534059524536133,26.02110481262207,41.650001525878906,-,26.265560150146484,23.948711395263672,26.769224166870117,22.5810546875,0.0,22.5810546875,3.2960000038146973,3.2960000038146973,3.299999952316284,3.2070000171661377,0.0,3.2070000171661377,Idle,Tobj,False,False,False,False,False,False,False,False,4297,137,On,On,Idle,32070,33610,2985,3013,3166,0,3166,False,False,False,False,False,False,False,False,False,False,False,False,False,False,False,False,False,False,False,False,False,False,False,False,False,False,False,False,False,False,True,True,False,20,True,NoError,0,False,False,False,0,3,False,False,30,0,491,1000,1000,342,13,1,0,0,8,27,0,0,0,0,40704,6998,0,ReadWrite,True,True,True,1,V0.1,    IR1800,
2019/10/31 - 15:39:31.691008,54,22.446653366088867,22.329776763916016,22.95960807800293,26.530813217163086,26.02110481262207,41.650001525878906,-,26.305856704711914,23.948711395263672,26.769224166870117,22.5810546875,0.0,22.5810546875,3.2960000038146973,3.2960000038146973,3.299999952316284,3.2070000171661377,0.0,3.2070000171661377,Idle,Tobj,False,False,False,False,False,False,False,False,4297,137,On,On,Idle,32070,33610,2985,3013,3166,0,3166,False,False,False,False,False,False,False,False,False,False,False,False,False,False,False,False,False,False,False,False,False,False,False,False,False,False,False,False,False,False,True,True,False,20,True,NoError,0,False,False,False,0,3,False,False,30,0,491,1000,1000,342,13,1,0,0,8,27,0,0,0,0,0,0,0,Disabled,False,False,True,1,V0.1,    IR1800,
2019/10/31 - 15:39:32.010666,54,-,22.329776763916016,22.95960807800293,-,26.02110481262207,41.650001525878906,-,-,23.948711395263672,26.769224166870117,-,0.0,22.5810546875,-,3.2960000038146973,3.299999952316284,-,0.0,3.2070000171661377,Idle,Tobj,False,False,False,False,False,False,False,False,4297,137,On,On,Idle,32070,33610,2985,3013,3166,0,3166,False,False,False,False,False,False,False,False,False,False,False,False,False,False,False,False,False,False,False,False,False,False,False,False,False,False,False,False,False,False,True,True,False,20,True,NoError,0,False,False,False,0,3,False,False,30,0,491,1000,1000,342,13,1,0,0,8,27,0,0,0,0,0,0,0,Disabled,False,False,True,-,-,    IR1800,
2019/10/31 - 15:39:32.314947,55,22.446653366088867,22.329776763916016,22.95960807800293,26.530813217163086,26.02110481262207,41.650001525878906,-,26.305856704711914,23.948711395263672,26.769224166870117,22.5810546875,0.0,22.5810546875,3.2960000038146973,3.2960000038146973,3.299999952316284,3.2070000171661377,0.0,3.2070000171661377,Idle,Tobj,False,False,False,False,False,False,False,False,4297,137,On,On,Idle,32070,33610,2985,3013,3166,0,3166,False,False,False,False,False,False,False,False,False,False,False,False,False,False,False,False,False,False,False,False,False,False,False,False,False,False,False,False,False,False,True,True,False,20,True,NoError,0,False,False,False,0,3,False,False,30,0,491,1000,1000,342,13,1,0,0,8,27,0,0,0,169,58821,3166,0,Disabled,False,False,True,1,V0.1,    IR1800,
2019/10/31 - 15:39:32.649028,55,22.446653366088867,22.329776763916016,22.95960807800293,26.57301902770996,26.02110481262207,41.650001525878906,-,26.32601547241211,23.948711395263672,26.769224166870117,22.5810546875,0.0,22.5810546875,3.2960000038146973,3.2960000038146973,3.299999952316284,3.2070000171661377,0.0,3.2070000171661377,Idle,Tobj,False,False,False,False,False,False,False,False,4297,137,On,On,Idle,32070,33610,2985,3013,3166,0,3166,False,False,False,False,False,False,False,False,False,False,False,False,False,False,False,False,False,False,False,False,False,False,False,False,False,False,False,False,False,False,True,True,False,20,True,NoError,0,False,False,False,0,3,False,False,30,0,491,1000,1000,342,13,1,0,0,8,27,0,0,0,30,0,491,86,ReadWrite,True,False,True,1,V0.1,    IR1800,
2019/10/31 - 15:39:33.065217,55,22.446653366088867,22.329776763916016,22.95960807800293,26.57301902770996,26.02110481262207,41.650001525878906,-,26.32601547241211,23.948711395263672,26.769224166870117,22.5810546875,0.0,22.5810546875,3.2960000038146973,3.2960000038146973,3.299999952316284,3.2070000171661377,0.0,3.2070000171661377,Idle,Tobj,False,False,False,False,False,False,False,False,4297,137,On,On,Idle,32070,33610,2985,3013,3166,0,3166,False,False,False,False,False,False,False,False,False,False,False,False,False,False,False,False,False,False,False,False,False,False,False,False,False,False,False,False,False,False,True,True,False,20,True,NoError,0,False,False,False,0,3,False,False,30,0,491,1000,1000,342,13,1,0,0,8,27,0,0,0,201,58761,0,0,Disabled,False,False,True,1,V0.1,    IR1800,
2019/10/31 - 15:39:34.073098,56,22.459638595581055,22.329776763916016,22.95960807800293,26.547046661376953,26.02110481262207,41.650001525878906,-,26.32601547241211,23.948711395263672,26.769224166870117,22.5810546875,0.0,22.5810546875,3.2960000038146973,3.2960000038146973,3.299999952316284,3.2070000171661377,0.0,3.2070000171661377,Idle,Tobj,False,False,False,False,False,False,False,False,4297,137,On,On,Idle,32070,33610,2985,3013,3166,0,3166,False,False,False,False,False,False,False,False,False,False,False,False,False,False,False,False,False,False,False,False,False,False,False,False,False,False,False,False,False,False,True,True,False,20,True,NoError,0,False,False,False,0,3,False,False,30,0,491,1000,1000,342,13,1,0,0,8,27,0,0,0,0,4096,6998,0,Disabled,False,True,True,1,V0.1,    IR1800,
2019/10/31 - 15:39:35.066313,57,22.485610961914062,22.329776763916016,22.95960807800293,26.569772720336914,26.02110481262207,41.650001525878906,-,26.305856704711914,23.948711395263672,26.769224166870117,22.754467010498047,0.0,22.754467010498047,3.2960000038146973,3.2960000038146973,3.299999952316284,3.2098000049591064,0.0,3.2098000049591064,Idle,Tobj,False,False,False,False,False,False,False,False,4297,137,On,On,Idle,32098,33609,2996,3034,3126,0,3166,False,False,False,False,False,False,False,False,False,False,False,False,False,False,False,False,False,False,False,False,False,False,False,False,False,False,False,False,False,False,True,True,False,20,True,NoError,0,False,False,False,0,3,False,False,30,490,491,1000,1000,342,11,2,0,0,8,27,0,0,0,48,4096,6998,0,ReadWrite,True,False,True,1,V0.1,    IR1800,
2019/10/31 - 15:39:39.720691,62,22.459638595581055,22.329776763916016,22.95960807800293,26.498348236083984,26.02110481262207,41.650001525878906,-,26.426746368408203,23.948711395263672,26.769224166870117,22.754467010498047,0.0,22.754467010498047,3.2960000038146973,3.2960000038146973,3.299999952316284,3.2098000049591064,0.0,3.2098000049591064,Idle,Tobj,False,False,False,False,False,False,False,False,4297,137,On,On,Idle,32098,33609,2996,3034,3126,0,3166,False,False,False,False,False,False,False,False,False,False,False,False,False,False,False,False,False,False,False,False,False,False,False,False,False,False,False,False,False,False,True,True,False,20,True,NoError,0,False,False,False,0,3,False,False,30,0,491,1000,1000,342,11,2,0,0,8,27,0,0,0,94,0,8,27,Disabled,False,False,True,1,V0.1,    IR1800,
2019/10/31 - 15:39:40.041573,62,-,22.329776763916016,22.95960807800293,-,26.02110481262207,41.650001525878906,-,-,23.948711395263672,26.769224166870117,-,0.0,22.754467010498047,-,3.2960000038146973,3.299999952316284,-,0.0,3.2098000049591064,Idle,Tobj,False,False,False,False,False,False,False,False,4297,137,On,On,Idle,32098,33609,2996,3034,3126,0,3166,False,False,False,False,False,False,False,False,False,False,False,False,False,False,False,False,False,False,False,False,False,False,False,False,False,False,False,False,False,False,True,True,False,20,True,NoError,0,False,False,False,0,3,False,False,30,0,491,1000,1000,342,11,2,0,0,8,27,0,0,0,94,58626,1000,232,ReadOnly,False,False,True,-,-,    IR1800,
2019/10/31 - 15:39:40.344160,63,22.459638595581055,22.329776763916016,22.95960807800293,26.498348236083984,26.02110481262207,41.650001525878906,-,26.426746368408203,23.948711395263672,26.769224166870117,22.754467010498047,0.0,22.754467010498047,3.2960000038146973,3.2960000038146973,3.299999952316284,3.2098000049591064,0.0,3.2098000049591064,Idle,Tobj,False,False,False,False,False,False,False,False,4297,137,On,On,Idle,32098,33609,2996,3034,3126,0,3166,False,False,False,False,False,False,False,False,False,False,False,False,False,False,False,False,False,False,False,False,False,False,False,False,False,False,False,False,False,False,True,True,False,20,True,NoError,0,False,False,False,0,3,False,False,30,0,491,1000,1000,342,11,2,0,0,8,27,0,0,0,0,0,0,0,Disabled,False,False,True,1,V0.1,    IR1800,
2019/10/31 - 15:39:40.617782,63,22.40769386291504,22.329776763916016,22.95960807800293,26.52756690979004,26.02110481262207,41.650001525878906,-,26.426746368408203,23.948711395263672,26.769224166870117,22.754467010498047,0.0,22.754467010498047,3.2960000038146973,3.2960000038146973,3.299999952316284,3.2098000049591064,0.0,3.2098000049591064,Idle,Tobj,False,False,False,False,False,False,False,False,4297,137,On,On,Idle,32098,33609,2996,3034,3126,0,3166,False,False,False,False,False,False,False,False,False,False,False,False,False,False,False,False,False,False,False,False,False,False,False,False,False,False,False,False,False,False,True,True,False,20,True,NoError,0,False,False,False,0,3,False,False,30,0,491,1000,1000,342,11,2,0,0,8,27,0,0,0,56,4096,6998,0,Disabled,False,True,True,1,V0.1,    IR1800,
2019/10/31 - 15:39:40.936762,63,-,-,-,-,-,-,-,-,-,-,-,-,-,-,-,-,-,-,-,Idle,Tobj,False,False,False,False,False,False,False,False,4297,137,On,On,Idle,32098,33609,2996,3034,3126,0,3166,-,-,-,-,-,-,-,-,-,-,-,-,-,-,-,-,-,-,-,-,-,-,-,-,-,-,-,-,-,-,-,-,-,20,True,NoError,0,False,False,False,0,3,False,False,30,0,491,1000,1000,342,11,2,0,0,8,27,0,0,0,94,58761,8,27,Disabled,False,False,True,-,-,    IR1800,
2019/10/31 - 15:39:41.224517,63,22.40769386291504,22.329776763916016,22.95960807800293,26.52756690979004,26.02110481262207,41.650001525878906,-,26.426746368408203,23.948711395263672,26.769224166870117,22.754467010498047,0.0,22.754467010498047,3.2960000038146973,3.2960000038146973,3.299999952316284,3.2098000049591064,0.0,3.2098000049591064,Idle,Tobj,False,False,False,False,False,False,False,False,4297,137,On,On,Idle,32098,33609,2996,3034,3126,0,3166,False,False,False,False,False,False,False,False,False,False,False,False,False,False,False,False,False,False,False,False,False,False,False,False,False,False,False,False,False,False,True,True,False,20,True,NoError,0,False,False,False,0,3,False,False,30,0,491,1000,1000,342,11,2,0,0,8,27,0,0,0,68,4096,6998,0,Disabled,False,False,True,1,V0.1,    IR1800,
2019/10/31 - 15:39:42.039345,64,22.46613121032715,22.329776763916016,22.95960807800293,26.498348236083984,26.02110481262207,41.650001525878906,-,26.507322311401367,23.948711395263672,26.769224166870117,22.754467010498047,0.0,22.754467010498047,3.2960000038146973,3.2960000038146973,3.299999952316284,3.2098000049591064,0.0,3.2098000049591064,Idle,Tobj,False,False,False,False,False,False,False,False,4297,137,On,On,Idle,32098,33609,2996,3034,3126,0,3166,False,False,False,False,False,False,False,False,False,False,False,False,False,False,False,False,False,False,False,False,False,False,False,False,False,False,False,False,False,False,True,True,False,20,True,NoError,0,False,False,False,0,3,False,False,30,0,491,1000,1000,342,11,2,0,0,8,27,0,0,0,94,58624,491,86,Disabled,False,False,True,1,V0.1,    IR1800,
2019/10/31 - 15:39:43.078875,65,22.51158332824707,22.329776763916016,22.95960807800293,26.50159454345703,26.02110481262207,41.650001525878906,-,26.426746368408203,23.948711395263672,26.769224166870117,22.754467010498047,0.0,22.754467010498047,3.2960000038146973,3.2960000038146973,3.299999952316284,3.2098000049591064,0.0,3.2098000049591064,Idle,Tobj,False,False,False,False,False,False,False,False,4297,137,On,On,Idle,32098,33609,2996,3034,3126,0,3166,False,False,False,False,False,False,False,False,False,False,False,False,False,False,False,False,False,False,False,False,False,False,False,False,False,False,False,False,False,False,True,True,False,20,True,NoError,0,False,False,False,0,3,False,False,30,0,491,1000,1000,342,11,2,0,0,8,27,0,0,0,94,58697,257,0,ReadOnly,False,False,True,1,V0.1,    IR1800,
2019/10/31 - 15:39:44.038523,66,22.47911834716797,22.329776763916016,22.95960807800293,26.54055404663086,26.02110481262207,41.650001525878906,-,26.467025756835938,23.948711395263672,26.769224166870117,22.754467010498047,0.0,22.754467010498047,3.2960000038146973,3.2960000038146973,3.299999952316284,3.2098000049591064,0.0,3.2098000049591064,Idle,Tobj,False,False,False,False,False,False,False,False,4297,137,On,On,Idle,32098,33609,2996,3034,3126,0,3166,False,False,False,False,False,False,False,False,False,False,False,False,False,False,False,False,False,False,False,False,False,False,False,False,False,False,False,False,False,False,True,True,False,20,True,NoError,0,False,False,False,0,3,False,False,30,0,491,1000,1000,342,11,2,0,0,8,27,0,0,0,48,4096,6998,0,ReadWrite,True,False,True,1,V0.1,    IR1800,
2019/10/31 - 15:39:45.062707,67,22.414186477661133,22.329776763916016,22.95960807800293,26.543800354003906,26.02110481262207,41.650001525878906,-,26.507322311401367,23.948711395263672,26.769224166870117,22.754467010498047,0.0,22.754467010498047,3.2960000038146973,3.2960000038146973,3.299999952316284,3.2098000049591064,0.0,3.2098000049591064,Idle,Tobj,False,False,False,False,False,False,False,False,4297,137,On,On,Idle,32098,33609,2996,3034,3126,0,3166,False,False,False,False,False,False,False,False,False,False,False,False,False,False,False,False,False,False,False,False,False,False,False,False,False,False,False,False,False,False,True,True,False,20,True,NoError,0,False,False,False,0,3,False,False,30,0,491,1000,1000,342,11,2,0,0,8,27,0,0,0,94,58624,6998,0,Disabled,False,False,True,1,V0.1,    IR1800,
2019/10/31 - 15:39:46.087031,68,22.472625732421875,22.329776763916016,22.95960807800293,26.521074295043945,26.02110481262207,41.650001525878906,-,26.36629295349121,23.948711395263672,26.769224166870117,22.754467010498047,0.0,22.754467010498047,3.2960000038146973,3.2960000038146973,3.299999952316284,3.2098000049591064,0.0,3.2098000049591064,Idle,Tobj,False,False,False,False,False,False,False,False,4297,137,On,On,Idle,32098,33609,2996,3034,3126,0,3166,False,False,False,False,False,False,False,False,False,False,False,False,False,False,False,False,False,False,False,False,False,False,False,False,False,False,False,False,False,False,True,True,False,20,True,NoError,0,False,False,False,0,3,False,False,30,0,491,1000,1000,342,11,2,0,0,8,27,0,0,0,180,58842,3126,0,Disabled,False,False,True,1,V0.1,    IR1800,
2019/10/31 - 15:39:47.094842,69,22.459638595581055,22.329776763916016,22.95960807800293,26.52756690979004,26.02110481262207,41.650001525878906,-,26.467025756835938,23.948711395263672,26.769224166870117,22.754467010498047,0.0,22.754467010498047,3.2960000038146973,3.2960000038146973,3.299999952316284,3.2098000049591064,0.0,3.2098000049591064,Idle,Tobj,False,False,False,False,False,False,False,False,4297,137,On,On,Idle,32098,33609,2996,3034,3126,0,3166,False,False,False,False,False,False,False,False,False,False,False,False,False,False,False,False,False,False,False,False,False,False,False,False,False,False,False,False,False,False,True,True,False,20,True,NoError,0,False,False,False,0,3,False,False,30,0,491,1000,1000,342,11,2,0,0,8,27,0,0,0,0,0,0,0,Disabled,False,False,True,1,V0.1,    IR1800,
2019/10/31 - 15:39:48.054285,70,22.505090713500977,22.329776763916016,22.95960807800293,26.52756690979004,26.02110481262207,41.650001525878906,-,26.44688606262207,23.948711395263672,26.769224166870117,22.754467010498047,0.0,22.754467010498047,3.2960000038146973,3.2960000038146973,3.299999952316284,3.2098000049591064,0.0,3.2098000049591064,Idle,Tobj,False,False,False,False,False,False,False,False,4297,137,On,On,Idle,32098,33609,2996,3034,3126,0,3166,False,False,False,False,False,False,False,False,False,False,False,False,False,False,False,False,False,False,False,False,False,False,False,False,False,False,False,False,False,False,True,True,False,20,True,NoError,0,False,False,False,0,3,False,False,30,0,491,1000,1000,342,11,2,0,0,8,27,0,0,0,98,58697,257,0,Disabled,False,False,True,1,V0.1,    IR1800,
2019/10/31 - 15:39:49.077082,71,22.433666229248047,22.329776763916016,22.95960807800293,26.5178279876709,26.02110481262207,41.650001525878906,-,26.507322311401367,23.948711395263672,26.769224166870117,22.754467010498047,0.0,22.754467010498047,3.2960000038146973,3.2960000038146973,3.299999952316284,3.2098000049591064,0.0,3.2098000049591064,Idle,Tobj,False,False,False,False,False,False,False,False,4297,137,On,On,Idle,32098,33609,2996,3034,3126,0,3166,False,False,False,False,False,False,False,False,False,False,False,False,False,False,False,False,False,False,False,False,False,False,False,False,False,False,False,False,False,False,True,True,False,20,True,NoError,0,False,False,False,0,3,False,False,30,0,491,1000,1000,342,11,2,0,0,8,27,0,0,0,0,3034,3126,0,Disabled,False,True,True,1,V0.1,    IR1800,
2019/10/31 - 15:39:50.053597,72,22.51158332824707,22.329776763916016,22.95960807800293,26.556785583496094,26.02110481262207,41.650001525878906,-,26.507322311401367,23.948711395263672,26.769224166870117,22.754467010498047,0.0,22.754467010498047,3.2960000038146973,3.2960000038146973,3.299999952316284,3.2098000049591064,0.0,3.2098000049591064,Idle,Tobj,False,False,False,False,False,False,False,False,4297,137,On,On,Idle,32098,33609,2996,3034,3126,0,3166,False,False,False,False,False,False,False,False,False,False,False,False,False,False,False,False,False,False,False,False,False,False,False,False,False,False,False,False,False,False,True,True,False,20,True,NoError,0,False,False,False,0,3,False,False,30,0,491,1000,1000,342,11,2,0,0,8,27,0,0,0,48,4096,6998,0,Disabled,False,False,True,1,V0.1,    IR1800,
2019/10/31 - 15:39:51.044451,73,22.472625732421875,22.329776763916016,22.95960807800293,26.547046661376953,26.02110481262207,41.650001525878906,-,26.507322311401367,23.948711395263672,26.769224166870117,22.754467010498047,0.0,22.754467010498047,3.2960000038146973,3.2960000038146973,3.299999952316284,3.2098000049591064,0.0,3.2098000049591064,Idle,Tobj,False,False,False,False,False,False,False,False,4297,137,On,On,Idle,32098,33609,2996,3034,3126,0,3166,False,False,False,False,False,False,False,False,False,False,False,False,False,False,False,False,False,False,False,False,False,False,False,False,False,False,False,False,False,False,True,True,False,20,True,NoError,0,False,False,False,0,3,False,False,30,0,491,1000,1000,342,11,2,0,0,8,27,0,0,0,180,3034,3126,0,Disabled,False,True,True,1,V0.1,    IR1800,
2019/10/31 - 15:39:52.054149,74,22.44015884399414,22.329776763916016,22.95960807800293,26.56328010559082,26.02110481262207,41.650001525878906,-,26.587915420532227,23.948711395263672,26.769224166870117,22.754467010498047,0.0,22.754467010498047,3.2960000038146973,3.2960000038146973,3.299999952316284,3.2098000049591064,0.0,3.2098000049591064,Idle,Tobj,False,False,False,False,False,False,False,False,4297,137,On,On,Idle,32098,33609,2996,3034,3126,0,3166,False,False,False,False,False,False,False,False,False,False,False,False,False,False,False,False,False,False,False,False,False,False,False,False,False,False,False,False,False,False,True,True,False,20,True,NoError,0,False,False,False,0,3,False,False,30,0,491,1000,1000,342,11,2,0,0,8,27,0,0,0,0,0,0,0,Disabled,False,False,True,1,V0.1,    IR1800,
2019/10/31 - 15:39:53.076474,75,22.39470863342285,22.329776763916016,22.95960807800293,26.553539276123047,26.02110481262207,41.650001525878906,-,26.52747917175293,23.948711395263672,26.769224166870117,22.754467010498047,0.0,22.754467010498047,3.2960000038146973,3.2960000038146973,3.299999952316284,3.2098000049591064,0.0,3.2098000049591064,Idle,Tobj,False,False,False,False,False,False,False,False,4297,137,On,On,Idle,32098,33609,2996,3034,3126,0,3166,False,False,False,False,False,False,False,False,False,False,False,False,False,False,False,False,False,False,False,False,False,False,False,False,False,False,False,False,False,False,True,True,False,20,True,NoError,0,False,False,False,0,3,False,False,30,0,491,1000,1000,342,11,2,0,0,8,27,0,0,0,0,3034,3126,0,Disabled,False,True,True,1,V0.1,    IR1800,
2019/10/31 - 15:39:54.069299,76,22.459638595581055,22.329776763916016,22.95960807800293,26.530813217163086,26.02110481262207,41.650001525878906,-,26.52747917175293,23.948711395263672,26.769224166870117,22.754467010498047,0.0,22.754467010498047,3.2960000038146973,3.2960000038146973,3.299999952316284,3.2098000049591064,0.0,3.2098000049591064,Idle,Tobj,False,False,False,False,False,False,False,False,4297,137,On,On,Idle,32098,33609,2996,3034,3126,0,3166,False,False,False,False,False,False,False,False,False,False,False,False,False,False,False,False,False,False,False,False,False,False,False,False,False,False,False,False,False,False,True,True,False,20,True,NoError,0,False,False,False,0,3,False,False,30,0,491,1000,1000,342,11,2,0,0,8,27,0,0,0,30,0,491,86,ReadWrite,True,True,True,1,V0.1,    IR1800,
