time, axis1 position, axis2 position, img name
09:40:57,-100,-100,img_-100_-100
09:40:57,-100,-90,img_-100_-90
09:40:57,-100,-80,img_-100_-80
09:40:57,-100,-70,img_-100_-70
09:40:57,-100,-60,img_-100_-60
09:40:57,-100,-50,img_-100_-50
09:40:57,-100,-40,img_-100_-40
09:40:57,-100,-30,img_-100_-30
09:40:57,-100,-20,img_-100_-20
09:40:57,-100,-10,img_-100_-10
09:40:57,-100,0,img_-100_0
09:40:57,-100,10,img_-100_10
09:40:57,-100,20,img_-100_20
09:40:57,-100,30,img_-100_30
09:40:57,-100,40,img_-100_40
09:40:57,-100,50,img_-100_50
09:40:57,-100,60,img_-100_60
09:40:57,-100,70,img_-100_70
09:40:57,-100,80,img_-100_80
09:40:57,-100,90,img_-100_90
09:40:57,-100,100,img_-100_100
09:40:57,-90,100,img_-90_100
09:40:57,-90,90,img_-90_90
09:40:57,-90,80,img_-90_80
09:40:57,-90,70,img_-90_70
09:40:57,-90,60,img_-90_60
09:40:57,-90,50,img_-90_50
09:40:57,-90,40,img_-90_40
09:40:57,-90,30,img_-90_30
09:40:57,-90,20,img_-90_20
09:40:57,-90,10,img_-90_10
09:40:57,-90,0,img_-90_0
09:40:57,-90,-10,img_-90_-10
09:40:57,-90,-20,img_-90_-20
09:40:57,-90,-30,img_-90_-30
09:40:57,-90,-40,img_-90_-40
09:40:57,-90,-50,img_-90_-50
09:40:57,-90,-60,img_-90_-60
09:40:57,-90,-70,img_-90_-70
09:40:57,-90,-80,img_-90_-80
09:40:57,-90,-90,img_-90_-90
09:40:57,-90,-100,img_-90_-100
09:40:57,-80,-100,img_-80_-100
09:40:57,-80,-90,img_-80_-90
09:40:57,-80,-80,img_-80_-80
09:40:57,-80,-70,img_-80_-70
09:40:57,-80,-60,img_-80_-60
09:40:57,-80,-50,img_-80_-50
09:40:57,-80,-40,img_-80_-40
09:40:57,-80,-30,img_-80_-30
09:40:57,-80,-20,img_-80_-20
09:40:57,-80,-10,img_-80_-10
09:40:57,-80,0,img_-80_0
09:40:57,-80,10,img_-80_10
09:40:57,-80,20,img_-80_20
09:40:57,-80,30,img_-80_30
09:40:57,-80,40,img_-80_40
09:40:57,-80,50,img_-80_50
09:40:57,-80,60,img_-80_60
09:40:57,-80,70,img_-80_70
09:40:57,-80,80,img_-80_80
09:40:57,-80,90,img_-80_90
09:40:57,-80,100,img_-80_100
09:40:57,-70,100,img_-70_100
09:40:57,-70,90,img_-70_90
09:40:57,-70,80,img_-70_80
09:40:57,-70,70,img_-70_70
09:40:57,-70,60,img_-70_60
09:40:57,-70,50,img_-70_50
09:40:57,-70,40,img_-70_40
09:40:57,-70,30,img_-70_30
09:40:57,-70,20,img_-70_20
09:40:57,-70,10,img_-70_10
09:40:57,-70,0,img_-70_0
09:40:57,-70,-10,img_-70_-10
09:40:57,-70,-20,img_-70_-20
09:40:57,-70,-30,img_-70_-30
09:40:57,-70,-40,img_-70_-40
09:40:57,-70,-50,img_-70_-50
09:40:57,-70,-60,img_-70_-60
09:40:57,-70,-70,img_-70_-70
09:40:57,-70,-80,img_-70_-80
09:40:57,-70,-90,img_-70_-90
09:40:57,-70,-100,img_-70_-100
09:40:57,-60,-100,img_-60_-100
09:40:57,-60,-90,img_-60_-90
09:40:57,-60,-80,img_-60_-80
09:40:57,-60,-70,img_-60_-70
09:40:57,-60,-60,img_-60_-60
09:40:57,-60,-50,img_-60_-50
09:40:57,-60,-40,img_-60_-40
09:40:57,-60,-30,img_-60_-30
09:40:57,-60,-20,img_-60_-20
09:40:57,-60,-10,img_-60_-10
09:40:57,-60,0,img_-60_0
09:40:57,-60,10,img_-60_10
09:40:57,-60,20,img_-60_20
09:40:57,-60,30,img_-60_30
09:40:57,-60,40,img_-60_40
09:40:57,-60,50,img_-60_50
09:40:57,-60,60,img_-60_60
09:40:57,-60,70,img_-60_70
09:40:57,-60,80,img_-60_80
09:40:57,-60,90,img_-60_90
09:40:57,-60,100,img_-60_100
09:40:57,-50,100,img_-50_100
09:40:57,-50,90,img_-50_90
09:40:57,-50,80,img_-50_80
09:40:57,-50,70,img_-50_70
09:40:57,-50,60,img_-50_60
09:40:57,-50,50,img_-50_50
09:40:57,-50,40,img_-50_40
09:40:57,-50,30,img_-50_30
09:40:58,-50,20,img_-50_20
09:40:58,-50,10,img_-50_10
09:40:58,-50,0,img_-50_0
09:40:58,-50,-10,img_-50_-10
09:40:58,-50,-20,img_-50_-20
09:40:58,-50,-30,img_-50_-30
09:40:58,-50,-40,img_-50_-40
09:40:58,-50,-50,img_-50_-50
09:40:58,-50,-60,img_-50_-60
09:40:58,-50,-70,img_-50_-70
09:40:58,-50,-80,img_-50_-80
09:40:58,-50,-90,img_-50_-90
09:40:58,-50,-100,img_-50_-100
09:40:58,-40,-100,img_-40_-100
09:40:58,-40,-90,img_-40_-90
09:40:58,-40,-80,img_-40_-80
09:40:58,-40,-70,img_-40_-70
09:40:58,-40,-60,img_-40_-60
09:40:58,-40,-50,img_-40_-50
09:40:58,-40,-40,img_-40_-40
09:40:58,-40,-30,img_-40_-30
09:40:58,-40,-20,img_-40_-20
09:40:58,-40,-10,img_-40_-10
09:40:58,-40,0,img_-40_0
09:40:58,-40,10,img_-40_10
09:40:58,-40,20,img_-40_20
09:40:58,-40,30,img_-40_30
09:40:58,-40,40,img_-40_40
09:40:58,-40,50,img_-40_50
09:40:58,-40,60,img_-40_60
09:40:58,-40,70,img_-40_70
09:40:58,-40,80,img_-40_80
09:40:58,-40,90,img_-40_90
09:40:58,-40,100,img_-40_100
09:40:58,-30,100,img_-30_100
09:40:58,-30,90,img_-30_90
09:40:58,-30,80,img_-30_80
09:40:58,-30,70,img_-30_70
09:40:58,-30,60,img_-30_60
09:40:58,-30,50,img_-30_50
09:40:58,-30,40,img_-30_40
09:40:58,-30,30,img_-30_30
09:40:58,-30,20,img_-30_20
09:40:58,-30,10,img_-30_10
09:40:58,-30,0,img_-30_0
09:40:58,-30,-10,img_-30_-10
09:40:58,-30,-20,img_-30_-20
09:40:58,-30,-30,img_-30_-30
09:40:58,-30,-40,img_-30_-40
09:40:58,-30,-50,img_-30_-50
09:40:58,-30,-60,img_-30_-60
09:40:58,-30,-70,img_-30_-70
09:40:58,-30,-80,img_-30_-80
09:40:58,-30,-90,img_-30_-90
09:40:58,-30,-100,img_-30_-100
09:40:58,-20,-100,img_-20_-100
09:40:58,-20,-90,img_-20_-90
09:40:58,-20,-80,img_-20_-80
09:40:58,-20,-70,img_-20_-70
09:40:58,-20,-60,img_-20_-60
09:40:58,-20,-50,img_-20_-50
09:40:58,-20,-40,img_-20_-40
09:40:58,-20,-30,img_-20_-30
09:40:58,-20,-20,img_-20_-20
09:40:58,-20,-10,img_-20_-10
09:40:58,-20,0,img_-20_0
09:40:58,-20,10,img_-20_10
09:40:58,-20,20,img_-20_20
09:40:58,-20,30,img_-20_30
09:40:58,-20,40,img_-20_40
09:40:58,-20,50,img_-20_50
09:40:58,-20,60,img_-20_60
09:40:58,-20,70,img_-20_70
09:40:58,-20,80,img_-20_80
09:40:58,-20,90,img_-20_90
09:40:58,-20,100,img_-20_100
09:40:58,-10,100,img_-10_100
09:40:58,-10,90,img_-10_90
09:40:58,-10,80,img_-10_80
09:40:58,-10,70,img_-10_70
09:40:58,-10,60,img_-10_60
09:40:58,-10,50,img_-10_50
09:40:58,-10,40,img_-10_40
09:40:58,-10,30,img_-10_30
09:40:58,-10,20,img_-10_20
09:40:58,-10,10,img_-10_10
09:40:58,-10,0,img_-10_0
09:40:58,-10,-10,img_-10_-10
09:40:58,-10,-20,img_-10_-20
09:40:58,-10,-30,img_-10_-30
09:40:58,-10,-40,img_-10_-40
09:40:58,-10,-50,img_-10_-50
09:40:58,-10,-60,img_-10_-60
09:40:58,-10,-70,img_-10_-70
09:40:58,-10,-80,img_-10_-80
09:40:58,-10,-90,img_-10_-90
09:40:58,-10,-100,img_-10_-100
09:40:58,0,-100,img_0_-100
09:40:58,0,-90,img_0_-90
09:40:58,0,-80,img_0_-80
09:40:58,0,-70,img_0_-70
09:40:58,0,-60,img_0_-60
09:40:58,0,-50,img_0_-50
09:40:58,0,-40,img_0_-40
09:40:58,0,-30,img_0_-30
09:40:58,0,-20,img_0_-20
09:40:58,0,-10,img_0_-10
09:40:58,0,0,img_0_0
09:40:58,0,10,img_0_10
09:40:58,0,20,img_0_20
09:40:58,0,30,img_0_30
09:40:58,0,40,img_0_40
09:40:58,0,50,img_0_50
09:40:58,0,60,img_0_60
09:40:58,0,70,img_0_70
09:40:58,0,80,img_0_80
09:40:58,0,90,img_0_90
09:40:58,0,100,img_0_100
09:40:58,10,100,img_10_100
09:40:58,10,90,img_10_90
09:40:58,10,80,img_10_80
09:40:58,10,70,img_10_70
09:40:58,10,60,img_10_60
09:40:58,10,50,img_10_50
09:40:58,10,40,img_10_40
09:40:58,10,30,img_10_30
09:40:58,10,20,img_10_20
09:40:58,10,10,img_10_10
09:40:58,10,0,img_10_0
09:40:58,10,-10,img_10_-10
09:40:58,10,-20,img_10_-20
09:40:58,10,-30,img_10_-30
09:40:58,10,-40,img_10_-40
09:40:58,10,-50,img_10_-50
09:40:58,10,-60,img_10_-60
09:40:58,10,-70,img_10_-70
09:40:58,10,-80,img_10_-80
09:40:58,10,-90,img_10_-90
09:40:58,10,-100,img_10_-100
09:40:58,20,-100,img_20_-100
09:40:58,20,-90,img_20_-90
09:40:58,20,-80,img_20_-80
09:40:58,20,-70,img_20_-70
09:40:58,20,-60,img_20_-60
09:40:58,20,-50,img_20_-50
09:40:58,20,-40,img_20_-40
09:40:58,20,-30,img_20_-30
09:40:58,20,-20,img_20_-20
09:40:58,20,-10,img_20_-10
09:40:58,20,0,img_20_0
09:40:58,20,10,img_20_10
09:40:58,20,20,img_20_20
09:40:58,20,30,img_20_30
09:40:58,20,40,img_20_40
09:40:58,20,50,img_20_50
09:40:58,20,60,img_20_60
09:40:58,20,70,img_20_70
09:40:58,20,80,img_20_80
09:40:58,20,90,img_20_90
09:40:58,20,100,img_20_100
09:40:58,30,100,img_30_100
09:40:58,30,90,img_30_90
09:40:58,30,80,img_30_80
09:40:58,30,70,img_30_70
09:40:58,30,60,img_30_60
09:40:58,30,50,img_30_50
09:40:58,30,40,img_30_40
09:40:58,30,30,img_30_30
09:40:58,30,20,img_30_20
09:40:58,30,10,img_30_10
09:40:58,30,0,img_30_0
09:40:58,30,-10,img_30_-10
09:40:58,30,-20,img_30_-20
09:40:58,30,-30,img_30_-30
09:40:58,30,-40,img_30_-40
09:40:58,30,-50,img_30_-50
09:40:58,30,-60,img_30_-60
09:40:58,30,-70,img_30_-70
09:40:58,30,-80,img_30_-80
09:40:58,30,-90,img_30_-90
09:40:58,30,-100,img_30_-100
09:40:58,40,-100,img_40_-100
09:40:58,40,-90,img_40_-90
09:40:58,40,-80,img_40_-80
09:40:58,40,-70,img_40_-70
09:40:58,40,-60,img_40_-60
09:40:58,40,-50,img_40_-50
09:40:58,40,-40,img_40_-40
09:40:58,40,-30,img_40_-30
09:40:58,40,-20,img_40_-20
09:40:58,40,-10,img_40_-10
09:40:58,40,0,img_40_0
09:40:58,40,10,img_40_10
09:40:58,40,20,img_40_20
09:40:58,40,30,img_40_30
09:40:58,40,40,img_40_40
09:40:58,40,50,img_40_50
09:40:58,40,60,img_40_60
09:40:58,40,70,img_40_70
09:40:58,40,80,img_40_80
09:40:58,40,90,img_40_90
09:40:58,40,100,img_40_100
09:40:58,50,100,img_50_100
09:40:58,50,90,img_50_90
09:40:58,50,80,img_50_80
09:40:58,50,70,img_50_70
09:40:58,50,60,img_50_60
09:40:58,50,50,img_50_50
09:40:58,50,40,img_50_40
09:40:58,50,30,img_50_30
09:40:58,50,20,img_50_20
09:40:58,50,10,img_50_10
09:40:58,50,0,img_50_0
09:40:58,50,-10,img_50_-10
09:40:58,50,-20,img_50_-20
09:40:58,50,-30,img_50_-30
09:40:58,50,-40,img_50_-40
09:40:58,50,-50,img_50_-50
09:40:58,50,-60,img_50_-60
09:40:58,50,-70,img_50_-70
09:40:58,50,-80,img_50_-80
09:40:58,50,-90,img_50_-90
09:40:58,50,-100,img_50_-100
09:40:58,60,-100,img_60_-100
09:40:58,60,-90,img_60_-90
09:40:58,60,-80,img_60_-80
09:40:58,60,-70,img_60_-70
09:40:58,60,-60,img_60_-60
09:40:58,60,-50,img_60_-50
09:40:58,60,-40,img_60_-40
09:40:58,60,-30,img_60_-30
09:40:58,60,-20,img_60_-20
09:40:58,60,-10,img_60_-10
09:40:58,60,0,img_60_0
09:40:58,60,10,img_60_10
09:40:58,60,20,img_60_20
09:40:58,60,30,img_60_30
09:40:58,60,40,img_60_40
09:40:58,60,50,img_60_50
09:40:58,60,60,img_60_60
09:40:58,60,70,img_60_70
09:40:58,60,80,img_60_80
09:40:58,60,90,img_60_90
09:40:58,60,100,img_60_100
09:40:58,70,100,img_70_100
09:40:58,70,90,img_70_90
09:40:58,70,80,img_70_80
09:40:58,70,70,img_70_70
09:40:58,70,60,img_70_60
09:40:58,70,50,img_70_50
09:40:58,70,40,img_70_40
09:40:58,70,30,img_70_30
09:40:58,70,20,img_70_20
09:40:58,70,10,img_70_10
09:40:58,70,0,img_70_0
09:40:58,70,-10,img_70_-10
09:40:58,70,-20,img_70_-20
09:40:58,70,-30,img_70_-30
09:40:58,70,-40,img_70_-40
09:40:58,70,-50,img_70_-50
09:40:58,70,-60,img_70_-60
09:40:58,70,-70,img_70_-70
09:40:58,70,-80,img_70_-80
09:40:58,70,-90,img_70_-90
09:40:58,70,-100,img_70_-100
09:40:58,80,-100,img_80_-100
09:40:58,80,-90,img_80_-90
09:40:58,80,-80,img_80_-80
09:40:58,80,-70,img_80_-70
09:40:58,80,-60,img_80_-60
09:40:58,80,-50,img_80_-50
09:40:58,80,-40,img_80_-40
09:40:58,80,-30,img_80_-30
09:40:58,80,-20,img_80_-20
09:40:58,80,-10,img_80_-10
09:40:58,80,0,img_80_0
09:40:58,80,10,img_80_10
09:40:58,80,20,img_80_20
09:40:58,80,30,img_80_30
09:40:58,80,40,img_80_40
09:40:58,80,50,img_80_50
09:40:58,80,60,img_80_60
09:40:58,80,70,img_80_70
09:40:58,80,80,img_80_80
09:40:58,80,90,img_80_90
09:40:58,80,100,img_80_100
09:40:58,90,100,img_90_100
09:40:58,90,90,img_90_90
09:40:58,90,80,img_90_80
09:40:58,90,70,img_90_70
09:40:58,90,60,img_90_60
09:40:58,90,50,img_90_50
09:40:58,90,40,img_90_40
09:40:58,90,30,img_90_30
09:40:58,90,20,img_90_20
09:40:58,90,10,img_90_10
09:40:58,90,0,img_90_0
09:40:58,90,-10,img_90_-10
09:40:58,90,-20,img_90_-20
09:40:58,90,-30,img_90_-30
09:40:58,90,-40,img_90_-40
09:40:58,90,-50,img_90_-50
09:40:58,90,-60,img_90_-60
09:40:58,90,-70,img_90_-70
09:40:58,90,-80,img_90_-80
09:40:58,90,-90,img_90_-90
09:40:58,90,-100,img_90_-100
