Time,Runtime,Current3V3,Current3V3Min,Current3V3Max,CurrentHTPA,CurrentHTPAMin,CurrentHTPAMax,CurrentCubeDock3V3_1,TemperatureMCU,TemperatureMCUMin,TemperatureMCUMax,TemperatureHTPA,TemperatureHTPAMin,TemperatureHTPAMax,ADSSampleMode,HTPACalibLevel,HILEnabled,HTPADeviceID,HTPATableNumber,HtpaPowerState,HtpaWakeState,HtpaCaptureState,HtpaPTAT,HtpaVdd,HTPAImageLastMin,HTPAImageLastMean,HTPAImageLastMax,HTPAImageAllTimeMin,HTPAImageAllTimeMax,3V3OverCurrent,3V3UnderCurrent,HTPAOverCurrent,HTPAUnderCurrent,Timer1sOverRun,MCUOverTemperature,MCUUnderTemperature,HTPAOverTemperature,HTPAUnderTemperature,HTPACalibLookupOutOfRange,HTPANotResponding,HTPAConfigMismatch,HTPASpiTimeout,CommsTcSlotsBuffFull,CommsTcParamBuffFull,CommsUartProtError,CommsUartMsgIncomplete,CommsUartTcParamOverflow,UARTTxOverflow,CommsTcInvalidID,CommsTcInvalidPar,CommsTcInvalidParLen,CommsTcTimeout,CommsTlmInvalidID,UARTTxReadingEmptyBuffer,UARTRxByteOverrun,UARTRxFramingError,UartTxTimeout,SwStartupTime,SwProcessingTime,SwProcessingTimeMax,SwLoopTime,SwLensDistCorrTime,SwEstimationTime,RadEnabled,RadMode,RadFaultEvents,RadLastFaultIndex,RadCurrIteration,RadCurrSeed,InterfaceVersion,FirmwareVersion,CubeIR SN,IRCAM SN,
2019/03/19 - 14:52:17.625077,372.162,45.27315139770508,20.88181495666504,47.44509506225586,27.047016143798828,2.7043769359588623,27.271026611328125,0,30.552011489868164,28.23120880126953,30.726890563964844,0.0,0.0,0.0,Idle,None,False,4320,137,PowOn,Awake,Idle,0,0,5,4,3,2,1,False,False,False,False,False,False,False,False,False,False,False,False,False,False,False,False,False,True,False,False,False,False,False,False,False,False,False,False,1054,0,0,1000,0,0,False,ReadOnly,0,0,0,0,1,V0.1,      DEV1,    IR1800,
2019/03/19 - 14:52:18.565168,373.154,45.243934631347656,20.88181495666504,47.44509506225586,27.047016143798828,2.7043769359588623,27.271026611328125,0,30.583820343017578,28.23120880126953,30.726890563964844,0.0,0.0,0.0,Idle,None,False,4320,137,PowOn,Awake,Idle,0,0,5,4,3,2,1,False,False,False,False,False,False,False,False,False,False,False,False,False,False,False,False,False,True,False,False,False,False,False,False,False,False,False,False,1054,0,0,1000,0,0,False,ReadOnly,0,0,0,0,1,V0.1,      DEV1,    IR1800,
2019/03/19 - 14:52:18.710537,373.305,45.243934631347656,20.88181495666504,47.44509506225586,27.047016143798828,2.7043769359588623,27.271026611328125,0,30.583820343017578,28.23120880126953,30.726890563964844,0.0,0.0,0.0,Idle,None,False,4320,137,PowOn,Awake,Idle,0,0,5,4,3,2,1,False,False,False,False,False,False,False,False,False,False,False,False,False,False,False,False,False,True,False,False,False,False,False,False,False,False,False,False,1054,0,0,1000,0,0,False,ReadOnly,0,0,0,0,1,V0.1,      DEV1,    IR1800,
2019/03/19 - 14:52:20.177205,1.255,18.44040870666504,18.44040870666504,18.44040870666504,2.584254503250122,2.584254503250122,2.584254503250122,0,29.073705673217773,29.073705673217773,29.073705673217773,0.0,0.0,0.0,Idle,None,False,4320,137,PowOn,Awake,Idle,0,0,5,4,3,2,1,False,False,False,False,False,False,False,False,False,False,False,False,False,False,False,False,False,False,False,False,False,False,False,False,False,False,False,False,1054,0,0,0,0,0,False,ReadOnly,0,0,0,0,1,V0.1,      DEV1,    IR1800,
