Time,Runtime,Current3V3,Current3V3Min,Current3V3Max,CurrentHTPA,CurrentHTPAMin,CurrentHTPAMax,CurrentCubeDock3V3_1,TemperatureMCU,TemperatureMCUMin,TemperatureMCUMax,TemperatureHTPA,TemperatureHTPAMin,TemperatureHTPAMax,ADSSampleMode,HTPACalibLevel,HILEnabled,HTPADeviceID,HTPATableNumber,HtpaPowerState,HtpaWakeState,HtpaCaptureState,HtpaPTAT,HtpaVdd,HTPAImageLastMin,HTPAImageLastMean,HTPAImageLastMax,HTPAImageAllTimeMin,HTPAImageAllTimeMax,3V3OverCurrent,3V3UnderCurrent,HTPAOverCurrent,HTPAUnderCurrent,Timer1sOverRun,MCUOverTemperature,MCUUnderTemperature,HTPAOverTemperature,HTPAUnderTemperature,HTPACalibLookupOutOfRange,HTPANotResponding,HTPAConfigMismatch,HTPASpiTimeout,CommsTcSlotsBuffFull,CommsTcParamBuffFull,CommsUartProtError,CommsUartMsgIncomplete,CommsUartTcParamOverflow,UARTTxOverflow,CommsTcInvalidID,CommsTcInvalidPar,CommsTcInvalidParLen,CommsTcTimeout,CommsTlmInvalidID,UARTTxReadingEmptyBuffer,UARTRxByteOverrun,UARTRxFramingError,UartTxTimeout,SwStartupTime,SwProcessingTime,SwProcessingTimeMax,SwLoopTime,SwLensDistCorrTime,SwEstimationTime,RadEnabled,RadMode,RadFaultEvents,RadLastFaultIndex,RadCurrIteration,RadCurrSeed,InterfaceVersion,FirmwareVersion,CubeIR SN,IRCAM SN,
2019/03/19 - 14:42:03.780295,11.450,44.22776412963867,21.001937866210938,47.50353240966797,27.072988510131836,2.74658203125,28.774179458618164,0,30.011571884155273,29.423404693603516,45.541908264160156,0.0,0.0,0.0,Idle,None,False,4320,137,PowOn,Awake,Idle,0,0,5,4,3,2,1,False,False,False,False,False,False,False,False,False,False,False,False,False,False,False,False,False,False,False,False,False,False,False,False,False,False,False,False,1054,0,0,1000,0,0,False,ReadOnly,0,0,0,0,1,V0.1,      DEV1,    IR1800,
2019/03/19 - 14:42:04.428639,12.145,44.20178985595703,21.001937866210938,47.50353240966797,27.06649398803711,2.74658203125,28.774179458618164,0,29.97976303100586,29.423404693603516,45.541908264160156,0.0,0.0,0.0,Idle,None,False,4320,137,PowOn,Awake,Idle,0,0,5,4,3,2,1,False,False,False,False,False,False,False,False,False,False,False,False,False,False,False,False,False,False,False,False,False,False,False,False,False,False,False,False,1054,0,0,1000,0,0,False,ReadOnly,0,0,0,0,1,V0.1,      DEV1,    IR1800,
2019/03/19 - 14:42:04.614210,12.338,44.20178985595703,21.001937866210938,47.50353240966797,27.06649398803711,2.74658203125,28.774179458618164,0,29.97976303100586,29.423404693603516,45.541908264160156,0.0,0.0,0.0,Idle,None,False,4320,137,PowOn,Awake,Idle,0,0,5,4,3,2,1,False,False,False,False,False,False,False,False,False,False,False,False,False,False,False,False,False,False,False,False,False,False,False,False,False,False,False,False,1054,0,0,1000,0,0,False,ReadOnly,0,0,0,0,1,V0.1,      DEV1,    IR1800,
2019/03/19 - 14:42:04.789233,12.514,44.20178985595703,21.001937866210938,47.50353240966797,27.06649398803711,2.74658203125,28.774179458618164,0,29.97976303100586,29.423404693603516,45.541908264160156,0.0,0.0,0.0,Idle,None,False,4320,137,PowOn,Awake,Idle,0,0,5,4,3,2,1,False,False,False,False,False,False,False,False,False,False,False,False,False,False,False,False,False,False,False,False,False,False,False,False,False,False,False,False,1054,0,0,1000,0,0,False,ReadOnly,0,0,0,0,1,V0.1,      DEV1,    IR1800,
2019/03/19 - 14:42:04.960183,12.681,44.20178985595703,21.001937866210938,47.50353240966797,27.06649398803711,2.74658203125,28.774179458618164,0,29.97976303100586,29.423404693603516,45.541908264160156,0.0,0.0,0.0,Idle,None,False,4320,137,PowOn,Awake,Idle,0,0,5,4,3,2,1,False,False,False,False,False,False,False,False,False,False,False,False,False,False,False,False,False,False,False,False,False,False,False,False,False,False,False,False,1054,0,0,1000,0,0,False,ReadOnly,0,0,0,0,1,V0.1,      DEV1,    IR1800,
2019/03/19 - 14:42:09.728930,17.440,44.175819396972656,21.001937866210938,47.50353240966797,27.07948112487793,2.74658203125,28.774179458618164,0,30.18642234802246,29.423404693603516,45.541908264160156,29.163135528564453,0.0,29.163135528564453,Continuous,None,False,4320,137,PowOn,Awake,Idle,33561,33021,5,4,3,2,1,False,False,False,False,False,False,False,False,False,False,False,False,False,False,False,False,False,False,False,False,False,False,False,False,False,False,False,False,1054,196,196,1000,0,0,False,ReadOnly,0,0,0,0,1,V0.1,      DEV1,    IR1800,
2019/03/19 - 14:42:09.989065,17.704,44.175819396972656,21.001937866210938,47.50353240966797,27.07948112487793,2.74658203125,28.774179458618164,0,30.18642234802246,29.423404693603516,45.541908264160156,29.163135528564453,0.0,29.163135528564453,Continuous,None,False,4320,137,PowOn,Awake,Idle,33561,33021,5,4,3,2,1,False,False,False,False,False,False,False,False,False,False,False,False,False,False,False,False,False,False,False,False,False,False,False,False,False,False,False,False,1054,196,196,1000,0,0,False,ReadOnly,0,0,0,0,1,V0.1,      DEV1,    IR1800,
2019/03/19 - 14:42:10.176365,17.895,44.175819396972656,21.001937866210938,47.50353240966797,27.07948112487793,2.74658203125,28.774179458618164,0,30.18642234802246,29.423404693603516,45.541908264160156,29.163135528564453,0.0,29.163135528564453,Continuous,None,False,4320,137,PowOn,Awake,Idle,33561,33021,5,4,3,2,1,False,False,False,False,False,False,False,False,False,False,False,False,False,False,False,False,False,False,False,False,False,False,False,False,False,False,False,False,1054,196,196,1000,0,0,False,ReadOnly,0,0,0,0,1,V0.1,      DEV1,    IR1800,
2019/03/19 - 14:42:10.393999,18.111,44.175819396972656,21.001937866210938,47.50353240966797,27.07948112487793,2.74658203125,28.774179458618164,0,30.18642234802246,29.423404693603516,45.541908264160156,29.163135528564453,0.0,29.163135528564453,Continuous,None,False,4320,137,PowOn,Awake,Capturing,33561,33021,5,4,3,2,1,False,False,False,False,False,False,False,False,False,False,False,False,False,False,False,False,False,False,False,False,False,False,False,False,False,False,False,False,1054,196,196,1000,0,0,False,ReadOnly,0,0,0,0,1,V0.1,      DEV1,    IR1800,
2019/03/19 - 14:42:10.590047,18.303,44.6270866394043,21.001937866210938,47.50353240966797,27.43010902404785,2.74658203125,28.774179458618164,0,30.18642234802246,29.423404693603516,45.541908264160156,29.187744140625,0.0,29.187744140625,Continuous,None,False,4320,137,PowOn,Awake,Idle,33565,33024,5,4,3,2,1,False,False,False,False,False,False,False,False,False,False,False,False,False,False,False,False,False,False,False,False,False,False,False,False,False,False,False,False,1054,191,196,1000,0,0,False,ReadOnly,0,0,0,0,1,V0.1,      DEV1,    IR1800,
2019/03/19 - 14:42:10.780937,18.495,44.6270866394043,21.001937866210938,47.50353240966797,27.43010902404785,2.74658203125,28.774179458618164,0,30.18642234802246,29.423404693603516,45.541908264160156,29.187744140625,0.0,29.187744140625,Continuous,None,False,4320,137,PowOn,Awake,Idle,33565,33024,5,4,3,2,1,False,False,False,False,False,False,False,False,False,False,False,False,False,False,False,False,False,False,False,False,False,False,False,False,False,False,False,False,1054,191,196,1000,0,0,False,ReadOnly,0,0,0,0,1,V0.1,      DEV1,    IR1800,
2019/03/19 - 14:42:10.966884,18.686,44.6270866394043,21.001937866210938,47.50353240966797,27.43010902404785,2.74658203125,28.774179458618164,0,30.18642234802246,29.423404693603516,45.541908264160156,29.187744140625,0.0,29.187744140625,Continuous,None,False,4320,137,PowOn,Awake,Idle,33565,33024,5,4,3,2,1,False,False,False,False,False,False,False,False,False,False,False,False,False,False,False,False,False,False,False,False,False,False,False,False,False,False,False,False,1054,191,196,1000,0,0,False,ReadOnly,0,0,0,0,1,V0.1,      DEV1,    IR1800,
2019/03/19 - 14:42:11.145626,18.863,44.6270866394043,21.001937866210938,47.50353240966797,27.43010902404785,2.74658203125,28.774179458618164,0,30.18642234802246,29.423404693603516,45.541908264160156,29.187744140625,0.0,29.187744140625,Continuous,None,False,4320,137,PowOn,Awake,Idle,33565,33024,5,4,3,2,1,False,False,False,False,False,False,False,False,False,False,False,False,False,False,False,False,False,False,False,False,False,False,False,False,False,False,False,False,1054,191,196,1000,0,0,False,ReadOnly,0,0,0,0,1,V0.1,      DEV1,    IR1800,
2019/03/19 - 14:42:11.343714,19.62,44.6270866394043,21.001937866210938,47.50353240966797,27.43010902404785,2.74658203125,28.774179458618164,0,30.18642234802246,29.423404693603516,45.541908264160156,29.187744140625,0.0,29.187744140625,Continuous,None,False,4320,137,PowOn,Awake,Capturing,33565,33024,5,4,3,2,1,False,False,False,False,False,False,False,False,False,False,False,False,False,False,False,False,False,False,False,False,False,False,False,False,False,False,False,False,1054,191,196,1000,0,0,False,ReadOnly,0,0,0,0,1,V0.1,      DEV1,    IR1800,
2019/03/19 - 14:42:11.542677,19.262,44.61085510253906,21.001937866210938,47.50353240966797,27.436601638793945,2.74658203125,28.774179458618164,0,30.18642234802246,29.423404693603516,45.541908264160156,29.200048446655273,0.0,29.200048446655273,Continuous,None,False,4320,137,PowOn,Awake,Idle,33567,33022,5,4,3,2,1,False,False,False,False,False,False,False,False,False,False,False,False,False,False,False,False,False,False,False,False,False,False,False,False,False,False,False,False,1054,192,196,1000,0,0,False,ReadOnly,0,0,0,0,1,V0.1,      DEV1,    IR1800,
2019/03/19 - 14:42:11.770191,19.486,44.61085510253906,21.001937866210938,47.50353240966797,27.436601638793945,2.74658203125,28.774179458618164,0,30.18642234802246,29.423404693603516,45.541908264160156,29.200048446655273,0.0,29.200048446655273,Continuous,None,False,4320,137,PowOn,Awake,Idle,33567,33022,5,4,3,2,1,False,False,False,False,False,False,False,False,False,False,False,False,False,False,False,False,False,False,False,False,False,False,False,False,False,False,False,False,1054,192,196,1000,0,0,False,ReadOnly,0,0,0,0,1,V0.1,      DEV1,    IR1800,
2019/03/19 - 14:42:11.945622,19.662,44.61085510253906,21.001937866210938,47.50353240966797,27.436601638793945,2.74658203125,28.774179458618164,0,30.18642234802246,29.423404693603516,45.541908264160156,29.200048446655273,0.0,29.200048446655273,Continuous,None,False,4320,137,PowOn,Awake,Idle,33567,33022,5,4,3,2,1,False,False,False,False,False,False,False,False,False,False,False,False,False,False,False,False,False,False,False,False,False,False,False,False,False,False,False,False,1054,192,196,1000,0,0,False,ReadOnly,0,0,0,0,1,V0.1,      DEV1,    IR1800,
2019/03/19 - 14:42:12.154411,19.870,44.61085510253906,21.001937866210938,47.50353240966797,27.436601638793945,2.74658203125,28.774179458618164,0,30.18642234802246,29.423404693603516,45.541908264160156,29.200048446655273,0.0,29.200048446655273,Continuous,None,False,4320,137,PowOn,Awake,Idle,33567,33022,5,4,3,2,1,False,False,False,False,False,False,False,False,False,False,False,False,False,False,False,False,False,False,False,False,False,False,False,False,False,False,False,False,1054,192,196,1000,0,0,False,ReadOnly,0,0,0,0,1,V0.1,      DEV1,    IR1800,
2019/03/19 - 14:42:12.375381,20.94,44.61085510253906,21.001937866210938,47.50353240966797,27.436601638793945,2.74658203125,28.774179458618164,0,30.18642234802246,29.423404693603516,45.541908264160156,29.200048446655273,0.0,29.200048446655273,Continuous,None,False,4320,137,PowOn,Awake,Capturing,33567,33022,5,4,3,2,1,False,False,False,False,False,False,False,False,False,False,False,False,False,False,False,False,False,False,False,False,False,False,False,False,False,False,False,False,1054,192,196,1000,0,0,False,ReadOnly,0,0,0,0,1,V0.1,      DEV1,    IR1800,
2019/03/19 - 14:42:12.579382,20.294,44.6433219909668,21.001937866210938,47.50353240966797,27.45283317565918,2.74658203125,28.774179458618164,0,30.234092712402344,29.423404693603516,45.541908264160156,29.200048446655273,0.0,29.200048446655273,Continuous,None,False,4320,137,PowOn,Awake,Idle,33567,33021,5,4,3,2,1,False,False,False,False,False,False,False,False,False,False,False,False,False,False,False,False,False,False,False,False,False,False,False,False,False,False,False,False,1054,192,196,1000,0,0,False,ReadOnly,0,0,0,0,1,V0.1,      DEV1,    IR1800,
2019/03/19 - 14:42:12.774988,20.486,44.6433219909668,21.001937866210938,47.50353240966797,27.45283317565918,2.74658203125,28.774179458618164,0,30.234092712402344,29.423404693603516,45.541908264160156,29.200048446655273,0.0,29.200048446655273,Continuous,None,False,4320,137,PowOn,Awake,Idle,33567,33021,5,4,3,2,1,False,False,False,False,False,False,False,False,False,False,False,False,False,False,False,False,False,False,False,False,False,False,False,False,False,False,False,False,1054,192,196,1000,0,0,False,ReadOnly,0,0,0,0,1,V0.1,      DEV1,    IR1800,
2019/03/19 - 14:42:12.955817,20.670,44.6433219909668,21.001937866210938,47.50353240966797,27.45283317565918,2.74658203125,28.774179458618164,0,30.234092712402344,29.423404693603516,45.541908264160156,29.200048446655273,0.0,29.200048446655273,Continuous,None,False,4320,137,PowOn,Awake,Idle,33567,33021,5,4,3,2,1,False,False,False,False,False,False,False,False,False,False,False,False,False,False,False,False,False,False,False,False,False,False,False,False,False,False,False,False,1054,192,196,1000,0,0,False,ReadOnly,0,0,0,0,1,V0.1,      DEV1,    IR1800,
