2019/03/19 - 14:48:02.057531 | MAIN                | App started running
2019/03/19 - 14:48:06.112375 | CommsUART           | Successfully connected to COM8.
2019/03/19 - 14:48:06.543306 | App                 | Device is Responding
