2019/03/19 - 15:31:34.853341 | MAIN                | App started running
2019/03/19 - 15:31:41.489510 | CommsUART           | Successfully connected to COM8.
2019/03/19 - 15:31:42.176584 | App                 | Device is Responding
