2019/03/19 - 16:26:32.829698 | MAIN                | App started running
2019/03/19 - 16:26:37.279482 | CommsUART           | Successfully connected to COM8.
2019/03/19 - 16:26:38.645148 | App                 | Device is Responding
