2019/03/19 - 15:30:23.242011 | MAIN                | App started running
2019/03/19 - 15:30:28.161433 | CommsUART           | Successfully connected to COM8.
2019/03/19 - 15:30:28.849058 | App                 | Device is Responding
2019/03/19 - 15:31:26.051093 | CommsUART           | Successfully disconneted from port.
2019/03/19 - 15:31:26.304370 | CommsUART           | Successfully connected to COM8.
