2019/03/19 - 15:28:59.381962 | MAIN                | App started running
2019/03/19 - 15:29:05.769931 | CommsUART           | Successfully connected to COM8.
2019/03/19 - 15:29:07.464743 | App                 | Device is Responding
