Time,Runtime,Current3V3,Current3V3Min,Current3V3Max,CurrentHTPA,CurrentHTPAMin,CurrentHTPAMax,CurrentCubeDock3V3_1,TemperatureMCU,TemperatureMCUMin,TemperatureMCUMax,TemperatureHTPA,TemperatureHTPAMin,TemperatureHTPAMax,VoltageMCU,VoltageMCUMin,VoltageMCUMax,VoltageHTPA,VoltageHTPAMin,VoltageHTPAMax,ADSSampleMode,HTPACalibLevel,HILEnabled,HILBusy,HILEnableImgVddComp,HILEnableImgTobjCalib,HILEnableEdgeDet,HILEnableLensDistCorr,HILEnablePolyFit,HILEnableAttEst,HTPADeviceID,HTPATableNumber,HtpaPowerState,HtpaWakeState,HtpaCaptureState,HtpaPTAT,HtpaVdd,HTPAImageLastMin,HTPAImageLastMean,HTPAImageLastMax,HTPAImageAllTimeMin,HTPAImageAllTimeMax,3V3OverCurrent,HTPAOverCurrent,Timer1sOverRun,MCUOverTemperature,MCUUnderTemperature,HTPAOverTemperature,HTPAUnderTemperature,HTPACalibLookupOutOfRange,HTPAIntegrationTimeout,HTPANotResponding,HTPAConfigMismatch,HTPASpiTimeout,CommsTcSlotsBuffFull,CommsTcParamBuffFull,CommsUartProtError,CommsUartMsgIncomplete,CommsUartTcParamOverflow,UARTTxOverflow,CommsTcInvalidID,CommsTcInvalidPar,CommsTcInvalidParLen,CommsTcTimeout,CommsTlmInvalidID,UARTTxReadingEmptyBuffer,UARTRxByteOverrun,UARTRxFramingError,UartTxTimeout,SwStartupTime,SwProcessingTime,SwProcessingTimeMax,SwLoopTime,SwLoopTimeMax,SwImgCaptureTime,SwLensDistCorrTime,SwEstimationTime,SwConfigRefreshMaxTime,SwConfigCheckMemoryMaxTime,SwAdcMeasurementTime,RadNumOfFaultsLast,RadNumOfFaultsTotal,RadLastFaultIndex,RadIterationsCompleted,RadMode,RadCheckSRAM,RadCheckFRAM,FRAMStatusNotResponding,FRAMDeviceNotFound,FRAMSpiTimeout,ConfigRewrittenFromMemory,ConfigExtMemorySlotOverwritten,ConfigNoConfigFoundInMemory,ConfigNumOfValidSlots,ConfigNotSaved,ConfigDataLoss,SRAM2ParityCheckEnabled,InterfaceVersion,FirmwareVersion,CubeIR SN,IRCAM SN,
2019/10/17 - 09:26:11.195549,1507.190,17.615785598754883,17.437225341796875,17.69045639038086,35.66985321044922,35.462074279785156,35.9458122253418,12345,26.93470573425293,25.826488494873047,27.858213424682617,0.0,0.0,0.0,3.2990000247955322,3.2990000247955322,3.3010001182556152,0.0,0.0,0.0,Idle,None,False,False,False,False,False,False,False,False,4298,137,On,Off,Idle,0,0,32767,0,-32768,32767,-32768,False,False,True,False,False,False,False,False,False,True,False,False,False,False,False,False,False,False,False,False,False,False,False,False,False,False,False,1754,0,0,1000,0,0,0,0,0,0,0,0,0,0,0,Disable,False,False,False,True,False,False,False,False,0,True,False,True,1,V0.1,CubeIRV0.1,    IR1800,
2019/10/17 - 09:26:12.252478,1508.245,17.627147674560547,17.437225341796875,17.69045639038086,35.673099517822266,35.462074279785156,35.9458122253418,12345,26.99626922607422,25.826488494873047,27.858213424682617,0.0,0.0,0.0,3.2990000247955322,3.2990000247955322,3.3010001182556152,0.0,0.0,0.0,Idle,None,False,False,False,False,False,False,False,False,4298,137,On,Off,Idle,0,0,32767,0,-32768,32767,-32768,False,False,True,False,False,False,False,False,False,True,False,False,False,False,False,False,False,False,False,False,False,False,False,False,False,False,False,1754,0,0,1000,0,0,0,0,0,0,0,0,0,0,0,Disable,False,False,False,True,False,False,False,False,0,True,False,True,1,V0.1,CubeIRV0.1,    IR1800,
2019/10/17 - 09:26:13.212277,1509.204,17.627147674560547,17.437225341796875,17.69045639038086,35.569210052490234,35.462074279785156,35.9458122253418,12345,26.93470573425293,25.826488494873047,27.858213424682617,0.0,0.0,0.0,3.2990000247955322,3.2990000247955322,3.3010001182556152,0.0,0.0,0.0,Idle,None,False,False,False,False,False,False,False,False,4298,137,On,Off,Idle,0,0,32767,0,-32768,32767,-32768,False,False,True,False,False,False,False,False,False,True,False,False,False,False,False,False,False,False,False,False,False,False,False,False,False,False,False,1754,0,0,1000,0,0,0,0,0,0,0,0,0,0,0,Disable,False,False,False,True,False,False,False,False,0,True,False,True,1,V0.1,CubeIRV0.1,    IR1800,
2019/10/17 - 09:26:14.236558,1510.228,17.63364028930664,17.437225341796875,17.69045639038086,35.77374267578125,35.462074279785156,35.9458122253418,12345,27.037317276000977,25.826488494873047,27.858213424682617,0.0,0.0,0.0,3.2990000247955322,3.2990000247955322,3.3010001182556152,0.0,0.0,0.0,Idle,None,False,False,False,False,False,False,False,False,4298,137,On,Off,Idle,0,0,32767,0,-32768,32767,-32768,False,False,True,False,False,False,False,False,False,True,False,False,False,False,False,False,False,False,False,False,False,False,False,False,False,False,False,1754,0,0,1000,0,0,0,0,0,0,0,0,40704,0,0,Disable,False,False,False,True,False,False,False,False,0,True,False,True,1,V0.1,CubeIRV0.1,    IR1800,
2019/10/17 - 09:26:15.227719,1511.219,17.562217712402344,17.437225341796875,17.69045639038086,35.70881271362305,35.462074279785156,35.9458122253418,12345,26.91417121887207,25.826488494873047,27.858213424682617,0.0,0.0,0.0,3.2990000247955322,3.2990000247955322,3.3010001182556152,0.0,0.0,0.0,Idle,None,False,False,False,False,False,False,False,False,4298,137,On,Off,Idle,0,0,32767,0,-32768,32767,-32768,False,False,True,False,False,False,False,False,False,True,False,False,False,False,False,False,False,False,False,False,False,False,False,False,False,False,False,1754,0,0,1000,0,0,0,0,0,0,0,0,0,0,0,Disable,False,False,False,True,False,False,False,False,0,True,False,True,1,V0.1,CubeIRV0.1,    IR1800,
2019/10/17 - 09:26:16.235941,1512.227,17.59630584716797,17.437225341796875,17.69045639038086,35.75426483154297,35.462074279785156,35.9458122253418,12345,27.057832717895508,25.826488494873047,27.858213424682617,0.0,0.0,0.0,3.2990000247955322,3.2990000247955322,3.3010001182556152,0.0,0.0,0.0,Idle,None,False,False,False,False,False,False,False,False,4298,137,On,Off,Idle,0,0,32767,0,-32768,32767,-32768,False,False,True,False,False,False,False,False,False,True,False,False,False,False,False,False,False,False,False,False,False,False,False,False,False,False,False,1754,0,0,1000,0,0,0,0,0,0,0,0,40704,0,0,Disable,False,False,False,True,False,False,False,False,0,True,False,True,1,V0.1,CubeIRV0.1,    IR1800,
2019/10/17 - 09:26:17.212005,1513.202,17.550853729248047,17.437225341796875,17.69045639038086,35.72829055786133,35.462074279785156,35.9458122253418,12345,26.99626922607422,25.826488494873047,27.858213424682617,0.0,0.0,0.0,3.2990000247955322,3.2990000247955322,3.3010001182556152,0.0,0.0,0.0,Idle,None,False,False,False,False,False,False,False,False,4298,137,On,Off,Idle,0,0,32767,0,-32768,32767,-32768,False,False,True,False,False,False,False,False,False,True,False,False,False,False,False,False,False,False,False,False,False,False,False,False,False,False,False,1754,0,0,1000,0,0,0,0,0,0,0,0,0,0,0,Disable,False,False,False,True,False,False,False,True,0,True,False,True,1,V0.1,CubeIRV0.1,    IR1800,
2019/10/17 - 09:26:18.219901,1514.209,17.620655059814453,17.437225341796875,17.69045639038086,35.67634582519531,35.462074279785156,35.9458122253418,12345,27.01678466796875,25.826488494873047,27.858213424682617,0.0,0.0,0.0,3.2990000247955322,3.2990000247955322,3.3010001182556152,0.0,0.0,0.0,Idle,None,False,False,False,False,False,False,False,False,4298,137,On,Off,Idle,0,0,32767,0,-32768,32767,-32768,False,False,True,False,False,False,False,False,False,True,False,False,False,False,False,False,False,False,False,False,False,False,False,False,False,False,False,1754,0,0,1000,0,0,0,0,0,0,0,0,0,0,0,Disable,False,False,False,True,False,False,False,False,0,True,False,True,1,V0.1,CubeIRV0.1,    IR1800,
2019/10/17 - 09:26:19.226305,1515.217,17.57520294189453,17.437225341796875,17.69045639038086,35.80296325683594,35.462074279785156,35.9458122253418,12345,26.93470573425293,25.826488494873047,27.858213424682617,0.0,0.0,0.0,3.2990000247955322,3.2990000247955322,3.3010001182556152,0.0,0.0,0.0,Idle,None,False,False,False,False,False,False,False,False,4298,137,On,Off,Idle,0,0,32767,0,-32768,32767,-32768,False,False,True,False,False,False,False,False,False,True,False,False,False,False,False,False,False,False,False,False,False,False,False,False,False,False,False,1754,0,0,1000,0,0,0,0,0,0,0,0,0,0,0,Disable,False,False,False,True,False,False,False,False,0,True,False,True,1,V0.1,CubeIRV0.1,    IR1800,
2019/10/17 - 09:26:20.202957,1516.192,17.567087173461914,17.437225341796875,17.69045639038086,35.663360595703125,35.462074279785156,35.9458122253418,12345,26.955219268798828,25.826488494873047,27.858213424682617,0.0,0.0,0.0,3.2990000247955322,3.2990000247955322,3.3010001182556152,0.0,0.0,0.0,Idle,None,False,False,False,False,False,False,False,False,4298,137,On,Off,Idle,0,0,32767,0,-32768,32767,-32768,False,False,True,False,False,False,False,False,False,True,False,False,False,False,False,False,False,False,False,False,False,False,False,False,False,False,False,1754,0,0,1000,0,0,0,0,0,0,0,0,0,0,0,Disable,False,False,False,True,False,False,False,True,0,True,False,True,1,V0.1,CubeIRV0.1,    IR1800,
2019/10/17 - 09:26:21.211219,1517.199,17.584941864013672,17.437225341796875,17.69045639038086,35.614662170410156,35.462074279785156,35.9458122253418,12345,26.93470573425293,25.826488494873047,27.858213424682617,0.0,0.0,0.0,3.2990000247955322,3.2990000247955322,3.3010001182556152,0.0,0.0,0.0,Idle,None,False,False,False,False,False,False,False,False,4298,137,On,Off,Idle,0,0,32767,0,-32768,32767,-32768,False,False,True,False,False,False,False,False,False,True,False,False,False,False,False,False,False,False,False,False,False,False,False,False,False,False,False,1754,0,0,1000,0,0,0,0,0,0,0,0,0,0,0,Disable,False,False,False,True,False,False,False,False,0,True,False,True,1,V0.1,CubeIRV0.1,    IR1800,
2019/10/17 - 09:26:22.202235,1518.190,17.52488136291504,17.437225341796875,17.69045639038086,35.663360595703125,35.462074279785156,35.9458122253418,12345,27.098880767822266,25.826488494873047,27.858213424682617,0.0,0.0,0.0,3.2990000247955322,3.2990000247955322,3.3010001182556152,0.0,0.0,0.0,Idle,None,False,False,False,False,False,False,False,False,4298,137,On,Off,Idle,0,0,32767,0,-32768,32767,-32768,False,False,True,False,False,False,False,False,False,True,False,False,False,False,False,False,False,False,False,False,False,False,False,False,False,False,False,1754,0,0,1000,0,0,0,0,0,0,0,0,0,0,0,Disable,False,False,False,True,False,False,False,False,0,True,False,True,1,V0.1,CubeIRV0.1,    IR1800,
2019/10/17 - 09:26:23.226297,1519.214,17.597929000854492,17.437225341796875,17.69045639038086,35.64712905883789,35.462074279785156,35.9458122253418,12345,26.955219268798828,25.826488494873047,27.858213424682617,0.0,0.0,0.0,3.2990000247955322,3.2990000247955322,3.3010001182556152,0.0,0.0,0.0,Idle,None,False,False,False,False,False,False,False,False,4298,137,On,Off,Idle,0,0,32767,0,-32768,32767,-32768,False,False,True,False,False,False,False,False,False,True,False,False,False,False,False,False,False,False,False,False,False,False,False,False,False,False,False,1754,0,0,1000,0,0,0,0,0,0,0,0,0,0,0,Disable,False,False,False,True,False,False,False,True,0,True,False,True,1,V0.1,CubeIRV0.1,    IR1800,
