Time,Runtime,Current3V3,Current3V3Min,Current3V3Max,CurrentHTPA,CurrentHTPAMin,CurrentHTPAMax,CurrentCubeDock3V3_1,TemperatureMCU,TemperatureMCUMin,TemperatureMCUMax,TemperatureHTPA,TemperatureHTPAMin,TemperatureHTPAMax,VoltageMCU,VoltageMCUMin,VoltageMCUMax,VoltageHTPA,VoltageHTPAMin,VoltageHTPAMax,ADSSampleMode,HTPACalibLevel,HILEnabled,HILBusy,HILEnableImgVddComp,HILEnableImgTobjCalib,HILEnableEdgeDet,HILEnableLensDistCorr,HILEnablePolyFit,HILEnableAttEst,HTPADeviceID,HTPATableNumber,HtpaPowerState,HtpaWakeState,HtpaCaptureState,HtpaPTAT,HtpaVdd,HTPAImageLastMin,HTPAImageLastMean,HTPAImageLastMax,HTPAImageAllTimeMin,HTPAImageAllTimeMax,3V3OverCurrent,HTPAOverCurrent,Timer1sOverRun,MCUOverTemperature,MCUUnderTemperature,HTPAOverTemperature,HTPAUnderTemperature,HTPACalibLookupOutOfRange,HTPAIntegrationTimeout,HTPANotResponding,HTPAConfigMismatch,HTPASpiTimeout,CommsTcSlotsBuffFull,CommsTcParamBuffFull,CommsUartProtError,CommsUartMsgIncomplete,CommsUartTcParamOverflow,UARTTxOverflow,CommsTcInvalidID,CommsTcInvalidPar,CommsTcInvalidParLen,CommsTcTimeout,CommsTlmInvalidID,UARTTxReadingEmptyBuffer,UARTRxByteOverrun,UARTRxFramingError,UartTxTimeout,FRAMStatusNotResponding,FRAMDeviceNotFound,FRAMSpiTimeout,ConfigRewrittenFromMemory,ConfigExtMemorySlotOverwritten,ConfigNoConfigFoundInMemory,ConfigNumOfValidSlots,ConfigNotSaved,ConfigDataLoss,SwStartupTime,SwProcessingTime,SwProcessingTimeMax,SwLoopTime,SwLoopTimeMax,SwImgCaptureTime,SwLensDistCorrTime,SwEstimationTime,SwConfigRefreshMaxTime,SwConfigCheckMemoryMaxTime,SwAdcMeasurementTime,RadNumOfFaultsLast,RadNumOfFaultsTotal,RadLastFaultIndex,RadIterationsCompleted,RadMode,RadCheckSRAM,RadCheckFRAM,SRAM2ParityCheckEnabled,InterfaceVersion,FirmwareVersion,CubeIR SN,IRCAM SN,
2019/10/17 - 09:48:19.414490,18.251,17.57520294189453,17.5151424407959,17.71318244934082,35.627647399902344,35.6179084777832,35.919837951660156,12345,27.01678466796875,25.149253845214844,27.01678466796875,0.0,0.0,0.0,3.2990000247955322,3.2990000247955322,3.3010001182556152,0.0,0.0,0.0,Idle,None,False,False,False,False,False,False,False,False,4298,137,On,Off,Idle,0,0,32767,0,-32768,32767,-32768,False,False,False,False,False,False,False,False,False,True,False,False,False,False,False,False,False,False,False,False,False,False,False,False,False,False,False,False,True,False,False,False,False,0,True,False,1620,0,0,1000,1000,0,0,0,0,0,4,0,0,0,0,Disable,False,False,True,1,V0.1,CubeIRV0.1,    IR1800,
2019/10/17 - 09:48:20.421099,19.259,17.589813232421875,17.5151424407959,17.71318244934082,35.747772216796875,35.6179084777832,35.919837951660156,12345,26.83209228515625,25.149253845214844,27.01678466796875,0.0,0.0,0.0,3.2990000247955322,3.2990000247955322,3.3010001182556152,0.0,0.0,0.0,Idle,None,False,False,False,False,False,False,False,False,4298,137,On,Off,Idle,0,0,32767,0,-32768,32767,-32768,False,False,False,False,False,False,False,False,False,True,False,False,False,False,False,False,False,False,False,False,False,False,False,False,False,False,False,False,True,False,False,False,False,0,True,False,1620,0,0,1000,1000,0,0,0,0,0,4,0,0,0,0,Disable,False,False,True,1,V0.1,CubeIRV0.1,    IR1800,
2019/10/17 - 09:48:21.445609,20.281,17.57033348083496,17.5151424407959,17.71318244934082,35.61141586303711,35.61141586303711,35.919837951660156,12345,26.893657684326172,25.149253845214844,27.01678466796875,0.0,0.0,0.0,3.2990000247955322,3.2990000247955322,3.3010001182556152,0.0,0.0,0.0,Idle,None,False,False,False,False,False,False,False,False,4298,137,On,Off,Idle,0,0,32767,0,-32768,32767,-32768,False,False,False,False,False,False,False,False,False,True,False,False,False,False,False,False,False,False,False,False,False,False,False,False,False,False,False,False,True,False,False,False,False,0,True,False,1620,0,0,1000,1000,0,0,0,0,0,4,0,0,0,0,Disable,False,False,True,1,V0.1,CubeIRV0.1,    IR1800,
2019/10/17 - 09:48:22.421335,21.257,17.571956634521484,17.5151424407959,17.71318244934082,35.74127960205078,35.61141586303711,35.919837951660156,12345,26.975753784179688,25.149253845214844,27.01678466796875,0.0,0.0,0.0,3.2990000247955322,3.2990000247955322,3.3010001182556152,0.0,0.0,0.0,Idle,None,False,False,False,False,False,False,False,False,4298,137,On,Off,Idle,0,0,32767,0,-32768,32767,-32768,False,False,False,False,False,False,False,False,False,True,False,False,False,False,False,False,False,False,False,False,False,False,False,False,False,False,False,False,True,False,False,False,False,0,True,False,1620,0,0,1000,1000,0,0,0,0,0,4,0,0,0,0,Disable,False,False,True,1,V0.1,CubeIRV0.1,    IR1800,
2019/10/17 - 09:48:23.412870,22.249,17.594682693481445,17.5151424407959,17.71318244934082,35.88737487792969,35.61141586303711,35.919837951660156,12345,26.93470573425293,25.149253845214844,27.01678466796875,0.0,0.0,0.0,3.2990000247955322,3.2990000247955322,3.3010001182556152,0.0,0.0,0.0,Idle,None,False,False,False,False,False,False,False,False,4298,137,On,Off,Idle,0,0,32767,0,-32768,32767,-32768,False,False,False,False,False,False,False,False,False,True,False,False,False,False,False,False,False,False,False,False,False,False,False,False,False,False,False,False,True,False,False,False,False,0,True,False,1620,0,0,1000,1000,0,0,0,0,0,4,0,0,0,0,Disable,False,False,True,1,V0.1,CubeIRV0.1,    IR1800,
2019/10/17 - 09:48:24.452098,23.287,17.60604476928711,17.5151424407959,17.71318244934082,35.66660690307617,35.61141586303711,35.919837951660156,12345,27.098880767822266,25.149253845214844,27.098880767822266,0.0,0.0,0.0,3.3010001182556152,3.2990000247955322,3.3010001182556152,0.0,0.0,0.0,Idle,None,False,False,False,False,False,False,False,False,4298,137,On,Off,Idle,0,0,32767,0,-32768,32767,-32768,False,False,False,False,False,False,False,False,False,True,False,False,False,False,False,False,False,False,False,False,False,False,False,False,False,False,False,False,True,False,False,False,False,0,True,False,1620,0,0,1000,1000,0,0,0,0,0,4,0,0,0,0,Disable,False,False,True,1,V0.1,CubeIRV0.1,    IR1800,
2019/10/17 - 09:48:25.427563,24.262,17.620655059814453,17.5151424407959,17.71318244934082,35.7932243347168,35.61141586303711,35.919837951660156,12345,27.037317276000977,25.149253845214844,27.098880767822266,0.0,0.0,0.0,3.2990000247955322,3.2990000247955322,3.3010001182556152,0.0,0.0,0.0,Idle,None,False,False,False,False,False,False,False,False,4298,137,On,Off,Idle,0,0,32767,0,-32768,32767,-32768,False,False,False,False,False,False,False,False,False,True,False,False,False,False,False,False,False,False,False,False,False,False,False,False,False,False,False,False,True,False,False,False,False,0,True,False,1620,0,0,1000,1000,0,0,0,0,0,4,0,0,0,0,Disable,False,False,True,1,V0.1,CubeIRV0.1,    IR1800,
2019/10/17 - 09:48:26.435918,25.270,17.61416244506836,17.5151424407959,17.71318244934082,35.68284225463867,35.61141586303711,35.919837951660156,12345,27.057832717895508,25.149253845214844,27.098880767822266,0.0,0.0,0.0,3.2990000247955322,3.2990000247955322,3.3010001182556152,0.0,0.0,0.0,Idle,None,False,False,False,False,False,False,False,False,4298,137,On,Off,Idle,0,0,32767,0,-32768,32767,-32768,False,False,False,False,False,False,False,False,False,True,False,False,False,False,False,False,False,False,False,False,False,False,False,False,False,False,False,False,True,False,False,False,False,0,True,False,1620,0,0,1000,1000,0,0,0,0,0,4,0,0,0,0,Disable,False,False,True,1,V0.1,CubeIRV0.1,    IR1800,
2019/10/17 - 09:48:27.427108,26.261,17.550853729248047,17.5151424407959,17.71318244934082,35.63739013671875,35.61141586303711,35.919837951660156,12345,26.975753784179688,25.149253845214844,27.098880767822266,0.0,0.0,0.0,3.2990000247955322,3.2990000247955322,3.3010001182556152,0.0,0.0,0.0,Idle,None,False,False,False,False,False,False,False,False,4298,137,On,Off,Idle,0,0,32767,0,-32768,32767,-32768,False,False,False,False,False,False,False,False,False,True,False,False,False,False,False,False,False,False,False,False,False,False,False,False,False,False,False,False,True,False,False,False,False,0,True,False,1620,0,0,1000,1000,0,0,0,0,0,4,0,0,0,0,Disable,False,False,True,1,V0.1,CubeIRV0.1,    IR1800,
2019/10/17 - 09:48:28.419439,27.252,17.604421615600586,17.5151424407959,17.71318244934082,35.806209564208984,35.61141586303711,35.919837951660156,12345,27.098880767822266,25.149253845214844,27.098880767822266,0.0,0.0,0.0,3.3010001182556152,3.2990000247955322,3.3010001182556152,0.0,0.0,0.0,Idle,None,False,False,False,False,False,False,False,False,4298,137,On,Off,Idle,0,0,32767,0,-32768,32767,-32768,False,False,False,False,False,False,False,False,False,True,False,False,False,False,False,False,False,False,False,False,False,False,False,False,False,False,False,False,True,False,False,False,False,0,True,False,1620,0,0,1000,1000,0,0,0,0,0,4,0,0,0,0,Disable,False,False,True,1,V0.1,CubeIRV0.1,    IR1800,
2019/10/17 - 09:48:29.411103,28.243,17.635263442993164,17.5151424407959,17.71318244934082,35.66660690307617,35.61141586303711,35.919837951660156,12345,27.057832717895508,25.149253845214844,27.098880767822266,0.0,0.0,0.0,3.3010001182556152,3.2990000247955322,3.3010001182556152,0.0,0.0,0.0,Idle,None,False,False,False,False,False,False,False,False,4298,137,On,Off,Idle,0,0,32767,0,-32768,32767,-32768,False,False,False,False,False,False,False,False,False,True,False,False,False,False,False,False,False,False,False,False,False,False,False,False,False,False,False,False,True,False,False,False,False,0,True,False,1620,0,0,1000,1000,0,0,0,0,0,4,0,0,0,0,Disable,False,False,True,1,V0.1,CubeIRV0.1,    IR1800,
2019/10/17 - 09:48:30.418908,29.250,17.578449249267578,17.5151424407959,17.71318244934082,35.796470642089844,35.61141586303711,35.919837951660156,12345,27.01678466796875,25.149253845214844,27.098880767822266,0.0,0.0,0.0,3.2990000247955322,3.2990000247955322,3.3010001182556152,0.0,0.0,0.0,Idle,None,False,False,False,False,False,False,False,False,4298,137,On,Off,Idle,0,0,32767,0,-32768,32767,-32768,False,False,False,False,False,False,False,False,False,True,False,False,False,False,False,False,False,False,False,False,False,False,False,False,False,False,False,False,True,False,False,False,False,0,True,False,1620,0,0,1000,1000,0,0,0,0,0,4,0,0,0,0,Disable,False,False,True,1,V0.1,CubeIRV0.1,    IR1800,
2019/10/17 - 09:48:31.442214,30.274,17.586566925048828,17.5151424407959,17.71318244934082,35.57570266723633,35.57570266723633,35.919837951660156,12345,27.078365325927734,25.149253845214844,27.098880767822266,0.0,0.0,0.0,3.2990000247955322,3.2990000247955322,3.3010001182556152,0.0,0.0,0.0,Idle,None,False,False,False,False,False,False,False,False,4298,137,On,Off,Idle,0,0,32767,0,-32768,32767,-32768,False,False,False,False,False,False,False,False,False,True,False,False,False,False,False,False,False,False,False,False,False,False,False,False,False,False,False,False,True,False,False,False,False,0,True,False,1620,0,0,1000,1000,0,0,0,0,0,4,0,0,0,0,Disable,False,False,True,1,V0.1,CubeIRV0.1,    IR1800,
2019/10/17 - 09:48:32.417316,31.249,17.625524520874023,17.5151424407959,17.71318244934082,35.796470642089844,35.57570266723633,35.919837951660156,12345,26.93470573425293,25.149253845214844,27.098880767822266,0.0,0.0,0.0,3.2990000247955322,3.2990000247955322,3.3010001182556152,0.0,0.0,0.0,Idle,None,False,False,False,False,False,False,False,False,4298,137,On,Off,Idle,0,0,32767,0,-32768,32767,-32768,False,False,False,False,False,False,False,False,False,True,False,False,False,False,False,False,False,False,False,False,False,False,False,False,False,False,False,False,True,False,False,False,False,0,True,False,1620,0,0,1000,1000,0,0,0,0,0,4,0,0,0,0,Disable,False,False,True,1,V0.1,CubeIRV0.1,    IR1800,
2019/10/17 - 09:48:33.425533,32.256,17.627147674560547,17.5151424407959,17.71318244934082,35.74127960205078,35.57570266723633,35.919837951660156,12345,27.01678466796875,25.149253845214844,27.098880767822266,0.0,0.0,0.0,3.2990000247955322,3.2990000247955322,3.3010001182556152,0.0,0.0,0.0,Idle,None,False,False,False,False,False,False,False,False,4298,137,On,Off,Idle,0,0,32767,0,-32768,32767,-32768,False,False,False,False,False,False,False,False,False,True,False,False,False,False,False,False,False,False,False,False,False,False,False,False,False,False,False,False,True,False,False,False,False,0,True,False,1620,0,0,1000,1000,0,0,0,0,0,4,0,0,0,0,Disable,False,False,True,1,V0.1,CubeIRV0.1,    IR1800,
2019/10/17 - 09:48:34.417450,33.247,17.59630584716797,17.5151424407959,17.71318244934082,35.83867645263672,35.57570266723633,35.919837951660156,12345,27.037317276000977,25.149253845214844,27.098880767822266,0.0,0.0,0.0,3.2990000247955322,3.2990000247955322,3.3010001182556152,0.0,0.0,0.0,Idle,None,False,False,False,False,False,False,False,False,4298,137,On,Off,Idle,0,0,32767,0,-32768,32767,-32768,False,False,False,False,False,False,False,False,False,True,False,False,False,False,False,False,False,False,False,False,False,False,False,False,False,False,False,False,True,False,False,False,False,0,True,False,1620,0,0,1000,1000,0,0,0,0,0,4,0,0,0,0,Disable,False,False,True,1,V0.1,CubeIRV0.1,    IR1800,
2019/10/17 - 09:48:35.408247,34.238,17.617408752441406,17.5151424407959,17.71318244934082,35.83218002319336,35.57570266723633,35.919837951660156,12345,27.057832717895508,25.149253845214844,27.098880767822266,0.0,0.0,0.0,3.2990000247955322,3.2990000247955322,3.3010001182556152,0.0,0.0,0.0,Idle,None,False,False,False,False,False,False,False,False,4298,137,On,Off,Idle,0,0,32767,0,-32768,32767,-32768,False,False,False,False,False,False,False,False,False,True,False,False,False,False,False,False,False,False,False,False,False,False,False,False,False,False,False,False,True,False,False,False,False,0,True,False,1620,0,0,1000,1000,0,0,0,0,0,4,0,0,0,0,Disable,False,False,True,1,V0.1,CubeIRV0.1,    IR1800,
2019/10/17 - 09:48:36.416108,35.246,17.5800724029541,17.5151424407959,17.71318244934082,35.62115478515625,35.57570266723633,35.919837951660156,12345,26.99626922607422,25.149253845214844,27.098880767822266,0.0,0.0,0.0,3.2990000247955322,3.2990000247955322,3.3010001182556152,0.0,0.0,0.0,Idle,None,False,False,False,False,False,False,False,False,4298,137,On,Off,Idle,0,0,32767,0,-32768,32767,-32768,False,False,False,False,False,False,False,False,False,True,False,False,False,False,False,False,False,False,False,False,False,False,False,False,False,False,False,False,True,False,False,False,False,0,True,False,1620,0,0,1000,1000,0,0,0,0,0,4,0,0,0,0,Disable,False,False,True,1,V0.1,CubeIRV0.1,    IR1800,
2019/10/17 - 09:48:37.440735,36.269,17.599552154541016,17.5151424407959,17.71318244934082,35.900360107421875,35.57570266723633,35.919837951660156,12345,26.91417121887207,25.149253845214844,27.098880767822266,0.0,0.0,0.0,3.2990000247955322,3.2990000247955322,3.3010001182556152,0.0,0.0,0.0,Idle,None,False,False,False,False,False,False,False,False,4298,137,On,Off,Idle,0,0,32767,0,-32768,32767,-32768,False,False,False,False,False,False,False,False,False,True,False,False,False,False,False,False,False,False,False,False,False,False,False,False,False,False,False,False,True,False,False,False,False,0,True,False,1620,0,0,1000,1000,0,0,0,0,0,4,0,0,0,0,Disable,False,False,True,1,V0.1,CubeIRV0.1,    IR1800,
2019/10/17 - 09:48:38.414891,37.245,17.62877082824707,17.5151424407959,17.71318244934082,35.864646911621094,35.57570266723633,35.919837951660156,12345,27.119396209716797,25.149253845214844,27.119396209716797,0.0,0.0,0.0,3.2990000247955322,3.2990000247955322,3.3010001182556152,0.0,0.0,0.0,Idle,None,False,False,False,False,False,False,False,False,4298,137,On,Off,Idle,0,0,32767,0,-32768,32767,-32768,False,False,False,False,False,False,False,False,False,True,False,False,False,False,False,False,False,False,False,False,False,False,False,False,False,False,False,False,True,False,False,False,False,0,True,False,1620,0,0,1000,1000,0,0,0,0,0,4,0,0,0,0,Disable,False,False,True,1,V0.1,CubeIRV0.1,    IR1800,
2019/10/17 - 09:48:39.374517,38.204,17.602798461914062,17.5151424407959,17.71318244934082,35.841922760009766,35.57570266723633,35.919837951660156,12345,27.057832717895508,25.149253845214844,27.119396209716797,0.0,0.0,0.0,3.3010001182556152,3.2990000247955322,3.3010001182556152,0.0,0.0,0.0,Idle,None,False,False,False,False,False,False,False,False,4298,137,On,Off,Idle,0,0,32767,0,-32768,32767,-32768,False,False,False,False,False,False,False,False,False,True,False,False,False,False,False,False,False,False,False,False,False,False,False,False,False,False,False,False,True,False,False,False,False,0,True,False,1620,0,0,1000,1000,0,0,0,0,0,4,0,0,0,0,Disable,False,False,True,1,V0.1,CubeIRV0.1,    IR1800,
2019/10/17 - 09:48:40.367454,39.203,17.51189613342285,17.51189613342285,17.71318244934082,35.65037536621094,35.57570266723633,35.919837951660156,12345,27.139928817749023,25.149253845214844,27.139928817749023,0.0,0.0,0.0,3.2990000247955322,3.2990000247955322,3.3010001182556152,0.0,0.0,0.0,Idle,None,False,False,False,False,False,False,False,False,4298,137,On,Off,Idle,0,0,32767,0,-32768,32767,-32768,False,False,False,False,False,False,False,False,False,True,False,False,False,False,False,False,False,False,False,False,False,False,False,False,False,False,False,False,True,False,False,False,False,0,True,False,1620,0,0,1000,1000,0,0,0,0,0,4,0,0,0,0,Disable,False,False,True,1,V0.1,CubeIRV0.1,    IR1800,
2019/10/17 - 09:48:41.391240,40.219,17.554100036621094,17.51189613342285,17.71318244934082,35.864646911621094,35.57570266723633,35.919837951660156,12345,27.01678466796875,25.149253845214844,27.139928817749023,0.0,0.0,0.0,3.2990000247955322,3.2990000247955322,3.3010001182556152,0.0,0.0,0.0,Idle,None,False,False,False,False,False,False,False,False,4298,137,On,Off,Idle,0,0,32767,0,-32768,32767,-32768,False,False,False,False,False,False,False,False,False,True,False,False,False,False,False,False,False,False,False,False,False,False,False,False,False,False,False,False,True,False,False,False,True,0,True,False,1620,0,0,1000,1000,0,0,0,0,0,4,0,0,0,0,Disable,False,False,True,1,V0.1,CubeIRV0.1,    IR1800,
2019/10/17 - 09:48:42.431738,41.259,17.632017135620117,17.51189613342285,17.71318244934082,35.71530532836914,35.57570266723633,35.919837951660156,12345,26.955219268798828,25.149253845214844,27.139928817749023,0.0,0.0,0.0,3.2990000247955322,3.2990000247955322,3.3010001182556152,0.0,0.0,0.0,Idle,None,False,False,False,False,False,False,False,False,4298,137,On,Off,Idle,0,0,32767,0,-32768,32767,-32768,False,False,False,False,False,False,False,False,False,True,False,False,False,False,False,False,False,False,False,False,False,False,False,False,False,False,False,False,True,False,False,False,False,0,True,False,1620,0,0,1000,1000,0,0,0,0,0,4,0,0,0,0,Disable,False,False,True,1,V0.1,CubeIRV0.1,    IR1800,
2019/10/17 - 09:48:43.422770,42.250,17.547607421875,17.51189613342285,17.71318244934082,35.57245635986328,35.57245635986328,35.919837951660156,12345,26.99626922607422,25.149253845214844,27.139928817749023,0.0,0.0,0.0,3.2990000247955322,3.2990000247955322,3.3010001182556152,0.0,0.0,0.0,Idle,None,False,False,False,False,False,False,False,False,4298,137,On,Off,Idle,0,0,32767,0,-32768,32767,-32768,False,False,False,False,False,False,False,False,False,True,False,False,False,False,False,False,False,False,False,False,False,False,False,False,False,False,False,False,True,False,False,False,False,0,True,False,1620,0,0,1000,1000,0,0,0,0,0,4,0,0,0,0,Disable,False,False,True,1,V0.1,CubeIRV0.1,    IR1800,
2019/10/17 - 09:48:44.399019,43.225,17.62877082824707,17.51189613342285,17.71318244934082,35.81919479370117,35.57245635986328,35.919837951660156,12345,27.078365325927734,25.149253845214844,27.139928817749023,0.0,0.0,0.0,3.3010001182556152,3.2990000247955322,3.3010001182556152,0.0,0.0,0.0,Idle,None,False,False,False,False,False,False,False,False,4298,137,On,Off,Idle,0,0,32767,0,-32768,32767,-32768,False,False,False,False,False,False,False,False,False,True,False,False,False,False,False,False,False,False,False,False,False,False,False,False,False,False,False,False,True,False,False,False,False,0,True,False,1620,0,0,1000,1000,0,0,0,0,0,4,0,0,0,0,Disable,False,False,True,1,V0.1,CubeIRV0.1,    IR1800,
2019/10/17 - 09:48:45.439483,44.264,17.6239013671875,17.51189613342285,17.71318244934082,35.721797943115234,35.57245635986328,35.919837951660156,12345,26.955219268798828,25.149253845214844,27.139928817749023,0.0,0.0,0.0,3.2990000247955322,3.2990000247955322,3.3010001182556152,0.0,0.0,0.0,Idle,None,False,False,False,False,False,False,False,False,4298,137,On,Off,Idle,0,0,32767,0,-32768,32767,-32768,False,False,False,False,False,False,False,False,False,True,False,False,False,False,False,False,False,False,False,False,False,False,False,False,False,False,False,False,True,False,False,False,False,0,True,False,1620,0,0,1000,1000,0,0,0,0,0,4,0,0,0,0,Disable,False,False,True,1,V0.1,CubeIRV0.1,    IR1800,
2019/10/17 - 09:48:46.398620,45.224,17.59630584716797,17.51189613342285,17.71318244934082,35.74127960205078,35.57245635986328,35.919837951660156,12345,27.078365325927734,25.149253845214844,27.139928817749023,0.0,0.0,0.0,3.2990000247955322,3.2990000247955322,3.3010001182556152,0.0,0.0,0.0,Idle,None,False,False,False,False,False,False,False,False,4298,137,On,Off,Idle,0,0,32767,0,-32768,32767,-32768,False,False,False,False,False,False,False,False,False,True,False,False,False,False,False,False,False,False,False,False,False,False,False,False,False,False,False,False,True,False,False,False,False,0,True,False,1620,0,0,1000,1000,0,0,0,0,0,4,0,0,0,0,Disable,False,False,True,1,V0.1,CubeIRV0.1,    IR1800,
2019/10/17 - 09:48:47.438352,46.263,17.55734634399414,17.51189613342285,17.71318244934082,35.73154067993164,35.57245635986328,35.919837951660156,12345,27.18097686767578,25.149253845214844,27.18097686767578,0.0,0.0,0.0,3.2990000247955322,3.2990000247955322,3.3010001182556152,0.0,0.0,0.0,Idle,None,False,False,False,False,False,False,False,False,4298,137,On,Off,Idle,0,0,32767,0,-32768,32767,-32768,False,False,False,False,False,False,False,False,False,True,False,False,False,False,False,False,False,False,False,False,False,False,False,False,False,False,False,False,True,False,False,False,False,0,True,False,1620,0,0,1000,1000,0,0,0,0,0,4,0,0,0,0,Disable,False,False,True,1,V0.1,CubeIRV0.1,    IR1800,
2019/10/17 - 09:48:48.414587,47.238,17.6239013671875,17.51189613342285,17.71318244934082,35.69258117675781,35.57245635986328,35.919837951660156,12345,27.078365325927734,25.149253845214844,27.18097686767578,0.0,0.0,0.0,3.2990000247955322,3.2990000247955322,3.3010001182556152,0.0,0.0,0.0,Idle,None,False,False,False,False,False,False,False,False,4298,137,On,Off,Idle,0,0,32767,0,-32768,32767,-32768,False,False,False,False,False,False,False,False,False,True,False,False,False,False,False,False,False,False,False,False,False,False,False,False,False,False,False,False,True,False,False,False,False,0,True,False,1620,0,0,1000,1000,0,0,0,0,0,4,0,0,0,0,Disable,False,False,True,1,V0.1,CubeIRV0.1,    IR1800,
2019/10/17 - 09:48:49.437775,48.262,17.56546401977539,17.51189613342285,17.71318244934082,35.69258117675781,35.57245635986328,35.919837951660156,12345,27.078365325927734,25.149253845214844,27.18097686767578,0.0,0.0,0.0,3.2990000247955322,3.2990000247955322,3.3010001182556152,0.0,0.0,0.0,Idle,None,False,False,False,False,False,False,False,False,4298,137,On,Off,Idle,0,0,32767,0,-32768,32767,-32768,False,False,False,False,False,False,False,False,False,True,False,False,False,False,False,False,False,False,False,False,False,False,False,False,False,False,False,False,True,False,False,False,False,0,True,False,1620,0,0,1000,1000,0,0,0,0,0,4,0,0,0,0,Disable,False,False,True,1,V0.1,CubeIRV0.1,    IR1800,
2019/10/17 - 09:48:50.414072,49.237,17.573579788208008,17.51189613342285,17.71318244934082,35.77374267578125,35.57245635986328,35.919837951660156,12345,26.975753784179688,25.149253845214844,27.18097686767578,0.0,0.0,0.0,3.2990000247955322,3.2990000247955322,3.3010001182556152,0.0,0.0,0.0,Idle,None,False,False,False,False,False,False,False,False,4298,137,On,Off,Idle,0,0,32767,0,-32768,32767,-32768,False,False,False,False,False,False,False,False,False,True,False,False,False,False,False,False,False,False,False,False,False,False,False,False,False,False,False,False,True,False,False,False,False,0,True,False,1620,0,0,1000,1000,0,0,0,0,0,4,0,0,0,0,Disable,False,False,True,1,V0.1,CubeIRV0.1,    IR1800,
2019/10/17 - 09:48:51.421480,50.244,17.5151424407959,17.51189613342285,17.71318244934082,35.653621673583984,35.57245635986328,35.919837951660156,12345,27.078365325927734,25.149253845214844,27.18097686767578,0.0,0.0,0.0,3.2990000247955322,3.2990000247955322,3.3010001182556152,0.0,0.0,0.0,Idle,None,False,False,False,False,False,False,False,False,4298,137,On,Off,Idle,0,0,32767,0,-32768,32767,-32768,False,False,False,False,False,False,False,False,False,True,False,False,False,False,False,False,False,False,False,False,False,False,False,False,False,False,False,False,True,False,False,False,False,0,True,False,1620,0,0,1000,1000,0,0,0,0,0,4,0,0,0,0,Disable,False,False,True,1,V0.1,CubeIRV0.1,    IR1800,
2019/10/17 - 09:48:52.413584,51.248,17.63364028930664,17.51189613342285,17.71318244934082,35.712059020996094,35.57245635986328,35.919837951660156,12345,27.139928817749023,25.149253845214844,27.18097686767578,0.0,0.0,0.0,3.2990000247955322,3.2990000247955322,3.3010001182556152,0.0,0.0,0.0,Idle,None,False,False,False,False,False,False,False,False,4298,137,On,Off,Idle,0,0,32767,0,-32768,32767,-32768,False,False,False,False,False,False,False,False,False,True,False,False,False,False,False,False,False,False,False,False,False,False,False,False,False,False,False,False,True,False,False,False,False,0,True,False,1620,0,0,1000,1000,0,0,0,0,0,4,0,0,0,0,Disable,False,False,True,1,V0.1,CubeIRV0.1,    IR1800,
2019/10/17 - 09:48:53.422243,52.243,17.586566925048828,17.51189613342285,17.71318244934082,35.6179084777832,35.57245635986328,35.919837951660156,12345,27.078365325927734,25.149253845214844,27.18097686767578,0.0,0.0,0.0,3.2990000247955322,3.2990000247955322,3.3010001182556152,0.0,0.0,0.0,Idle,None,False,False,False,False,False,False,False,False,4298,137,On,Off,Idle,0,0,32767,0,-32768,32767,-32768,False,False,False,False,False,False,False,False,False,True,False,False,False,False,False,False,False,False,False,False,False,False,False,False,False,False,False,False,True,False,False,False,True,0,True,False,1620,0,0,1000,1000,0,0,0,0,0,4,0,0,0,0,Disable,False,False,True,1,V0.1,CubeIRV0.1,    IR1800,
2019/10/17 - 09:48:54.445060,53.266,17.64175796508789,17.51189613342285,17.71318244934082,35.75101852416992,35.57245635986328,35.919837951660156,12345,27.078365325927734,25.149253845214844,27.18097686767578,0.0,0.0,0.0,3.3010001182556152,3.2990000247955322,3.3010001182556152,0.0,0.0,0.0,Idle,None,False,False,False,False,False,False,False,False,4298,137,On,Off,Idle,0,0,32767,0,-32768,32767,-32768,False,False,False,False,False,False,False,False,False,True,False,False,False,False,False,False,False,False,False,False,False,False,False,False,False,False,False,False,True,False,False,False,False,0,True,False,1620,0,0,1000,1000,0,0,0,0,0,4,0,0,0,0,Disable,False,False,True,1,V0.1,CubeIRV0.1,    IR1800,
2019/10/17 - 09:48:55.421403,54.242,17.62877082824707,17.51189613342285,17.71318244934082,35.73478698730469,35.57245635986328,35.919837951660156,12345,27.119396209716797,25.149253845214844,27.18097686767578,0.0,0.0,0.0,3.2990000247955322,3.2990000247955322,3.3010001182556152,0.0,0.0,0.0,Idle,None,False,False,False,False,False,False,False,False,4298,137,On,Off,Idle,0,0,32767,0,-32768,32767,-32768,False,False,False,False,False,False,False,False,False,True,False,False,False,False,False,False,False,False,False,False,False,False,False,False,False,False,False,False,True,False,False,False,False,0,True,False,1620,0,0,1000,1000,0,0,0,0,0,4,0,0,0,0,Disable,False,False,True,1,V0.1,CubeIRV0.1,    IR1800,
2019/10/17 - 09:48:56.412137,55.233,17.617408752441406,17.51189613342285,17.71318244934082,35.663360595703125,35.57245635986328,35.919837951660156,12345,27.01678466796875,25.149253845214844,27.18097686767578,0.0,0.0,0.0,3.2990000247955322,3.2990000247955322,3.3010001182556152,0.0,0.0,0.0,Idle,None,False,False,False,False,False,False,False,False,4298,137,On,Off,Idle,0,0,32767,0,-32768,32767,-32768,False,False,False,False,False,False,False,False,False,True,False,False,False,False,False,False,False,False,False,False,False,False,False,False,False,False,False,False,True,False,False,False,False,0,True,False,1620,0,0,1000,1000,0,0,0,0,0,4,0,0,0,0,Disable,False,False,True,1,V0.1,CubeIRV0.1,    IR1800,
2019/10/17 - 09:48:57.388751,56.208,17.657989501953125,17.51189613342285,17.71318244934082,35.7704963684082,35.57245635986328,35.919837951660156,12345,26.975753784179688,25.149253845214844,27.18097686767578,0.0,0.0,0.0,3.2990000247955322,3.2990000247955322,3.3010001182556152,0.0,0.0,0.0,Idle,None,False,False,False,False,False,False,False,False,4298,137,On,Off,Idle,0,0,32767,0,-32768,32767,-32768,False,False,False,False,False,False,False,False,False,True,False,False,False,False,False,False,False,False,False,False,False,False,False,False,False,False,False,False,True,False,False,False,False,0,True,False,1620,0,0,1000,1000,0,0,0,0,0,4,0,0,0,0,Disable,False,False,True,1,V0.1,CubeIRV0.1,    IR1800,
2019/10/17 - 09:48:58.428650,57.248,17.573579788208008,17.51189613342285,17.71318244934082,35.85490798950195,35.57245635986328,35.919837951660156,12345,27.098880767822266,25.149253845214844,27.18097686767578,0.0,0.0,0.0,3.2990000247955322,3.2990000247955322,3.3010001182556152,0.0,0.0,0.0,Idle,None,False,False,False,False,False,False,False,False,4298,137,On,Off,Idle,0,0,32767,0,-32768,32767,-32768,False,False,False,False,False,False,False,False,False,True,False,False,False,False,False,False,False,False,False,False,False,False,False,False,False,False,False,False,True,False,False,False,True,0,True,False,1620,0,0,1000,1000,0,0,0,0,0,4,0,0,0,0,Disable,False,False,True,1,V0.1,CubeIRV0.1,    IR1800,
2019/10/17 - 09:48:59.404391,58.223,17.571956634521484,17.51189613342285,17.71318244934082,35.77374267578125,35.57245635986328,35.919837951660156,12345,27.01678466796875,25.149253845214844,27.18097686767578,0.0,0.0,0.0,3.2990000247955322,3.2990000247955322,3.3010001182556152,0.0,0.0,0.0,Idle,None,False,False,False,False,False,False,False,False,4298,137,On,Off,Idle,0,0,32767,0,-32768,32767,-32768,False,False,False,False,False,False,False,False,False,True,False,False,False,False,False,False,False,False,False,False,False,False,False,False,False,False,False,False,True,False,False,False,False,0,True,False,1620,0,0,1000,1000,0,0,0,0,0,4,0,0,0,0,Disable,False,False,True,1,V0.1,CubeIRV0.1,    IR1800,
2019/10/17 - 09:49:00.443531,59.262,17.604421615600586,17.51189613342285,17.71318244934082,35.699073791503906,35.57245635986328,35.919837951660156,12345,26.955219268798828,25.149253845214844,27.18097686767578,0.0,0.0,0.0,3.2990000247955322,3.2990000247955322,3.3010001182556152,0.0,0.0,0.0,Idle,None,False,False,False,False,False,False,False,False,4298,137,On,Off,Idle,0,0,32767,0,-32768,32767,-32768,False,False,False,False,False,False,False,False,False,True,False,False,False,False,False,False,False,False,False,False,False,False,False,False,False,False,False,False,True,False,False,False,False,0,True,False,1620,0,0,1000,1000,0,0,0,0,0,4,0,0,0,0,Disable,False,False,True,1,V0.1,CubeIRV0.1,    IR1800,
2019/10/17 - 09:49:01.403435,60.221,17.578449249267578,17.51189613342285,17.71318244934082,35.6244010925293,35.57245635986328,35.919837951660156,12345,26.99626922607422,25.149253845214844,27.18097686767578,0.0,0.0,0.0,3.2990000247955322,3.2990000247955322,3.3010001182556152,0.0,0.0,0.0,Idle,None,False,False,False,False,False,False,False,False,4298,137,On,Off,Idle,0,0,32767,0,-32768,32767,-32768,False,False,False,False,False,False,False,False,False,True,False,False,False,False,False,False,False,False,False,False,False,False,False,False,False,False,False,False,True,False,False,False,False,0,True,False,1620,0,0,1000,1000,0,0,0,0,0,4,0,0,0,0,Disable,False,False,True,1,V0.1,CubeIRV0.1,    IR1800,
2019/10/17 - 09:49:02.443384,61.260,17.5914363861084,17.51189613342285,17.71318244934082,35.673099517822266,35.57245635986328,35.919837951660156,12345,27.037317276000977,25.149253845214844,27.18097686767578,0.0,0.0,0.0,3.3010001182556152,3.2990000247955322,3.3010001182556152,0.0,0.0,0.0,Idle,None,False,False,False,False,False,False,False,False,4298,137,On,Off,Idle,0,0,32767,0,-32768,32767,-32768,False,False,False,False,False,False,False,False,False,True,False,False,False,False,False,False,False,False,False,False,False,False,False,False,False,False,False,False,True,False,False,False,True,0,True,False,1620,0,0,1000,1000,0,0,0,0,0,4,0,0,0,0,Disable,False,False,True,1,V0.1,CubeIRV0.1,    IR1800,
2019/10/17 - 09:49:03.435610,62.252,17.599552154541016,17.51189613342285,17.71318244934082,35.806209564208984,35.57245635986328,35.919837951660156,12345,27.098880767822266,25.149253845214844,27.18097686767578,0.0,0.0,0.0,3.2990000247955322,3.2990000247955322,3.3010001182556152,0.0,0.0,0.0,Idle,None,False,False,False,False,False,False,False,False,4298,137,On,Off,Idle,0,0,32767,0,-32768,32767,-32768,False,False,False,False,False,False,False,False,False,True,False,False,False,False,False,False,False,False,False,False,False,False,False,False,False,False,False,False,True,False,False,False,False,0,True,False,1620,0,0,1000,1000,0,0,0,0,0,4,0,0,0,0,Disable,False,False,True,1,V0.1,CubeIRV0.1,    IR1800,
2019/10/17 - 09:49:04.426679,63.243,17.635263442993164,17.51189613342285,17.71318244934082,35.70556640625,35.57245635986328,35.919837951660156,12345,27.078365325927734,25.149253845214844,27.18097686767578,0.0,0.0,0.0,3.2990000247955322,3.2990000247955322,3.3010001182556152,0.0,0.0,0.0,Idle,None,False,False,False,False,False,False,False,False,4298,137,On,Off,Idle,0,0,32767,0,-32768,32767,-32768,False,False,False,False,False,False,False,False,False,True,False,False,False,False,False,False,False,False,False,False,False,False,False,False,False,False,False,False,True,False,False,False,False,0,True,False,1620,0,0,1000,1000,0,0,0,0,0,4,0,0,0,0,Disable,False,False,True,1,V0.1,CubeIRV0.1,    IR1800,
2019/10/17 - 09:49:05.451502,64.267,17.568710327148438,17.51189613342285,17.71318244934082,35.71855163574219,35.57245635986328,35.919837951660156,12345,26.975753784179688,25.149253845214844,27.18097686767578,0.0,0.0,0.0,3.2990000247955322,3.2990000247955322,3.3010001182556152,0.0,0.0,0.0,Idle,None,False,False,False,False,False,False,False,False,4298,137,On,Off,Idle,0,0,32767,0,-32768,32767,-32768,False,False,False,False,False,False,False,False,False,True,False,False,False,False,False,False,False,False,False,False,False,False,False,False,False,False,False,False,True,False,False,False,False,0,True,False,1620,0,0,1000,1000,0,0,0,0,0,4,0,0,0,0,Disable,False,False,True,1,V0.1,CubeIRV0.1,    IR1800,
2019/10/17 - 09:49:06.426569,65.242,17.617408752441406,17.51189613342285,17.71318244934082,35.738033294677734,35.57245635986328,35.919837951660156,12345,27.057832717895508,25.149253845214844,27.18097686767578,0.0,0.0,0.0,3.2990000247955322,3.2990000247955322,3.3010001182556152,0.0,0.0,0.0,Idle,None,False,False,False,False,False,False,False,False,4298,137,On,Off,Idle,0,0,32767,0,-32768,32767,-32768,False,False,False,False,False,False,False,False,False,True,False,False,False,False,False,False,False,False,False,False,False,False,False,False,False,False,False,False,True,False,False,False,False,0,True,False,1620,0,0,1000,1000,0,0,0,0,0,4,0,0,0,0,Disable,False,False,True,1,V0.1,CubeIRV0.1,    IR1800,
2019/10/17 - 09:49:07.402710,66.217,17.505401611328125,17.505401611328125,17.71318244934082,35.767250061035156,35.57245635986328,35.919837951660156,12345,27.057832717895508,25.149253845214844,27.18097686767578,0.0,0.0,0.0,3.2990000247955322,3.2990000247955322,3.3010001182556152,0.0,0.0,0.0,Idle,None,False,False,False,False,False,False,False,False,4298,137,On,Off,Idle,0,0,32767,0,-32768,32767,-32768,False,False,False,False,False,False,False,False,False,True,False,False,False,False,False,False,False,False,False,False,False,False,False,False,False,False,False,False,True,False,False,False,False,0,True,False,1620,0,0,1000,1000,0,0,0,0,0,4,0,0,0,0,Disable,False,False,True,1,V0.1,CubeIRV0.1,    IR1800,
2019/10/17 - 09:49:08.409746,67.224,17.59630584716797,17.505401611328125,17.71318244934082,35.74452590942383,35.57245635986328,35.919837951660156,12345,27.01678466796875,25.149253845214844,27.18097686767578,0.0,0.0,0.0,3.2990000247955322,3.2990000247955322,3.3010001182556152,0.0,0.0,0.0,Idle,None,False,False,False,False,False,False,False,False,4298,137,On,Off,Idle,0,0,32767,0,-32768,32767,-32768,False,False,False,False,False,False,False,False,False,True,False,False,False,False,False,False,False,False,False,False,False,False,False,False,False,False,False,False,True,False,False,False,False,0,True,False,1620,0,0,1000,1000,0,0,0,0,0,4,0,0,0,0,Disable,False,False,True,1,V0.1,CubeIRV0.1,    IR1800,
2019/10/17 - 09:49:09.433832,68.248,17.604421615600586,17.505401611328125,17.71318244934082,35.62115478515625,35.57245635986328,35.919837951660156,12345,27.057832717895508,25.149253845214844,27.18097686767578,0.0,0.0,0.0,3.2990000247955322,3.2990000247955322,3.3010001182556152,0.0,0.0,0.0,Idle,None,False,False,False,False,False,False,False,False,4298,137,On,Off,Idle,0,0,32767,0,-32768,32767,-32768,False,False,False,False,False,False,False,False,False,True,False,False,False,False,False,False,False,False,False,False,False,False,False,False,False,False,False,False,True,False,False,False,False,0,True,False,1620,0,0,1000,1000,0,0,0,0,0,4,0,0,0,0,Disable,False,False,True,1,V0.1,CubeIRV0.1,    IR1800,
2019/10/17 - 09:49:10.409171,69.223,17.57520294189453,17.505401611328125,17.71318244934082,35.780235290527344,35.57245635986328,35.919837951660156,12345,27.160444259643555,25.149253845214844,27.18097686767578,0.0,0.0,0.0,3.3010001182556152,3.2990000247955322,3.3010001182556152,0.0,0.0,0.0,Idle,None,False,False,False,False,False,False,False,False,4298,137,On,Off,Idle,0,0,32767,0,-32768,32767,-32768,False,False,False,False,False,False,False,False,False,True,False,False,False,False,False,False,False,False,False,False,False,False,False,False,False,False,False,False,True,False,False,False,False,0,True,False,1620,0,0,1000,1000,0,0,0,0,0,4,0,0,0,0,Disable,False,False,True,1,V0.1,CubeIRV0.1,    IR1800,
2019/10/17 - 09:49:11.400657,70.214,17.567087173461914,17.505401611328125,17.71318244934082,35.53350067138672,35.53350067138672,35.919837951660156,12345,27.078365325927734,25.149253845214844,27.18097686767578,0.0,0.0,0.0,3.2990000247955322,3.2990000247955322,3.3010001182556152,0.0,0.0,0.0,Idle,None,False,False,False,False,False,False,False,False,4298,137,On,Off,Idle,0,0,32767,0,-32768,32767,-32768,False,False,False,False,False,False,False,False,False,True,False,False,False,False,False,False,False,False,False,False,False,False,False,False,False,False,False,False,True,False,False,False,False,0,True,False,1620,0,0,1000,1000,0,0,0,0,0,4,0,0,0,0,Disable,False,False,True,1,V0.1,CubeIRV0.1,    IR1800,
2019/10/17 - 09:49:12.424475,71.237,17.56546401977539,17.505401611328125,17.71318244934082,35.673099517822266,35.53350067138672,35.919837951660156,12345,27.098880767822266,25.149253845214844,27.18097686767578,0.0,0.0,0.0,3.2990000247955322,3.2990000247955322,3.3010001182556152,0.0,0.0,0.0,Idle,None,False,False,False,False,False,False,False,False,4298,137,On,Off,Idle,0,0,32767,0,-32768,32767,-32768,False,False,False,False,False,False,False,False,False,True,False,False,False,False,False,False,False,False,False,False,False,False,False,False,False,False,False,False,True,False,False,False,False,0,True,False,1620,0,0,1000,1000,0,0,0,0,0,4,0,0,0,0,Disable,False,False,True,1,V0.1,CubeIRV0.1,    IR1800,
2019/10/17 - 09:49:13.399893,72.213,17.597929000854492,17.505401611328125,17.71318244934082,35.66985321044922,35.53350067138672,35.919837951660156,12345,27.098880767822266,25.149253845214844,27.18097686767578,0.0,0.0,0.0,3.2990000247955322,3.2990000247955322,3.3010001182556152,0.0,0.0,0.0,Idle,None,False,False,False,False,False,False,False,False,4298,137,On,Off,Idle,0,0,32767,0,-32768,32767,-32768,False,False,False,False,False,False,False,False,False,True,False,False,False,False,False,False,False,False,False,False,False,False,False,False,False,False,False,False,True,False,False,False,False,0,True,False,1620,0,0,1000,1000,0,0,0,0,0,4,0,0,0,0,Disable,False,False,True,1,V0.1,CubeIRV0.1,    IR1800,
2019/10/17 - 09:49:14.424775,73.236,17.638511657714844,17.505401611328125,17.71318244934082,35.76075744628906,35.53350067138672,35.919837951660156,12345,26.93470573425293,25.149253845214844,27.18097686767578,0.0,0.0,0.0,3.2990000247955322,3.2990000247955322,3.3010001182556152,0.0,0.0,0.0,Idle,None,False,False,False,False,False,False,False,False,4298,137,On,Off,Idle,0,0,32767,0,-32768,32767,-32768,False,False,False,False,False,False,False,False,False,True,False,False,False,False,False,False,False,False,False,False,False,False,False,False,False,False,False,False,True,False,False,False,False,0,True,False,1620,0,0,1000,1000,0,0,0,0,0,4,0,0,0,0,Disable,False,False,True,1,V0.1,CubeIRV0.1,    IR1800,
2019/10/17 - 09:49:15.399683,74.211,17.554100036621094,17.505401611328125,17.71318244934082,35.69582748413086,35.53350067138672,35.919837951660156,12345,27.037317276000977,25.149253845214844,27.18097686767578,0.0,0.0,0.0,3.2990000247955322,3.2990000247955322,3.3010001182556152,0.0,0.0,0.0,Idle,None,False,False,False,False,False,False,False,False,4298,137,On,Off,Idle,0,0,32767,0,-32768,32767,-32768,False,False,False,False,False,False,False,False,False,True,False,False,False,False,False,False,False,False,False,False,False,False,False,False,False,False,False,False,True,False,False,False,False,0,True,False,1620,0,0,1000,1000,0,0,0,0,0,4,0,0,0,0,Disable,False,False,True,1,V0.1,CubeIRV0.1,    IR1800,
2019/10/17 - 09:49:16.423914,75.235,17.56546401977539,17.505401611328125,17.71318244934082,35.76400375366211,35.53350067138672,35.919837951660156,12345,26.99626922607422,25.149253845214844,27.18097686767578,0.0,0.0,0.0,3.2990000247955322,3.2990000247955322,3.3010001182556152,0.0,0.0,0.0,Idle,None,False,False,False,False,False,False,False,False,4298,137,On,Off,Idle,0,0,32767,0,-32768,32767,-32768,False,False,False,False,False,False,False,False,False,True,False,False,False,False,False,False,False,False,False,False,False,False,False,False,False,False,False,False,True,False,False,False,False,0,True,False,1620,0,0,1000,1000,0,0,0,0,0,4,0,0,0,0,Disable,False,False,True,1,V0.1,CubeIRV0.1,    IR1800,
2019/10/17 - 09:49:17.415460,76.226,17.578449249267578,17.505401611328125,17.71318244934082,35.663360595703125,35.53350067138672,35.919837951660156,12345,27.098880767822266,25.149253845214844,27.18097686767578,0.0,0.0,0.0,3.2990000247955322,3.2990000247955322,3.3010001182556152,0.0,0.0,0.0,Idle,None,False,False,False,False,False,False,False,False,4298,137,On,Off,Idle,0,0,32767,0,-32768,32767,-32768,False,False,False,False,False,False,False,False,False,True,False,False,False,False,False,False,False,False,False,False,False,False,False,False,False,False,False,False,True,False,False,False,False,0,True,False,1620,0,0,1000,1000,0,0,0,0,0,4,0,0,0,0,Disable,False,False,True,1,V0.1,CubeIRV0.1,    IR1800,
2019/10/17 - 09:49:18.422981,77.233,17.59630584716797,17.505401611328125,17.71318244934082,35.70881271362305,35.53350067138672,35.919837951660156,12345,27.160444259643555,25.149253845214844,27.18097686767578,0.0,0.0,0.0,3.2990000247955322,3.2990000247955322,3.3010001182556152,0.0,0.0,0.0,Idle,None,False,False,False,False,False,False,False,False,4298,137,On,Off,Idle,0,0,32767,0,-32768,32767,-32768,False,False,False,False,False,False,False,False,False,True,False,False,False,False,False,False,False,False,False,False,False,False,False,False,False,False,False,False,True,False,False,False,False,0,True,False,1620,0,0,1000,1000,0,0,0,0,0,4,0,0,0,0,Disable,False,False,True,1,V0.1,CubeIRV0.1,    IR1800,
2019/10/17 - 09:49:19.414503,78.224,17.576826095581055,17.505401611328125,17.71318244934082,35.627647399902344,35.53350067138672,35.919837951660156,12345,26.93470573425293,25.149253845214844,27.18097686767578,0.0,0.0,0.0,3.3010001182556152,3.2990000247955322,3.3010001182556152,0.0,0.0,0.0,Idle,None,False,False,False,False,False,False,False,False,4298,137,On,Off,Idle,0,0,32767,0,-32768,32767,-32768,False,False,False,False,False,False,False,False,False,True,False,False,False,False,False,False,False,False,False,False,False,False,False,False,False,False,False,False,True,False,False,False,False,0,True,False,1620,0,0,1000,1000,0,0,0,0,0,4,0,0,0,0,Disable,False,False,True,1,V0.1,CubeIRV0.1,    IR1800,
2019/10/17 - 09:49:20.438382,79.247,17.562217712402344,17.505401611328125,17.71318244934082,35.712059020996094,35.53350067138672,35.919837951660156,12345,27.119396209716797,25.149253845214844,27.18097686767578,0.0,0.0,0.0,3.2990000247955322,3.2990000247955322,3.3010001182556152,0.0,0.0,0.0,Idle,None,False,False,False,False,False,False,False,False,4298,137,On,Off,Idle,0,0,32767,0,-32768,32767,-32768,False,False,False,False,False,False,False,False,False,True,False,False,False,False,False,False,False,False,False,False,False,False,False,False,False,False,False,False,True,False,False,False,False,0,True,False,1620,0,0,1000,1000,0,0,0,0,0,4,0,0,0,0,Disable,False,False,True,1,V0.1,CubeIRV0.1,    IR1800,
2019/10/17 - 09:49:21.429740,80.239,17.6563663482666,17.505401611328125,17.71318244934082,35.80296325683594,35.53350067138672,35.919837951660156,12345,27.119396209716797,25.149253845214844,27.18097686767578,0.0,0.0,0.0,3.2990000247955322,3.2990000247955322,3.3010001182556152,0.0,0.0,0.0,Idle,None,False,False,False,False,False,False,False,False,4298,137,On,Off,Idle,0,0,32767,0,-32768,32767,-32768,False,False,False,False,False,False,False,False,False,True,False,False,False,False,False,False,False,False,False,False,False,False,False,False,False,False,False,False,True,False,False,False,False,0,True,False,1620,0,0,1000,1000,0,0,0,0,0,4,0,0,0,0,Disable,False,False,True,1,V0.1,CubeIRV0.1,    IR1800,
2019/10/17 - 09:49:22.389890,81.198,17.52488136291504,17.505401611328125,17.71318244934082,35.699073791503906,35.53350067138672,35.919837951660156,12345,27.139928817749023,25.149253845214844,27.18097686767578,0.0,0.0,0.0,3.2990000247955322,3.2990000247955322,3.3010001182556152,0.0,0.0,0.0,Idle,None,False,False,False,False,False,False,False,False,4298,137,On,Off,Idle,0,0,32767,0,-32768,32767,-32768,False,False,False,False,False,False,False,False,False,True,False,False,False,False,False,False,False,False,False,False,False,False,False,False,False,False,False,False,True,False,False,False,True,0,True,False,1620,0,0,1000,1000,0,0,0,0,0,4,0,0,0,0,Disable,False,False,True,1,V0.1,CubeIRV0.1,    IR1800,
2019/10/17 - 09:49:23.445280,82.253,17.638511657714844,17.505401611328125,17.71318244934082,35.673099517822266,35.53350067138672,35.919837951660156,12345,27.057832717895508,25.149253845214844,27.18097686767578,0.0,0.0,0.0,3.2990000247955322,3.2990000247955322,3.3010001182556152,0.0,0.0,0.0,Idle,None,False,False,False,False,False,False,False,False,4298,137,On,Off,Idle,0,0,32767,0,-32768,32767,-32768,False,False,False,False,False,False,False,False,False,True,False,False,False,False,False,False,False,False,False,False,False,False,False,False,False,False,False,False,True,False,False,False,False,0,True,False,1620,0,0,1000,1000,0,0,0,0,0,4,0,0,0,0,Disable,False,False,True,1,V0.1,CubeIRV0.1,    IR1800,
2019/10/17 - 09:49:24.420547,83.229,17.61416244506836,17.505401611328125,17.71318244934082,35.62115478515625,35.53350067138672,35.919837951660156,12345,27.078365325927734,25.149253845214844,27.18097686767578,0.0,0.0,0.0,3.2990000247955322,3.2990000247955322,3.3010001182556152,0.0,0.0,0.0,Idle,None,False,False,False,False,False,False,False,False,4298,137,On,Off,Idle,0,0,32767,0,-32768,32767,-32768,False,False,False,False,False,False,False,False,False,True,False,False,False,False,False,False,False,False,False,False,False,False,False,False,False,False,False,False,True,False,False,False,False,0,True,False,1620,0,0,1000,1000,0,0,0,0,0,4,0,0,0,0,Disable,False,False,True,1,V0.1,CubeIRV0.1,    IR1800,
2019/10/17 - 09:49:25.428155,84.236,17.61903190612793,17.505401611328125,17.71318244934082,35.69258117675781,35.53350067138672,35.919837951660156,12345,27.098880767822266,25.149253845214844,27.18097686767578,0.0,0.0,0.0,3.2990000247955322,3.2990000247955322,3.3010001182556152,0.0,0.0,0.0,Idle,None,False,False,False,False,False,False,False,False,4298,137,On,Off,Idle,0,0,32767,0,-32768,32767,-32768,False,False,False,False,False,False,False,False,False,True,False,False,False,False,False,False,False,False,False,False,False,False,False,False,False,False,False,False,True,False,False,False,False,0,True,False,1620,0,0,1000,1000,0,0,0,0,0,4,0,0,0,0,Disable,False,False,True,1,V0.1,CubeIRV0.1,    IR1800,
2019/10/17 - 09:49:26.420645,85.227,17.547607421875,17.505401611328125,17.71318244934082,35.7704963684082,35.53350067138672,35.919837951660156,12345,27.18097686767578,25.149253845214844,27.18097686767578,0.0,0.0,0.0,3.2990000247955322,3.2990000247955322,3.3010001182556152,0.0,0.0,0.0,Idle,None,False,False,False,False,False,False,False,False,4298,137,On,Off,Idle,0,0,32767,0,-32768,32767,-32768,False,False,False,False,False,False,False,False,False,True,False,False,False,False,False,False,False,False,False,False,False,False,False,False,False,False,False,False,True,False,False,False,False,0,True,False,1620,0,0,1000,1000,0,0,0,0,0,4,0,0,0,0,Disable,False,False,True,1,V0.1,CubeIRV0.1,    IR1800,
2019/10/17 - 09:49:27.412186,86.218,17.622278213500977,17.505401611328125,17.71318244934082,35.699073791503906,35.53350067138672,35.919837951660156,12345,27.098880767822266,25.149253845214844,27.18097686767578,0.0,0.0,0.0,3.2990000247955322,3.2990000247955322,3.3010001182556152,0.0,0.0,0.0,Idle,None,False,False,False,False,False,False,False,False,4298,137,On,Off,Idle,0,0,32767,0,-32768,32767,-32768,False,False,False,False,False,False,False,False,False,True,False,False,False,False,False,False,False,False,False,False,False,False,False,False,False,False,False,False,True,False,False,False,False,0,True,False,1620,0,0,1000,1000,0,0,0,0,0,4,0,0,0,0,Disable,False,False,True,1,V0.1,CubeIRV0.1,    IR1800,
2019/10/17 - 09:49:28.419931,87.225,17.5800724029541,17.505401611328125,17.71318244934082,35.673099517822266,35.53350067138672,35.919837951660156,12345,27.01678466796875,25.149253845214844,27.18097686767578,0.0,0.0,0.0,3.2990000247955322,3.2990000247955322,3.3010001182556152,0.0,0.0,0.0,Idle,None,False,False,False,False,False,False,False,False,4298,137,On,Off,Idle,0,0,32767,0,-32768,32767,-32768,False,False,False,False,False,False,False,False,False,True,False,False,False,False,False,False,False,False,False,False,False,False,False,False,False,False,False,False,True,False,False,False,False,0,True,False,1620,0,0,1000,1000,0,0,0,0,0,4,0,0,0,0,Disable,False,False,True,1,V0.1,CubeIRV0.1,    IR1800,
2019/10/17 - 09:49:29.395479,88.200,17.57033348083496,17.505401611328125,17.71318244934082,35.70881271362305,35.53350067138672,35.919837951660156,12345,27.078365325927734,25.149253845214844,27.18097686767578,0.0,0.0,0.0,3.2990000247955322,3.2990000247955322,3.3010001182556152,0.0,0.0,0.0,Idle,None,False,False,False,False,False,False,False,False,4298,137,On,Off,Idle,0,0,32767,0,-32768,32767,-32768,False,False,False,False,False,False,False,False,False,True,False,False,False,False,False,False,False,False,False,False,False,False,False,False,False,False,False,False,True,False,False,False,False,0,True,False,1620,0,0,1000,1000,0,0,0,0,0,4,0,0,0,0,Disable,False,False,True,1,V0.1,CubeIRV0.1,    IR1800,
