Time,Runtime,Current3V3,Current3V3Min,Current3V3Max,CurrentHTPA,CurrentHTPAMin,CurrentHTPAMax,CurrentCubeDock3V3_1,TemperatureMCU,TemperatureMCUMin,TemperatureMCUMax,TemperatureHTPA,TemperatureHTPAMin,TemperatureHTPAMax,VoltageMCU,VoltageMCUMin,VoltageMCUMax,VoltageHTPA,VoltageHTPAMin,VoltageHTPAMax,ADSSampleMode,HTPACalibLevel,HILEnabled,HILBusy,HILEnableImgVddComp,HILEnableImgTobjCalib,HILEnableEdgeDet,HILEnableLensDistCorr,HILEnablePolyFit,HILEnableAttEst,HTPADeviceID,HTPATableNumber,HtpaPowerState,HtpaWakeState,HtpaCaptureState,HtpaPTAT,HtpaVdd,HTPAImageLastMin,HTPAImageLastMean,HTPAImageLastMax,HTPAImageAllTimeMin,HTPAImageAllTimeMax,3V3OverCurrent,HTPAOverCurrent,Timer1sOverRun,MCUOverTemperature,MCUUnderTemperature,HTPAOverTemperature,HTPAUnderTemperature,HTPACalibLookupOutOfRange,HTPAIntegrationTimeout,HTPANotResponding,HTPAConfigMismatch,HTPASpiTimeout,CommsTcSlotsBuffFull,CommsTcParamBuffFull,CommsUartProtError,CommsUartMsgIncomplete,CommsUartTcParamOverflow,UARTTxOverflow,CommsTcInvalidID,CommsTcInvalidPar,CommsTcInvalidParLen,CommsTcTimeout,CommsTlmInvalidID,UARTTxReadingEmptyBuffer,UARTRxByteOverrun,UARTRxFramingError,UartTxTimeout,FRAMStatusNotResponding,FRAMDeviceNotFound,FRAMSpiTimeout,ConfigRewrittenFromMemory,ConfigExtMemorySlotOverwritten,ConfigNoConfigFoundInMemory,ConfigNumOfValidSlots,ConfigNotSaved,ConfigDataLoss,SwStartupTime,SwProcessingTime,SwProcessingTimeMax,SwLoopTime,SwLoopTimeMax,SwImgCaptureTime,SwLensDistCorrTime,SwEstimationTime,SwConfigRefreshMaxTime,SwConfigCheckMemoryMaxTime,SwAdcMeasurementTime,DetectedBitFlips,FlashFaults,RadNumOfFaultsLast,RadNumOfFaultsTotal,RadLastFaultIndex,RadIterationsCompleted,RadMode,RadCheckSRAM,RadCheckFRAM,SRAM2ParityCheckEnabled,InterfaceVersion,FirmwareVersion,CubeIR SN,IRCAM SN,
2019/10/17 - 09:56:13.883160,492.504,17.615785598754883,17.46157455444336,17.71318244934082,35.59193801879883,35.44908905029297,35.919837951660156,12345,27.222007751464844,25.149253845214844,27.406715393066406,0.0,0.0,0.0,3.3010001182556152,3.2990000247955322,3.3010001182556152,0.0,0.0,0.0,Idle,None,False,False,False,False,False,False,False,False,4298,137,On,Off,Idle,0,0,32767,0,-32768,32767,-32768,False,False,False,False,False,False,False,False,False,True,False,False,False,False,False,False,False,False,False,False,False,False,False,False,False,False,False,False,True,False,False,False,False,0,True,False,1620,0,0,1000,1000,0,0,0,0,0,4,0,0,0,0,0,0,Disabled,False,False,True,1,V0.1,CubeIRV0.1,    IR1800,
2019/10/17 - 09:56:15.098067,493.719,17.6239013671875,17.46157455444336,17.71318244934082,35.783485412597656,35.44908905029297,35.919837951660156,12345,27.24254035949707,25.149253845214844,27.406715393066406,0.0,0.0,0.0,3.2990000247955322,3.2990000247955322,3.3010001182556152,0.0,0.0,0.0,Idle,None,False,False,False,False,False,False,False,False,4298,137,On,Off,Idle,0,0,32767,0,-32768,32767,-32768,False,False,False,False,False,False,False,False,False,True,False,False,False,False,False,False,False,False,False,False,False,False,False,False,False,False,False,False,True,False,False,False,True,0,True,False,1620,0,0,1000,1000,0,0,0,0,0,4,0,0,0,0,0,0,Disabled,False,False,True,1,V0.1,CubeIRV0.1,    IR1800,
2019/10/17 - 09:56:16.073382,494.694,17.59630584716797,17.46157455444336,17.71318244934082,35.73154067993164,35.44908905029297,35.919837951660156,12345,27.222007751464844,25.149253845214844,27.406715393066406,0.0,0.0,0.0,3.2990000247955322,3.2990000247955322,3.3010001182556152,0.0,0.0,0.0,Idle,None,False,False,False,False,False,False,False,False,4298,137,On,Off,Idle,0,0,32767,0,-32768,32767,-32768,False,False,False,False,False,False,False,False,False,True,False,False,False,False,False,False,False,False,False,False,False,False,False,False,False,False,False,False,True,False,False,False,False,0,True,False,1620,0,0,1000,1000,0,0,0,0,0,4,0,0,0,0,0,0,Disabled,False,False,True,1,V0.1,CubeIRV0.1,    IR1800,
2019/10/17 - 09:56:17.080516,495.701,17.635263442993164,17.46157455444336,17.71318244934082,35.65686798095703,35.44908905029297,35.919837951660156,12345,27.222007751464844,25.149253845214844,27.406715393066406,0.0,0.0,0.0,3.2990000247955322,3.2990000247955322,3.3010001182556152,0.0,0.0,0.0,Idle,None,False,False,False,False,False,False,False,False,4298,137,On,Off,Idle,0,0,32767,0,-32768,32767,-32768,False,False,False,False,False,False,False,False,False,True,False,False,False,False,False,False,False,False,False,False,False,False,False,False,False,False,False,False,True,False,False,False,False,0,True,False,1620,0,0,1000,1000,0,0,0,0,0,4,0,0,0,0,0,0,Disabled,False,False,True,1,V0.1,CubeIRV0.1,    IR1800,
2019/10/17 - 09:56:18.087444,496.708,17.635263442993164,17.46157455444336,17.71318244934082,35.546485900878906,35.44908905029297,35.919837951660156,12345,27.283588409423828,25.149253845214844,27.406715393066406,0.0,0.0,0.0,3.2990000247955322,3.2990000247955322,3.3010001182556152,0.0,0.0,0.0,Idle,None,False,False,False,False,False,False,False,False,4298,137,On,Off,Idle,0,0,32767,0,-32768,32767,-32768,False,False,False,False,False,False,False,False,False,True,False,False,False,False,False,False,False,False,False,False,False,False,False,False,False,False,False,False,True,False,False,False,False,0,True,False,1620,0,0,1000,1000,0,0,0,0,0,4,0,0,0,0,0,0,Disabled,False,False,True,1,V0.1,CubeIRV0.1,    IR1800,
2019/10/17 - 09:56:19.080057,497.699,17.573579788208008,17.46157455444336,17.71318244934082,35.767250061035156,35.44908905029297,35.919837951660156,12345,27.283588409423828,25.149253845214844,27.406715393066406,0.0,0.0,0.0,3.2990000247955322,3.2990000247955322,3.3010001182556152,0.0,0.0,0.0,Idle,None,False,False,False,False,False,False,False,False,4298,137,On,Off,Idle,0,0,32767,0,-32768,32767,-32768,False,False,False,False,False,False,False,False,False,True,False,False,False,False,False,False,False,False,False,False,False,False,False,False,False,False,False,False,True,False,False,False,False,0,True,False,1620,0,0,1000,1000,0,0,0,0,0,4,0,0,0,0,0,0,Disabled,False,False,True,1,V0.1,CubeIRV0.1,    IR1800,
2019/10/17 - 09:56:20.070658,498.690,17.573579788208008,17.46157455444336,17.71318244934082,35.80945587158203,35.44908905029297,35.919837951660156,12345,27.160444259643555,25.149253845214844,27.406715393066406,0.0,0.0,0.0,3.2990000247955322,3.2990000247955322,3.3010001182556152,0.0,0.0,0.0,Idle,None,False,False,False,False,False,False,False,False,4298,137,On,Off,Idle,0,0,32767,0,-32768,32767,-32768,False,False,False,False,False,False,False,False,False,True,False,False,False,False,False,False,False,False,False,False,False,False,False,False,False,False,False,False,True,False,False,False,False,0,True,False,1620,0,0,1000,1000,0,0,0,0,0,4,0,0,0,0,0,0,Disabled,False,False,True,1,V0.1,CubeIRV0.1,    IR1800,
2019/10/17 - 09:56:21.094772,499.713,17.555723190307617,17.46157455444336,17.71318244934082,35.80296325683594,35.44908905029297,35.919837951660156,12345,27.18097686767578,25.149253845214844,27.406715393066406,0.0,0.0,0.0,3.2990000247955322,3.2990000247955322,3.3010001182556152,0.0,0.0,0.0,Idle,None,False,False,False,False,False,False,False,False,4298,137,On,Off,Idle,0,0,32767,0,-32768,32767,-32768,False,False,False,False,False,False,False,False,False,True,False,False,False,False,False,False,False,False,False,False,False,False,False,False,False,False,False,False,True,False,False,False,False,0,True,False,1620,0,0,1000,1000,0,0,0,0,0,4,0,0,0,0,0,0,Disabled,False,False,True,1,V0.1,CubeIRV0.1,    IR1800,
2019/10/17 - 09:56:22.086086,500.704,17.544361114501953,17.46157455444336,17.71318244934082,35.82893371582031,35.44908905029297,35.919837951660156,12345,27.34515380859375,25.149253845214844,27.406715393066406,0.0,0.0,0.0,3.2990000247955322,3.2990000247955322,3.3010001182556152,0.0,0.0,0.0,Idle,None,False,False,False,False,False,False,False,False,4298,137,On,Off,Idle,0,0,32767,0,-32768,32767,-32768,False,False,False,False,False,False,False,False,False,True,False,False,False,False,False,False,False,False,False,False,False,False,False,False,False,False,False,False,True,False,False,False,False,0,True,False,1620,0,0,1000,1000,0,0,0,0,0,4,0,0,0,0,0,0,Disabled,False,False,True,1,V0.1,CubeIRV0.1,    IR1800,
2019/10/17 - 09:56:23.093713,501.711,17.55247688293457,17.46157455444336,17.71318244934082,35.81919479370117,35.44908905029297,35.919837951660156,12345,27.139928817749023,25.149253845214844,27.406715393066406,0.0,0.0,0.0,3.3010001182556152,3.2990000247955322,3.3010001182556152,0.0,0.0,0.0,Idle,None,False,False,False,False,False,False,False,False,4298,137,On,Off,Idle,0,0,32767,0,-32768,32767,-32768,False,False,False,False,False,False,False,False,False,True,False,False,False,False,False,False,False,False,False,False,False,False,False,False,False,False,False,False,True,False,False,False,False,0,True,False,1620,0,0,1000,1000,0,0,0,0,0,4,0,0,0,0,0,0,Disabled,False,False,True,1,V0.1,CubeIRV0.1,    IR1800,
2019/10/17 - 09:56:24.101800,502.719,17.60604476928711,17.46157455444336,17.71318244934082,35.75426483154297,35.44908905029297,35.919837951660156,12345,27.24254035949707,25.149253845214844,27.406715393066406,0.0,0.0,0.0,3.3010001182556152,3.2990000247955322,3.3010001182556152,0.0,0.0,0.0,Idle,None,False,False,False,False,False,False,False,False,4298,137,On,Off,Idle,0,0,32767,0,-32768,32767,-32768,False,False,False,False,False,False,False,False,False,True,False,False,False,False,False,False,False,False,False,False,False,False,False,False,False,False,False,False,True,False,False,False,False,0,True,False,1620,0,0,1000,1000,0,0,0,0,0,4,0,0,0,0,0,0,Disabled,False,False,True,1,V0.1,CubeIRV0.1,    IR1800,
2019/10/17 - 09:56:25.076609,503.694,17.576826095581055,17.46157455444336,17.71318244934082,35.6179084777832,35.44908905029297,35.919837951660156,12345,27.2630558013916,25.149253845214844,27.406715393066406,0.0,0.0,0.0,3.3010001182556152,3.2990000247955322,3.3010001182556152,0.0,0.0,0.0,Idle,None,False,False,False,False,False,False,False,False,4298,137,On,Off,Idle,0,0,32767,0,-32768,32767,-32768,False,False,False,False,False,False,False,False,False,True,False,False,False,False,False,False,False,False,False,False,False,False,False,False,False,False,False,False,True,False,False,False,False,0,True,False,1620,0,0,1000,1000,0,0,0,0,0,4,0,0,0,0,0,0,Disabled,False,False,True,1,V0.1,CubeIRV0.1,    IR1800,
2019/10/17 - 09:56:26.067935,504.685,17.594682693481445,17.46157455444336,17.71318244934082,35.77374267578125,35.44908905029297,35.919837951660156,12345,27.18097686767578,25.149253845214844,27.406715393066406,0.0,0.0,0.0,3.2990000247955322,3.2990000247955322,3.3010001182556152,0.0,0.0,0.0,Idle,None,False,False,False,False,False,False,False,False,4298,137,On,Off,Idle,0,0,32767,0,-32768,32767,-32768,False,False,False,False,False,False,False,False,False,True,False,False,False,False,False,False,False,False,False,False,False,False,False,False,False,False,False,False,True,False,False,False,False,0,True,False,1620,0,0,1000,1000,0,0,0,0,0,4,0,0,0,0,0,0,Disabled,False,False,True,1,V0.1,CubeIRV0.1,    IR1800,
2019/10/17 - 09:56:27.091539,505.708,17.584941864013672,17.46157455444336,17.71318244934082,35.806209564208984,35.44908905029297,35.919837951660156,12345,27.201492309570312,25.149253845214844,27.406715393066406,0.0,0.0,0.0,3.2990000247955322,3.2990000247955322,3.3010001182556152,0.0,0.0,0.0,Idle,None,False,False,False,False,False,False,False,False,4298,137,On,Off,Idle,0,0,32767,0,-32768,32767,-32768,False,False,False,False,False,False,False,False,False,True,False,False,False,False,False,False,False,False,False,False,False,False,False,False,False,False,False,False,True,False,False,False,False,0,True,False,1620,0,0,1000,1000,0,0,0,0,0,4,0,0,0,0,0,0,Disabled,False,False,True,1,V0.1,CubeIRV0.1,    IR1800,
2019/10/17 - 09:56:28.100065,506.715,17.52001190185547,17.46157455444336,17.71318244934082,35.7704963684082,35.44908905029297,35.919837951660156,12345,27.222007751464844,25.149253845214844,27.406715393066406,0.0,0.0,0.0,3.2990000247955322,3.2990000247955322,3.3010001182556152,0.0,0.0,0.0,Idle,None,False,False,False,False,False,False,False,False,4298,137,On,Off,Idle,0,0,32767,0,-32768,32767,-32768,False,False,False,False,False,False,False,False,False,True,False,False,False,False,False,False,False,False,False,False,False,False,False,False,False,False,False,False,True,False,False,False,False,0,True,False,1620,0,0,1000,1000,0,0,0,0,0,4,0,0,0,0,0,0,Disabled,False,False,True,1,V0.1,CubeIRV0.1,    IR1800,
2019/10/17 - 09:56:29.091349,507.706,17.58819007873535,17.46157455444336,17.71318244934082,35.69582748413086,35.44908905029297,35.919837951660156,12345,27.139928817749023,25.149253845214844,27.406715393066406,0.0,0.0,0.0,3.2990000247955322,3.2990000247955322,3.3010001182556152,0.0,0.0,0.0,Idle,None,False,False,False,False,False,False,False,False,4298,137,On,Off,Idle,0,0,32767,0,-32768,32767,-32768,False,False,False,False,False,False,False,False,False,True,False,False,False,False,False,False,False,False,False,False,False,False,False,False,False,False,False,False,True,False,False,False,False,0,True,False,1620,0,0,1000,1000,0,0,0,0,0,4,0,0,0,0,0,0,Disabled,False,False,True,1,V0.1,CubeIRV0.1,    IR1800,
2019/10/17 - 09:56:30.100871,508.713,17.58819007873535,17.46157455444336,17.71318244934082,35.66660690307617,35.44908905029297,35.919837951660156,12345,27.24254035949707,25.149253845214844,27.406715393066406,0.0,0.0,0.0,3.2990000247955322,3.2990000247955322,3.3010001182556152,0.0,0.0,0.0,Idle,None,False,False,False,False,False,False,False,False,4298,137,On,Off,Idle,0,0,32767,0,-32768,32767,-32768,False,False,False,False,False,False,False,False,False,True,False,False,False,False,False,False,False,False,False,False,False,False,False,False,False,False,False,False,True,False,False,False,False,0,True,False,1620,0,0,1000,1000,0,0,0,0,0,4,0,0,0,0,0,0,Disabled,False,False,True,1,V0.1,CubeIRV0.1,    IR1800,
2019/10/17 - 09:56:31.074449,509.688,17.602798461914062,17.46157455444336,17.71318244934082,35.72504425048828,35.44908905029297,35.919837951660156,12345,27.18097686767578,25.149253845214844,27.406715393066406,0.0,0.0,0.0,3.2990000247955322,3.2990000247955322,3.3010001182556152,0.0,0.0,0.0,Idle,None,False,False,False,False,False,False,False,False,4298,137,On,Off,Idle,0,0,32767,0,-32768,32767,-32768,False,False,False,False,False,False,False,False,False,True,False,False,False,False,False,False,False,False,False,False,False,False,False,False,False,False,False,False,True,False,False,False,True,0,True,False,1620,0,0,1000,1000,0,0,0,0,0,4,0,0,0,0,0,0,Disabled,False,False,True,1,V0.1,CubeIRV0.1,    IR1800,
2019/10/17 - 09:56:32.049682,510.663,17.563840866088867,17.46157455444336,17.71318244934082,35.738033294677734,35.44908905029297,35.919837951660156,12345,27.18097686767578,25.149253845214844,27.406715393066406,0.0,0.0,0.0,3.2990000247955322,3.2990000247955322,3.3010001182556152,0.0,0.0,0.0,Idle,None,False,False,False,False,False,False,False,False,4298,137,On,Off,Idle,0,0,32767,0,-32768,32767,-32768,False,False,False,False,False,False,False,False,False,True,False,False,False,False,False,False,False,False,False,False,False,False,False,False,False,False,False,False,True,False,False,False,False,0,True,False,1620,0,0,1000,1000,0,0,0,0,0,4,0,0,0,0,0,0,Disabled,False,False,True,1,V0.1,CubeIRV0.1,    IR1800,
2019/10/17 - 09:56:33.088436,511.702,17.581695556640625,17.46157455444336,17.71318244934082,35.66660690307617,35.44908905029297,35.919837951660156,12345,27.24254035949707,25.149253845214844,27.406715393066406,0.0,0.0,0.0,3.2990000247955322,3.2990000247955322,3.3010001182556152,0.0,0.0,0.0,Idle,None,False,False,False,False,False,False,False,False,4298,137,On,Off,Idle,0,0,32767,0,-32768,32767,-32768,False,False,False,False,False,False,False,False,False,True,False,False,False,False,False,False,False,False,False,False,False,False,False,False,False,False,False,False,True,False,False,False,False,0,True,False,1620,0,0,1000,1000,0,0,0,0,0,4,0,0,0,0,0,0,Disabled,False,False,True,1,V0.1,CubeIRV0.1,    IR1800,
