2019/10/17 - 08:26:09.096187 | MAIN                | App started running
2019/10/17 - 08:26:13.174186 | CommsUART           | Successfully connected to COM8.
2019/10/17 - 08:26:13.524257 | App                 | Device is Responding
