2019/10/17 - 08:30:59.279732 | MAIN                | App started running
2019/10/17 - 08:31:03.400116 | CommsUART           | Successfully connected to COM8.
2019/10/17 - 08:31:03.813943 | App                 | Device is Responding
2019/10/17 - 08:31:04.025817 | EXCEPTION           | Traceback (most recent call last):
  File "C:/Users/heinw/Documents/CubeSpace/CubeIR/Software Design/GUI-Python/app_threaded.py", line 190, in slot_receive_generic_tctlm
    self.update_gui_fields(tctlm)
  File "C:/Users/heinw/Documents/CubeSpace/CubeIR/Software Design/GUI-Python/app_threaded.py", line 371, in update_gui_fields
    self.ui.text_swtimings_looptimemax.setText("%d" % tlm.reply.LoopTimeMax)
AttributeError: 'Ui_MainWindow' object has no attribute 'text_swtimings_looptimemax'

