2019/10/17 - 08:24:25.914516 | MAIN                | App started running
2019/10/17 - 08:24:30.051259 | CommsUART           | Successfully connected to COM8.
2019/10/17 - 08:24:30.528231 | App                 | Device is Responding
