2019/10/17 - 09:18:28.722717 | MAIN                | App started running
2019/10/17 - 09:18:33.038084 | CommsUART           | Successfully connected to COM8.
2019/10/17 - 09:18:33.531772 | App                 | Device is Responding
