2019/10/17 - 15:25:14.439751 | MAIN                | App started running
2019/10/17 - 15:25:18.737450 | CommsUART           | Successfully connected to COM8.
2019/10/17 - 15:25:19.120697 | App                 | Device is Responding
