2019/10/17 - 10:27:51.504589 | MAIN                | App started running
2019/10/17 - 10:27:55.829702 | CommsUART           | Successfully connected to COM8.
2019/10/17 - 10:27:56.244344 | App                 | Device is Responding
