2019/10/17 - 09:17:54.575862 | MAIN                | App started running
2019/10/17 - 09:17:58.569994 | CommsUART           | Successfully connected to COM8.
2019/10/17 - 09:17:59.272827 | App                 | Device is Responding
