2019/10/17 - 09:02:45.420707 | MAIN                | App started running
2019/10/17 - 09:02:49.769138 | CommsUART           | Successfully connected to COM8.
2019/10/17 - 09:02:50.199882 | App                 | Device is Responding
