2019/10/17 - 08:23:23.207425 | MAIN                | App started running
2019/10/17 - 08:23:27.309250 | CommsUART           | Successfully connected to COM8.
2019/10/17 - 08:23:27.706399 | App                 | Device is Responding
2019/10/17 - 08:23:27.831383 | EXCEPTION           | Traceback (most recent call last):
  File "C:/Users/heinw/Documents/CubeSpace/CubeIR/Software Design/GUI-Python/app_threaded.py", line 190, in slot_receive_generic_tctlm
    self.update_gui_fields(tctlm)
  File "C:/Users/heinw/Documents/CubeSpace/CubeIR/Software Design/GUI-Python/app_threaded.py", line 350, in update_gui_fields
    self.ui.text_hwmm_volthtpamin.setText("%.3f" % tlm.reply.voltageHTPAMin)
AttributeError: 'Ui_MainWindow' object has no attribute 'text_hwmm_volthtpamin'

