2019/10/17 - 11:01:21.057968 | MAIN                | App started running
2019/10/17 - 11:01:28.000383 | CommsUART           | Successfully connected to COM8.
2019/10/17 - 11:01:30.379757 | App                 | Attempting to download EEPROM from HTPA into *.csv.
2019/10/17 - 11:01:30.439735 | App                 | Device is Responding
