{
    "identification": {
        "node_type": 8,
        "interface_version": 1,
        "firmware_version": 2.2,
        "can_mask": 1
    },
    "status": {
        "backup_mode": "False",
        "control_mode": "Idle",
        "motor_switch_state": "False",
        "hall_sensor_switch_state": "False",
        "encoder_switch_state": "False",
        "error_code": "False",
        "error_flags_block": "None"
    },
    "data": {
        "speed": 0,
        "reference": 0,
        "current": 6,
        "current_margin": 2,
        "duty_cycle": 0,
        "bu_speed": 0
    },
    "controller_gains": {
        "main_integrator_gain": {
            "gain" : 8,
            "mult" : 3,
            "answ" : 0.008
        },
        "main_feedback_gain": {
            "gain" : 500,
            "mult" : 3,
            "answ" : 0.5
        },
        "backup_integrator_gain": {
            "gain" : 60,
            "mult" : 6,
            "answ" : 0.00006
        },
        "backup_feedback_gain": {
            "gain" : 11,
            "mult" : 3,
            "answ" : 0.001
        },
        "pwm_gain": {
            "gain" : 4,
            "mult" : 1,
            "answ" : 0.4
        }
    },
    "no_control_status": {
        "backup_mode": "False",
        "control_mode": "NoControl",
        "motor_switch_state": "False",
        "hall_sensor_switch_state": "True",
        "encoder_switch_state": "True",
        "error_code": "False",
        "current": 6,
        "current_margin": 1
    },
    "backup_mode_status": {
        "backup_mode": "True",
        "control_mode": "NoControl",
        "motor_switch_state": "False",
        "hall_sensor_switch_state": "True",
        "encoder_switch_state": "False",
        "error_code": "False",
        "current": 6,
        "current_margin": 1
    },
    "duty_cycle_status": {
        "backup_mode": "False",
        "control_mode": "DutyCycleInput",
        "motor_switch_state": "True",
        "hall_sensor_switch_state": "True",
        "encoder_switch_state": "True",
        "error_code": "False",
        "current": 6,
        "current_margin": 1
    },
    "duty_cycle_test": {
        "steady_state_speed": 320,
        "steady_state_speed_margin": 20,
        "steady_state_current": 7,
        "steady_state_current_margin": 1,
        "error_flags": [
            "UART",
            "TCMD",
            "None"
        ]
    },
    "step_test_encoder": {
        "current_500rpm": 7,
        "current_500rpm_margin": 1,
        "current_6000rpm": 60,
        "current_6000rpm_margin": 20,
        "current_neg_500rpm": 7,
        "current_neg_500rpm_margin": 2,
        "current_neg_6000rpm": 60,
        "current_neg_6000rpm_margin": 20,
        "max_ramp_up_current": 430,
        "max_ramp_up_current_margin": 80,
        "max_ramp_down_current": 430,
        "max_ramp_down_current_margin": 80,
        "error_flags": [
            "UART",
            "TCMD",
            "None"
        ]
    },
    "step_test_hall": {
        "current_500rpm": 7,
        "current_500rpm_margin": 2,
        "current_6000rpm": 60,
        "current_6000rpm_margin": 20,
        "current_neg_500rpm": 7,
        "current_neg_500rpm_margin": 2,
        "current_neg_6000rpm": 60,
        "current_neg_6000rpm_margin": 20,
        "max_ramp_up_current": 110,
        "max_ramp_up_current_margin": 40,
        "max_ramp_down_current": 110,
        "max_ramp_down_current_margin": 40,
        "error_flags": [
            "UART",
            "TCMD",
            "None"
        ]
    },
    "sine_test": {
        "max_current": 90,
        "max_current_margin": 30
    },
    "low_speed_test": {
        "speed_variation": 5
    },
    "friction_test": {
        "stop_time": 100,
        "stop_time_margin": 20
    },
    "i2c_test": {
        "node_type": 8,
        "interface_version": 1,
        "firmware_version": 2.2,
        "can_mask": 1,
        "speed": 1000,
        "reference": 1000,
        "current": 13,
        "duty_cycle": 17,
        "duty_cycle_margin": 2
    },
    "can_test": {
        "node_type": 8,
        "interface_version": 1,
        "firmware_version": 2.2,
        "can_mask": 1,
        "speed": 1000,
        "reference": 1000,
        "current": 13,
        "duty_cycle": 17,
        "duty_cycle_margin": 2
    }
}
