2019/08/06 - 10:30:01.357380 | MAIN                | App started running
2019/08/06 - 10:30:09.413789 | EXCEPTION           | Traceback (most recent call last):
  File "C:/Users/heinw/Documents/CubeSpace/CubeIR/Software Design/GUI-Python/app_threaded.py", line 658, in butt_fcn_generate_img_from_csv
    min=float(self.ui.text_misc_genimgcsvmin.text()),max=float(self.ui.text_misc_genimgcsvmax.text()))
TypeError: __init__() got an unexpected keyword argument 'min'

2019/08/06 - 10:30:42.387666 | MAIN                | App started running
