2982.00000,2982.00000,2982.00000,2982.00000,2982.00000,2982.00000,2982.00000,2982.00000,2982.00000,2982.00000,2982.00000,2982.00000,2982.00000,2982.00000,2982.00000,2955.00000,2967.00000,2964.00000,2966.00000,2971.00000,2964.00000,2968.00000,2986.00000,2987.00000,2989.00000,2981.00000,2983.00000,2984.00000,2991.00000,2985.00000,2975.00000,2961.00000,2968.00000,2974.00000,2970.00000,2985.00000,2991.00000,3027.00000,3110.00000,3037.00000,2991.00000,2980.00000,2963.00000,2966.00000,2958.00000,2962.00000,2962.00000,2957.00000,2956.00000,2953.00000,2954.00000,2961.00000,2962.00000,2963.00000,2961.00000,2964.00000,2963.00000,2975.00000,2976.00000,2978.00000,2977.00000,2981.00000,2974.00000,2973.00000,2977.00000,2981.00000,2982.00000,2982.00000,2982.00000,2982.00000,2982.00000,2982.00000,2982.00000,2982.00000,2982.00000,2982.00000,2982.00000,2982.00000,2982.00000,2982.00000
2982.00000,2982.00000,2982.00000,2982.00000,2982.00000,2982.00000,2982.00000,2982.00000,2982.00000,2982.00000,2982.00000,2982.00000,2982.00000,2982.00000,2967.00000,2972.00000,2963.00000,2964.00000,2961.00000,2957.00000,2966.00000,2963.00000,2962.00000,2964.00000,2976.00000,2981.00000,2980.00000,2987.00000,2990.00000,2984.00000,2974.00000,2973.00000,2975.00000,2970.00000,2976.00000,2982.00000,3003.00000,3100.00000,3075.00000,2998.00000,2975.00000,2969.00000,2962.00000,2958.00000,2961.00000,2960.00000,2961.00000,2960.00000,2961.00000,2959.00000,2958.00000,2962.00000,2955.00000,2961.00000,2976.00000,2975.00000,2967.00000,2968.00000,2971.00000,2980.00000,2972.00000,2976.00000,2972.00000,2966.00000,2976.00000,2972.00000,2967.00000,2982.00000,2982.00000,2982.00000,2982.00000,2982.00000,2982.00000,2982.00000,2982.00000,2982.00000,2982.00000,2982.00000,2982.00000,2982.00000
2982.00000,2982.00000,2982.00000,2982.00000,2982.00000,2982.00000,2982.00000,2982.00000,2982.00000,2982.00000,2982.00000,2982.00000,2982.00000,2976.00000,2969.00000,2968.00000,2968.00000,2963.00000,2963.00000,2968.00000,2963.00000,2964.00000,2967.00000,2973.00000,2990.00000,2982.00000,2979.00000,2981.00000,2984.00000,2977.00000,2971.00000,2983.00000,2982.00000,2977.00000,2980.00000,2990.00000,3052.00000,3118.00000,3020.00000,2979.00000,2964.00000,2966.00000,2962.00000,2959.00000,2961.00000,2957.00000,2957.00000,2955.00000,2964.00000,2962.00000,2963.00000,2951.00000,2968.00000,2977.00000,2977.00000,2980.00000,2972.00000,2975.00000,2970.00000,2976.00000,2970.00000,2963.00000,2973.00000,2964.00000,2963.00000,2980.00000,2953.00000,2959.00000,2982.00000,2982.00000,2982.00000,2982.00000,2982.00000,2982.00000,2982.00000,2982.00000,2982.00000,2982.00000,2982.00000,2982.00000
2982.00000,2982.00000,2982.00000,2982.00000,2982.00000,2982.00000,2982.00000,2982.00000,2982.00000,2982.00000,2982.00000,2982.00000,2967.00000,2977.00000,2973.00000,2969.00000,2975.00000,2961.00000,2978.00000,2968.00000,2970.00000,2962.00000,2965.00000,2983.00000,2977.00000,2984.00000,2981.00000,2984.00000,2984.00000,2967.00000,2979.00000,2984.00000,2977.00000,2992.00000,2996.00000,3011.00000,3125.00000,3053.00000,2990.00000,2961.00000,2966.00000,2960.00000,2955.00000,2960.00000,2953.00000,2960.00000,2960.00000,2955.00000,2963.00000,2959.00000,2957.00000,2959.00000,2967.00000,2977.00000,2972.00000,2972.00000,2969.00000,2972.00000,2967.00000,2961.00000,2966.00000,2964.00000,2959.00000,2961.00000,2961.00000,2961.00000,2963.00000,2958.00000,2956.00000,2982.00000,2982.00000,2982.00000,2982.00000,2982.00000,2982.00000,2982.00000,2982.00000,2982.00000,2982.00000,2982.00000
2982.00000,2982.00000,2982.00000,2982.00000,2982.00000,2982.00000,2982.00000,2982.00000,2982.00000,2982.00000,2982.00000,2967.00000,2963.00000,2976.00000,2979.00000,2972.00000,2975.00000,2978.00000,2976.00000,2976.00000,2975.00000,2969.00000,2971.00000,2986.00000,2988.00000,2987.00000,2984.00000,2983.00000,2978.00000,2969.00000,2979.00000,2982.00000,2993.00000,3003.00000,3011.00000,3078.00000,3089.00000,3008.00000,2977.00000,2966.00000,2967.00000,2964.00000,2961.00000,2957.00000,2964.00000,2960.00000,2962.00000,2958.00000,2959.00000,2960.00000,2959.00000,2964.00000,2971.00000,2984.00000,2969.00000,2976.00000,2973.00000,2969.00000,2968.00000,2958.00000,2971.00000,2958.00000,2964.00000,2955.00000,2954.00000,2960.00000,2959.00000,2952.00000,2954.00000,2950.00000,2982.00000,2982.00000,2982.00000,2982.00000,2982.00000,2982.00000,2982.00000,2982.00000,2982.00000,2982.00000
2982.00000,2982.00000,2982.00000,2982.00000,2982.00000,2982.00000,2982.00000,2982.00000,2982.00000,2982.00000,2979.00000,2977.00000,2961.00000,2980.00000,2973.00000,2978.00000,2971.00000,2966.00000,2975.00000,2975.00000,2972.00000,2962.00000,2976.00000,2974.00000,2989.00000,2977.00000,2976.00000,2974.00000,2967.00000,2974.00000,2976.00000,2980.00000,2991.00000,3001.00000,3031.00000,3110.00000,3023.00000,2987.00000,2968.00000,2967.00000,2964.00000,2962.00000,2964.00000,2958.00000,2962.00000,2967.00000,2961.00000,2957.00000,2969.00000,2964.00000,2967.00000,2962.00000,2964.00000,2976.00000,2973.00000,2974.00000,2966.00000,2965.00000,2956.00000,2960.00000,2950.00000,2952.00000,2961.00000,2957.00000,2952.00000,2965.00000,2959.00000,2956.00000,2944.00000,2955.00000,2949.00000,2982.00000,2982.00000,2982.00000,2982.00000,2982.00000,2982.00000,2982.00000,2982.00000,2982.00000
2982.00000,2982.00000,2982.00000,2982.00000,2982.00000,2982.00000,2982.00000,2982.00000,2982.00000,2965.00000,2971.00000,2969.00000,2976.00000,2975.00000,2973.00000,2980.00000,2968.00000,2968.00000,2972.00000,2973.00000,2980.00000,2973.00000,2969.00000,2976.00000,2976.00000,2975.00000,2981.00000,2980.00000,2985.00000,2978.00000,2984.00000,2990.00000,3002.00000,3021.00000,3074.00000,3044.00000,2987.00000,2972.00000,2963.00000,2965.00000,2962.00000,2966.00000,2964.00000,2967.00000,2965.00000,2972.00000,2970.00000,2963.00000,2966.00000,2962.00000,2965.00000,2964.00000,2968.00000,2984.00000,2975.00000,2975.00000,2969.00000,2970.00000,2964.00000,2960.00000,2957.00000,2957.00000,2965.00000,2959.00000,2952.00000,2954.00000,2962.00000,2958.00000,2959.00000,2951.00000,2952.00000,2955.00000,2982.00000,2982.00000,2982.00000,2982.00000,2982.00000,2982.00000,2982.00000,2982.00000
2982.00000,2982.00000,2982.00000,2982.00000,2982.00000,2982.00000,2982.00000,2982.00000,2967.00000,2975.00000,2977.00000,2972.00000,2973.00000,2970.00000,2970.00000,2971.00000,2971.00000,2971.00000,2967.00000,2966.00000,2970.00000,2965.00000,2968.00000,2966.00000,2971.00000,2974.00000,2969.00000,2972.00000,2968.00000,2971.00000,2970.00000,2968.00000,2979.00000,3001.00000,3022.00000,2988.00000,2974.00000,2967.00000,2963.00000,2960.00000,2968.00000,2968.00000,2958.00000,2964.00000,2959.00000,2966.00000,2965.00000,2961.00000,2967.00000,2965.00000,2957.00000,2964.00000,2972.00000,2978.00000,2977.00000,2963.00000,2963.00000,2966.00000,2955.00000,2963.00000,2951.00000,2960.00000,2959.00000,2956.00000,2950.00000,2955.00000,2947.00000,2952.00000,2961.00000,2951.00000,2958.00000,2957.00000,2959.00000,2982.00000,2982.00000,2982.00000,2982.00000,2982.00000,2982.00000,2982.00000
2982.00000,2982.00000,2982.00000,2982.00000,2982.00000,2982.00000,2982.00000,2973.00000,2975.00000,2973.00000,2974.00000,2962.00000,2972.00000,2967.00000,2973.00000,2965.00000,2967.00000,2964.00000,2966.00000,2968.00000,2968.00000,2970.00000,2966.00000,2973.00000,2969.00000,2959.00000,2966.00000,2963.00000,2968.00000,2968.00000,2971.00000,2967.00000,2966.00000,2970.00000,2972.00000,2975.00000,2970.00000,2968.00000,2964.00000,2967.00000,2961.00000,2967.00000,2966.00000,2964.00000,2956.00000,2963.00000,2963.00000,2959.00000,2963.00000,2962.00000,2959.00000,2965.00000,2961.00000,2952.00000,2958.00000,2953.00000,2954.00000,2961.00000,2956.00000,2951.00000,2951.00000,2956.00000,2952.00000,2951.00000,2947.00000,2956.00000,2952.00000,2958.00000,2950.00000,2956.00000,2956.00000,2967.00000,2974.00000,2979.00000,2982.00000,2982.00000,2982.00000,2982.00000,2982.00000,2982.00000
2982.00000,2982.00000,2982.00000,2982.00000,2982.00000,2982.00000,2982.00000,2987.00000,2982.00000,2971.00000,2967.00000,2967.00000,2972.00000,2977.00000,2968.00000,2969.00000,2967.00000,2967.00000,2962.00000,2967.00000,2962.00000,2966.00000,2972.00000,2963.00000,2969.00000,2964.00000,2961.00000,2965.00000,2971.00000,2969.00000,2969.00000,2966.00000,2970.00000,2974.00000,2968.00000,2969.00000,2965.00000,2966.00000,2966.00000,2967.00000,2964.00000,2966.00000,2963.00000,2962.00000,2960.00000,2965.00000,2966.00000,2963.00000,2959.00000,2961.00000,2960.00000,2964.00000,2954.00000,2954.00000,2955.00000,2959.00000,2956.00000,2964.00000,2967.00000,2963.00000,2953.00000,2956.00000,2954.00000,2954.00000,2955.00000,2960.00000,2953.00000,2959.00000,2960.00000,2956.00000,2956.00000,2980.00000,2972.00000,2978.00000,2982.00000,2982.00000,2982.00000,2982.00000,2982.00000,2982.00000
2982.00000,2982.00000,2982.00000,2982.00000,2982.00000,2982.00000,2984.00000,2975.00000,2977.00000,2976.00000,2974.00000,2965.00000,2965.00000,2972.00000,2970.00000,2963.00000,2973.00000,2968.00000,2966.00000,2966.00000,2972.00000,2966.00000,2968.00000,2966.00000,2967.00000,2962.00000,2963.00000,2967.00000,2963.00000,2966.00000,2965.00000,2969.00000,2969.00000,2969.00000,2965.00000,2963.00000,2968.00000,2971.00000,2965.00000,2970.00000,2965.00000,2964.00000,2959.00000,2965.00000,2966.00000,2964.00000,2962.00000,2955.00000,2960.00000,2963.00000,2959.00000,2956.00000,2951.00000,2956.00000,2963.00000,2968.00000,2967.00000,2963.00000,2964.00000,2967.00000,2961.00000,2952.00000,2951.00000,2951.00000,2952.00000,2953.00000,2958.00000,2957.00000,2959.00000,2962.00000,2954.00000,2965.00000,2976.00000,2976.00000,2977.00000,2982.00000,2982.00000,2982.00000,2982.00000,2982.00000
2982.00000,2982.00000,2982.00000,2982.00000,2982.00000,2974.00000,2975.00000,2976.00000,2963.00000,2969.00000,2969.00000,2969.00000,2966.00000,2975.00000,2966.00000,2968.00000,2972.00000,2972.00000,2970.00000,2961.00000,2967.00000,2965.00000,2966.00000,2966.00000,2959.00000,2965.00000,2963.00000,2972.00000,2970.00000,2968.00000,2970.00000,2966.00000,2966.00000,2973.00000,2967.00000,2966.00000,2963.00000,2968.00000,2966.00000,2957.00000,2967.00000,2961.00000,2960.00000,2965.00000,2969.00000,2963.00000,2965.00000,2960.00000,2965.00000,2960.00000,2957.00000,2958.00000,2957.00000,2963.00000,2965.00000,2963.00000,2966.00000,2965.00000,2973.00000,2962.00000,2969.00000,2962.00000,2959.00000,2953.00000,2953.00000,2954.00000,2956.00000,2955.00000,2954.00000,2959.00000,2963.00000,2965.00000,2980.00000,2975.00000,2976.00000,2976.00000,2982.00000,2982.00000,2982.00000,2982.00000
2982.00000,2982.00000,2982.00000,2982.00000,2982.00000,2975.00000,2975.00000,2972.00000,2980.00000,2966.00000,2968.00000,2969.00000,2968.00000,2968.00000,2968.00000,2970.00000,2965.00000,2965.00000,2976.00000,2975.00000,2970.00000,2964.00000,2967.00000,2971.00000,2978.00000,2970.00000,2964.00000,2975.00000,2970.00000,2966.00000,2967.00000,2965.00000,2969.00000,2975.00000,2965.00000,2963.00000,2967.00000,2965.00000,2970.00000,2966.00000,2966.00000,2965.00000,2963.00000,2963.00000,2967.00000,2960.00000,2961.00000,2962.00000,2964.00000,2964.00000,2960.00000,2957.00000,2954.00000,2954.00000,2964.00000,2972.00000,2970.00000,2970.00000,2964.00000,2968.00000,2969.00000,2965.00000,2963.00000,2954.00000,2953.00000,2961.00000,2955.00000,2955.00000,2955.00000,2963.00000,2956.00000,2962.00000,2972.00000,2979.00000,2987.00000,2996.00000,2982.00000,2982.00000,2982.00000,2982.00000
2982.00000,2982.00000,2982.00000,2982.00000,2982.00000,2975.00000,2980.00000,2977.00000,2973.00000,2969.00000,2967.00000,2963.00000,2963.00000,2965.00000,2968.00000,2974.00000,2973.00000,2966.00000,2974.00000,2971.00000,2967.00000,2968.00000,2969.00000,2969.00000,2970.00000,2963.00000,2969.00000,2969.00000,2965.00000,2969.00000,2966.00000,2968.00000,2974.00000,2969.00000,2969.00000,2962.00000,2970.00000,2969.00000,2964.00000,2965.00000,2967.00000,2967.00000,2967.00000,2963.00000,2959.00000,2960.00000,2960.00000,2955.00000,2957.00000,2954.00000,2955.00000,2961.00000,2955.00000,2960.00000,2971.00000,2980.00000,2965.00000,2973.00000,2971.00000,2973.00000,2966.00000,2967.00000,2966.00000,2961.00000,2955.00000,2956.00000,2953.00000,2953.00000,2951.00000,2960.00000,2957.00000,2961.00000,2970.00000,2982.00000,2980.00000,2989.00000,3005.00000,2982.00000,2982.00000,2982.00000
2982.00000,2982.00000,2982.00000,2982.00000,2985.00000,2975.00000,2963.00000,2969.00000,2973.00000,2967.00000,2973.00000,2963.00000,2968.00000,2967.00000,2971.00000,2969.00000,2967.00000,2972.00000,2966.00000,2966.00000,2967.00000,2965.00000,2972.00000,2969.00000,2971.00000,2971.00000,2968.00000,2971.00000,2975.00000,2967.00000,2971.00000,2970.00000,2969.00000,2973.00000,2970.00000,2968.00000,2972.00000,2970.00000,2965.00000,2968.00000,2971.00000,2969.00000,2959.00000,2965.00000,2968.00000,2967.00000,2960.00000,2962.00000,2962.00000,2957.00000,2957.00000,2947.00000,2962.00000,2974.00000,2968.00000,2976.00000,2976.00000,2969.00000,2965.00000,2968.00000,2969.00000,2968.00000,2963.00000,2954.00000,2956.00000,2951.00000,2954.00000,2958.00000,2963.00000,2960.00000,2965.00000,2978.00000,2976.00000,2985.00000,2996.00000,3010.00000,3010.00000,2982.00000,2982.00000,2982.00000
2982.00000,2982.00000,2982.00000,2976.00000,2981.00000,2974.00000,2964.00000,2967.00000,2963.00000,2973.00000,2962.00000,2972.00000,2970.00000,2969.00000,2970.00000,2965.00000,2975.00000,2965.00000,2967.00000,2967.00000,2973.00000,2970.00000,2971.00000,2969.00000,2967.00000,2962.00000,2971.00000,2973.00000,2971.00000,2973.00000,2971.00000,2965.00000,2968.00000,2965.00000,2965.00000,2966.00000,2966.00000,2965.00000,2970.00000,2966.00000,2962.00000,2961.00000,2960.00000,2965.00000,2961.00000,2966.00000,2957.00000,2960.00000,2950.00000,2950.00000,2955.00000,2954.00000,2957.00000,2961.00000,2962.00000,2966.00000,2969.00000,2969.00000,2966.00000,2971.00000,2974.00000,2964.00000,2962.00000,2964.00000,2952.00000,2952.00000,2954.00000,2953.00000,2971.00000,2974.00000,2973.00000,2981.00000,2986.00000,2984.00000,2995.00000,3014.00000,3024.00000,3009.00000,2982.00000,2982.00000
2982.00000,2982.00000,2982.00000,2973.00000,2970.00000,2963.00000,2963.00000,2965.00000,2968.00000,2963.00000,2968.00000,2961.00000,2963.00000,2968.00000,2969.00000,2969.00000,2969.00000,2967.00000,2967.00000,2968.00000,2965.00000,2973.00000,2970.00000,2968.00000,2965.00000,2965.00000,2970.00000,2968.00000,2976.00000,2969.00000,2969.00000,2960.00000,2965.00000,2967.00000,2962.00000,2969.00000,2966.00000,2970.00000,2961.00000,2969.00000,2965.00000,2969.00000,2958.00000,2960.00000,2949.00000,2963.00000,2959.00000,2949.00000,2948.00000,2949.00000,2954.00000,2957.00000,2954.00000,2956.00000,2958.00000,2962.00000,2969.00000,2977.00000,2969.00000,2976.00000,2966.00000,2973.00000,2970.00000,2967.00000,2959.00000,2958.00000,2959.00000,2966.00000,2979.00000,2982.00000,2984.00000,2984.00000,2984.00000,2984.00000,2997.00000,3023.00000,3021.00000,3019.00000,2982.00000,2982.00000
2982.00000,2982.00000,2985.00000,2976.00000,2975.00000,2963.00000,2971.00000,2984.00000,2976.00000,2967.00000,2966.00000,2964.00000,2971.00000,2971.00000,2965.00000,2970.00000,2966.00000,2966.00000,2966.00000,2965.00000,2968.00000,2977.00000,2972.00000,2977.00000,2985.00000,2994.00000,2991.00000,2989.00000,2988.00000,2975.00000,2973.00000,2962.00000,2965.00000,2969.00000,2970.00000,2966.00000,2970.00000,2962.00000,2963.00000,2969.00000,2965.00000,2967.00000,2962.00000,2962.00000,2965.00000,2961.00000,2956.00000,2951.00000,2955.00000,2957.00000,2954.00000,2957.00000,2951.00000,2961.00000,2968.00000,2971.00000,2972.00000,2975.00000,2975.00000,2976.00000,2975.00000,2963.00000,2968.00000,2971.00000,2973.00000,2976.00000,2977.00000,2977.00000,2986.00000,2987.00000,2989.00000,2989.00000,2983.00000,2992.00000,3016.00000,3023.00000,3024.00000,3025.00000,3018.00000,2982.00000
2982.00000,2982.00000,2986.00000,2988.00000,2987.00000,2984.00000,2976.00000,2984.00000,2984.00000,2970.00000,2971.00000,2966.00000,2962.00000,2967.00000,2968.00000,2966.00000,2970.00000,2966.00000,2964.00000,2969.00000,2971.00000,3039.00000,3001.00000,3008.00000,3011.00000,3017.00000,3024.00000,3020.00000,3017.00000,3002.00000,2976.00000,2971.00000,2969.00000,2969.00000,2965.00000,2964.00000,2969.00000,2971.00000,2963.00000,2969.00000,2968.00000,2960.00000,2961.00000,2964.00000,2964.00000,2957.00000,2951.00000,2957.00000,2954.00000,2960.00000,2957.00000,2949.00000,2956.00000,2955.00000,2968.00000,2975.00000,2970.00000,2969.00000,2966.00000,2971.00000,2972.00000,2965.00000,2972.00000,2979.00000,2981.00000,2982.00000,2985.00000,2984.00000,2982.00000,2984.00000,2986.00000,2984.00000,2981.00000,3000.00000,3033.00000,3027.00000,3029.00000,3028.00000,3020.00000,2982.00000
2982.00000,2982.00000,2982.00000,2997.00000,2994.00000,2979.00000,2978.00000,2980.00000,3003.00000,2970.00000,2970.00000,2966.00000,2967.00000,2972.00000,2969.00000,2964.00000,2972.00000,2973.00000,2977.00000,2973.00000,2982.00000,3040.00000,3011.00000,3025.00000,3018.00000,3035.00000,3050.00000,3054.00000,3034.00000,3029.00000,2993.00000,2969.00000,2965.00000,2970.00000,2964.00000,2966.00000,2967.00000,2969.00000,2965.00000,2964.00000,2966.00000,2967.00000,2964.00000,2956.00000,2962.00000,2958.00000,2955.00000,2955.00000,2950.00000,2956.00000,2952.00000,2958.00000,2953.00000,2954.00000,2959.00000,2963.00000,2963.00000,2973.00000,2972.00000,2975.00000,2973.00000,2982.00000,2982.00000,2981.00000,2998.00000,2984.00000,2983.00000,2987.00000,2985.00000,2981.00000,2986.00000,2978.00000,2986.00000,3032.00000,3042.00000,3026.00000,3023.00000,3021.00000,3022.00000,2982.00000
2982.00000,2981.00000,2969.00000,2966.00000,3012.00000,2978.00000,2979.00000,2972.00000,3005.00000,2984.00000,2971.00000,2964.00000,2965.00000,2969.00000,2960.00000,2967.00000,2967.00000,2974.00000,2975.00000,2976.00000,2986.00000,3003.00000,3022.00000,3029.00000,3031.00000,3045.00000,3077.00000,3071.00000,3078.00000,3062.00000,2996.00000,2969.00000,2968.00000,2969.00000,2968.00000,2965.00000,2966.00000,2967.00000,2963.00000,2961.00000,2965.00000,2963.00000,2959.00000,2956.00000,2954.00000,2951.00000,2955.00000,2952.00000,2957.00000,2953.00000,2954.00000,2951.00000,2951.00000,2958.00000,2962.00000,2966.00000,2969.00000,2975.00000,2976.00000,2978.00000,2979.00000,2986.00000,3005.00000,3031.00000,3033.00000,3000.00000,2983.00000,2982.00000,2985.00000,2983.00000,2983.00000,2978.00000,3017.00000,3044.00000,3040.00000,3038.00000,3029.00000,3027.00000,3028.00000,3038.00000
2982.00000,2973.00000,2974.00000,2975.00000,2984.00000,2998.00000,2980.00000,2967.00000,2982.00000,3012.00000,2966.00000,2959.00000,2959.00000,2971.00000,2963.00000,2972.00000,2970.00000,2968.00000,2974.00000,2982.00000,2988.00000,3010.00000,3028.00000,3043.00000,3048.00000,3062.00000,3082.00000,3073.00000,3067.00000,3065.00000,2988.00000,2962.00000,2963.00000,2964.00000,2965.00000,2966.00000,2963.00000,2970.00000,2959.00000,2966.00000,2962.00000,2960.00000,2958.00000,2951.00000,2956.00000,2957.00000,2951.00000,2944.00000,2957.00000,2954.00000,2953.00000,2954.00000,2960.00000,2959.00000,2971.00000,2976.00000,2970.00000,2975.00000,2980.00000,2984.00000,2994.00000,3032.00000,3057.00000,3055.00000,3041.00000,3011.00000,2990.00000,2974.00000,2984.00000,2982.00000,2969.00000,2984.00000,3057.00000,3061.00000,3039.00000,3035.00000,3027.00000,3032.00000,3030.00000,3036.00000
2982.00000,2979.00000,2969.00000,2967.00000,2966.00000,3003.00000,2998.00000,2977.00000,2978.00000,3004.00000,2982.00000,2963.00000,2961.00000,2958.00000,2959.00000,2967.00000,2969.00000,2971.00000,2973.00000,2977.00000,2991.00000,3023.00000,3039.00000,3066.00000,3068.00000,3065.00000,3075.00000,3075.00000,3080.00000,3071.00000,2988.00000,2966.00000,2966.00000,2963.00000,2967.00000,2966.00000,2963.00000,2963.00000,2960.00000,2966.00000,2955.00000,2957.00000,2957.00000,2957.00000,2956.00000,2958.00000,2953.00000,2956.00000,2961.00000,2953.00000,2955.00000,2959.00000,2968.00000,2977.00000,2977.00000,2979.00000,2982.00000,2986.00000,2986.00000,3022.00000,3049.00000,3058.00000,3061.00000,3045.00000,3039.00000,3015.00000,2992.00000,2978.00000,2970.00000,2968.00000,2969.00000,3006.00000,3079.00000,3058.00000,3054.00000,3043.00000,3034.00000,3028.00000,3022.00000,3033.00000
2982.00000,2969.00000,2969.00000,2969.00000,2969.00000,2972.00000,2995.00000,2976.00000,2971.00000,2978.00000,3008.00000,2964.00000,2962.00000,2957.00000,2962.00000,2958.00000,2969.00000,2966.00000,2965.00000,2975.00000,2989.00000,3012.00000,3044.00000,3060.00000,3067.00000,3071.00000,3072.00000,3069.00000,3069.00000,3046.00000,2976.00000,2966.00000,2966.00000,2957.00000,2965.00000,2959.00000,2957.00000,2962.00000,2957.00000,2958.00000,2965.00000,2957.00000,2952.00000,2954.00000,2954.00000,2951.00000,2954.00000,2956.00000,2957.00000,2959.00000,2962.00000,2971.00000,2980.00000,2979.00000,2982.00000,2975.00000,2988.00000,3006.00000,3039.00000,3057.00000,3057.00000,3058.00000,3049.00000,3038.00000,3030.00000,3015.00000,2986.00000,2966.00000,2966.00000,2970.00000,2961.00000,2992.00000,3091.00000,3059.00000,3061.00000,3042.00000,3038.00000,3029.00000,3029.00000,3027.00000
2989.00000,2985.00000,2974.00000,2976.00000,2970.00000,2969.00000,2978.00000,2966.00000,2965.00000,2965.00000,2976.00000,2968.00000,2968.00000,2965.00000,2965.00000,2970.00000,2967.00000,2964.00000,2967.00000,2976.00000,2985.00000,2989.00000,3053.00000,3079.00000,3063.00000,3067.00000,3069.00000,3067.00000,3059.00000,3030.00000,2973.00000,2963.00000,2962.00000,2960.00000,2959.00000,2960.00000,2960.00000,2960.00000,2950.00000,2955.00000,2959.00000,2959.00000,2952.00000,2949.00000,2956.00000,2952.00000,2954.00000,2954.00000,2960.00000,2964.00000,2966.00000,2973.00000,2976.00000,2977.00000,2985.00000,3003.00000,3032.00000,3041.00000,3048.00000,3052.00000,3049.00000,3049.00000,3040.00000,3028.00000,3024.00000,3013.00000,2989.00000,2972.00000,2957.00000,2966.00000,2963.00000,2975.00000,3081.00000,3071.00000,3049.00000,3044.00000,3033.00000,3025.00000,3028.00000,3022.00000
2994.00000,2978.00000,2967.00000,2967.00000,2976.00000,2968.00000,2968.00000,2973.00000,2966.00000,2957.00000,2965.00000,2965.00000,2962.00000,2967.00000,2988.00000,2989.00000,2988.00000,2991.00000,2989.00000,2984.00000,2985.00000,2988.00000,2988.00000,3015.00000,3047.00000,3064.00000,3067.00000,3073.00000,3073.00000,3018.00000,2970.00000,2974.00000,2972.00000,2973.00000,2966.00000,2962.00000,2964.00000,2960.00000,2953.00000,2960.00000,2955.00000,2963.00000,2955.00000,2957.00000,2956.00000,2953.00000,2960.00000,2958.00000,2966.00000,2972.00000,2977.00000,2976.00000,2975.00000,3000.00000,3042.00000,3051.00000,3047.00000,3048.00000,3044.00000,3052.00000,3043.00000,3037.00000,3027.00000,3025.00000,3020.00000,3014.00000,2991.00000,2976.00000,2965.00000,2964.00000,2960.00000,2970.00000,3083.00000,3074.00000,3052.00000,3043.00000,3036.00000,3024.00000,3029.00000,3028.00000
2971.00000,2961.00000,2964.00000,2969.00000,2969.00000,2969.00000,2967.00000,2967.00000,2965.00000,2967.00000,2968.00000,2967.00000,2966.00000,2989.00000,3005.00000,2988.00000,2995.00000,2994.00000,2994.00000,2995.00000,2993.00000,2988.00000,2990.00000,2993.00000,3057.00000,3066.00000,3063.00000,3075.00000,3069.00000,3001.00000,2995.00000,3005.00000,2998.00000,2998.00000,2973.00000,2960.00000,2959.00000,2961.00000,2959.00000,2959.00000,2956.00000,2955.00000,2956.00000,2959.00000,2960.00000,2960.00000,2953.00000,2959.00000,2970.00000,2977.00000,2977.00000,2972.00000,3031.00000,3071.00000,3067.00000,3057.00000,3054.00000,3046.00000,3043.00000,3040.00000,3033.00000,3030.00000,3027.00000,3021.00000,3015.00000,3008.00000,2996.00000,2975.00000,2961.00000,2962.00000,2962.00000,2966.00000,3051.00000,3078.00000,3055.00000,3047.00000,3041.00000,3038.00000,3043.00000,3036.00000
2981.00000,2971.00000,2967.00000,2972.00000,2968.00000,2964.00000,2969.00000,2968.00000,2959.00000,2988.00000,2973.00000,2970.00000,2981.00000,3000.00000,3004.00000,3000.00000,3003.00000,2998.00000,2997.00000,2993.00000,3001.00000,2989.00000,2986.00000,3034.00000,3074.00000,3076.00000,3066.00000,3061.00000,3036.00000,2997.00000,2993.00000,2996.00000,3029.00000,3033.00000,2995.00000,2961.00000,2955.00000,2961.00000,2958.00000,2954.00000,2960.00000,2958.00000,2957.00000,2959.00000,2956.00000,2955.00000,2961.00000,2963.00000,2976.00000,2977.00000,2981.00000,2980.00000,3056.00000,3077.00000,3072.00000,3059.00000,3048.00000,3040.00000,3042.00000,3037.00000,3037.00000,3030.00000,3023.00000,3018.00000,3017.00000,3013.00000,3004.00000,2976.00000,2965.00000,2959.00000,2966.00000,2955.00000,3038.00000,3075.00000,3054.00000,3038.00000,3036.00000,3035.00000,3039.00000,3043.00000
2973.00000,2967.00000,2960.00000,2963.00000,2956.00000,2955.00000,2964.00000,2957.00000,2961.00000,2993.00000,2997.00000,2977.00000,2987.00000,3001.00000,3003.00000,3002.00000,3017.00000,3014.00000,2997.00000,3004.00000,3007.00000,2988.00000,2992.00000,3058.00000,3075.00000,3064.00000,3054.00000,3043.00000,2987.00000,2976.00000,3001.00000,3021.00000,3047.00000,3047.00000,3021.00000,2964.00000,2960.00000,2950.00000,2952.00000,2955.00000,2961.00000,2957.00000,2955.00000,2955.00000,2956.00000,2961.00000,2972.00000,2970.00000,2979.00000,2975.00000,2976.00000,2974.00000,3046.00000,3075.00000,3069.00000,3061.00000,3048.00000,3044.00000,3030.00000,3032.00000,3027.00000,3025.00000,3022.00000,3016.00000,3011.00000,3011.00000,3002.00000,2981.00000,2966.00000,2966.00000,2965.00000,2958.00000,3018.00000,3081.00000,3044.00000,3033.00000,3027.00000,3039.00000,3048.00000,3030.00000
2982.00000,2973.00000,2967.00000,2964.00000,2955.00000,2962.00000,2960.00000,2968.00000,2960.00000,2961.00000,2977.00000,2975.00000,2993.00000,3002.00000,3010.00000,3015.00000,3001.00000,3019.00000,3000.00000,3007.00000,3000.00000,2989.00000,2999.00000,3013.00000,3071.00000,3052.00000,3021.00000,3005.00000,2983.00000,2962.00000,2977.00000,3016.00000,3039.00000,3036.00000,3026.00000,2974.00000,2961.00000,2954.00000,2954.00000,2952.00000,2957.00000,2951.00000,2962.00000,2971.00000,2971.00000,2976.00000,2974.00000,2977.00000,2980.00000,2971.00000,2977.00000,2975.00000,3038.00000,3066.00000,3070.00000,3059.00000,3043.00000,3039.00000,3027.00000,3029.00000,3020.00000,3019.00000,3013.00000,3006.00000,3012.00000,3004.00000,3005.00000,2984.00000,2967.00000,2961.00000,2957.00000,2965.00000,2998.00000,3082.00000,3041.00000,3019.00000,2999.00000,3007.00000,3032.00000,3017.00000
2970.00000,2974.00000,2958.00000,2957.00000,2952.00000,2955.00000,2956.00000,2948.00000,2948.00000,2955.00000,2967.00000,2977.00000,2993.00000,2995.00000,3006.00000,3012.00000,3003.00000,3018.00000,3000.00000,2999.00000,3006.00000,2998.00000,2993.00000,3001.00000,3041.00000,3046.00000,3016.00000,3010.00000,2998.00000,2987.00000,2965.00000,2977.00000,3022.00000,3038.00000,3036.00000,2981.00000,2957.00000,2960.00000,2951.00000,2954.00000,2959.00000,2958.00000,2972.00000,2977.00000,2984.00000,2979.00000,2978.00000,2981.00000,2977.00000,2973.00000,2968.00000,2974.00000,3031.00000,3069.00000,3065.00000,3053.00000,3044.00000,3039.00000,3026.00000,3020.00000,3019.00000,3012.00000,3011.00000,3007.00000,3008.00000,3010.00000,3003.00000,2983.00000,2964.00000,2965.00000,2961.00000,2959.00000,2988.00000,3077.00000,3042.00000,2992.00000,2984.00000,2989.00000,3009.00000,3000.00000
2970.00000,2962.00000,2962.00000,2952.00000,2949.00000,2947.00000,2950.00000,2945.00000,2940.00000,2955.00000,2978.00000,2989.00000,2992.00000,2994.00000,3004.00000,3001.00000,3000.00000,3007.00000,2998.00000,2994.00000,2995.00000,2995.00000,2992.00000,3002.00000,3015.00000,3040.00000,3017.00000,3002.00000,3009.00000,3013.00000,2963.00000,2955.00000,2974.00000,3036.00000,3044.00000,2999.00000,2959.00000,2961.00000,2957.00000,2951.00000,2960.00000,2973.00000,2978.00000,2981.00000,2975.00000,2981.00000,2974.00000,2972.00000,2968.00000,2963.00000,2962.00000,2972.00000,3022.00000,3065.00000,3060.00000,3046.00000,3035.00000,3028.00000,3022.00000,3018.00000,3016.00000,3012.00000,3008.00000,3002.00000,3002.00000,3000.00000,2998.00000,2980.00000,2968.00000,2965.00000,2957.00000,2964.00000,2983.00000,3070.00000,3041.00000,2984.00000,2983.00000,2978.00000,3000.00000,2996.00000
2987.00000,2981.00000,2976.00000,2960.00000,2946.00000,2945.00000,2946.00000,2949.00000,2949.00000,2964.00000,2980.00000,2990.00000,2997.00000,3002.00000,2998.00000,3008.00000,3007.00000,2999.00000,3004.00000,3002.00000,2994.00000,2987.00000,2991.00000,3007.00000,3002.00000,3022.00000,3013.00000,3003.00000,3011.00000,3030.00000,2956.00000,2952.00000,2954.00000,3026.00000,3047.00000,3002.00000,2967.00000,2958.00000,2965.00000,2970.00000,2974.00000,2978.00000,2973.00000,2981.00000,2977.00000,2969.00000,2964.00000,2970.00000,2967.00000,2963.00000,2964.00000,2969.00000,3010.00000,3063.00000,3058.00000,3047.00000,3038.00000,3023.00000,3019.00000,3005.00000,3006.00000,3006.00000,3006.00000,2998.00000,3000.00000,3001.00000,2996.00000,2975.00000,2964.00000,2958.00000,2966.00000,2961.00000,2977.00000,3057.00000,3022.00000,2986.00000,2977.00000,2974.00000,2984.00000,2998.00000
2982.00000,2986.00000,2985.00000,2968.00000,2965.00000,2960.00000,2963.00000,2955.00000,2952.00000,2965.00000,2974.00000,2993.00000,3001.00000,3007.00000,3007.00000,3008.00000,3001.00000,2999.00000,3011.00000,3007.00000,2991.00000,2990.00000,2990.00000,3009.00000,3014.00000,3008.00000,3015.00000,3001.00000,2999.00000,3030.00000,2964.00000,2953.00000,2965.00000,3010.00000,3012.00000,3008.00000,2984.00000,2971.00000,2969.00000,2976.00000,2975.00000,2970.00000,2972.00000,2971.00000,2973.00000,2982.00000,3001.00000,2981.00000,2976.00000,2964.00000,2964.00000,2968.00000,3006.00000,3054.00000,3049.00000,3042.00000,3029.00000,3020.00000,3017.00000,3012.00000,3010.00000,3004.00000,3003.00000,2995.00000,2988.00000,2980.00000,2976.00000,2970.00000,2959.00000,2968.00000,2968.00000,2973.00000,2968.00000,3006.00000,2997.00000,2978.00000,2981.00000,2978.00000,2987.00000,2995.00000
2975.00000,2977.00000,2978.00000,2976.00000,2966.00000,2958.00000,2962.00000,2959.00000,2960.00000,2966.00000,2978.00000,2994.00000,2999.00000,2998.00000,3008.00000,3007.00000,2999.00000,3004.00000,3009.00000,3010.00000,2996.00000,2990.00000,2988.00000,3012.00000,3008.00000,3014.00000,3023.00000,3012.00000,3006.00000,2999.00000,2960.00000,2956.00000,2965.00000,3001.00000,2993.00000,2989.00000,2988.00000,2972.00000,2972.00000,2984.00000,3004.00000,3029.00000,3052.00000,3069.00000,3085.00000,3092.00000,3086.00000,3007.00000,2977.00000,2964.00000,2971.00000,2968.00000,3002.00000,3050.00000,3047.00000,3036.00000,3024.00000,3014.00000,3009.00000,3002.00000,2996.00000,2997.00000,2986.00000,2988.00000,2977.00000,2971.00000,2963.00000,2962.00000,2960.00000,2973.00000,2976.00000,2974.00000,2979.00000,2981.00000,2978.00000,2977.00000,2978.00000,2978.00000,2977.00000,2986.00000
2990.00000,2982.00000,2981.00000,2976.00000,2968.00000,2956.00000,2964.00000,2955.00000,2955.00000,2975.00000,2977.00000,2998.00000,3002.00000,2996.00000,3009.00000,3008.00000,3000.00000,3004.00000,3007.00000,3000.00000,2994.00000,2994.00000,2986.00000,3005.00000,3016.00000,3024.00000,3026.00000,3006.00000,3012.00000,2993.00000,2975.00000,2959.00000,2974.00000,3001.00000,2990.00000,2988.00000,2982.00000,2977.00000,3049.00000,3090.00000,3094.00000,3095.00000,3090.00000,3086.00000,3081.00000,3079.00000,3073.00000,3008.00000,2983.00000,2968.00000,2964.00000,2973.00000,2998.00000,3045.00000,3043.00000,3030.00000,3012.00000,2998.00000,2996.00000,2990.00000,2985.00000,2986.00000,2984.00000,2982.00000,2973.00000,2966.00000,2964.00000,2960.00000,2965.00000,2964.00000,2980.00000,2981.00000,2986.00000,2971.00000,2977.00000,2975.00000,2982.00000,2974.00000,2984.00000,2988.00000
2993.00000,2990.00000,2986.00000,2978.00000,2967.00000,2954.00000,2963.00000,2958.00000,2960.00000,2974.00000,2980.00000,2997.00000,2996.00000,3015.00000,3013.00000,3004.00000,3015.00000,3011.00000,3007.00000,2999.00000,2997.00000,2989.00000,2988.00000,2998.00000,3014.00000,3017.00000,3011.00000,3007.00000,3010.00000,2999.00000,2978.00000,2958.00000,2980.00000,3002.00000,3000.00000,2993.00000,2991.00000,2971.00000,3019.00000,3063.00000,3074.00000,3074.00000,3074.00000,3062.00000,3060.00000,3058.00000,3059.00000,3007.00000,2986.00000,2976.00000,2975.00000,2977.00000,2986.00000,2997.00000,2993.00000,2997.00000,2993.00000,2986.00000,2985.00000,2981.00000,2980.00000,2981.00000,2975.00000,2969.00000,2963.00000,2960.00000,2965.00000,2965.00000,2974.00000,2977.00000,2977.00000,2986.00000,2980.00000,2981.00000,2977.00000,2976.00000,2979.00000,2978.00000,2982.00000,2989.00000
3000.00000,2978.00000,2981.00000,2974.00000,2969.00000,2962.00000,2955.00000,2959.00000,2956.00000,2976.00000,2987.00000,2994.00000,3010.00000,2999.00000,2996.00000,3004.00000,3015.00000,3025.00000,3007.00000,2999.00000,2995.00000,2992.00000,2987.00000,2993.00000,3015.00000,3016.00000,3010.00000,3004.00000,3007.00000,3006.00000,2988.00000,2980.00000,2985.00000,2996.00000,2999.00000,3001.00000,2992.00000,2976.00000,3012.00000,3047.00000,3064.00000,3064.00000,3066.00000,3053.00000,3054.00000,3048.00000,3050.00000,3014.00000,2995.00000,2980.00000,2984.00000,2982.00000,2976.00000,2977.00000,2978.00000,2975.00000,2974.00000,2976.00000,2973.00000,2969.00000,2974.00000,2976.00000,2973.00000,2968.00000,2966.00000,2957.00000,2964.00000,2960.00000,2971.00000,2975.00000,2976.00000,2984.00000,2976.00000,2970.00000,2979.00000,2984.00000,2974.00000,2975.00000,2981.00000,2989.00000
2992.00000,2985.00000,2980.00000,2967.00000,2963.00000,2957.00000,2963.00000,2964.00000,2962.00000,2974.00000,2984.00000,2996.00000,2998.00000,3006.00000,3002.00000,3021.00000,3026.00000,3019.00000,3001.00000,3000.00000,2992.00000,2985.00000,2991.00000,2989.00000,3001.00000,3012.00000,3005.00000,3005.00000,3009.00000,3004.00000,2997.00000,3008.00000,3006.00000,3003.00000,3008.00000,3008.00000,2996.00000,2975.00000,3004.00000,3048.00000,3046.00000,3051.00000,3052.00000,3052.00000,3047.00000,3050.00000,3052.00000,3016.00000,2995.00000,2990.00000,2984.00000,2979.00000,2975.00000,2971.00000,2967.00000,2966.00000,2962.00000,2969.00000,2966.00000,2966.00000,2963.00000,2974.00000,2969.00000,2965.00000,2966.00000,2968.00000,2964.00000,2959.00000,2962.00000,2980.00000,2978.00000,2984.00000,2968.00000,2973.00000,2975.00000,2979.00000,2975.00000,2975.00000,2981.00000,2986.00000
2991.00000,2972.00000,2963.00000,2968.00000,2967.00000,2958.00000,2956.00000,2953.00000,2951.00000,2966.00000,2981.00000,2994.00000,3001.00000,3005.00000,3006.00000,3018.00000,3015.00000,3016.00000,3012.00000,2997.00000,2993.00000,2988.00000,2986.00000,2987.00000,3005.00000,3023.00000,3014.00000,3011.00000,3009.00000,3001.00000,2997.00000,2997.00000,3015.00000,3008.00000,3014.00000,3017.00000,3012.00000,2975.00000,2998.00000,3049.00000,3061.00000,3056.00000,3042.00000,3044.00000,3048.00000,3054.00000,3065.00000,3023.00000,2996.00000,2988.00000,2984.00000,2983.00000,2968.00000,2969.00000,2964.00000,2967.00000,2959.00000,2970.00000,2963.00000,2961.00000,2971.00000,2974.00000,2971.00000,2959.00000,2963.00000,2966.00000,2958.00000,2961.00000,2957.00000,2975.00000,2972.00000,2976.00000,2970.00000,2972.00000,2981.00000,2981.00000,2983.00000,2980.00000,2979.00000,2973.00000
2986.00000,2985.00000,2981.00000,2972.00000,2968.00000,2964.00000,2959.00000,2955.00000,2955.00000,2968.00000,2982.00000,2998.00000,3007.00000,2997.00000,3002.00000,3014.00000,3014.00000,3008.00000,3005.00000,3002.00000,3004.00000,2999.00000,2993.00000,2987.00000,3010.00000,3009.00000,3016.00000,3026.00000,3009.00000,3004.00000,3000.00000,2999.00000,3016.00000,3008.00000,3017.00000,3019.00000,3017.00000,2980.00000,2997.00000,3057.00000,3062.00000,3060.00000,3045.00000,3040.00000,3023.00000,3021.00000,3023.00000,3009.00000,3003.00000,3002.00000,2988.00000,2982.00000,2973.00000,2978.00000,2970.00000,2972.00000,2980.00000,2975.00000,2973.00000,2972.00000,2979.00000,2976.00000,2979.00000,2975.00000,2970.00000,2965.00000,2965.00000,2969.00000,2974.00000,2975.00000,2984.00000,2976.00000,2977.00000,2974.00000,2970.00000,2973.00000,2980.00000,2980.00000,2980.00000,2982.00000
2982.00000,2984.00000,2978.00000,2976.00000,2977.00000,2961.00000,2969.00000,2951.00000,2951.00000,2964.00000,2979.00000,3002.00000,3011.00000,3009.00000,3017.00000,3009.00000,3012.00000,2995.00000,3003.00000,3012.00000,3002.00000,3006.00000,2998.00000,2997.00000,2999.00000,2997.00000,2996.00000,2996.00000,3001.00000,3002.00000,3000.00000,2992.00000,3011.00000,3003.00000,3018.00000,3016.00000,3018.00000,2995.00000,2992.00000,3000.00000,2992.00000,2986.00000,2987.00000,2986.00000,2983.00000,2990.00000,2989.00000,2996.00000,3015.00000,3005.00000,2991.00000,2981.00000,2979.00000,2976.00000,2975.00000,2977.00000,2981.00000,2979.00000,2984.00000,2983.00000,2980.00000,2981.00000,2981.00000,2983.00000,2978.00000,2979.00000,2980.00000,2979.00000,2976.00000,2976.00000,2975.00000,2982.00000,2983.00000,2971.00000,2973.00000,2976.00000,2978.00000,2988.00000,2981.00000,2989.00000
2982.00000,2993.00000,2978.00000,2974.00000,2968.00000,2969.00000,2960.00000,2963.00000,2951.00000,2965.00000,2980.00000,2996.00000,3010.00000,3006.00000,3018.00000,3014.00000,2998.00000,2998.00000,3006.00000,3012.00000,3003.00000,2999.00000,2995.00000,2997.00000,2995.00000,2989.00000,2998.00000,3002.00000,2997.00000,2999.00000,2999.00000,2999.00000,2994.00000,3015.00000,3015.00000,3018.00000,3023.00000,3018.00000,3004.00000,2988.00000,2988.00000,2993.00000,2989.00000,2985.00000,2985.00000,3011.00000,3013.00000,2998.00000,2998.00000,2992.00000,2991.00000,2986.00000,2977.00000,2984.00000,2983.00000,2986.00000,2991.00000,2988.00000,2986.00000,2982.00000,2976.00000,2985.00000,2978.00000,2983.00000,2982.00000,2980.00000,2974.00000,2983.00000,2977.00000,2976.00000,2975.00000,2979.00000,2978.00000,2973.00000,2976.00000,2977.00000,2977.00000,2985.00000,2974.00000,2992.00000
2982.00000,2984.00000,2982.00000,2984.00000,2970.00000,2974.00000,2971.00000,2963.00000,2964.00000,2968.00000,2969.00000,3001.00000,3008.00000,3013.00000,3016.00000,2999.00000,3006.00000,3012.00000,3010.00000,2998.00000,2997.00000,2998.00000,2996.00000,3001.00000,2993.00000,2988.00000,2989.00000,2988.00000,2991.00000,2993.00000,2995.00000,3001.00000,2989.00000,3008.00000,3016.00000,3023.00000,3019.00000,2995.00000,2992.00000,2986.00000,2976.00000,2984.00000,2993.00000,2996.00000,2989.00000,2997.00000,2992.00000,2990.00000,2987.00000,2987.00000,2983.00000,2984.00000,2986.00000,2984.00000,2990.00000,2991.00000,2992.00000,2989.00000,2989.00000,2986.00000,2982.00000,2981.00000,2978.00000,2980.00000,2981.00000,2981.00000,2977.00000,2975.00000,2976.00000,2978.00000,2977.00000,2974.00000,2983.00000,2974.00000,2977.00000,2984.00000,2984.00000,2980.00000,2981.00000,2995.00000
2982.00000,2998.00000,2986.00000,2975.00000,2981.00000,2966.00000,2976.00000,2967.00000,2967.00000,2966.00000,2978.00000,2979.00000,3002.00000,3007.00000,2999.00000,3004.00000,3002.00000,3011.00000,3010.00000,3007.00000,3011.00000,3002.00000,2998.00000,3002.00000,2994.00000,2988.00000,2990.00000,2988.00000,2991.00000,2986.00000,2993.00000,2993.00000,2999.00000,2993.00000,3011.00000,3009.00000,3005.00000,2993.00000,2992.00000,2991.00000,2986.00000,2982.00000,2982.00000,2986.00000,2983.00000,2986.00000,2986.00000,2984.00000,2986.00000,2983.00000,2982.00000,2988.00000,2985.00000,2981.00000,2981.00000,2986.00000,2986.00000,2977.00000,2983.00000,2980.00000,2983.00000,2980.00000,2979.00000,2979.00000,2969.00000,2974.00000,2978.00000,2973.00000,2974.00000,2970.00000,2970.00000,2978.00000,2980.00000,2974.00000,2974.00000,2980.00000,2984.00000,2986.00000,2991.00000,3001.00000
2982.00000,2982.00000,2993.00000,2982.00000,2977.00000,2985.00000,2984.00000,2970.00000,2965.00000,2967.00000,2976.00000,2978.00000,2978.00000,2984.00000,2980.00000,2979.00000,2976.00000,2988.00000,2997.00000,3006.00000,3008.00000,3009.00000,3005.00000,2999.00000,2991.00000,2988.00000,2991.00000,2987.00000,2988.00000,2984.00000,2988.00000,2993.00000,3020.00000,3013.00000,2993.00000,2994.00000,2990.00000,2992.00000,2993.00000,2985.00000,2986.00000,2987.00000,2988.00000,2981.00000,2981.00000,2982.00000,2982.00000,2978.00000,2980.00000,2974.00000,2980.00000,2984.00000,2983.00000,2984.00000,2978.00000,2982.00000,2982.00000,2978.00000,2983.00000,2977.00000,2981.00000,2972.00000,2976.00000,2976.00000,2979.00000,2975.00000,2977.00000,2974.00000,2981.00000,2976.00000,2974.00000,2974.00000,2981.00000,2973.00000,2984.00000,2983.00000,2983.00000,2989.00000,2992.00000,2982.00000
2982.00000,2982.00000,2985.00000,2986.00000,2976.00000,2976.00000,2984.00000,2981.00000,2976.00000,2975.00000,2975.00000,2975.00000,2972.00000,2971.00000,2972.00000,2977.00000,2969.00000,2978.00000,2980.00000,2986.00000,2988.00000,2986.00000,2995.00000,3001.00000,2996.00000,2994.00000,2987.00000,2991.00000,2986.00000,2987.00000,2995.00000,2995.00000,3017.00000,3039.00000,3019.00000,3025.00000,3025.00000,3021.00000,3005.00000,3012.00000,2996.00000,2987.00000,2984.00000,2981.00000,2970.00000,2970.00000,2964.00000,2970.00000,2967.00000,2969.00000,2968.00000,2971.00000,2981.00000,2980.00000,2981.00000,2977.00000,2979.00000,2980.00000,2981.00000,2980.00000,2977.00000,2978.00000,2980.00000,2975.00000,2972.00000,2979.00000,2978.00000,2971.00000,2965.00000,2980.00000,2980.00000,2973.00000,2971.00000,2976.00000,2981.00000,2984.00000,2980.00000,2975.00000,2985.00000,2982.00000
2982.00000,2982.00000,2986.00000,2985.00000,2981.00000,2981.00000,2987.00000,2980.00000,2972.00000,2974.00000,2975.00000,2975.00000,2976.00000,2978.00000,2978.00000,2973.00000,2974.00000,2974.00000,2973.00000,2973.00000,2977.00000,2977.00000,2977.00000,2981.00000,2981.00000,2989.00000,2984.00000,2988.00000,2987.00000,2984.00000,2994.00000,3004.00000,3028.00000,3034.00000,3030.00000,3025.00000,3026.00000,3031.00000,3006.00000,3002.00000,2998.00000,2991.00000,2980.00000,2977.00000,2981.00000,2972.00000,2971.00000,2970.00000,2965.00000,2968.00000,2966.00000,2970.00000,2974.00000,2984.00000,2984.00000,2977.00000,2981.00000,2982.00000,2980.00000,2977.00000,2975.00000,2979.00000,2975.00000,2969.00000,2974.00000,2975.00000,2972.00000,2976.00000,2972.00000,2976.00000,2971.00000,2970.00000,2973.00000,2975.00000,2981.00000,2984.00000,2989.00000,2980.00000,2987.00000,2982.00000
2982.00000,2982.00000,2982.00000,2993.00000,2982.00000,2977.00000,2973.00000,2975.00000,2976.00000,2973.00000,2983.00000,2976.00000,2972.00000,2978.00000,2975.00000,2980.00000,2984.00000,2975.00000,2983.00000,2976.00000,2970.00000,2970.00000,2972.00000,2980.00000,2978.00000,2985.00000,2981.00000,2985.00000,2981.00000,2986.00000,2990.00000,2994.00000,3006.00000,3011.00000,3014.00000,3002.00000,3000.00000,2993.00000,2983.00000,2985.00000,2988.00000,2987.00000,2983.00000,2982.00000,2979.00000,2981.00000,2983.00000,2977.00000,2973.00000,2968.00000,2975.00000,2975.00000,2977.00000,2984.00000,2981.00000,2983.00000,2984.00000,2972.00000,2975.00000,2970.00000,2977.00000,2973.00000,2975.00000,2969.00000,2977.00000,2975.00000,2972.00000,2971.00000,2968.00000,2969.00000,2978.00000,2966.00000,2976.00000,2977.00000,2974.00000,2979.00000,2982.00000,2978.00000,2982.00000,2982.00000
2982.00000,2982.00000,2982.00000,2991.00000,2987.00000,2973.00000,2977.00000,2986.00000,2978.00000,2982.00000,2973.00000,2985.00000,2983.00000,2977.00000,2980.00000,2980.00000,2981.00000,2975.00000,2975.00000,2978.00000,2977.00000,2979.00000,2977.00000,2983.00000,2987.00000,2982.00000,2981.00000,2984.00000,2978.00000,2981.00000,2979.00000,2974.00000,2978.00000,2983.00000,2984.00000,2980.00000,2984.00000,2980.00000,2971.00000,2984.00000,2977.00000,2984.00000,2980.00000,2985.00000,2977.00000,2977.00000,2986.00000,2977.00000,2977.00000,2980.00000,2975.00000,2970.00000,2975.00000,2976.00000,2976.00000,2975.00000,2979.00000,2972.00000,2977.00000,2975.00000,2975.00000,2973.00000,2974.00000,2974.00000,2979.00000,2968.00000,2976.00000,2975.00000,2975.00000,2976.00000,2976.00000,2977.00000,2978.00000,2978.00000,2980.00000,2980.00000,2971.00000,2979.00000,2982.00000,2982.00000
2982.00000,2982.00000,2982.00000,2982.00000,2986.00000,2986.00000,2972.00000,2974.00000,2974.00000,2980.00000,2981.00000,2983.00000,2979.00000,2975.00000,2982.00000,2976.00000,2978.00000,2980.00000,2979.00000,2982.00000,2979.00000,2977.00000,2977.00000,2978.00000,2982.00000,2984.00000,2976.00000,2984.00000,2980.00000,2978.00000,2979.00000,2972.00000,2976.00000,2973.00000,2984.00000,2977.00000,2971.00000,2974.00000,2969.00000,2979.00000,2980.00000,2981.00000,2979.00000,2976.00000,2975.00000,2975.00000,2979.00000,2978.00000,2977.00000,2974.00000,2972.00000,2976.00000,2980.00000,2974.00000,2977.00000,2977.00000,2980.00000,2973.00000,2975.00000,2971.00000,2973.00000,2980.00000,2970.00000,2971.00000,2972.00000,2981.00000,2969.00000,2971.00000,2962.00000,2973.00000,2973.00000,2973.00000,2976.00000,2984.00000,2989.00000,2993.00000,2985.00000,2982.00000,2982.00000,2982.00000
2982.00000,2982.00000,2982.00000,2982.00000,2984.00000,2987.00000,2980.00000,2981.00000,2986.00000,2976.00000,2971.00000,2983.00000,2983.00000,2983.00000,2981.00000,2979.00000,2978.00000,2977.00000,2977.00000,2976.00000,2983.00000,2983.00000,2976.00000,2975.00000,2979.00000,2979.00000,2977.00000,2978.00000,2978.00000,2975.00000,2981.00000,2983.00000,2978.00000,2979.00000,2979.00000,2974.00000,2977.00000,2979.00000,2978.00000,2976.00000,2975.00000,2980.00000,2974.00000,2978.00000,2974.00000,2975.00000,2976.00000,2971.00000,2974.00000,2976.00000,2974.00000,2970.00000,2972.00000,2975.00000,2969.00000,2972.00000,2971.00000,2974.00000,2973.00000,2978.00000,2976.00000,2975.00000,2969.00000,2968.00000,2979.00000,2969.00000,2972.00000,2975.00000,2968.00000,2969.00000,2980.00000,2977.00000,2977.00000,2977.00000,2984.00000,2976.00000,2986.00000,2982.00000,2982.00000,2982.00000
2982.00000,2982.00000,2982.00000,2982.00000,2982.00000,2993.00000,2986.00000,2985.00000,2979.00000,2981.00000,2977.00000,2985.00000,2979.00000,2977.00000,2978.00000,2984.00000,2982.00000,2979.00000,2982.00000,2972.00000,2975.00000,2984.00000,2975.00000,2975.00000,2974.00000,2976.00000,2979.00000,2981.00000,2979.00000,2979.00000,2980.00000,2975.00000,2979.00000,2974.00000,2975.00000,2977.00000,2971.00000,2970.00000,2978.00000,2980.00000,2978.00000,2979.00000,2974.00000,2977.00000,2969.00000,2976.00000,2977.00000,2974.00000,2972.00000,2969.00000,2977.00000,2971.00000,2977.00000,2972.00000,2979.00000,2981.00000,2974.00000,2976.00000,2971.00000,2967.00000,2971.00000,2975.00000,2969.00000,2977.00000,2970.00000,2969.00000,2975.00000,2969.00000,2972.00000,2972.00000,2971.00000,2972.00000,2981.00000,2984.00000,2986.00000,2978.00000,2982.00000,2982.00000,2982.00000,2982.00000
2982.00000,2982.00000,2982.00000,2982.00000,2982.00000,3002.00000,2993.00000,2984.00000,2982.00000,2981.00000,2985.00000,2978.00000,2986.00000,2978.00000,2976.00000,2974.00000,2979.00000,2981.00000,2976.00000,2975.00000,2979.00000,2979.00000,2984.00000,2972.00000,2984.00000,2975.00000,2976.00000,2980.00000,2981.00000,2981.00000,2974.00000,2973.00000,2980.00000,2971.00000,2978.00000,2976.00000,2975.00000,2978.00000,2973.00000,2975.00000,2974.00000,2974.00000,2978.00000,2972.00000,2972.00000,2982.00000,2978.00000,2975.00000,2972.00000,2967.00000,2982.00000,2973.00000,2976.00000,2974.00000,2970.00000,2975.00000,2973.00000,2970.00000,2972.00000,2972.00000,2975.00000,2974.00000,2969.00000,2972.00000,2971.00000,2970.00000,2977.00000,2971.00000,2972.00000,2978.00000,2973.00000,2978.00000,2982.00000,2975.00000,2981.00000,2984.00000,2982.00000,2982.00000,2982.00000,2982.00000
2982.00000,2982.00000,2982.00000,2982.00000,2982.00000,2982.00000,2989.00000,2994.00000,2987.00000,2985.00000,2985.00000,2980.00000,2974.00000,2982.00000,2985.00000,2980.00000,2983.00000,2985.00000,2980.00000,2980.00000,2973.00000,2977.00000,2980.00000,2971.00000,2980.00000,2975.00000,2980.00000,2975.00000,2976.00000,2978.00000,2977.00000,2978.00000,2977.00000,2971.00000,2973.00000,2975.00000,2971.00000,2973.00000,2973.00000,2972.00000,2971.00000,2973.00000,2971.00000,2977.00000,2976.00000,2974.00000,2978.00000,2975.00000,2974.00000,2975.00000,2970.00000,2969.00000,2974.00000,2976.00000,2975.00000,2969.00000,2975.00000,2973.00000,2973.00000,2975.00000,2972.00000,2971.00000,2975.00000,2969.00000,2969.00000,2974.00000,2974.00000,2977.00000,2973.00000,2980.00000,2975.00000,2978.00000,2977.00000,2973.00000,2981.00000,2982.00000,2982.00000,2982.00000,2982.00000,2982.00000
2982.00000,2982.00000,2982.00000,2982.00000,2982.00000,2982.00000,2982.00000,2989.00000,2977.00000,2978.00000,2978.00000,2979.00000,2979.00000,2975.00000,2984.00000,2980.00000,2977.00000,2975.00000,2973.00000,2973.00000,2979.00000,2979.00000,2972.00000,2977.00000,2975.00000,2986.00000,2976.00000,2981.00000,2974.00000,2972.00000,2972.00000,2976.00000,2976.00000,2977.00000,2978.00000,2977.00000,2975.00000,2973.00000,2970.00000,2968.00000,2971.00000,2971.00000,2971.00000,2977.00000,2970.00000,2971.00000,2971.00000,2968.00000,2966.00000,2974.00000,2974.00000,2976.00000,2971.00000,2968.00000,2971.00000,2973.00000,2976.00000,2979.00000,2974.00000,2967.00000,2976.00000,2976.00000,2974.00000,2969.00000,2969.00000,2970.00000,2981.00000,2972.00000,2972.00000,2975.00000,2975.00000,2971.00000,2982.00000,2966.00000,2982.00000,2982.00000,2982.00000,2982.00000,2982.00000,2982.00000
2982.00000,2982.00000,2982.00000,2982.00000,2982.00000,2982.00000,2982.00000,2982.00000,2975.00000,2978.00000,2982.00000,2976.00000,2981.00000,2979.00000,2981.00000,2978.00000,2976.00000,2975.00000,2978.00000,2980.00000,2978.00000,2971.00000,2970.00000,2983.00000,2977.00000,2981.00000,2979.00000,2981.00000,2978.00000,2986.00000,2975.00000,2967.00000,2970.00000,2980.00000,2984.00000,2976.00000,2972.00000,2973.00000,2968.00000,2972.00000,2972.00000,2974.00000,2969.00000,2975.00000,2967.00000,2969.00000,2972.00000,2970.00000,2970.00000,2966.00000,2972.00000,2968.00000,2975.00000,2984.00000,2983.00000,2980.00000,2983.00000,2975.00000,2972.00000,2977.00000,2976.00000,2974.00000,2979.00000,2972.00000,2971.00000,2976.00000,2975.00000,2972.00000,2970.00000,2968.00000,2970.00000,2974.00000,2974.00000,2995.00000,2982.00000,2982.00000,2982.00000,2982.00000,2982.00000,2982.00000
2982.00000,2982.00000,2982.00000,2982.00000,2982.00000,2982.00000,2982.00000,2982.00000,2979.00000,2978.00000,2973.00000,2993.00000,2985.00000,2985.00000,2981.00000,2982.00000,2983.00000,2980.00000,2987.00000,2983.00000,2975.00000,2972.00000,2974.00000,2984.00000,2980.00000,2984.00000,2982.00000,2979.00000,2977.00000,2988.00000,2976.00000,2974.00000,2973.00000,2981.00000,2981.00000,2978.00000,2973.00000,2971.00000,2967.00000,2976.00000,2972.00000,2973.00000,2975.00000,2969.00000,2974.00000,2975.00000,2982.00000,2972.00000,2973.00000,2971.00000,2972.00000,2968.00000,2976.00000,2984.00000,2983.00000,2980.00000,2982.00000,2976.00000,2978.00000,2974.00000,2982.00000,2969.00000,2977.00000,2974.00000,2972.00000,2969.00000,2976.00000,2969.00000,2974.00000,2973.00000,2965.00000,2980.00000,2966.00000,2982.00000,2982.00000,2982.00000,2982.00000,2982.00000,2982.00000,2982.00000
2982.00000,2982.00000,2982.00000,2982.00000,2982.00000,2982.00000,2982.00000,2982.00000,2982.00000,2979.00000,2986.00000,2990.00000,2988.00000,2975.00000,2989.00000,2985.00000,2983.00000,2985.00000,2981.00000,2981.00000,2983.00000,2976.00000,2976.00000,2977.00000,2981.00000,2982.00000,2981.00000,2980.00000,2977.00000,2986.00000,2970.00000,2973.00000,2974.00000,2980.00000,2976.00000,2980.00000,2980.00000,2975.00000,2977.00000,2975.00000,2973.00000,2989.00000,2987.00000,2988.00000,2984.00000,2993.00000,2989.00000,2975.00000,2975.00000,2968.00000,2975.00000,2973.00000,2976.00000,2984.00000,2981.00000,2979.00000,2981.00000,2981.00000,2978.00000,2977.00000,2973.00000,2975.00000,2968.00000,2975.00000,2970.00000,2978.00000,2968.00000,2974.00000,2970.00000,2976.00000,2986.00000,2971.00000,2982.00000,2982.00000,2982.00000,2982.00000,2982.00000,2982.00000,2982.00000,2982.00000
2982.00000,2982.00000,2982.00000,2982.00000,2982.00000,2982.00000,2982.00000,2982.00000,2982.00000,2982.00000,2970.00000,2998.00000,2987.00000,2987.00000,2981.00000,2983.00000,2984.00000,2984.00000,2984.00000,2984.00000,2975.00000,2976.00000,2979.00000,2980.00000,2984.00000,2983.00000,2985.00000,2974.00000,2978.00000,2979.00000,2975.00000,2975.00000,2980.00000,2980.00000,2975.00000,2975.00000,2975.00000,2971.00000,2980.00000,2992.00000,2989.00000,2991.00000,2989.00000,2990.00000,2986.00000,2990.00000,2986.00000,2975.00000,2974.00000,2970.00000,2967.00000,2968.00000,2976.00000,2981.00000,2983.00000,2979.00000,2976.00000,2972.00000,2975.00000,2971.00000,2972.00000,2973.00000,2968.00000,2979.00000,2973.00000,2967.00000,2975.00000,2972.00000,2954.00000,2966.00000,2984.00000,2982.00000,2982.00000,2982.00000,2982.00000,2982.00000,2982.00000,2982.00000,2982.00000,2982.00000
2982.00000,2982.00000,2982.00000,2982.00000,2982.00000,2982.00000,2982.00000,2982.00000,2982.00000,2982.00000,2982.00000,2991.00000,2979.00000,2986.00000,2977.00000,2985.00000,2984.00000,2986.00000,2986.00000,2975.00000,2978.00000,2979.00000,2975.00000,2977.00000,2983.00000,2982.00000,2980.00000,2978.00000,2984.00000,2979.00000,2979.00000,2969.00000,2982.00000,2979.00000,2978.00000,2976.00000,2977.00000,2974.00000,2982.00000,2992.00000,2984.00000,2989.00000,2988.00000,2987.00000,2985.00000,2985.00000,2986.00000,2983.00000,2978.00000,2977.00000,2969.00000,2972.00000,2974.00000,2973.00000,2973.00000,2972.00000,2980.00000,2976.00000,2974.00000,2967.00000,2974.00000,2974.00000,2972.00000,2968.00000,2963.00000,2972.00000,2962.00000,2961.00000,2974.00000,2968.00000,2982.00000,2982.00000,2982.00000,2982.00000,2982.00000,2982.00000,2982.00000,2982.00000,2982.00000,2982.00000
2982.00000,2982.00000,2982.00000,2982.00000,2982.00000,2982.00000,2982.00000,2982.00000,2982.00000,2982.00000,2982.00000,2982.00000,2986.00000,2984.00000,2981.00000,2982.00000,2977.00000,2976.00000,2977.00000,2973.00000,2983.00000,2973.00000,2983.00000,2982.00000,2981.00000,2978.00000,2985.00000,2984.00000,2981.00000,2978.00000,2971.00000,2971.00000,2973.00000,2973.00000,2978.00000,2982.00000,2978.00000,2977.00000,2975.00000,2984.00000,2985.00000,2987.00000,2993.00000,2986.00000,2991.00000,2989.00000,2986.00000,2973.00000,2974.00000,2969.00000,2971.00000,2970.00000,2966.00000,2978.00000,2971.00000,2969.00000,2970.00000,2971.00000,2971.00000,2972.00000,2971.00000,2970.00000,2963.00000,2966.00000,2971.00000,2972.00000,2975.00000,2959.00000,2967.00000,2982.00000,2982.00000,2982.00000,2982.00000,2982.00000,2982.00000,2982.00000,2982.00000,2982.00000,2982.00000,2982.00000
2982.00000,2982.00000,2982.00000,2982.00000,2982.00000,2982.00000,2982.00000,2982.00000,2982.00000,2982.00000,2982.00000,2982.00000,2982.00000,2973.00000,2986.00000,2980.00000,2988.00000,2978.00000,2975.00000,2980.00000,2972.00000,2972.00000,2974.00000,2975.00000,2976.00000,2984.00000,2981.00000,2975.00000,2982.00000,2979.00000,2979.00000,2976.00000,2975.00000,2982.00000,2975.00000,2970.00000,2970.00000,2976.00000,2982.00000,2980.00000,2987.00000,2984.00000,2978.00000,2984.00000,2987.00000,2985.00000,2987.00000,2981.00000,2974.00000,2976.00000,2974.00000,2966.00000,2967.00000,2973.00000,2974.00000,2972.00000,2970.00000,2973.00000,2970.00000,2965.00000,2964.00000,2967.00000,2967.00000,2961.00000,2965.00000,2964.00000,2960.00000,2978.00000,2982.00000,2982.00000,2982.00000,2982.00000,2982.00000,2982.00000,2982.00000,2982.00000,2982.00000,2982.00000,2982.00000,2982.00000
2982.00000,2982.00000,2982.00000,2982.00000,2982.00000,2982.00000,2982.00000,2982.00000,2982.00000,2982.00000,2982.00000,2982.00000,2982.00000,2982.00000,2988.00000,2981.00000,2982.00000,2981.00000,2981.00000,2975.00000,2971.00000,2965.00000,2974.00000,2970.00000,2975.00000,2984.00000,2980.00000,2982.00000,2976.00000,2972.00000,2974.00000,2975.00000,2975.00000,2985.00000,2976.00000,2981.00000,2974.00000,2969.00000,2972.00000,2978.00000,2981.00000,2984.00000,2983.00000,2984.00000,2979.00000,2977.00000,2982.00000,2974.00000,2965.00000,2968.00000,2966.00000,2965.00000,2962.00000,2958.00000,2961.00000,2960.00000,2972.00000,2961.00000,2964.00000,2957.00000,2972.00000,2965.00000,2963.00000,2960.00000,2962.00000,2963.00000,2953.00000,2982.00000,2982.00000,2982.00000,2982.00000,2982.00000,2982.00000,2982.00000,2982.00000,2982.00000,2982.00000,2982.00000,2982.00000,2982.00000
