Time,Runtime,Current3V3,Current3V3Min,Current3V3Max,CurrentHTPA,CurrentHTPAMin,CurrentHTPAMax,CurrentCubeDock3V3_1,TemperatureMCU,TemperatureMCUMin,TemperatureMCUMax,TemperatureHTPA,TemperatureHTPAMin,TemperatureHTPAMax,VoltageMCU,VoltageMCUMin,VoltageMCUMax,VoltageHTPA,VoltageHTPAMin,VoltageHTPAMax,ADSSampleMode,HTPACalibLevel,HILEnabled,HILBusy,HILEnableImgVddComp,HILEnableImgTobjCalib,HILEnableEdgeDet,HILEnableLensDistCorr,HILEnablePolyFit,HILEnableAttEst,HTPADeviceID,HTPATableNumber,HtpaPowerState,HtpaWakeState,HtpaCaptureState,HtpaPTAT,HtpaVdd,HTPAImageLastMin,HTPAImageLastMean,HTPAImageLastMax,HTPAImageAllTimeMin,HTPAImageAllTimeMax,SRAM2ParityError,FlashCorruption,3V3OverCurrent,HTPAOverCurrent,Timer1sOverRun,MCUOverTemperature,MCUUnderTemperature,HTPAOverTemperature,HTPAUnderTemperature,HTPACalibLookupOutOfRange,HTPAIntegrationTimeout,HTPANotResponding,HTPAConfigMismatch,HTPASpiTimeout,CommsTcSlotsBuffFull,CommsTcParamBuffFull,CommsUartProtError,CommsUartMsgIncomplete,CommsUartTcParamOverflow,UARTTxOverflow,CommsTcInvalidID,CommsTcInvalidPar,CommsTcInvalidParLen,CommsTcTimeout,CommsTlmInvalidID,UARTTxReadingEmptyBuffer,UARTRxByteOverrun,UARTRxFramingError,UartTxTimeout,FRAMStatusNotResponding,FRAMDeviceNotFound,FRAMSpiTimeout,ConfigRewrittenFromMemory,ConfigExtMemorySlotOverwritten,ConfigNoConfigFoundInMemory,ConfigNumOfValidFramSlots,ConfigNumOfValidFlashSlots,ConfigNotSaved,ConfigDataLoss,SwStartupTime,SwProcessingTime,SwProcessingTimeMax,SwLoopTime,SwLoopTimeMax,SwImgCaptureTime,SwLensDistCorrTime,SwEstimationTime,SwConfigRefreshMaxTime,SwConfigCheckMemoryMaxTime,SwAdcMeasurementTime,DetectedBitFlips,FlashFaults,FlashLastFaultAddress,RadNumOfFaultsLast,RadNumOfFaultsTotal,RadLastFaultIndex,RadIterationsCompleted,RadMode,RadCheckSRAM,RadCheckFRAM,SRAM2ParityCheckEnabled,InterfaceVersion,FirmwareVersion,IRCAM SN,
2019/10/23 - 18:28:07.668537,12,23.7712459564209,23.73228645324707,24.88156509399414,26.381471633911133,26.371732711791992,41.98764419555664,-,30.032981872558594,28.804014205932617,30.032981872558594,0.0,0.0,0.0,3.2960000038146973,3.2899999618530273,3.2960000038146973,0.0,0.0,0.0,Idle,None,False,False,False,False,False,False,False,False,4298,137,On,On,Idle,0,0,32767,0,-32768,32767,-32768,False,False,False,False,False,False,False,False,False,False,False,False,True,False,False,False,False,False,False,False,False,False,False,False,False,False,False,False,False,True,True,False,False,False,False,0,3,False,False,29,0,0,1000,1000,0,0,0,0,0,8,0,0,0,0,0,0,1,Disabled,False,False,True,1,V0.1,    IR1800,
2019/10/23 - 18:28:08.644975,13,23.8361759185791,23.73228645324707,24.88156509399414,26.400951385498047,26.371732711791992,41.98764419555664,-,30.012805938720703,28.804014205932617,30.032981872558594,0.0,0.0,0.0,3.2960000038146973,3.2899999618530273,3.2960000038146973,0.0,0.0,0.0,Idle,None,False,False,False,False,False,False,False,False,4298,137,On,On,Idle,0,0,32767,0,-32768,32767,-32768,False,False,False,False,False,False,False,False,False,False,False,False,True,False,False,False,False,False,False,False,False,False,False,False,False,False,False,False,False,True,True,False,False,False,False,0,3,False,False,29,0,0,1000,1000,0,0,0,0,0,8,0,0,0,0,0,0,1,Disabled,False,False,True,1,V0.1,    IR1800,
2019/10/23 - 18:28:09.621413,14,23.888120651245117,23.73228645324707,24.88156509399414,26.41069221496582,26.371732711791992,41.98764419555664,-,30.173992156982422,28.804014205932617,30.173992156982422,0.0,0.0,0.0,3.2960000038146973,3.2899999618530273,3.2960000038146973,0.0,0.0,0.0,Idle,None,False,False,False,False,False,False,False,False,4298,137,On,On,Idle,0,0,32767,0,-32768,32767,-32768,False,False,False,False,False,False,False,False,False,False,False,False,True,False,False,False,False,False,False,False,False,False,False,False,False,False,False,False,False,True,True,False,False,False,False,0,3,False,False,29,0,0,1000,1000,0,0,0,0,0,8,0,0,0,0,0,0,1,Disabled,False,False,True,1,V0.1,    IR1800,
2019/10/23 - 18:28:10.596852,15,23.92058753967285,23.73228645324707,24.88156509399414,26.413938522338867,26.371732711791992,41.98764419555664,-,30.214271545410156,28.804014205932617,30.214271545410156,0.0,0.0,0.0,3.2960000038146973,3.2899999618530273,3.2960000038146973,0.0,0.0,0.0,Idle,None,False,False,False,False,False,False,False,False,4298,137,On,On,Idle,0,0,32767,0,-32768,32767,-32768,False,False,False,False,False,False,False,False,False,False,False,False,True,False,False,False,False,False,False,False,False,False,False,False,False,False,False,False,False,True,True,False,False,False,False,0,3,False,False,29,0,0,1000,1000,0,0,0,0,0,8,0,0,0,0,0,0,1,Disabled,False,False,True,1,V0.1,    IR1800,
2019/10/23 - 18:28:11.622263,16,23.855655670166016,23.73228645324707,24.88156509399414,26.413938522338867,26.371732711791992,41.98764419555664,-,30.073259353637695,28.804014205932617,30.214271545410156,0.0,0.0,0.0,3.2960000038146973,3.2899999618530273,3.2960000038146973,0.0,0.0,0.0,Idle,None,False,False,False,False,False,False,False,False,4298,137,On,On,Idle,0,0,32767,0,-32768,32767,-32768,False,False,False,False,False,False,False,False,False,False,False,False,True,False,False,False,False,False,False,False,False,False,False,False,False,False,False,False,False,True,True,False,False,False,False,0,3,False,False,29,0,0,1000,1000,0,0,0,0,0,8,0,0,0,0,0,0,1,Disabled,False,False,True,1,V0.1,    IR1800,
2019/10/23 - 18:28:12.612744,17,23.93357276916504,23.73228645324707,24.88156509399414,26.397705078125,26.371732711791992,41.98764419555664,-,30.073259353637695,28.804014205932617,30.214271545410156,0.0,0.0,0.0,3.2960000038146973,3.2899999618530273,3.2960000038146973,0.0,0.0,0.0,Idle,None,False,False,False,False,False,False,False,False,4298,137,On,On,Idle,0,0,32767,0,-32768,32767,-32768,False,False,False,False,False,False,False,False,False,False,False,False,True,False,False,False,False,False,False,False,False,False,False,False,False,False,False,False,False,True,True,False,False,False,False,0,3,False,False,29,0,0,1000,1000,0,0,0,0,0,8,0,0,0,0,0,0,1,Disabled,False,False,True,1,V0.1,    IR1800,
2019/10/23 - 18:28:13.622112,18,23.901107788085938,23.73228645324707,24.88156509399414,26.394458770751953,26.371732711791992,41.98764419555664,-,30.19413185119629,28.804014205932617,30.214271545410156,0.0,0.0,0.0,3.2960000038146973,3.2899999618530273,3.2960000038146973,0.0,0.0,0.0,Idle,None,False,False,False,False,False,False,False,False,4298,137,On,On,Idle,0,0,32767,0,-32768,32767,-32768,False,False,False,False,False,False,False,False,False,False,False,False,True,False,False,False,False,False,False,False,False,False,False,False,False,False,False,False,False,True,True,False,False,False,False,0,3,False,False,29,0,0,1000,1000,0,0,0,0,0,8,0,0,0,0,0,0,1,Disabled,False,False,True,1,V0.1,    IR1800,
2019/10/23 - 18:28:14.629532,19,23.855655670166016,23.73228645324707,24.88156509399414,26.417184829711914,26.371732711791992,41.98764419555664,-,30.073259353637695,28.804014205932617,30.214271545410156,0.0,0.0,0.0,3.2960000038146973,3.2899999618530273,3.2960000038146973,0.0,0.0,0.0,Idle,None,False,False,False,False,False,False,False,False,4298,137,On,On,Idle,0,0,32767,0,-32768,32767,-32768,False,False,False,False,False,False,False,False,False,False,False,False,True,False,False,False,False,False,False,False,False,False,False,False,False,False,False,False,False,True,True,False,False,False,False,0,3,False,False,29,0,0,1000,1000,0,0,0,0,0,8,0,0,0,0,0,0,1,Disabled,False,False,True,1,V0.1,    IR1800,
2019/10/23 - 18:28:15.637951,20,23.79072380065918,23.73228645324707,24.88156509399414,26.381471633911133,26.371732711791992,41.98764419555664,-,30.13371467590332,28.804014205932617,30.214271545410156,0.0,0.0,0.0,3.2960000038146973,3.2899999618530273,3.2960000038146973,0.0,0.0,0.0,Idle,None,False,False,False,False,False,False,False,False,4298,137,On,On,Idle,0,0,32767,0,-32768,32767,-32768,False,False,False,False,False,False,False,False,False,False,False,False,True,False,False,False,False,False,False,False,False,False,False,False,False,False,False,False,False,True,True,False,False,False,False,0,3,False,False,29,0,0,1000,1000,0,0,0,0,0,8,0,0,0,0,0,0,1,Disabled,False,False,True,1,V0.1,    IR1800,
2019/10/23 - 18:28:16.613387,21,23.69982147216797,23.69982147216797,24.88156509399414,26.426923751831055,26.371732711791992,41.98764419555664,-,30.11353874206543,28.804014205932617,30.214271545410156,0.0,0.0,0.0,3.2960000038146973,3.2899999618530273,3.2960000038146973,0.0,0.0,0.0,Idle,None,False,False,False,False,False,False,False,False,4298,137,On,On,Idle,0,0,32767,0,-32768,32767,-32768,False,False,False,False,False,False,False,False,False,False,False,False,True,False,False,False,False,False,False,False,False,False,False,False,False,False,False,False,False,True,True,False,False,False,False,0,3,False,False,29,0,0,1000,1000,0,0,0,0,0,8,0,0,0,0,0,0,1,Disabled,False,False,True,1,V0.1,    IR1800,
2019/10/23 - 18:28:17.620807,22,23.74527359008789,23.69982147216797,24.88156509399414,26.42043113708496,26.371732711791992,41.98764419555664,-,30.13371467590332,28.804014205932617,30.214271545410156,0.0,0.0,0.0,3.2960000038146973,3.2899999618530273,3.2960000038146973,0.0,0.0,0.0,Idle,None,False,False,False,False,False,False,False,False,4298,137,On,On,Idle,0,0,32767,0,-32768,32767,-32768,False,False,False,False,False,False,False,False,False,False,False,False,True,False,False,False,False,False,False,False,False,False,False,False,False,False,False,False,False,True,True,False,False,False,False,0,3,False,False,29,0,0,1000,1000,0,0,0,0,0,8,0,0,0,0,0,0,1,Disabled,False,False,True,1,V0.1,    IR1800,
2019/10/23 - 18:28:18.613235,23,23.647876739501953,23.647876739501953,24.88156509399414,26.426923751831055,26.371732711791992,41.98764419555664,-,30.234447479248047,28.804014205932617,30.234447479248047,0.0,0.0,0.0,3.2960000038146973,3.2899999618530273,3.2960000038146973,0.0,0.0,0.0,Idle,None,False,False,False,False,False,False,False,False,4298,137,On,On,Idle,0,0,32767,0,-32768,32767,-32768,False,False,False,False,False,False,False,False,False,False,False,False,True,False,False,False,False,False,False,False,False,False,False,False,False,False,False,False,False,True,True,False,False,False,False,0,3,False,False,29,0,0,1000,1000,0,0,0,0,0,8,0,0,0,0,0,0,1,Disabled,False,False,True,1,V0.1,    IR1800,
2019/10/23 - 18:28:19.621657,24,23.7712459564209,23.647876739501953,24.88156509399414,26.417184829711914,26.371732711791992,41.98764419555664,-,30.19413185119629,28.804014205932617,30.234447479248047,0.0,0.0,0.0,3.2960000038146973,3.2899999618530273,3.2960000038146973,0.0,0.0,0.0,Idle,None,False,False,False,False,False,False,False,False,4298,137,On,On,Idle,0,0,32767,0,-32768,32767,-32768,False,False,False,False,False,False,False,False,False,False,False,False,True,False,False,False,False,False,False,False,False,False,False,False,False,False,False,False,False,True,True,False,False,False,False,0,3,False,False,29,0,0,1000,1000,0,0,0,0,0,8,0,0,0,0,0,0,1,Disabled,False,False,True,1,V0.1,    IR1800,
2019/10/23 - 18:28:20.646067,25,23.8361759185791,23.647876739501953,24.88156509399414,26.413938522338867,26.371732711791992,41.98764419555664,-,30.25458526611328,28.804014205932617,30.25458526611328,0.0,0.0,0.0,3.2960000038146973,3.2899999618530273,3.2960000038146973,0.0,0.0,0.0,Idle,None,False,False,False,False,False,False,False,False,4298,137,On,On,Idle,0,0,32767,0,-32768,32767,-32768,False,False,False,False,False,False,False,False,False,False,False,False,True,False,False,False,False,False,False,False,False,False,False,False,False,False,False,False,False,True,True,False,False,False,False,0,3,False,False,29,0,0,1000,1000,0,0,0,0,0,8,0,0,0,0,0,0,1,Disabled,False,False,True,1,V0.1,    IR1800,
2019/10/23 - 18:28:21.605513,26,23.894615173339844,23.647876739501953,24.88156509399414,26.423677444458008,26.371732711791992,41.98764419555664,-,30.173992156982422,28.804014205932617,30.25458526611328,0.0,0.0,0.0,3.2960000038146973,3.2899999618530273,3.2960000038146973,0.0,0.0,0.0,Idle,None,False,False,False,False,False,False,False,False,4298,137,On,On,Idle,0,0,32767,0,-32768,32767,-32768,False,False,False,False,False,False,False,False,False,False,False,False,True,False,False,False,False,False,False,False,False,False,False,False,False,False,False,False,False,True,True,False,False,False,False,0,3,False,False,29,0,0,1000,1000,0,0,0,0,0,8,0,0,0,0,0,0,1,Disabled,False,False,True,1,V0.1,    IR1800,
2019/10/23 - 18:28:22.624942,1,22.842731475830078,22.842731475830078,22.842731475830078,41.70194625854492,41.70194625854492,41.70194625854492,-,30.173992156982422,30.173992156982422,30.173992156982422,0.0,0.0,0.0,3.2920000553131104,3.2920000553131104,3.2920000553131104,0.0,0.0,0.0,Idle,None,False,False,False,False,False,False,False,False,4298,137,On,On,Idle,0,0,32767,0,-32768,32767,-32768,False,False,False,False,False,False,False,False,False,False,False,False,True,False,False,False,False,False,False,False,False,False,False,False,False,False,False,False,False,True,True,False,False,False,False,0,3,False,False,29,0,0,0,0,0,0,0,0,0,9,0,0,0,0,0,0,1,Disabled,False,False,True,1,V0.1,    IR1800,
2019/10/23 - 18:28:23.633370,2,23.199851989746094,22.842731475830078,23.199851989746094,26.397705078125,26.397705078125,41.70194625854492,-,30.032981872558594,30.032981872558594,30.173992156982422,0.0,0.0,0.0,3.2960000038146973,3.2920000553131104,3.2960000038146973,0.0,0.0,0.0,Idle,None,False,False,False,False,False,False,False,False,4298,137,On,On,Idle,0,0,32767,0,-32768,32767,-32768,False,False,False,False,False,False,False,False,False,False,False,False,True,False,False,False,False,False,False,False,False,False,False,False,False,False,False,False,False,True,True,False,False,False,False,0,3,False,False,29,0,0,967,967,0,0,0,0,0,8,0,0,0,0,0,0,1,Disabled,False,False,True,1,V0.1,    IR1800,
2019/10/23 - 18:28:24.624777,3,24.388090133666992,22.842731475830078,24.388090133666992,26.41069221496582,26.397705078125,41.70194625854492,-,30.19413185119629,30.032981872558594,30.19413185119629,0.0,0.0,0.0,3.2960000038146973,3.2920000553131104,3.2960000038146973,0.0,0.0,0.0,Idle,None,False,False,False,False,False,False,False,False,4298,137,On,On,Idle,0,0,32767,0,-32768,32767,-32768,False,False,False,False,False,False,False,False,False,False,False,False,True,False,False,False,False,False,False,False,False,False,False,False,False,False,False,False,False,True,True,False,False,False,False,0,3,False,False,29,0,0,1000,1000,0,0,0,0,0,8,0,0,0,0,0,0,1,Disabled,False,False,True,1,V0.1,    IR1800,
2019/10/23 - 18:28:25.601234,4,24.186803817749023,22.842731475830078,24.388090133666992,26.423677444458008,26.397705078125,41.70194625854492,-,30.153852462768555,30.032981872558594,30.19413185119629,0.0,0.0,0.0,3.2960000038146973,3.2920000553131104,3.2960000038146973,0.0,0.0,0.0,Idle,None,False,False,False,False,False,False,False,False,4298,137,On,On,Idle,0,0,32767,0,-32768,32767,-32768,False,False,False,False,False,False,False,False,False,False,False,False,True,False,False,False,False,False,False,False,False,False,False,False,False,False,False,False,False,True,True,False,False,False,False,0,3,False,False,29,0,0,1000,1000,0,0,0,0,0,8,0,0,0,0,0,0,1,Disabled,False,False,True,1,V0.1,    IR1800,
2019/10/23 - 18:28:26.592643,5,23.563467025756836,22.842731475830078,24.388090133666992,26.394458770751953,26.394458770751953,41.70194625854492,-,30.25458526611328,30.032981872558594,30.25458526611328,0.0,0.0,0.0,3.2960000038146973,3.2920000553131104,3.2960000038146973,0.0,0.0,0.0,Idle,None,False,False,False,False,False,False,False,False,4298,137,On,On,Idle,0,0,32767,0,-32768,32767,-32768,False,False,False,False,False,False,False,False,False,False,False,False,True,False,False,False,False,False,False,False,False,False,False,False,False,False,False,False,False,True,True,False,False,False,False,0,3,False,False,29,0,0,1000,1000,0,0,0,0,0,8,0,0,0,0,0,0,1,Disabled,False,False,True,1,V0.1,    IR1800,
2019/10/23 - 18:28:27.616068,6,23.349193572998047,22.842731475830078,24.388090133666992,26.426923751831055,26.394458770751953,41.70194625854492,-,30.032981872558594,30.032981872558594,30.25458526611328,0.0,0.0,0.0,3.2960000038146973,3.2920000553131104,3.2960000038146973,0.0,0.0,0.0,Idle,None,False,False,False,False,False,False,False,False,4298,137,On,On,Idle,0,0,32767,0,-32768,32767,-32768,False,False,False,False,False,False,False,False,False,False,False,False,True,False,False,False,False,False,False,False,False,False,False,False,False,False,False,False,False,True,True,False,False,False,False,0,3,False,False,29,0,0,1000,1000,0,0,0,0,0,8,0,0,0,0,0,0,1,Disabled,False,False,True,1,V0.1,    IR1800,
2019/10/23 - 18:28:28.640465,7,23.186866760253906,22.842731475830078,24.388090133666992,26.394458770751953,26.394458770751953,41.70194625854492,-,30.093399047851562,30.032981872558594,30.25458526611328,0.0,0.0,0.0,3.2960000038146973,3.2920000553131104,3.2960000038146973,0.0,0.0,0.0,Idle,None,False,False,False,False,False,False,False,False,4298,137,On,On,Idle,0,0,32767,0,-32768,32767,-32768,False,False,False,False,False,False,False,False,False,False,False,False,True,False,False,False,False,False,False,False,False,False,False,False,False,False,False,False,False,True,True,False,False,False,False,0,3,False,False,29,0,0,1000,1000,0,0,0,0,0,8,0,0,0,0,0,0,1,Disabled,False,False,True,1,V0.1,    IR1800,
2019/10/23 - 18:28:29.632891,8,23.154399871826172,22.842731475830078,24.388090133666992,26.41069221496582,26.394458770751953,41.70194625854492,-,30.153852462768555,30.032981872558594,30.25458526611328,0.0,0.0,0.0,3.2960000038146973,3.2920000553131104,3.2960000038146973,0.0,0.0,0.0,Idle,None,False,False,False,False,False,False,False,False,4298,137,On,On,Idle,0,0,32767,0,-32768,32767,-32768,False,False,False,False,False,False,False,False,False,False,False,False,True,False,False,False,False,False,False,False,False,False,False,False,False,False,False,False,False,True,True,False,False,False,False,0,3,False,False,29,0,0,1000,1000,0,0,0,0,0,8,0,0,0,0,0,0,1,Disabled,False,False,True,1,V0.1,    IR1800,
2019/10/23 - 18:28:30.609330,9,23.13492202758789,22.842731475830078,24.388090133666992,26.394458770751953,26.394458770751953,41.70194625854492,-,30.173992156982422,30.032981872558594,30.25458526611328,0.0,0.0,0.0,3.2960000038146973,3.2920000553131104,3.2960000038146973,0.0,0.0,0.0,Idle,None,False,False,False,False,False,False,False,False,4298,137,On,On,Idle,0,0,32767,0,-32768,32767,-32768,False,False,False,False,False,False,False,False,False,False,False,False,True,False,False,False,False,False,False,False,False,False,False,False,False,False,False,False,False,True,True,False,False,False,False,0,3,False,False,29,0,0,1000,1000,0,0,0,0,0,8,0,0,0,0,0,0,1,Disabled,False,False,True,1,V0.1,    IR1800,
2019/10/23 - 18:28:31.617750,10,23.06349754333496,22.842731475830078,24.388090133666992,26.413938522338867,26.394458770751953,41.70194625854492,-,30.093399047851562,30.032981872558594,30.25458526611328,0.0,0.0,0.0,3.2960000038146973,3.2920000553131104,3.2960000038146973,0.0,0.0,0.0,Idle,None,False,False,False,False,False,False,False,False,4298,137,On,On,Idle,0,0,32767,0,-32768,32767,-32768,False,False,False,False,False,False,False,False,False,False,False,False,True,False,False,False,False,False,False,False,False,False,False,False,False,False,False,False,False,True,True,False,False,False,False,0,3,False,False,29,0,0,1000,1000,0,0,0,0,0,8,0,0,0,0,0,0,1,Disabled,False,False,True,1,V0.1,    IR1800,
2019/10/23 - 18:28:32.610178,11,23.00506019592285,22.842731475830078,24.388090133666992,26.42043113708496,26.394458770751953,41.70194625854492,-,30.13371467590332,30.032981872558594,30.25458526611328,0.0,0.0,0.0,3.2960000038146973,3.2920000553131104,3.2960000038146973,0.0,0.0,0.0,Idle,None,False,False,False,False,False,False,False,False,4298,137,On,On,Idle,0,0,32767,0,-32768,32767,-32768,False,False,False,False,False,False,False,False,False,False,False,False,True,False,False,False,False,False,False,False,False,False,False,False,False,False,False,False,False,True,True,False,False,False,False,0,3,False,False,29,0,0,1000,1000,0,0,0,0,0,8,0,0,0,0,0,0,1,Disabled,False,False,True,1,V0.1,    IR1800,
2019/10/23 - 18:28:33.616597,12,22.972593307495117,22.842731475830078,24.388090133666992,26.391212463378906,26.391212463378906,41.70194625854492,-,30.153852462768555,30.032981872558594,30.25458526611328,0.0,0.0,0.0,3.2960000038146973,3.2920000553131104,3.2960000038146973,0.0,0.0,0.0,Idle,None,False,False,False,False,False,False,False,False,4298,137,On,On,Idle,0,0,32767,0,-32768,32767,-32768,False,False,False,False,False,False,False,False,False,False,False,False,True,False,False,False,False,False,False,False,False,False,False,False,False,False,False,False,False,True,True,False,False,False,False,0,3,False,False,29,0,0,1000,1000,0,0,0,0,0,8,0,0,0,0,0,0,1,Disabled,False,False,True,1,V0.1,    IR1800,
2019/10/23 - 18:28:34.608641,13,22.979087829589844,22.842731475830078,24.388090133666992,26.436664581298828,26.391212463378906,41.70194625854492,-,30.214271545410156,30.032981872558594,30.25458526611328,0.0,0.0,0.0,3.2960000038146973,3.2920000553131104,3.2960000038146973,0.0,0.0,0.0,Idle,None,False,False,False,False,False,False,False,False,4298,137,On,On,Idle,0,0,32767,0,-32768,32767,-32768,False,False,False,False,False,False,False,False,False,False,False,False,True,False,False,False,False,False,False,False,False,False,False,False,False,False,False,False,False,True,True,False,False,False,False,0,3,False,False,29,0,0,1000,1000,0,0,0,0,0,8,0,0,0,0,0,0,1,Disabled,False,False,True,1,V0.1,    IR1800,
2019/10/23 - 18:28:35.617045,14,23.05051040649414,22.842731475830078,24.388090133666992,26.400951385498047,26.391212463378906,41.70194625854492,-,30.153852462768555,30.032981872558594,30.25458526611328,0.0,0.0,0.0,3.2960000038146973,3.2920000553131104,3.2960000038146973,0.0,0.0,0.0,Idle,None,False,False,False,False,False,False,False,False,4298,137,On,On,Idle,0,0,32767,0,-32768,32767,-32768,False,False,False,False,False,False,False,False,False,False,False,False,True,False,False,False,False,False,False,False,False,False,False,False,False,False,False,False,False,True,True,False,False,False,False,0,3,False,False,29,0,0,1000,1000,0,0,0,0,0,8,0,0,0,0,0,0,1,Disabled,False,False,True,1,V0.1,    IR1800,
2019/10/23 - 18:28:36.609474,15,23.057004928588867,22.842731475830078,24.388090133666992,26.404197692871094,26.391212463378906,41.70194625854492,-,30.13371467590332,30.032981872558594,30.25458526611328,0.0,0.0,0.0,3.2960000038146973,3.2920000553131104,3.2960000038146973,0.0,0.0,0.0,Idle,None,False,False,False,False,False,False,False,False,4298,137,On,On,Idle,0,0,32767,0,-32768,32767,-32768,False,False,False,False,False,False,False,False,False,False,False,False,True,False,False,False,False,False,False,False,False,False,False,False,False,False,False,False,False,True,True,False,False,False,False,0,3,False,False,29,0,0,1000,1000,0,0,0,0,0,8,0,0,0,0,0,0,1,Disabled,False,False,True,1,V0.1,    IR1800,
2019/10/23 - 18:28:37.632885,16,23.115442276000977,22.842731475830078,24.388090133666992,26.397705078125,26.391212463378906,41.70194625854492,-,30.173992156982422,30.032981872558594,30.25458526611328,0.0,0.0,0.0,3.2960000038146973,3.2920000553131104,3.2960000038146973,0.0,0.0,0.0,Idle,None,False,False,False,False,False,False,False,False,4298,137,On,On,Idle,0,0,32767,0,-32768,32767,-32768,False,False,False,False,False,False,False,False,False,False,False,False,True,False,False,False,False,False,False,False,False,False,False,False,False,False,False,False,False,True,True,False,False,False,False,0,3,False,False,29,0,0,1000,1000,0,0,0,0,0,8,0,0,0,0,0,0,1,Disabled,False,False,True,1,V0.1,    IR1800,
2019/10/23 - 18:28:38.577341,17,23.108949661254883,22.842731475830078,24.388090133666992,26.41069221496582,26.391212463378906,41.70194625854492,-,30.11353874206543,30.032981872558594,30.25458526611328,0.0,0.0,0.0,3.2960000038146973,3.2920000553131104,3.2960000038146973,0.0,0.0,0.0,Idle,None,False,False,False,False,False,False,False,False,4298,137,On,On,Idle,0,0,32767,0,-32768,32767,-32768,False,False,False,False,False,False,False,False,False,False,False,False,True,False,False,False,False,False,False,False,False,False,False,False,False,False,False,False,False,True,True,False,False,False,False,0,3,False,False,29,0,0,1000,1000,0,0,0,0,0,8,0,0,0,0,0,0,1,Disabled,False,False,True,1,V0.1,    IR1800,
2019/10/23 - 18:28:39.585761,18,23.082977294921875,22.842731475830078,24.388090133666992,26.41069221496582,26.391212463378906,41.70194625854492,-,30.153852462768555,30.032981872558594,30.25458526611328,0.0,0.0,0.0,3.2960000038146973,3.2920000553131104,3.2960000038146973,0.0,0.0,0.0,Idle,None,False,False,False,False,False,False,False,False,4298,137,On,On,Idle,0,0,32767,0,-32768,32767,-32768,False,False,False,False,False,False,False,False,False,False,False,False,True,False,False,False,False,False,False,False,False,False,False,False,False,False,False,False,False,True,True,False,False,False,False,0,3,False,False,29,0,0,1000,1000,0,0,0,0,0,8,0,0,0,0,0,0,1,Disabled,False,False,True,1,V0.1,    IR1800,
2019/10/23 - 18:28:40.627164,19,23.069990158081055,22.842731475830078,24.388090133666992,26.394458770751953,26.391212463378906,41.70194625854492,-,30.19413185119629,30.032981872558594,30.25458526611328,0.0,0.0,0.0,3.2960000038146973,3.2920000553131104,3.2960000038146973,0.0,0.0,0.0,Idle,None,False,False,False,False,False,False,False,False,4298,137,On,On,Idle,0,0,32767,0,-32768,32767,-32768,False,False,False,False,False,False,False,False,False,False,False,False,True,False,False,False,False,False,False,False,False,False,False,False,False,False,False,False,False,True,True,False,False,False,False,0,3,False,False,29,0,0,1000,1000,0,0,0,0,0,8,0,0,0,0,0,0,1,Disabled,False,False,True,1,V0.1,    IR1800,
2019/10/23 - 18:28:41.649847,20,23.024538040161133,22.842731475830078,24.388090133666992,26.391212463378906,26.391212463378906,41.70194625854492,-,30.093399047851562,30.032981872558594,30.25458526611328,0.0,0.0,0.0,3.2960000038146973,3.2920000553131104,3.2960000038146973,0.0,0.0,0.0,Idle,None,False,False,False,False,False,False,False,False,4298,137,On,On,Idle,0,0,32767,0,-32768,32767,-32768,False,False,False,False,False,False,False,False,False,False,False,False,True,False,False,False,False,False,False,False,False,False,False,False,False,False,False,False,False,True,True,False,False,False,False,0,3,False,False,29,0,0,1000,1000,0,0,0,0,0,8,0,0,0,0,0,0,1,Disabled,False,False,True,1,V0.1,    IR1800,
2019/10/23 - 18:28:42.625284,21,22.907663345336914,22.842731475830078,24.388090133666992,26.417184829711914,26.391212463378906,41.70194625854492,-,30.012805938720703,30.012805938720703,30.25458526611328,0.0,0.0,0.0,3.2960000038146973,3.2920000553131104,3.2960000038146973,0.0,0.0,0.0,Idle,None,False,False,False,False,False,False,False,False,4298,137,On,On,Idle,0,0,32767,0,-32768,32767,-32768,False,False,False,False,False,False,False,False,False,False,False,False,True,False,False,False,False,False,False,False,False,False,False,False,False,False,False,False,False,True,True,False,False,False,False,0,3,False,False,29,0,0,1000,1000,0,0,0,0,0,8,0,0,0,0,0,0,1,Disabled,False,False,True,1,V0.1,    IR1800,
2019/10/23 - 18:28:43.633704,22,22.95960807800293,22.842731475830078,24.388090133666992,26.397705078125,26.391212463378906,41.70194625854492,-,30.11353874206543,30.012805938720703,30.25458526611328,0.0,0.0,0.0,3.2980000972747803,3.2920000553131104,3.2980000972747803,0.0,0.0,0.0,Idle,None,False,False,False,False,False,False,False,False,4298,137,On,On,Idle,0,0,32767,0,-32768,32767,-32768,False,False,False,False,False,False,False,False,False,False,False,False,True,False,False,False,False,False,False,False,False,False,False,False,False,False,False,False,False,True,True,False,False,False,False,0,3,False,False,29,0,0,1000,1000,0,0,0,0,0,8,0,0,0,0,0,0,1,Disabled,False,False,True,1,V0.1,    IR1800,
2019/10/23 - 18:28:44.626132,23,22.94662094116211,22.842731475830078,24.388090133666992,26.394458770751953,26.391212463378906,41.70194625854492,-,30.13371467590332,30.012805938720703,30.25458526611328,0.0,0.0,0.0,3.2960000038146973,3.2920000553131104,3.2980000972747803,0.0,0.0,0.0,Idle,None,False,False,False,False,False,False,False,False,4298,137,On,On,Idle,0,0,32767,0,-32768,32767,-32768,False,False,False,False,False,False,False,False,False,False,False,False,True,False,False,False,False,False,False,False,False,False,False,False,False,False,False,False,False,True,True,False,False,False,False,0,3,False,False,29,0,0,1000,1000,0,0,0,0,0,8,0,0,0,0,0,0,1,Disabled,False,False,True,1,V0.1,    IR1800,
2019/10/23 - 18:28:45.619564,24,22.940128326416016,22.842731475830078,24.388090133666992,26.40744400024414,26.391212463378906,41.70194625854492,-,30.13371467590332,30.012805938720703,30.25458526611328,0.0,0.0,0.0,3.2960000038146973,3.2920000553131104,3.2980000972747803,0.0,0.0,0.0,Idle,None,False,False,False,False,False,False,False,False,4298,137,On,On,Idle,0,0,32767,0,-32768,32767,-32768,False,False,False,False,False,False,False,False,False,False,False,False,True,False,False,False,False,False,False,False,False,False,False,False,False,False,False,False,False,True,True,False,False,False,False,0,3,False,False,29,0,0,1000,1000,0,0,0,0,0,8,0,0,0,0,0,0,1,Disabled,False,False,True,1,V0.1,    IR1800,
2019/10/23 - 18:28:46.674953,25,22.985580444335938,22.842731475830078,24.388090133666992,26.413938522338867,26.391212463378906,41.70194625854492,-,30.173992156982422,30.012805938720703,30.25458526611328,0.0,0.0,0.0,3.2960000038146973,3.2920000553131104,3.2980000972747803,0.0,0.0,0.0,Idle,None,False,False,False,False,False,False,False,False,4298,137,On,On,Idle,0,0,32767,0,-32768,32767,-32768,False,False,False,False,False,False,False,False,False,False,False,False,True,False,False,False,False,False,False,False,False,False,False,False,False,False,False,False,False,True,True,False,False,False,False,0,3,False,False,29,0,0,1000,1000,0,0,0,0,0,8,0,0,0,0,0,0,1,Disabled,False,False,True,1,V0.1,    IR1800,
2019/10/23 - 18:28:47.652402,26,23.01804542541504,22.842731475830078,24.388090133666992,26.42043113708496,26.391212463378906,41.70194625854492,-,30.13371467590332,30.012805938720703,30.25458526611328,0.0,0.0,0.0,3.2960000038146973,3.2920000553131104,3.2980000972747803,0.0,0.0,0.0,Idle,None,False,False,False,False,False,False,False,False,4298,137,On,On,Idle,0,0,32767,0,-32768,32767,-32768,False,False,False,False,False,False,False,False,False,False,False,False,True,False,False,False,False,False,False,False,False,False,False,False,False,False,False,False,False,True,True,False,False,False,False,0,3,False,False,29,0,0,1000,1000,0,0,0,0,0,8,0,0,0,0,0,0,1,Disabled,False,False,True,1,V0.1,    IR1800,
2019/10/23 - 18:28:48.627829,27,22.998565673828125,22.842731475830078,24.388090133666992,26.400951385498047,26.391212463378906,41.70194625854492,-,30.11353874206543,30.012805938720703,30.25458526611328,0.0,0.0,0.0,3.2960000038146973,3.2920000553131104,3.2980000972747803,0.0,0.0,0.0,Idle,None,False,False,False,False,False,False,False,False,4298,137,On,On,Idle,0,0,32767,0,-32768,32767,-32768,False,False,False,False,False,False,False,False,False,False,False,False,True,False,False,False,False,False,False,False,False,False,False,False,False,False,False,False,False,True,True,False,False,False,False,0,3,False,False,29,0,0,1000,1000,0,0,0,0,0,8,0,0,0,0,0,0,1,Disabled,False,False,True,1,V0.1,    IR1800,
2019/10/23 - 18:28:49.634305,28,23.037525177001953,22.842731475830078,24.388090133666992,26.391212463378906,26.391212463378906,41.70194625854492,-,30.214271545410156,30.012805938720703,30.25458526611328,0.0,0.0,0.0,3.2960000038146973,3.2920000553131104,3.2980000972747803,0.0,0.0,0.0,Idle,None,False,False,False,False,False,False,False,False,4298,137,On,On,Idle,0,0,32767,0,-32768,32767,-32768,False,False,False,False,False,False,False,False,False,False,False,False,True,False,False,False,False,False,False,False,False,False,False,False,False,False,False,False,False,True,True,False,False,False,False,0,3,False,False,29,0,0,1000,1000,0,0,0,0,0,8,0,0,0,0,0,0,1,Disabled,False,False,True,1,V0.1,    IR1800,
2019/10/23 - 18:28:50.610687,29,23.108949661254883,22.842731475830078,24.388090133666992,26.397705078125,26.391212463378906,41.70194625854492,-,30.234447479248047,30.012805938720703,30.25458526611328,0.0,0.0,0.0,3.2960000038146973,3.2920000553131104,3.2980000972747803,0.0,0.0,0.0,Idle,None,False,False,False,False,False,False,False,False,4298,137,On,On,Idle,0,0,32767,0,-32768,32767,-32768,False,False,False,False,False,False,False,False,False,False,False,False,True,False,False,False,False,False,False,False,False,False,False,False,False,False,False,False,False,True,True,False,False,False,False,0,3,False,False,29,0,0,1000,1000,0,0,0,0,0,8,0,0,0,0,0,0,1,Disabled,False,False,True,1,V0.1,    IR1800,
2019/10/23 - 18:28:51.587124,30,23.044017791748047,22.842731475830078,24.388090133666992,26.391212463378906,26.391212463378906,41.70194625854492,-,30.153852462768555,30.012805938720703,30.25458526611328,0.0,0.0,0.0,3.2960000038146973,3.2920000553131104,3.2980000972747803,0.0,0.0,0.0,Idle,None,False,False,False,False,False,False,False,False,4298,137,On,On,Idle,0,0,32767,0,-32768,32767,-32768,False,False,False,False,False,False,False,False,False,False,False,False,True,False,False,False,False,False,False,False,False,False,False,False,False,False,False,False,False,True,True,False,False,False,False,0,3,False,False,29,0,0,1000,1000,0,0,0,0,0,8,0,0,0,0,0,0,1,Disabled,False,False,True,1,V0.1,    IR1800,
2019/10/23 - 18:28:52.627526,31,23.044017791748047,22.842731475830078,24.388090133666992,26.38471794128418,26.38471794128418,41.70194625854492,-,30.19413185119629,30.012805938720703,30.25458526611328,0.0,0.0,0.0,3.2960000038146973,3.2920000553131104,3.2980000972747803,0.0,0.0,0.0,Idle,None,False,False,False,False,False,False,False,False,4298,137,On,On,Idle,0,0,32767,0,-32768,32767,-32768,False,False,False,False,False,False,False,False,False,False,False,False,True,False,False,False,False,False,False,False,False,False,False,False,False,False,False,False,False,True,True,False,False,False,False,0,3,False,False,29,0,0,1000,1000,0,0,0,0,0,8,0,0,0,0,0,0,1,Disabled,False,False,True,1,V0.1,    IR1800,
2019/10/23 - 18:28:53.666928,32,23.011552810668945,22.842731475830078,24.388090133666992,26.404197692871094,26.38471794128418,41.70194625854492,-,30.173992156982422,30.012805938720703,30.25458526611328,0.0,0.0,0.0,3.2960000038146973,3.2920000553131104,3.2980000972747803,0.0,0.0,0.0,Idle,None,False,False,False,False,False,False,False,False,4298,137,On,On,Idle,0,0,32767,0,-32768,32767,-32768,False,False,False,False,False,False,False,False,False,False,False,False,True,False,False,False,False,False,False,False,False,False,False,False,False,False,False,False,False,True,True,False,False,False,False,0,3,False,False,29,0,0,1000,1000,0,0,0,0,0,8,0,0,0,0,0,0,1,Disabled,False,False,True,1,V0.1,    IR1800,
2019/10/23 - 18:28:54.628375,33,22.972593307495117,22.842731475830078,24.388090133666992,26.40744400024414,26.38471794128418,41.70194625854492,-,30.153852462768555,30.012805938720703,30.25458526611328,0.0,0.0,0.0,3.2960000038146973,3.2920000553131104,3.2980000972747803,0.0,0.0,0.0,Idle,None,False,False,False,False,False,False,False,False,4298,137,On,On,Idle,0,0,32767,0,-32768,32767,-32768,False,False,False,False,False,False,False,False,False,False,False,False,True,False,False,False,False,False,False,False,False,False,False,False,False,False,False,False,False,True,True,False,False,False,False,0,3,False,False,29,0,0,1000,1000,0,0,0,0,0,8,0,0,0,0,0,0,1,Disabled,False,False,True,1,V0.1,    IR1800,
2019/10/23 - 18:28:55.619804,34,22.94662094116211,22.842731475830078,24.388090133666992,26.40744400024414,26.38471794128418,41.70194625854492,-,30.153852462768555,30.012805938720703,30.25458526611328,0.0,0.0,0.0,3.2960000038146973,3.2920000553131104,3.2980000972747803,0.0,0.0,0.0,Idle,None,False,False,False,False,False,False,False,False,4298,137,On,On,Idle,0,0,32767,0,-32768,32767,-32768,False,False,False,False,False,False,False,False,False,False,False,False,True,False,False,False,False,False,False,False,False,False,False,False,False,False,False,False,False,True,True,False,False,False,False,0,3,False,False,29,0,0,1000,1000,0,0,0,0,0,8,0,0,0,0,0,0,1,Disabled,False,False,True,1,V0.1,    IR1800,
2019/10/23 - 18:28:56.595242,35,22.90117073059082,22.842731475830078,24.388090133666992,26.413938522338867,26.38471794128418,41.70194625854492,-,30.153852462768555,30.012805938720703,30.25458526611328,0.0,0.0,0.0,3.2960000038146973,3.2920000553131104,3.2980000972747803,0.0,0.0,0.0,Idle,None,False,False,False,False,False,False,False,False,4298,137,On,On,Idle,0,0,32767,0,-32768,32767,-32768,False,False,False,False,False,False,False,False,False,False,False,False,True,False,False,False,False,False,False,False,False,False,False,False,False,False,False,False,False,True,True,False,False,False,False,0,3,False,False,29,0,0,1000,1000,0,0,0,0,0,8,0,0,0,0,0,0,1,Disabled,False,False,True,1,V0.1,    IR1800,
2019/10/23 - 18:28:57.604664,36,22.90117073059082,22.842731475830078,24.388090133666992,26.400951385498047,26.38471794128418,41.70194625854492,-,30.11353874206543,30.012805938720703,30.25458526611328,0.0,0.0,0.0,3.2960000038146973,3.2920000553131104,3.2980000972747803,0.0,0.0,0.0,Idle,None,False,False,False,False,False,False,False,False,4298,137,On,On,Idle,0,0,32767,0,-32768,32767,-32768,False,False,False,False,False,False,False,False,False,False,False,False,True,False,False,False,False,False,False,False,False,False,False,False,False,False,False,False,False,True,True,False,False,False,False,0,3,False,False,29,0,0,1000,1000,0,0,0,0,0,8,0,0,0,0,0,0,1,Disabled,False,False,True,1,V0.1,    IR1800,
2019/10/23 - 18:28:58.612080,37,22.87519645690918,22.842731475830078,24.388090133666992,26.378225326538086,26.378225326538086,41.70194625854492,-,30.234447479248047,30.012805938720703,30.25458526611328,0.0,0.0,0.0,3.2960000038146973,3.2920000553131104,3.2980000972747803,0.0,0.0,0.0,Idle,None,False,False,False,False,False,False,False,False,4298,137,On,On,Idle,0,0,32767,0,-32768,32767,-32768,False,False,False,False,False,False,False,False,False,False,False,False,True,False,False,False,False,False,False,False,False,False,False,False,False,False,False,False,False,True,True,False,False,False,False,0,3,False,False,29,0,0,1000,1000,0,0,0,0,0,8,0,0,0,0,0,0,1,Disabled,False,False,True,1,V0.1,    IR1800,
2019/10/23 - 18:28:59.620151,38,22.979087829589844,22.842731475830078,24.388090133666992,26.404197692871094,26.378225326538086,41.70194625854492,-,30.13371467590332,30.012805938720703,30.25458526611328,0.0,0.0,0.0,3.2960000038146973,3.2920000553131104,3.2980000972747803,0.0,0.0,0.0,Idle,None,False,False,False,False,False,False,False,False,4298,137,On,On,Idle,0,0,32767,0,-32768,32767,-32768,False,False,False,False,False,False,False,False,False,False,False,False,True,False,False,False,False,False,False,False,False,False,False,False,False,False,False,False,False,True,True,False,False,False,False,0,3,False,False,29,0,0,1000,1000,0,0,0,0,0,8,0,0,0,0,0,0,1,Disabled,False,False,True,1,V0.1,    IR1800,
2019/10/23 - 18:29:00.611583,39,23.01804542541504,22.842731475830078,24.388090133666992,26.38471794128418,26.378225326538086,41.70194625854492,-,30.234447479248047,30.012805938720703,30.25458526611328,0.0,0.0,0.0,3.2960000038146973,3.2920000553131104,3.2980000972747803,0.0,0.0,0.0,Idle,None,False,False,False,False,False,False,False,False,4298,137,On,On,Idle,0,0,32767,0,-32768,32767,-32768,False,False,False,False,False,False,False,False,False,False,False,False,True,False,False,False,False,False,False,False,False,False,False,False,False,False,False,False,False,True,True,False,False,False,False,0,3,False,False,29,0,0,1000,1000,0,0,0,0,0,8,0,0,0,0,0,0,1,Disabled,False,False,True,1,V0.1,    IR1800,
2019/10/23 - 18:29:01.635992,40,23.069990158081055,22.842731475830078,24.388090133666992,26.41069221496582,26.378225326538086,41.70194625854492,-,30.214271545410156,30.012805938720703,30.25458526611328,0.0,0.0,0.0,3.2960000038146973,3.2920000553131104,3.2980000972747803,0.0,0.0,0.0,Idle,None,False,False,False,False,False,False,False,False,4298,137,On,On,Idle,0,0,32767,0,-32768,32767,-32768,False,False,False,False,False,False,False,False,False,False,False,False,True,False,False,False,False,False,False,False,False,False,False,False,False,False,False,False,False,True,True,False,False,False,False,0,3,False,False,29,0,0,1000,1000,0,0,0,0,0,8,0,0,0,0,0,0,1,Disabled,False,False,True,1,V0.1,    IR1800,
2019/10/23 - 18:29:02.613490,41,23.06349754333496,22.842731475830078,24.388090133666992,26.417184829711914,26.378225326538086,41.70194625854492,-,30.13371467590332,30.012805938720703,30.25458526611328,0.0,0.0,0.0,3.2960000038146973,3.2920000553131104,3.2980000972747803,0.0,0.0,0.0,Idle,None,False,False,False,False,False,False,False,False,4298,137,On,On,Idle,0,0,32767,0,-32768,32767,-32768,False,False,False,False,False,False,False,False,False,False,False,False,True,False,False,False,False,False,False,False,False,False,False,False,False,False,False,False,False,True,True,False,False,False,False,0,3,False,False,29,0,0,1000,1000,0,0,0,0,0,8,0,0,0,0,0,0,1,Disabled,False,False,True,1,V0.1,    IR1800,
2019/10/23 - 18:29:03.620909,42,23.057004928588867,22.842731475830078,24.388090133666992,26.391212463378906,26.378225326538086,41.70194625854492,-,30.25458526611328,30.012805938720703,30.25458526611328,0.0,0.0,0.0,3.2960000038146973,3.2920000553131104,3.2980000972747803,0.0,0.0,0.0,Idle,None,False,False,False,False,False,False,False,False,4298,137,On,On,Idle,0,0,32767,0,-32768,32767,-32768,False,False,False,False,False,False,False,False,False,False,False,False,True,False,False,False,False,False,False,False,False,False,False,False,False,False,False,False,False,True,True,False,False,False,False,0,3,False,False,29,0,0,1000,1000,0,0,0,0,0,8,0,0,0,0,0,0,1,Disabled,False,False,True,1,V0.1,    IR1800,
2019/10/23 - 18:29:04.613350,43,23.044017791748047,22.842731475830078,24.388090133666992,26.38796615600586,26.378225326538086,41.70194625854492,-,30.315004348754883,30.012805938720703,30.315004348754883,0.0,0.0,0.0,3.2960000038146973,3.2920000553131104,3.2980000972747803,0.0,0.0,0.0,Idle,None,False,False,False,False,False,False,False,False,4298,137,On,On,Idle,0,0,32767,0,-32768,32767,-32768,False,False,False,False,False,False,False,False,False,False,False,False,True,False,False,False,False,False,False,False,False,False,False,False,False,False,False,False,False,True,True,False,False,False,False,0,3,False,False,29,0,0,1000,1000,0,0,0,0,0,8,0,0,0,0,0,0,1,Disabled,False,False,True,1,V0.1,    IR1800,
2019/10/23 - 18:29:05.621755,44,23.03103256225586,22.842731475830078,24.388090133666992,26.426923751831055,26.378225326538086,41.70194625854492,-,30.294864654541016,30.012805938720703,30.315004348754883,0.0,0.0,0.0,3.2960000038146973,3.2920000553131104,3.2980000972747803,0.0,0.0,0.0,Idle,None,False,False,False,False,False,False,False,False,4298,137,On,On,Idle,0,0,32767,0,-32768,32767,-32768,False,False,False,False,False,False,False,False,False,False,False,False,True,False,False,False,False,False,False,False,False,False,False,False,False,False,False,False,False,True,True,False,False,False,False,0,3,False,False,29,0,0,1000,1000,0,0,0,0,0,8,0,0,0,0,0,0,1,Disabled,False,False,True,1,V0.1,    IR1800,
2019/10/23 - 18:29:06.612406,45,22.979087829589844,22.842731475830078,24.388090133666992,26.400951385498047,26.378225326538086,41.70194625854492,-,30.214271545410156,30.012805938720703,30.315004348754883,0.0,0.0,0.0,3.2980000972747803,3.2920000553131104,3.2980000972747803,0.0,0.0,0.0,Idle,None,False,False,False,False,False,False,False,False,4298,137,On,On,Idle,0,0,32767,0,-32768,32767,-32768,False,False,False,False,False,False,False,False,False,False,False,False,True,False,False,False,False,False,False,False,False,False,False,False,False,False,False,False,False,True,True,False,False,False,False,0,3,False,False,29,0,0,1000,1000,0,0,0,0,0,8,0,0,0,0,0,0,1,Disabled,False,False,True,1,V0.1,    IR1800,
2019/10/23 - 18:29:07.620824,46,22.95960807800293,22.842731475830078,24.388090133666992,26.397705078125,26.378225326538086,41.70194625854492,-,30.214271545410156,30.012805938720703,30.315004348754883,0.0,0.0,0.0,3.2960000038146973,3.2920000553131104,3.2980000972747803,0.0,0.0,0.0,Idle,None,False,False,False,False,False,False,False,False,4298,137,On,On,Idle,0,0,32767,0,-32768,32767,-32768,False,False,False,False,False,False,False,False,False,False,False,False,True,False,False,False,False,False,False,False,False,False,False,False,False,False,False,False,False,True,True,False,False,False,False,0,3,False,False,29,0,0,1000,1000,0,0,0,0,0,8,0,0,0,0,0,0,1,Disabled,False,False,True,1,V0.1,    IR1800,
2019/10/23 - 18:29:08.613253,47,22.907663345336914,22.842731475830078,24.388090133666992,26.368486404418945,26.368486404418945,41.70194625854492,-,30.11353874206543,30.012805938720703,30.315004348754883,0.0,0.0,0.0,3.2960000038146973,3.2920000553131104,3.2980000972747803,0.0,0.0,0.0,Idle,None,False,False,False,False,False,False,False,False,4298,137,On,On,Idle,0,0,32767,0,-32768,32767,-32768,False,False,False,False,False,False,False,False,False,False,False,False,True,False,False,False,False,False,False,False,False,False,False,False,False,False,False,False,False,True,True,False,False,False,False,0,3,False,False,29,0,0,1000,1000,0,0,0,0,0,8,0,0,0,0,0,0,1,Disabled,False,False,True,1,V0.1,    IR1800,
2019/10/23 - 18:29:09.621695,48,22.914155960083008,22.842731475830078,24.388090133666992,26.42043113708496,26.368486404418945,41.70194625854492,-,30.19413185119629,30.012805938720703,30.315004348754883,0.0,0.0,0.0,3.2980000972747803,3.2920000553131104,3.2980000972747803,0.0,0.0,0.0,Idle,None,False,False,False,False,False,False,False,False,4298,137,On,On,Idle,0,0,32767,0,-32768,32767,-32768,False,False,False,False,False,False,False,False,False,False,False,False,True,False,False,False,False,False,False,False,False,False,False,False,False,False,False,False,False,True,True,False,False,False,False,0,3,False,False,29,0,0,1000,1000,0,0,0,0,0,8,0,0,0,0,0,0,1,Disabled,False,False,True,1,V0.1,    IR1800,
2019/10/23 - 18:29:10.615103,49,22.87519645690918,22.842731475830078,24.388090133666992,26.397705078125,26.368486404418945,41.70194625854492,-,30.173992156982422,30.012805938720703,30.315004348754883,0.0,0.0,0.0,3.2980000972747803,3.2920000553131104,3.2980000972747803,0.0,0.0,0.0,Idle,None,False,False,False,False,False,False,False,False,4298,137,On,On,Idle,0,0,32767,0,-32768,32767,-32768,False,False,False,False,False,False,False,False,False,False,False,False,True,False,False,False,False,False,False,False,False,False,False,False,False,False,False,False,False,True,True,False,False,False,False,0,3,False,False,29,0,0,1000,1000,0,0,0,0,0,8,0,0,0,0,0,0,1,Disabled,False,False,True,1,V0.1,    IR1800,
2019/10/23 - 18:29:11.621521,50,22.907663345336914,22.842731475830078,24.388090133666992,26.40744400024414,26.368486404418945,41.70194625854492,-,30.214271545410156,30.012805938720703,30.315004348754883,0.0,0.0,0.0,3.2960000038146973,3.2920000553131104,3.2980000972747803,0.0,0.0,0.0,Idle,None,False,False,False,False,False,False,False,False,4298,137,On,On,Idle,0,0,32767,0,-32768,32767,-32768,False,False,False,False,False,False,False,False,False,False,False,False,True,False,False,False,False,False,False,False,False,False,False,False,False,False,False,False,False,True,True,False,False,False,False,0,3,False,False,29,0,0,1000,1000,0,0,0,0,0,8,0,0,0,0,0,0,1,Disabled,False,False,True,1,V0.1,    IR1800,
2019/10/23 - 18:29:12.613951,51,22.99207305908203,22.842731475830078,24.388090133666992,26.439910888671875,26.368486404418945,41.70194625854492,-,30.153852462768555,30.012805938720703,30.315004348754883,0.0,0.0,0.0,3.2960000038146973,3.2920000553131104,3.2980000972747803,0.0,0.0,0.0,Idle,None,False,False,False,False,False,False,False,False,4298,137,On,On,Idle,0,0,32767,0,-32768,32767,-32768,False,False,False,False,False,False,False,False,False,False,False,False,True,False,False,False,False,False,False,False,False,False,False,False,False,False,False,False,False,True,True,False,False,False,False,0,3,False,False,29,0,0,1000,1000,0,0,0,0,0,8,0,0,0,0,0,0,1,Disabled,False,False,True,1,V0.1,    IR1800,
2019/10/23 - 18:29:13.590389,52,22.998565673828125,22.842731475830078,24.388090133666992,26.391212463378906,26.368486404418945,41.70194625854492,-,30.315004348754883,30.012805938720703,30.315004348754883,0.0,0.0,0.0,3.2960000038146973,3.2920000553131104,3.2980000972747803,0.0,0.0,0.0,Idle,None,False,False,False,False,False,False,False,False,4298,137,On,On,Idle,0,0,32767,0,-32768,32767,-32768,False,False,False,False,False,False,False,False,False,False,False,False,True,False,False,False,False,False,False,False,False,False,False,False,False,False,False,False,False,True,True,False,False,False,False,0,3,False,False,29,0,0,1000,1000,0,0,0,0,0,8,0,0,0,0,0,0,1,Disabled,False,False,True,1,V0.1,    IR1800,
2019/10/23 - 18:29:14.629790,53,23.01804542541504,22.842731475830078,24.388090133666992,26.400951385498047,26.368486404418945,41.70194625854492,-,30.173992156982422,30.012805938720703,30.315004348754883,0.0,0.0,0.0,3.2960000038146973,3.2920000553131104,3.2980000972747803,0.0,0.0,0.0,Idle,None,False,False,False,False,False,False,False,False,4298,137,On,On,Idle,0,0,32767,0,-32768,32767,-32768,False,False,False,False,False,False,False,False,False,False,False,False,True,False,False,False,False,False,False,False,False,False,False,False,False,False,False,False,False,True,True,False,False,False,False,0,3,False,False,29,0,0,1000,1000,0,0,0,0,0,8,0,0,0,0,0,0,1,Disabled,False,False,True,1,V0.1,    IR1800,
2019/10/23 - 18:29:15.573603,54,23.037525177001953,22.842731475830078,24.388090133666992,26.38471794128418,26.368486404418945,41.70194625854492,-,30.173992156982422,30.012805938720703,30.315004348754883,0.0,0.0,0.0,3.2980000972747803,3.2920000553131104,3.2980000972747803,0.0,0.0,0.0,Idle,None,False,False,False,False,False,False,False,False,4298,137,On,On,Idle,0,0,32767,0,-32768,32767,-32768,False,False,False,False,False,False,False,False,False,False,False,False,True,False,False,False,False,False,False,False,False,False,False,False,False,False,False,False,False,True,True,False,False,False,False,0,3,False,False,29,0,0,1000,1000,0,0,0,0,0,8,0,0,0,0,0,0,1,Disabled,False,False,True,1,V0.1,    IR1800,
2019/10/23 - 18:29:16.629993,55,23.01804542541504,22.842731475830078,24.388090133666992,26.400951385498047,26.368486404418945,41.70194625854492,-,30.294864654541016,30.012805938720703,30.315004348754883,0.0,0.0,0.0,3.2960000038146973,3.2920000553131104,3.2980000972747803,0.0,0.0,0.0,Idle,None,False,False,False,False,False,False,False,False,4298,137,On,On,Idle,0,0,32767,0,-32768,32767,-32768,False,False,False,False,False,False,False,False,False,False,False,False,True,False,False,False,False,False,False,False,False,False,False,False,False,False,False,False,False,True,True,False,False,False,False,0,3,False,False,29,0,0,1000,1000,0,0,0,0,0,8,0,0,0,0,0,0,1,Disabled,False,False,True,1,V0.1,    IR1800,
2019/10/23 - 18:29:17.606434,56,23.024538040161133,22.842731475830078,24.388090133666992,26.439910888671875,26.368486404418945,41.70194625854492,-,30.19413185119629,30.012805938720703,30.315004348754883,0.0,0.0,0.0,3.2960000038146973,3.2920000553131104,3.2980000972747803,0.0,0.0,0.0,Idle,None,False,False,False,False,False,False,False,False,4298,137,On,On,Idle,0,0,32767,0,-32768,32767,-32768,False,False,False,False,False,False,False,False,False,False,False,False,True,False,False,False,False,False,False,False,False,False,False,False,False,False,False,False,False,True,True,False,False,False,False,0,3,False,False,29,0,0,1000,1000,0,0,0,0,0,8,0,0,0,0,0,0,1,Disabled,False,False,True,1,V0.1,    IR1800,
2019/10/23 - 18:29:18.598864,57,22.953115463256836,22.842731475830078,24.388090133666992,26.436664581298828,26.368486404418945,41.70194625854492,-,30.25458526611328,30.012805938720703,30.315004348754883,0.0,0.0,0.0,3.2960000038146973,3.2920000553131104,3.2980000972747803,0.0,0.0,0.0,Idle,None,False,False,False,False,False,False,False,False,4298,137,On,On,Idle,0,0,32767,0,-32768,32767,-32768,False,False,False,False,False,False,False,False,False,False,False,False,True,False,False,False,False,False,False,False,False,False,False,False,False,False,False,False,False,True,True,False,False,False,False,0,3,False,False,29,0,0,1000,1000,0,0,0,0,0,8,0,0,0,0,0,0,1,Disabled,False,False,True,1,V0.1,    IR1800,
2019/10/23 - 18:29:19.622271,58,22.927143096923828,22.842731475830078,24.388090133666992,26.397705078125,26.368486404418945,41.70194625854492,-,30.173992156982422,30.012805938720703,30.315004348754883,0.0,0.0,0.0,3.2960000038146973,3.2920000553131104,3.2980000972747803,0.0,0.0,0.0,Idle,None,False,False,False,False,False,False,False,False,4298,137,On,On,Idle,0,0,32767,0,-32768,32767,-32768,False,False,False,False,False,False,False,False,False,False,False,False,True,False,False,False,False,False,False,False,False,False,False,False,False,False,False,False,False,True,True,False,False,False,False,0,3,False,False,29,0,0,1000,1000,0,0,0,0,0,8,0,0,0,0,0,0,1,Disabled,False,False,True,1,V0.1,    IR1800,
2019/10/23 - 18:29:20.630690,59,22.95960807800293,22.842731475830078,24.388090133666992,26.413938522338867,26.368486404418945,41.70194625854492,-,30.214271545410156,30.012805938720703,30.315004348754883,0.0,0.0,0.0,3.2960000038146973,3.2920000553131104,3.2980000972747803,0.0,0.0,0.0,Idle,None,False,False,False,False,False,False,False,False,4298,137,On,On,Idle,0,0,32767,0,-32768,32767,-32768,False,False,False,False,False,False,False,False,False,False,False,False,True,False,False,False,False,False,False,False,False,False,False,False,False,False,False,False,False,True,True,False,False,False,False,0,3,False,False,29,0,0,1000,1000,0,0,0,0,0,8,0,0,0,0,0,0,1,Disabled,False,False,True,1,V0.1,    IR1800,
2019/10/23 - 18:29:21.623119,60,22.881690979003906,22.842731475830078,24.388090133666992,26.43341636657715,26.368486404418945,41.70194625854492,-,30.19413185119629,30.012805938720703,30.315004348754883,0.0,0.0,0.0,3.2980000972747803,3.2920000553131104,3.2980000972747803,0.0,0.0,0.0,Idle,None,False,False,False,False,False,False,False,False,4298,137,On,On,Idle,0,0,32767,0,-32768,32767,-32768,False,False,False,False,False,False,False,False,False,False,False,False,True,False,False,False,False,False,False,False,False,False,False,False,False,False,False,False,False,True,True,False,False,False,False,0,3,False,False,29,0,0,1000,1000,0,0,0,0,0,8,0,0,0,0,0,0,1,Disabled,False,False,True,1,V0.1,    IR1800,
2019/10/23 - 18:29:22.583566,61,22.927143096923828,22.842731475830078,24.388090133666992,26.397705078125,26.368486404418945,41.70194625854492,-,30.27472496032715,30.012805938720703,30.315004348754883,0.0,0.0,0.0,3.2960000038146973,3.2920000553131104,3.2980000972747803,0.0,0.0,0.0,Idle,None,False,False,False,False,False,False,False,False,4298,137,On,On,Idle,0,0,32767,0,-32768,32767,-32768,False,False,False,False,False,False,False,False,False,False,False,False,True,False,False,False,False,False,False,False,False,False,False,False,False,False,False,False,False,True,True,False,False,False,False,0,3,False,False,29,0,0,1000,1000,0,0,0,0,0,8,0,0,0,0,0,0,1,Disabled,False,False,True,1,V0.1,    IR1800,
2019/10/23 - 18:29:23.590986,62,22.933635711669922,22.842731475830078,24.388090133666992,26.417184829711914,26.368486404418945,41.70194625854492,-,30.33517837524414,30.012805938720703,30.33517837524414,0.0,0.0,0.0,3.2960000038146973,3.2920000553131104,3.2980000972747803,0.0,0.0,0.0,Idle,None,False,False,False,False,False,False,False,False,4298,137,On,On,Idle,0,0,32767,0,-32768,32767,-32768,False,False,False,False,False,False,False,False,False,False,False,False,True,False,False,False,False,False,False,False,False,False,False,False,False,False,False,False,False,True,True,False,False,False,False,0,3,False,False,29,0,0,1000,1000,0,0,0,0,0,8,0,0,0,0,0,0,1,Disabled,False,False,True,1,V0.1,    IR1800,
2019/10/23 - 18:29:24.599405,63,23.057004928588867,22.842731475830078,24.388090133666992,26.397705078125,26.368486404418945,41.70194625854492,-,30.11353874206543,30.012805938720703,30.33517837524414,0.0,0.0,0.0,3.2960000038146973,3.2920000553131104,3.2980000972747803,0.0,0.0,0.0,Idle,None,False,False,False,False,False,False,False,False,4298,137,On,On,Idle,0,0,32767,0,-32768,32767,-32768,False,False,False,False,False,False,False,False,False,False,False,False,True,False,False,False,False,False,False,False,False,False,False,False,False,False,False,False,False,True,True,False,False,False,False,0,3,False,False,29,0,0,1000,1000,0,0,0,0,0,8,0,0,0,0,0,0,1,Disabled,False,False,True,1,V0.1,    IR1800,
2019/10/23 - 18:29:25.591834,64,23.06349754333496,22.842731475830078,24.388090133666992,26.40744400024414,26.368486404418945,41.70194625854492,-,30.173992156982422,30.012805938720703,30.33517837524414,0.0,0.0,0.0,3.2960000038146973,3.2920000553131104,3.2980000972747803,0.0,0.0,0.0,Idle,None,False,False,False,False,False,False,False,False,4298,137,On,On,Idle,0,0,32767,0,-32768,32767,-32768,False,False,False,False,False,False,False,False,False,False,False,False,True,False,False,False,False,False,False,False,False,False,False,False,False,False,False,False,False,True,True,False,False,False,False,0,3,False,False,29,0,0,1000,1000,0,0,0,0,0,8,0,0,0,0,0,0,1,Disabled,False,False,True,1,V0.1,    IR1800,
2019/10/23 - 18:29:26.617243,65,23.03103256225586,22.842731475830078,24.388090133666992,26.397705078125,26.368486404418945,41.70194625854492,-,30.234447479248047,30.012805938720703,30.33517837524414,0.0,0.0,0.0,3.2960000038146973,3.2920000553131104,3.2980000972747803,0.0,0.0,0.0,Idle,None,False,False,False,False,False,False,False,False,4298,137,On,On,Idle,0,0,32767,0,-32768,32767,-32768,False,False,False,False,False,False,False,False,False,False,False,False,True,False,False,False,False,False,False,False,False,False,False,False,False,False,False,False,False,True,True,False,False,False,False,0,3,False,False,29,0,0,1000,1000,0,0,0,0,0,8,0,0,0,0,0,0,1,Disabled,False,False,True,1,V0.1,    IR1800,
2019/10/23 - 18:29:27.624664,66,23.069990158081055,22.842731475830078,24.388090133666992,26.397705078125,26.368486404418945,41.70194625854492,-,30.27472496032715,30.012805938720703,30.33517837524414,0.0,0.0,0.0,3.2960000038146973,3.2920000553131104,3.2980000972747803,0.0,0.0,0.0,Idle,None,False,False,False,False,False,False,False,False,4298,137,On,On,Idle,0,0,32767,0,-32768,32767,-32768,False,False,False,False,False,False,False,False,False,False,False,False,True,False,False,False,False,False,False,False,False,False,False,False,False,False,False,False,False,True,True,False,False,False,False,0,3,False,False,29,0,0,1000,1000,0,0,0,0,0,8,0,0,0,0,0,0,1,Disabled,False,False,True,1,V0.1,    IR1800,
2019/10/23 - 18:29:28.617092,67,23.011552810668945,22.842731475830078,24.388090133666992,26.38471794128418,26.368486404418945,41.70194625854492,-,30.27472496032715,30.012805938720703,30.33517837524414,0.0,0.0,0.0,3.2960000038146973,3.2920000553131104,3.2980000972747803,0.0,0.0,0.0,Idle,None,False,False,False,False,False,False,False,False,4298,137,On,On,Idle,0,0,32767,0,-32768,32767,-32768,False,False,False,False,False,False,False,False,False,False,False,False,True,False,False,False,False,False,False,False,False,False,False,False,False,False,False,False,False,True,True,False,False,False,False,0,3,False,False,29,0,0,1000,1000,0,0,0,0,0,8,0,0,0,0,0,0,1,Disabled,False,False,True,1,V0.1,    IR1800,
2019/10/23 - 18:29:29.665488,-,-,-,-,-,-,-,-,-,-,-,-,-,-,-,-,-,-,-,-,-,-,-,-,-,-,-,-,-,-,-,-,-,-,-,-,-,-,-,-,-,-,-,-,-,-,-,-,-,-,-,-,-,-,-,-,-,-,-,-,-,-,-,-,-,-,-,-,-,-,-,-,-,-,-,-,-,-,-,-,-,-,-,-,-,-,-,-,-,-,-,-,-,-,-,-,-,-,-,-,-,-,-,-,-,-,
2019/10/23 - 18:29:30.654919,-,-,-,-,-,-,-,-,-,-,-,-,-,-,-,-,-,-,-,-,-,-,-,-,-,-,-,-,-,-,-,-,-,-,-,-,-,-,-,-,-,-,-,-,-,-,-,-,-,-,-,-,-,-,-,-,-,-,-,-,-,-,-,-,-,-,-,-,-,-,-,-,-,-,-,-,-,-,-,-,-,-,-,-,-,-,-,-,-,-,-,-,-,-,-,-,-,-,-,-,-,-,-,-,-,-,
2019/10/23 - 18:29:31.650346,-,-,-,-,-,-,-,-,-,-,-,-,-,-,-,-,-,-,-,-,-,-,-,-,-,-,-,-,-,-,-,-,-,-,-,-,-,-,-,-,-,-,-,-,-,-,-,-,-,-,-,-,-,-,-,-,-,-,-,-,-,-,-,-,-,-,-,-,-,-,-,-,-,-,-,-,-,-,-,-,-,-,-,-,-,-,-,-,-,-,-,-,-,-,-,-,-,-,-,-,-,-,-,-,-,-,
2019/10/23 - 18:29:32.654767,-,-,-,-,-,-,-,-,-,-,-,-,-,-,-,-,-,-,-,-,-,-,-,-,-,-,-,-,-,-,-,-,-,-,-,-,-,-,-,-,-,-,-,-,-,-,-,-,-,-,-,-,-,-,-,-,-,-,-,-,-,-,-,-,-,-,-,-,-,-,-,-,-,-,-,-,-,-,-,-,-,-,-,-,-,-,-,-,-,-,-,-,-,-,-,-,-,-,-,-,-,-,-,-,-,-,
2019/10/23 - 18:29:33.654193,-,-,-,-,-,-,-,-,-,-,-,-,-,-,-,-,-,-,-,-,-,-,-,-,-,-,-,-,-,-,-,-,-,-,-,-,-,-,-,-,-,-,-,-,-,-,-,-,-,-,-,-,-,-,-,-,-,-,-,-,-,-,-,-,-,-,-,-,-,-,-,-,-,-,-,-,-,-,-,-,-,-,-,-,-,-,-,-,-,-,-,-,-,-,-,-,-,-,-,-,-,-,-,-,-,-,
2019/10/23 - 18:29:34.658615,-,-,-,-,-,-,-,-,-,-,-,-,-,-,-,-,-,-,-,-,-,-,-,-,-,-,-,-,-,-,-,-,-,-,-,-,-,-,-,-,-,-,-,-,-,-,-,-,-,-,-,-,-,-,-,-,-,-,-,-,-,-,-,-,-,-,-,-,-,-,-,-,-,-,-,-,-,-,-,-,-,-,-,-,-,-,-,-,-,-,-,-,-,-,-,-,-,-,-,-,-,-,-,-,-,-,
2019/10/23 - 18:29:35.654041,-,-,-,-,-,-,-,-,-,-,-,-,-,-,-,-,-,-,-,-,-,-,-,-,-,-,-,-,-,-,-,-,-,-,-,-,-,-,-,-,-,-,-,-,-,-,-,-,-,-,-,-,-,-,-,-,-,-,-,-,-,-,-,-,-,-,-,-,-,-,-,-,-,-,-,-,-,-,-,-,-,-,-,-,-,-,-,-,-,-,-,-,-,-,-,-,-,-,-,-,-,-,-,-,-,-,
2019/10/23 - 18:29:36.651466,-,-,-,-,-,-,-,-,-,-,-,-,-,-,-,-,-,-,-,-,-,-,-,-,-,-,-,-,-,-,-,-,-,-,-,-,-,-,-,-,-,-,-,-,-,-,-,-,-,-,-,-,-,-,-,-,-,-,-,-,-,-,-,-,-,-,-,-,-,-,-,-,-,-,-,-,-,-,-,-,-,-,-,-,-,-,-,-,-,-,-,-,-,-,-,-,-,-,-,-,-,-,-,-,-,-,
2019/10/23 - 18:29:37.652910,-,-,-,-,-,-,-,-,-,-,-,-,-,-,-,-,-,-,-,-,-,-,-,-,-,-,-,-,-,-,-,-,-,-,-,-,-,-,-,-,-,-,-,-,-,-,-,-,-,-,-,-,-,-,-,-,-,-,-,-,-,-,-,-,-,-,-,-,-,-,-,-,-,-,-,-,-,-,-,-,-,-,-,-,-,-,-,-,-,-,-,-,-,-,-,-,-,-,-,-,-,-,-,-,-,-,
2019/10/23 - 18:29:38.658313,-,-,-,-,-,-,-,-,-,-,-,-,-,-,-,-,-,-,-,-,-,-,-,-,-,-,-,-,-,-,-,-,-,-,-,-,-,-,-,-,-,-,-,-,-,-,-,-,-,-,-,-,-,-,-,-,-,-,-,-,-,-,-,-,-,-,-,-,-,-,-,-,-,-,-,-,-,-,-,-,-,-,-,-,-,-,-,-,-,-,-,-,-,-,-,-,-,-,-,-,-,-,-,-,-,-,
2019/10/23 - 18:29:39.652763,-,-,-,-,-,-,-,-,-,-,-,-,-,-,-,-,-,-,-,-,-,-,-,-,-,-,-,-,-,-,-,-,-,-,-,-,-,-,-,-,-,-,-,-,-,-,-,-,-,-,-,-,-,-,-,-,-,-,-,-,-,-,-,-,-,-,-,-,-,-,-,-,-,-,-,-,-,-,-,-,-,-,-,-,-,-,-,-,-,-,-,-,-,-,-,-,-,-,-,-,-,-,-,-,-,-,
2019/10/23 - 18:29:40.650181,-,-,-,-,-,-,-,-,-,-,-,-,-,-,-,-,-,-,-,-,-,-,-,-,-,-,-,-,-,-,-,-,-,-,-,-,-,-,-,-,-,-,-,-,-,-,-,-,-,-,-,-,-,-,-,-,-,-,-,-,-,-,-,-,-,-,-,-,-,-,-,-,-,-,-,-,-,-,-,-,-,-,-,-,-,-,-,-,-,-,-,-,-,-,-,-,-,-,-,-,-,-,-,-,-,-,
2019/10/23 - 18:29:41.655585,-,-,-,-,-,-,-,-,-,-,-,-,-,-,-,-,-,-,-,-,-,-,-,-,-,-,-,-,-,-,-,-,-,-,-,-,-,-,-,-,-,-,-,-,-,-,-,-,-,-,-,-,-,-,-,-,-,-,-,-,-,-,-,-,-,-,-,-,-,-,-,-,-,-,-,-,-,-,-,-,-,-,-,-,-,-,-,-,-,-,-,-,-,-,-,-,-,-,-,-,-,-,-,-,-,-,
2019/10/23 - 18:29:42.659011,-,-,-,-,-,-,-,-,-,-,-,-,-,-,-,-,-,-,-,-,-,-,-,-,-,-,-,-,-,-,-,-,-,-,-,-,-,-,-,-,-,-,-,-,-,-,-,-,-,-,-,-,-,-,-,-,-,-,-,-,-,-,-,-,-,-,-,-,-,-,-,-,-,-,-,-,-,-,-,-,-,-,-,-,-,-,-,-,-,-,-,-,-,-,-,-,-,-,-,-,-,-,-,-,-,-,
2019/10/23 - 18:29:43.592472,1,24.667293548583984,24.667293548583984,24.667293548583984,41.94868469238281,41.94868469238281,41.94868469238281,-,28.70328140258789,28.70328140258789,28.70328140258789,0.0,0.0,0.0,3.2920000553131104,3.2920000553131104,3.2920000553131104,0.0,0.0,0.0,Idle,None,False,False,False,False,False,False,False,False,4297,137,On,On,Idle,0,0,32767,0,-32768,32767,-32768,False,False,False,False,False,False,False,False,False,False,False,False,False,False,False,False,False,False,False,False,False,False,False,False,False,False,False,False,False,True,True,False,False,False,False,0,3,False,False,29,0,0,0,0,0,0,0,0,0,9,0,0,0,0,0,0,1,Disabled,False,False,True,1,V0.1,    IR1800,
2019/10/23 - 18:29:44.616881,2,24.842607498168945,24.667293548583984,24.842607498168945,26.319787979125977,26.319787979125977,41.94868469238281,-,28.4212589263916,28.4212589263916,28.70328140258789,0.0,0.0,0.0,3.2960000038146973,3.2920000553131104,3.2960000038146973,0.0,0.0,0.0,Idle,None,False,False,False,False,False,False,False,False,4297,137,On,On,Idle,0,0,32767,0,-32768,32767,-32768,False,False,False,False,False,False,False,False,False,False,False,False,False,False,False,False,False,False,False,False,False,False,False,False,False,False,False,False,False,True,True,False,False,False,False,0,3,False,False,29,0,0,967,967,0,0,0,0,0,8,0,0,0,0,0,0,1,Disabled,False,False,True,1,V0.1,    IR1800,
2019/10/23 - 18:29:45.641314,3,24.407569885253906,24.407569885253906,24.842607498168945,26.332773208618164,26.319787979125977,41.94868469238281,-,28.824190139770508,28.4212589263916,28.824190139770508,0.0,0.0,0.0,3.2980000972747803,3.2920000553131104,3.2980000972747803,0.0,0.0,0.0,Idle,None,False,False,False,False,False,False,False,False,4297,137,On,On,Idle,0,0,32767,0,-32768,32767,-32768,False,False,False,False,False,False,False,False,False,False,False,False,False,False,False,False,False,False,False,False,False,False,False,False,False,False,False,False,False,True,True,False,False,False,False,0,3,False,False,29,0,0,1000,1000,0,0,0,0,0,8,0,0,0,0,0,0,1,Disabled,False,False,True,1,V0.1,    IR1800,
2019/10/23 - 18:29:46.648712,4,23.972532272338867,23.972532272338867,24.842607498168945,26.342514038085938,26.319787979125977,41.94868469238281,-,29.206945419311523,28.4212589263916,29.206945419311523,0.0,0.0,0.0,3.2980000972747803,3.2920000553131104,3.2980000972747803,0.0,0.0,0.0,Idle,None,False,False,False,False,False,False,False,False,4297,137,On,On,Idle,0,0,32767,0,-32768,32767,-32768,False,False,False,False,False,False,False,False,False,False,False,False,False,False,False,False,False,False,False,False,False,False,False,False,False,False,False,False,False,True,True,False,False,False,False,0,3,False,False,29,0,0,1000,1000,0,0,0,0,0,8,0,0,0,0,0,0,1,Disabled,False,False,True,1,V0.1,    IR1800,
2019/10/23 - 18:29:47.609158,5,23.764751434326172,23.764751434326172,24.842607498168945,26.332773208618164,26.319787979125977,41.94868469238281,-,29.267398834228516,28.4212589263916,29.267398834228516,0.0,0.0,0.0,3.2980000972747803,3.2920000553131104,3.2980000972747803,0.0,0.0,0.0,Idle,None,False,False,False,False,False,False,False,False,4297,137,On,On,Idle,0,0,32767,0,-32768,32767,-32768,False,False,False,False,False,False,False,False,False,False,False,False,False,False,False,False,False,False,False,False,False,False,False,False,False,False,False,False,False,True,True,False,False,False,False,0,3,False,False,29,0,0,1000,1000,0,0,0,0,0,8,0,0,0,0,0,0,1,Disabled,False,False,True,1,V0.1,    IR1800,
2019/10/23 - 18:29:48.648559,6,23.719301223754883,23.719301223754883,24.842607498168945,26.342514038085938,26.319787979125977,41.94868469238281,-,29.38827133178711,28.4212589263916,29.38827133178711,0.0,0.0,0.0,3.2980000972747803,3.2920000553131104,3.2980000972747803,0.0,0.0,0.0,Idle,None,False,False,False,False,False,False,False,False,4297,137,On,On,Idle,0,0,32767,0,-32768,32767,-32768,False,False,False,False,False,False,False,False,False,False,False,False,False,False,False,False,False,False,False,False,False,False,False,False,False,False,False,False,False,True,True,False,False,False,False,0,3,False,False,29,0,0,1000,1000,0,0,0,0,0,8,0,0,0,0,0,0,1,Disabled,False,False,True,1,V0.1,    IR1800,
2019/10/23 - 18:29:49.609007,7,23.719301223754883,23.719301223754883,24.842607498168945,26.32628059387207,26.319787979125977,41.94868469238281,-,29.489004135131836,28.4212589263916,29.489004135131836,0.0,0.0,0.0,3.2980000972747803,3.2920000553131104,3.2980000972747803,0.0,0.0,0.0,Idle,None,False,False,False,False,False,False,False,False,4297,137,On,On,Idle,0,0,32767,0,-32768,32767,-32768,False,False,False,False,False,False,False,False,False,False,False,False,False,False,False,False,False,False,False,False,False,False,False,False,False,False,False,False,False,True,True,False,False,False,False,0,3,False,False,29,0,0,1000,1000,0,0,0,0,0,8,0,0,0,0,0,0,1,Disabled,False,False,True,1,V0.1,    IR1800,
2019/10/23 - 18:29:50.648409,8,23.654369354248047,23.654369354248047,24.842607498168945,26.355499267578125,26.319787979125977,41.94868469238281,-,29.52931785583496,28.4212589263916,29.52931785583496,0.0,0.0,0.0,3.2980000972747803,3.2920000553131104,3.2980000972747803,0.0,0.0,0.0,Idle,None,False,False,False,False,False,False,False,False,4297,137,On,On,Idle,0,0,32767,0,-32768,32767,-32768,False,False,False,False,False,False,False,False,False,False,False,False,False,False,False,False,False,False,False,False,False,False,False,False,False,False,False,False,False,True,True,False,False,False,False,0,3,False,False,29,0,0,1000,1000,0,0,0,0,0,8,0,0,0,0,0,0,1,Disabled,False,False,True,1,V0.1,    IR1800,
2019/10/23 - 18:29:51.641858,9,23.60242462158203,23.60242462158203,24.842607498168945,26.33926773071289,26.319787979125977,41.94868469238281,-,29.489004135131836,28.4212589263916,29.52931785583496,0.0,0.0,0.0,3.2980000972747803,3.2920000553131104,3.2980000972747803,0.0,0.0,0.0,Idle,None,False,False,False,False,False,False,False,False,4297,137,On,On,Idle,0,0,32767,0,-32768,32767,-32768,False,False,False,False,False,False,False,False,False,False,False,False,False,False,False,False,False,False,False,False,False,False,False,False,False,False,False,False,False,True,True,False,False,False,False,0,3,False,False,29,0,0,1000,1000,0,0,0,0,0,8,0,0,0,0,0,0,1,Disabled,False,False,True,1,V0.1,    IR1800,
2019/10/23 - 18:29:52.617274,10,23.543987274169922,23.543987274169922,24.842607498168945,26.336021423339844,26.319787979125977,41.94868469238281,-,29.589736938476562,28.4212589263916,29.589736938476562,0.0,0.0,0.0,3.2980000972747803,3.2920000553131104,3.2980000972747803,0.0,0.0,0.0,Idle,None,False,False,False,False,False,False,False,False,4297,137,On,On,Idle,0,0,32767,0,-32768,32767,-32768,False,False,False,False,False,False,False,False,False,False,False,False,False,False,False,False,False,False,False,False,False,False,False,False,False,False,False,False,False,True,True,False,False,False,False,0,3,False,False,29,0,0,1000,1000,0,0,0,0,0,8,0,0,0,0,0,0,1,Disabled,False,False,True,1,V0.1,    IR1800,
2019/10/23 - 18:29:53.624713,11,23.589439392089844,23.543987274169922,24.842607498168945,26.342514038085938,26.319787979125977,41.94868469238281,-,29.630050659179688,28.4212589263916,29.630050659179688,27.492237091064453,0.0,27.492237091064453,3.2980000972747803,3.2920000553131104,3.2980000972747803,3.28629994392395,0.0,3.28629994392395,Continuous,None,False,False,False,False,False,False,False,False,4297,137,On,On,Idle,32863,33515,-347,-283,0,-347,0,False,False,False,False,False,False,False,False,False,False,False,False,False,False,False,False,False,False,False,False,False,False,False,False,False,False,False,False,False,True,True,False,False,False,False,0,3,False,False,29,331,331,1000,1000,192,0,0,0,0,8,0,0,0,0,0,0,1,Disabled,False,False,True,1,V0.1,    IR1800,
2019/10/23 - 18:29:54.637111,12,23.87513542175293,23.543987274169922,24.842607498168945,26.800277709960938,26.319787979125977,41.94868469238281,-,29.69046974182129,28.4212589263916,29.69046974182129,27.510814666748047,0.0,27.510814666748047,3.2980000972747803,3.2920000553131104,3.2980000972747803,3.286600112915039,0.0,3.286600112915039,Continuous,None,False,False,False,False,False,False,False,False,4297,137,On,On,Idle,32866,33513,-351,-287,0,-351,0,False,False,False,False,False,False,False,False,False,False,False,False,False,False,False,False,False,False,False,False,False,False,False,False,False,False,False,False,False,True,True,False,False,False,False,0,3,False,False,29,330,331,1000,1000,192,0,0,0,0,9,0,0,0,0,0,0,1,Disabled,False,False,True,1,V0.1,    IR1800,
2019/10/23 - 18:29:55.624598,13,23.90760040283203,23.543987274169922,24.842607498168945,26.800277709960938,26.319787979125977,41.94868469238281,-,29.730783462524414,28.4212589263916,29.730783462524414,27.523193359375,0.0,27.523193359375,3.2980000972747803,3.2920000553131104,3.2980000972747803,3.286799907684326,0.0,3.286799907684326,Continuous,None,False,False,False,False,False,False,False,False,4297,137,On,On,Idle,32868,33514,-357,-291,0,-357,0,False,False,False,False,False,False,False,False,False,False,False,False,False,False,False,False,False,False,False,False,False,False,False,False,False,False,False,False,False,True,True,False,False,False,False,0,3,False,False,29,331,331,1000,1000,192,0,0,0,0,8,0,0,0,0,0,0,1,Disabled,False,False,True,1,V0.1,    IR1800,
2019/10/23 - 18:29:56.649978,14,23.8361759185791,23.543987274169922,24.842607498168945,26.803524017333984,26.319787979125977,41.94868469238281,-,29.650190353393555,28.4212589263916,29.730783462524414,27.541772842407227,0.0,27.541772842407227,3.2980000972747803,3.2920000553131104,3.2980000972747803,3.287100076675415,0.0,3.287100076675415,Continuous,Tobj,False,False,False,False,False,False,False,False,4297,137,On,On,Idle,32871,33514,2976,3006,3144,2976,3144,False,False,False,False,False,False,False,False,False,False,False,False,False,False,False,False,False,False,False,False,False,False,False,False,False,False,False,False,False,True,True,False,False,False,False,0,3,False,False,29,476,476,1000,1000,320,12,2,0,0,8,0,0,0,0,0,0,1,Disabled,False,False,True,1,V0.1,    IR1800,
2019/10/23 - 18:29:57.625411,15,23.667356491088867,23.543987274169922,24.842607498168945,26.793785095214844,26.319787979125977,41.94868469238281,-,29.730783462524414,28.4212589263916,29.730783462524414,27.554149627685547,0.0,27.554149627685547,3.2980000972747803,3.2920000553131104,3.2980000972747803,3.2873001098632812,0.0,3.2873001098632812,Continuous,Tobj,False,False,False,False,False,False,False,False,4297,137,On,On,Idle,32873,33514,2973,3004,3141,2973,3144,False,False,False,False,False,False,False,False,False,False,False,False,False,False,False,False,False,False,False,False,False,False,False,False,False,False,False,False,False,True,True,False,False,False,False,0,3,False,False,29,475,476,1000,1000,320,11,1,0,0,9,0,0,0,0,0,0,1,Disabled,False,False,True,1,V0.1,    IR1800,
2019/10/23 - 18:29:58.616840,16,23.777738571166992,23.543987274169922,24.842607498168945,26.80677032470703,26.319787979125977,41.94868469238281,-,29.83151626586914,28.4212589263916,29.83151626586914,27.57275390625,0.0,27.57275390625,3.2980000972747803,3.2920000553131104,3.2980000972747803,3.287600040435791,0.0,3.287600040435791,Continuous,Tobj,False,False,False,False,False,False,False,False,4297,137,On,On,Idle,32876,33515,2971,3002,3144,2971,3144,False,False,False,False,False,False,False,False,False,False,False,False,False,False,False,False,False,False,False,False,False,False,False,False,False,False,False,False,False,True,True,False,False,False,False,0,3,False,False,29,477,477,1000,1000,320,13,2,0,0,8,0,0,0,0,0,0,1,Disabled,False,False,True,1,V0.1,    IR1800,
2019/10/23 - 18:30:03.709908,21,23.69982147216797,23.543987274169922,24.842607498168945,26.81975746154785,26.319787979125977,41.94868469238281,-,29.81134033203125,28.4212589263916,29.83151626586914,27.57275390625,0.0,27.57275390625,3.2980000972747803,3.2920000553131104,3.2980000972747803,3.287600040435791,0.0,3.287600040435791,Continuous,Tobj,False,False,False,False,False,False,False,False,4297,137,On,On,Idle,32876,33516,2967,3000,3136,2967,3144,False,False,False,False,False,False,False,False,False,False,False,False,False,False,False,False,False,False,False,False,False,False,False,False,False,False,False,False,False,True,True,False,False,False,False,0,3,False,False,29,0,477,1000,1000,321,12,2,0,0,8,0,0,0,0,0,0,1,Disabled,False,False,True,1,V0.1,    IR1800,
2019/10/23 - 18:30:03.980751,22,23.69982147216797,23.543987274169922,24.842607498168945,26.81975746154785,26.319787979125977,41.94868469238281,-,29.81134033203125,28.4212589263916,29.83151626586914,27.57275390625,0.0,27.57275390625,3.2980000972747803,3.2920000553131104,3.2980000972747803,3.287600040435791,0.0,3.287600040435791,Continuous,Tobj,False,False,False,False,False,False,False,False,4297,137,On,On,Capturing,32876,33516,2967,3000,3136,2967,3144,False,False,False,False,False,False,False,False,False,False,False,False,False,False,False,False,False,False,False,False,False,False,False,False,False,False,False,False,False,True,True,False,False,False,False,0,3,False,False,29,0,477,1000,1000,321,12,2,0,0,8,0,0,0,0,0,0,1,Disabled,False,False,True,1,V0.1,    IR1800,
2019/10/23 - 18:30:04.253600,22,23.69982147216797,23.543987274169922,24.842607498168945,26.81975746154785,26.319787979125977,41.94868469238281,-,29.81134033203125,28.4212589263916,29.83151626586914,27.57275390625,0.0,27.57275390625,3.2980000972747803,3.2920000553131104,3.2980000972747803,3.287600040435791,0.0,3.287600040435791,Continuous,Tobj,False,False,False,False,False,False,False,False,4297,137,On,On,Idle,32881,33515,2960,2995,3132,2960,3144,False,False,False,False,False,False,False,False,False,False,False,False,False,False,False,False,False,False,False,False,False,False,False,False,False,False,False,False,False,True,True,False,False,False,False,0,3,False,False,29,0,477,1000,1000,323,12,2,0,0,8,0,0,0,0,0,0,1,Disabled,False,False,True,1,V0.1,    IR1800,
2019/10/23 - 18:30:04.542431,22,-,23.543987274169922,24.842607498168945,-,26.319787979125977,41.94868469238281,-,-,28.4212589263916,29.83151626586914,-,0.0,27.603710174560547,-,3.2920000553131104,3.2980000972747803,-,0.0,3.288100004196167,Continuous,Tobj,False,False,False,False,False,False,False,False,4297,137,On,On,Idle,32881,33515,2960,2995,3132,2960,3144,False,False,False,False,False,False,False,False,False,False,False,False,False,False,False,False,False,False,False,False,False,False,False,False,False,False,False,False,False,True,True,False,False,False,False,0,3,False,False,29,480,480,1000,1000,323,12,1,0,0,9,0,0,0,0,0,0,1,Disabled,False,False,True,-,-,    IR1800,
2019/10/23 - 18:30:04.813272,22,23.777738571166992,23.543987274169922,24.842607498168945,26.83274269104004,26.319787979125977,41.94868469238281,-,29.83151626586914,28.4212589263916,29.83151626586914,27.603710174560547,0.0,27.603710174560547,3.2980000972747803,3.2920000553131104,3.2980000972747803,3.288100004196167,0.0,3.288100004196167,Continuous,Tobj,False,False,False,False,False,False,False,False,4297,137,On,On,Capturing,32881,33515,2960,2995,3132,2960,3144,False,False,False,False,False,False,False,False,False,False,False,False,False,False,False,False,False,False,False,False,False,False,False,False,False,False,False,False,False,True,True,False,False,False,False,0,3,False,False,29,480,480,1000,1000,323,12,1,0,0,9,0,0,0,0,0,0,1,Disabled,False,False,True,1,V0.1,    IR1800,
2019/10/23 - 18:30:05.085116,23,23.777738571166992,23.543987274169922,24.842607498168945,26.83274269104004,26.319787979125977,41.94868469238281,-,29.83151626586914,28.4212589263916,29.83151626586914,27.603710174560547,0.0,27.603710174560547,3.2980000972747803,3.2920000553131104,3.2980000972747803,3.288100004196167,0.0,3.288100004196167,Continuous,Tobj,False,False,False,False,False,False,False,False,4297,137,On,On,Calibrating,32881,33516,2960,2995,3132,2960,3144,False,False,False,False,False,False,False,False,False,False,False,False,False,False,False,False,False,False,False,False,False,False,False,False,False,False,False,False,False,True,True,False,False,False,False,0,3,False,False,29,480,480,1000,1000,323,12,1,0,0,9,0,0,0,0,0,0,1,Disabled,False,False,True,1,V0.1,    IR1800,
2019/10/23 - 18:30:05.613816,23,23.725793838500977,23.543987274169922,24.842607498168945,26.777551651000977,26.319787979125977,41.94868469238281,-,29.81134033203125,28.4212589263916,29.83151626586914,27.603710174560547,0.0,27.603710174560547,3.2980000972747803,3.2920000553131104,3.2980000972747803,3.288100004196167,0.0,3.288100004196167,Continuous,Tobj,False,False,False,False,False,False,False,False,4297,137,On,On,Idle,32881,33516,2959,2994,3134,2959,3144,False,False,False,False,False,False,False,False,False,False,False,False,False,False,False,False,False,False,False,False,False,False,False,False,False,False,False,False,False,True,True,False,False,False,False,0,3,False,False,29,479,480,1000,1000,323,12,2,0,0,8,0,0,0,0,0,0,1,Disabled,False,False,True,1,V0.1,    IR1800,
2019/10/23 - 18:30:06.637223,24,23.68683433532715,23.543987274169922,24.842607498168945,26.790536880493164,26.319787979125977,41.94868469238281,-,29.730783462524414,28.4212589263916,29.83151626586914,27.6160888671875,0.0,27.6160888671875,3.2980000972747803,3.2920000553131104,3.2980000972747803,3.288300037384033,0.0,3.288300037384033,Continuous,Tobj,False,False,False,False,False,False,False,False,4297,137,On,On,Idle,32883,33516,2965,3004,3084,2959,3144,False,False,False,False,False,False,False,False,False,False,False,False,False,False,False,False,False,False,False,False,False,False,False,False,False,False,False,False,False,True,True,False,False,False,False,0,3,False,False,29,477,480,1000,1000,321,12,2,0,0,8,0,0,0,0,0,0,1,Disabled,False,False,True,1,V0.1,    IR1800,
2019/10/23 - 18:30:07.661633,25,23.621904373168945,23.543987274169922,24.842607498168945,26.83274269104004,26.319787979125977,41.94868469238281,-,29.77106285095215,28.4212589263916,29.83151626586914,27.609912872314453,0.0,27.6160888671875,3.2980000972747803,3.2920000553131104,3.2980000972747803,3.2881999015808105,0.0,3.288300037384033,Continuous,Tobj,False,False,False,False,False,False,False,False,4297,137,On,On,Idle,32882,33515,2965,3008,3103,2959,3144,False,False,False,False,False,False,False,False,False,False,False,False,False,False,False,False,False,False,False,False,False,False,False,False,False,False,False,False,False,True,True,False,False,False,False,0,3,False,False,29,476,480,1000,1000,320,12,2,0,0,9,0,0,0,0,0,0,1,Disabled,False,False,True,1,V0.1,    IR1800,
2019/10/23 - 18:30:08.653079,26,23.74527359008789,23.543987274169922,24.842607498168945,26.777551651000977,26.319787979125977,41.94868469238281,-,29.851655960083008,28.4212589263916,29.851655960083008,27.628467559814453,0.0,27.628467559814453,3.2980000972747803,3.2920000553131104,3.2980000972747803,3.2885000705718994,0.0,3.2885000705718994,Continuous,Tobj,False,False,False,False,False,False,False,False,4297,137,On,On,Idle,32885,33515,2961,3009,3090,2959,3144,False,False,False,False,False,False,False,False,False,False,False,False,False,False,False,False,False,False,False,False,False,False,False,False,False,False,False,False,False,True,True,False,False,False,False,0,3,False,False,29,477,480,1000,1000,321,12,2,0,0,8,0,0,0,0,0,0,1,Disabled,False,False,True,1,V0.1,    IR1800,
2019/10/23 - 18:30:13.702156,31,23.68683433532715,23.543987274169922,24.842607498168945,26.816509246826172,26.319787979125977,41.94868469238281,-,29.77106285095215,28.4212589263916,29.851655960083008,27.628467559814453,0.0,27.628467559814453,3.2980000972747803,3.2920000553131104,3.2980000972747803,3.2885000705718994,0.0,3.2885000705718994,Continuous,Tobj,False,False,False,False,False,False,False,False,4297,137,On,On,Idle,32885,33514,2958,3009,3085,2958,3144,False,False,False,False,False,False,False,False,False,False,False,False,False,False,False,False,False,False,False,False,False,False,False,False,False,False,False,False,False,True,True,False,False,False,False,0,3,False,False,29,0,480,1000,1000,320,13,2,0,0,8,0,0,0,0,0,0,1,Disabled,False,False,True,1,V0.1,    IR1800,
2019/10/23 - 18:30:14.004980,32,23.68683433532715,23.543987274169922,24.842607498168945,26.816509246826172,26.319787979125977,41.94868469238281,-,29.77106285095215,28.4212589263916,29.851655960083008,27.628467559814453,0.0,27.628467559814453,3.2980000972747803,3.2920000553131104,3.2980000972747803,3.2885000705718994,0.0,3.2885000705718994,Continuous,Tobj,False,False,False,False,False,False,False,False,4297,137,On,On,Capturing,32885,33514,2958,3009,3085,2958,3144,False,False,False,False,False,False,False,False,False,False,False,False,False,False,False,False,False,False,False,False,False,False,False,False,False,False,False,False,False,True,True,False,False,False,False,0,3,False,False,29,0,480,1000,1000,320,13,2,0,0,8,0,0,0,0,0,0,1,Disabled,False,False,True,1,V0.1,    IR1800,
2019/10/23 - 18:30:14.276838,32,23.68683433532715,23.543987274169922,24.842607498168945,26.816509246826172,26.319787979125977,41.94868469238281,-,29.77106285095215,28.4212589263916,29.851655960083008,27.628467559814453,0.0,27.628467559814453,3.2980000972747803,3.2920000553131104,3.2980000972747803,3.2885000705718994,0.0,3.2885000705718994,Continuous,Tobj,False,False,False,False,False,False,False,False,4297,137,On,On,Idle,32888,33516,2963,3009,3093,2958,3144,False,False,False,False,False,False,False,False,False,False,False,False,False,False,False,False,False,False,False,False,False,False,False,False,False,False,False,False,False,True,True,False,False,False,False,0,3,False,False,29,0,480,1000,1000,322,13,2,0,0,8,0,0,0,0,0,0,1,Disabled,False,False,True,1,V0.1,    IR1800,
2019/10/23 - 18:30:14.549667,32,-,23.543987274169922,24.842607498168945,-,26.319787979125977,41.94868469238281,-,-,28.4212589263916,29.851655960083008,-,0.0,27.647069931030273,-,3.2920000553131104,3.2980000972747803,-,0.0,3.288800001144409,Continuous,Tobj,False,False,False,False,False,False,False,False,4297,137,On,On,Idle,32888,33516,2963,3009,3093,2958,3144,False,False,False,False,False,False,False,False,False,False,False,False,False,False,False,False,False,False,False,False,False,False,False,False,False,False,False,False,False,True,True,False,False,False,False,0,3,False,False,29,478,480,1000,1000,322,11,2,0,0,9,0,0,0,0,0,0,1,Disabled,False,False,True,-,-,    IR1800,
2019/10/23 - 18:30:14.820527,32,23.86214828491211,23.543987274169922,24.842607498168945,26.826250076293945,26.319787979125977,41.94868469238281,-,29.81134033203125,28.4212589263916,29.851655960083008,27.647069931030273,0.0,27.647069931030273,3.2980000972747803,3.2920000553131104,3.2980000972747803,3.288800001144409,0.0,3.288800001144409,Continuous,Tobj,False,False,False,False,False,False,False,False,4297,137,On,On,Capturing,32888,33516,2963,3009,3093,2958,3144,False,False,False,False,False,False,False,False,False,False,False,False,False,False,False,False,False,False,False,False,False,False,False,False,False,False,False,False,False,True,True,False,False,False,False,0,3,False,False,29,478,480,1000,1000,322,11,2,0,0,9,0,0,0,0,0,0,1,Disabled,False,False,True,1,V0.1,    IR1800,
2019/10/23 - 18:30:15.093354,33,23.86214828491211,23.543987274169922,24.842607498168945,26.826250076293945,26.319787979125977,41.94868469238281,-,29.81134033203125,28.4212589263916,29.851655960083008,27.647069931030273,0.0,27.647069931030273,3.2980000972747803,3.2920000553131104,3.2980000972747803,3.288800001144409,0.0,3.288800001144409,Continuous,Tobj,False,False,False,False,False,False,False,False,4297,137,On,On,Calibrating,32889,33516,2963,3009,3093,2958,3144,False,False,False,False,False,False,False,False,False,False,False,False,False,False,False,False,False,False,False,False,False,False,False,False,False,False,False,False,False,True,True,False,False,False,False,0,3,False,False,29,478,480,1000,1000,322,11,2,0,0,9,0,0,0,0,0,0,1,Disabled,False,False,True,1,V0.1,    IR1800,
2019/10/23 - 18:30:15.637041,33,23.719301223754883,23.543987274169922,24.842607498168945,26.813262939453125,26.319787979125977,41.94868469238281,-,29.81134033203125,28.4212589263916,29.851655960083008,27.653270721435547,0.0,27.653270721435547,3.2980000972747803,3.2920000553131104,3.2980000972747803,3.2888998985290527,0.0,3.2888998985290527,Continuous,Tobj,False,False,False,False,False,False,False,False,4297,137,On,On,Idle,32889,33516,2962,3009,3090,2958,3144,False,False,False,False,False,False,False,False,False,False,False,False,False,False,False,False,False,False,False,False,False,False,False,False,False,False,False,False,False,True,True,False,False,False,False,0,3,False,False,29,478,480,1000,1000,321,12,2,0,0,8,0,0,0,0,0,0,1,Disabled,False,False,True,1,V0.1,    IR1800,
2019/10/23 - 18:30:16.645460,34,23.66086196899414,23.543987274169922,24.842607498168945,26.793785095214844,26.319787979125977,41.94868469238281,-,29.791202545166016,28.4212589263916,29.851655960083008,27.653270721435547,0.0,27.653270721435547,3.2980000972747803,3.2920000553131104,3.2980000972747803,3.2888998985290527,0.0,3.2888998985290527,Continuous,Tobj,False,False,False,False,False,False,False,False,4297,137,On,On,Idle,32889,33516,2982,3017,3101,2958,3144,False,False,False,False,False,False,False,False,False,False,False,False,False,False,False,False,False,False,False,False,False,False,False,False,False,False,False,False,False,True,True,False,False,False,False,0,3,False,False,29,476,480,1000,1000,320,12,2,0,0,8,0,0,0,0,0,0,1,Disabled,False,False,True,1,V0.1,    IR1800,
2019/10/23 - 18:30:17.670871,35,23.595932006835938,23.543987274169922,24.842607498168945,26.816509246826172,26.319787979125977,41.94868469238281,-,29.83151626586914,28.4212589263916,29.851655960083008,27.653270721435547,0.0,27.653270721435547,3.2980000972747803,3.2920000553131104,3.2980000972747803,3.2888998985290527,0.0,3.2888998985290527,Continuous,Tobj,False,False,False,False,False,False,False,False,4297,137,On,On,Idle,32889,33514,2969,3021,3123,2958,3144,False,False,False,False,False,False,False,False,False,False,False,False,False,False,False,False,False,False,False,False,False,False,False,False,False,False,False,False,False,True,True,False,False,False,False,0,3,False,False,29,458,480,1000,1000,319,12,0,0,0,9,0,0,0,0,0,0,1,Disabled,False,False,True,1,V0.1,    IR1800,
2019/10/23 - 18:30:18.613329,36,23.44009780883789,23.44009780883789,24.842607498168945,26.803524017333984,26.319787979125977,41.94868469238281,-,29.77106285095215,28.4212589263916,29.851655960083008,27.659448623657227,0.0,27.659448623657227,3.2980000972747803,3.2920000553131104,3.2980000972747803,3.2890000343322754,0.0,3.2890000343322754,Continuous,Tobj,False,False,False,False,False,False,False,False,4297,137,On,On,Idle,32890,33517,2970,3021,3135,2958,3144,False,False,False,False,False,False,False,False,False,False,False,False,False,False,False,False,False,False,False,False,False,False,False,False,False,False,False,False,False,True,True,False,False,False,False,0,3,False,False,29,476,480,1000,1000,320,12,2,0,0,8,0,0,0,0,0,0,1,Disabled,False,False,True,1,V0.1,    IR1800,
2019/10/23 - 18:30:19.637738,37,23.459575653076172,23.44009780883789,24.842607498168945,26.780797958374023,26.319787979125977,41.94868469238281,-,29.932249069213867,28.4212589263916,29.932249069213867,27.659448623657227,0.0,27.659448623657227,3.2980000972747803,3.2920000553131104,3.2980000972747803,3.2890000343322754,0.0,3.2890000343322754,Continuous,Tobj,False,False,False,False,False,False,False,False,4297,137,On,On,Idle,32890,33518,2954,3016,3129,2954,3144,False,False,False,False,False,False,False,False,False,False,False,False,False,False,False,False,False,False,False,False,False,False,False,False,False,False,False,False,False,True,True,False,False,False,False,0,3,False,False,29,477,480,1000,1000,320,13,2,0,0,8,0,0,0,0,0,0,1,Disabled,False,False,True,1,V0.1,    IR1800,
2019/10/23 - 18:30:20.645157,38,23.349193572998047,23.349193572998047,24.842607498168945,26.83274269104004,26.319787979125977,41.94868469238281,-,29.912073135375977,28.4212589263916,29.932249069213867,27.659448623657227,0.0,27.659448623657227,3.2980000972747803,3.2920000553131104,3.2980000972747803,3.2890000343322754,0.0,3.2890000343322754,Continuous,Tobj,False,False,False,False,False,False,False,False,4297,137,On,On,Idle,32890,33517,2969,3029,3102,2954,3144,False,False,False,False,False,False,False,False,False,False,False,False,False,False,False,False,False,False,False,False,False,False,False,False,False,False,False,False,False,True,True,False,False,False,False,0,3,False,False,29,477,480,1000,1000,320,13,2,0,0,9,0,0,0,0,0,0,1,Disabled,False,False,True,1,V0.1,    IR1800,
2019/10/23 - 18:30:21.669580,39,23.55697250366211,23.349193572998047,24.842607498168945,26.8230037689209,26.319787979125977,41.94868469238281,-,29.851655960083008,28.4212589263916,29.932249069213867,27.659448623657227,0.0,27.659448623657227,3.2980000972747803,3.2920000553131104,3.2980000972747803,3.2890000343322754,0.0,3.2890000343322754,Continuous,Tobj,False,False,False,False,False,False,False,False,4297,137,On,On,Idle,32890,33516,2973,3017,3101,2954,3144,False,False,False,False,False,False,False,False,False,False,False,False,False,False,False,False,False,False,False,False,False,False,False,False,False,False,False,False,False,True,True,False,False,False,False,0,3,False,False,29,477,480,1000,1000,321,12,2,0,0,8,0,0,0,0,0,0,1,Disabled,False,False,True,1,V0.1,    IR1800,
2019/10/23 - 18:30:22.629028,40,23.621904373168945,23.349193572998047,24.842607498168945,26.816509246826172,26.319787979125977,41.94868469238281,-,29.791202545166016,28.4212589263916,29.932249069213867,27.665624618530273,0.0,27.665624618530273,3.2980000972747803,3.2920000553131104,3.2980000972747803,3.289099931716919,0.0,3.289099931716919,Continuous,Tobj,False,False,False,False,False,False,False,False,4297,137,On,On,Idle,32891,33517,2955,3006,3095,2954,3144,False,False,False,False,False,False,False,False,False,False,False,False,False,False,False,False,False,False,False,False,False,False,False,False,False,False,False,False,False,True,True,False,False,False,False,0,3,False,False,29,472,480,1000,1000,321,8,1,0,0,8,0,0,0,0,0,0,1,Disabled,False,False,True,1,V0.1,    IR1800,
2019/10/23 - 18:30:23.638125,41,23.706314086914062,23.349193572998047,24.842607498168945,26.84572982788086,26.319787979125977,41.94868469238281,-,29.791202545166016,28.4212589263916,29.932249069213867,27.659448623657227,0.0,27.665624618530273,3.2980000972747803,3.2920000553131104,3.2980000972747803,3.2890000343322754,0.0,3.289099931716919,Continuous,Tobj,False,False,False,False,False,False,False,False,4297,137,On,On,Idle,32890,33514,2959,3011,3118,2954,3144,False,False,False,False,False,False,False,False,False,False,False,False,False,False,False,False,False,False,False,False,False,False,False,False,False,False,False,False,False,True,True,False,False,False,False,0,3,False,False,29,471,480,1000,1000,321,7,1,0,0,9,0,0,0,0,0,0,1,Disabled,False,False,True,1,V0.1,    IR1800,
2019/10/23 - 18:30:24.613568,42,23.751766204833984,23.349193572998047,24.842607498168945,26.800277709960938,26.319787979125977,41.94868469238281,-,29.83151626586914,28.4212589263916,29.932249069213867,27.671825408935547,0.0,27.671825408935547,3.2980000972747803,3.2920000553131104,3.2980000972747803,3.2892000675201416,0.0,3.2892000675201416,Continuous,Tobj,False,False,False,False,False,False,False,False,4297,137,On,On,Idle,32892,33515,2956,3004,3101,2954,3144,False,False,False,False,False,False,False,False,False,False,False,False,False,False,False,False,False,False,False,False,False,False,False,False,False,False,False,False,False,True,True,False,False,False,False,0,3,False,False,29,477,480,1000,1000,321,12,2,0,0,8,0,0,0,0,0,0,1,Disabled,False,False,True,1,V0.1,    IR1800,
2019/10/23 - 18:30:25.620983,43,23.725793838500977,23.349193572998047,24.842607498168945,26.78404426574707,26.319787979125977,41.94868469238281,-,29.77106285095215,28.4212589263916,29.932249069213867,27.665624618530273,0.0,27.671825408935547,3.2980000972747803,3.2920000553131104,3.2980000972747803,3.289099931716919,0.0,3.2892000675201416,Continuous,Tobj,False,False,False,False,False,False,False,False,4297,137,On,On,Idle,32891,33515,2955,3004,3098,2954,3144,False,False,False,False,False,False,False,False,False,False,False,False,False,False,False,False,False,False,False,False,False,False,False,False,False,False,False,False,False,True,True,False,False,False,False,0,3,False,False,29,477,480,1000,1000,322,11,2,0,0,9,0,0,0,0,0,0,1,Disabled,False,False,True,1,V0.1,    IR1800,
2019/10/23 - 18:30:30.611127,48,23.959545135498047,23.349193572998047,24.842607498168945,26.826250076293945,26.319787979125977,41.94868469238281,-,29.97252655029297,28.4212589263916,29.992666244506836,27.665624618530273,0.0,27.671825408935547,3.2980000972747803,3.2920000553131104,3.2980000972747803,3.289099931716919,0.0,3.2892000675201416,Continuous,Tobj,False,False,False,False,False,False,False,False,4297,137,On,On,Idle,32891,33515,2955,3004,3098,2954,3144,False,False,False,False,False,False,False,False,False,False,False,False,False,False,False,False,False,False,False,False,False,False,False,False,False,False,False,False,False,True,True,False,False,False,False,0,3,False,False,29,0,480,1000,1000,322,11,2,0,0,8,0,0,0,0,0,0,1,Disabled,False,False,True,1,V0.1,    IR1800,
2019/10/23 - 18:30:31.602538,49,23.953052520751953,23.349193572998047,24.842607498168945,26.83274269104004,26.319787979125977,41.94868469238281,-,29.932249069213867,28.4212589263916,29.992666244506836,27.665624618530273,0.0,27.671825408935547,3.2980000972747803,3.2920000553131104,3.2980000972747803,3.289099931716919,0.0,3.2892000675201416,Continuous,Tobj,False,False,False,False,False,False,False,False,4297,137,On,On,Idle,32891,33516,2957,3017,3129,2954,3144,False,False,False,False,False,False,False,False,False,False,False,False,False,False,False,False,False,False,False,False,False,False,False,False,False,False,False,False,False,True,True,False,False,False,False,0,3,False,False,29,476,480,1000,1000,321,11,2,0,0,8,0,0,0,0,0,0,1,Disabled,False,False,True,1,V0.1,    IR1800,
2019/10/23 - 18:30:36.639637,54,24.011489868164062,23.349193572998047,24.842607498168945,26.810016632080078,26.319787979125977,41.94868469238281,-,29.89193344116211,28.4212589263916,29.992666244506836,27.665624618530273,0.0,27.671825408935547,3.2980000972747803,3.2920000553131104,3.2980000972747803,3.289099931716919,0.0,3.2892000675201416,Continuous,Tobj,False,False,False,False,False,False,False,False,4297,137,On,On,Idle,32891,33517,2963,3017,3135,2954,3144,False,False,False,False,False,False,False,False,False,False,False,False,False,False,False,False,False,False,False,False,False,False,False,False,False,False,False,False,False,True,True,False,False,False,False,0,3,False,False,29,474,480,1000,1000,320,10,2,0,0,8,0,0,0,0,0,0,1,Disabled,False,False,True,1,V0.1,    IR1800,
2019/10/23 - 18:30:37.616076,55,23.810203552246094,23.349193572998047,24.842607498168945,26.80677032470703,26.319787979125977,41.94868469238281,-,29.81134033203125,28.4212589263916,29.992666244506836,27.671825408935547,0.0,27.671825408935547,3.2980000972747803,3.2920000553131104,3.2980000972747803,3.2892000675201416,0.0,3.2892000675201416,Continuous,Tobj,False,False,False,False,False,False,False,False,4297,137,On,On,Idle,32892,33517,2958,3017,3129,2954,3144,False,False,False,False,False,False,False,False,False,False,False,False,False,False,False,False,False,False,False,False,False,False,False,False,False,False,False,False,False,True,True,False,False,False,False,0,3,False,False,29,476,480,1000,1000,321,11,2,0,0,8,0,0,0,0,0,0,1,Disabled,False,False,True,1,V0.1,    IR1800,
2019/10/23 - 18:30:42.610199,60,23.959545135498047,23.349193572998047,24.842607498168945,26.800277709960938,26.319787979125977,41.94868469238281,-,29.81134033203125,28.4212589263916,29.992666244506836,27.678028106689453,0.0,27.678028106689453,3.2980000972747803,3.2920000553131104,3.2980000972747803,3.289299964904785,0.0,3.289299964904785,Continuous,Tobj,False,False,False,False,False,False,False,False,4297,137,On,On,Idle,32893,33517,2959,2995,3112,2954,3144,False,False,False,False,False,False,False,False,False,False,False,False,False,False,False,False,False,False,False,False,False,False,False,False,False,False,False,False,False,True,True,False,False,False,False,0,3,False,False,29,475,480,1000,1000,322,9,2,0,0,8,0,0,0,0,0,0,1,Disabled,False,False,True,1,V0.1,    IR1800,
