Time,Runtime,Current3V3,Current3V3Min,Current3V3Max,CurrentHTPA,CurrentHTPAMin,CurrentHTPAMax,CurrentCubeDock3V3_1,TemperatureMCU,TemperatureMCUMin,TemperatureMCUMax,TemperatureHTPA,TemperatureHTPAMin,TemperatureHTPAMax,VoltageMCU,VoltageMCUMin,VoltageMCUMax,VoltageHTPA,VoltageHTPAMin,VoltageHTPAMax,ADSSampleMode,HTPACalibLevel,HILEnabled,HILBusy,HILEnableImgVddComp,HILEnableImgTobjCalib,HILEnableEdgeDet,HILEnableLensDistCorr,HILEnablePolyFit,HILEnableAttEst,HTPADeviceID,HTPATableNumber,HtpaPowerState,HtpaWakeState,HtpaCaptureState,HtpaPTAT,HtpaVdd,HTPAImageLastMin,HTPAImageLastMean,HTPAImageLastMax,HTPAImageAllTimeMin,HTPAImageAllTimeMax,3V3OverCurrent,HTPAOverCurrent,Timer1sOverRun,MCUOverTemperature,MCUUnderTemperature,HTPAOverTemperature,HTPAUnderTemperature,HTPACalibLookupOutOfRange,HTPAIntegrationTimeout,HTPANotResponding,HTPAConfigMismatch,HTPASpiTimeout,CommsTcSlotsBuffFull,CommsTcParamBuffFull,CommsUartProtError,CommsUartMsgIncomplete,CommsUartTcParamOverflow,UARTTxOverflow,CommsTcInvalidID,CommsTcInvalidPar,CommsTcInvalidParLen,CommsTcTimeout,CommsTlmInvalidID,UARTTxReadingEmptyBuffer,UARTRxByteOverrun,UARTRxFramingError,UartTxTimeout,FRAMStatusNotResponding,FRAMDeviceNotFound,FRAMSpiTimeout,ConfigRewrittenFromMemory,ConfigExtMemorySlotOverwritten,ConfigNoConfigFoundInMemory,ConfigNumOfValidFramSlots,ConfigNumOfValidFlashSlots,ConfigNotSaved,ConfigDataLoss,SwStartupTime,SwProcessingTime,SwProcessingTimeMax,SwLoopTime,SwLoopTimeMax,SwImgCaptureTime,SwLensDistCorrTime,SwEstimationTime,SwConfigRefreshMaxTime,SwConfigCheckMemoryMaxTime,SwAdcMeasurementTime,DetectedBitFlips,FlashFaults,FlashLastFaultAddress,RadNumOfFaultsLast,RadNumOfFaultsTotal,RadLastFaultIndex,RadIterationsCompleted,RadMode,RadCheckSRAM,RadCheckFRAM,SRAM2ParityCheckEnabled,InterfaceVersion,FirmwareVersion,IRCAM SN,
2019/10/22 - 09:32:27.124933,106,17.550853729248047,17.4713134765625,17.654743194580078,35.6341438293457,35.478309631347656,35.84516906738281,12345,29.80782127380371,28.720155715942383,29.930984497070312,0.0,0.0,0.0,3.2990000247955322,3.2990000247955322,3.3010001182556152,0.0,0.0,0.0,Idle,None,False,False,False,False,False,False,False,False,4298,137,On,Off,Idle,0,0,32767,0,-32768,32767,-32768,False,True,True,True,False,True,True,False,False,True,False,False,False,False,False,False,False,False,False,False,False,False,False,False,False,False,False,False,False,True,False,False,False,0,3,False,False,617,0,0,1000,1000,0,0,0,0,0,4,0,0,0x10007e38,0,0,0,1,Disabled,False,False,True,1,V0.1,    IR1800,
2019/10/22 - 09:33:43.571679,45,17.58331871032715,17.47618293762207,17.67746925354004,35.65686798095703,35.50752639770508,35.83543014526367,12345,29.76679039001465,28.597028732299805,29.910432815551758,0.0,0.0,0.0,3.2990000247955322,3.2990000247955322,3.3010001182556152,0.0,0.0,0.0,Idle,None,False,False,False,False,False,False,False,False,4298,137,On,Off,Idle,0,0,32767,0,-32768,32767,-32768,False,False,False,True,False,True,True,False,False,True,False,False,False,False,False,False,False,False,False,False,False,False,False,False,False,False,False,False,False,True,False,False,False,0,3,False,False,617,0,0,1000,1000,0,0,0,0,0,4,0,0,0x0,0,0,0,1,Disabled,False,False,True,1,V0.1,    IR1800,
2019/10/22 - 09:33:44.610675,46,17.60117530822754,17.47618293762207,17.67746925354004,35.74452590942383,35.50752639770508,35.83543014526367,12345,29.889917373657227,28.597028732299805,29.910432815551758,0.0,0.0,0.0,3.2990000247955322,3.2990000247955322,3.3010001182556152,0.0,0.0,0.0,Idle,None,False,False,False,False,False,False,False,False,4298,137,On,Off,Idle,0,0,32767,0,-32768,32767,-32768,False,False,False,True,False,True,True,False,False,True,False,False,False,False,False,False,False,False,False,False,False,False,False,False,False,False,False,False,False,True,False,False,False,0,3,False,False,617,0,0,1000,1000,0,0,0,0,0,4,0,0,0x0,0,0,0,1,Disabled,False,False,True,1,V0.1,    IR1800,
2019/10/22 - 09:33:45.618763,47,17.59630584716797,17.47618293762207,17.67746925354004,35.815948486328125,35.50752639770508,35.83543014526367,12345,29.889917373657227,28.597028732299805,29.910432815551758,0.0,0.0,0.0,3.2990000247955322,3.2990000247955322,3.3010001182556152,0.0,0.0,0.0,Idle,None,False,False,False,False,False,False,False,False,4298,137,On,Off,Idle,0,0,32767,0,-32768,32767,-32768,False,False,False,True,True,False,True,False,False,True,False,False,False,False,False,False,False,False,False,False,False,False,False,False,False,False,False,False,False,True,False,False,False,0,3,False,False,617,0,0,1000,1000,0,0,0,0,0,4,0,0,0x0,0,0,0,1,Disabled,False,False,True,1,V0.1,    IR1800,
2019/10/22 - 09:33:46.610935,48,17.625524520874023,17.47618293762207,17.67746925354004,35.712059020996094,35.50752639770508,35.83543014526367,12345,29.869403839111328,28.597028732299805,29.910432815551758,0.0,0.0,0.0,3.2990000247955322,3.2990000247955322,3.3010001182556152,0.0,0.0,0.0,Idle,None,False,False,False,False,False,False,False,False,4298,137,On,Off,Idle,0,0,32767,0,-32768,32767,-32768,True,True,False,False,False,False,False,False,False,True,False,False,False,False,False,False,False,False,False,False,False,False,False,False,False,False,False,False,False,True,False,False,False,0,3,False,False,617,0,0,1000,1000,0,0,0,0,0,4,0,0,0x0,0,0,0,1,Disabled,False,False,True,1,V0.1,    IR1800,
2019/10/22 - 09:33:47.587531,49,17.609291076660156,17.47618293762207,17.67746925354004,35.80945587158203,35.50752639770508,35.83543014526367,12345,29.848888397216797,28.597028732299805,29.910432815551758,0.0,0.0,0.0,3.2990000247955322,3.2990000247955322,3.3010001182556152,0.0,0.0,0.0,Idle,None,False,False,False,False,False,False,False,False,4298,137,On,Off,Idle,0,0,32767,0,-32768,32767,-32768,False,False,False,False,False,False,False,False,False,True,False,False,False,False,False,False,False,False,False,False,False,False,False,False,False,False,False,False,False,True,False,False,False,0,3,False,False,617,0,0,1000,1000,0,0,0,0,0,4,0,0,0x0,0,0,0,1,Disabled,False,False,True,1,V0.1,    IR1800,
2019/10/22 - 09:33:48.595297,50,17.59630584716797,17.47618293762207,17.67746925354004,35.70881271362305,35.50752639770508,35.83543014526367,12345,29.80782127380371,28.597028732299805,29.910432815551758,0.0,0.0,0.0,3.2990000247955322,3.2990000247955322,3.3010001182556152,0.0,0.0,0.0,Idle,None,False,False,False,False,False,False,False,False,4298,137,On,Off,Idle,0,0,32767,0,-32768,32767,-32768,True,True,False,False,False,False,False,False,False,True,False,False,False,False,False,False,False,False,False,False,False,False,False,False,False,False,False,False,False,True,False,False,False,0,3,False,False,617,0,0,1000,1000,0,0,0,0,0,4,0,0,0x0,0,0,0,1,Disabled,False,False,True,1,V0.1,    IR1800,
2019/10/22 - 09:33:49.587052,51,17.64662742614746,17.47618293762207,17.67746925354004,35.73154067993164,35.50752639770508,35.83543014526367,12345,29.705209732055664,28.597028732299805,29.910432815551758,0.0,0.0,0.0,3.2990000247955322,3.2990000247955322,3.3010001182556152,0.0,0.0,0.0,Idle,None,False,False,False,False,False,False,False,False,4298,137,On,Off,Idle,0,0,32767,0,-32768,32767,-32768,True,False,True,False,False,False,True,False,False,True,False,False,False,False,False,False,False,False,False,False,False,False,False,False,False,False,False,False,False,True,False,False,False,0,3,False,False,617,0,0,1000,1000,0,0,0,0,0,4,0,0,0x0,0,0,0,1,Disabled,False,False,True,1,V0.1,    IR1800,
2019/10/22 - 09:33:50.546998,52,17.547607421875,17.47618293762207,17.67746925354004,35.74452590942383,35.50752639770508,35.83543014526367,12345,29.889917373657227,28.597028732299805,29.910432815551758,0.0,0.0,0.0,3.2990000247955322,3.2990000247955322,3.3010001182556152,0.0,0.0,0.0,Idle,None,False,False,False,False,False,False,False,False,4298,137,On,Off,Idle,0,0,32767,0,-32768,32767,-32768,True,True,False,False,False,False,False,False,False,True,False,False,False,False,False,False,False,False,False,False,False,False,False,False,False,False,False,False,False,True,False,False,False,0,3,False,False,617,0,0,1000,1000,0,0,0,0,0,4,0,0,0x100070f8,0,0,0,1,Disabled,False,False,True,1,V0.1,    IR1800,
2019/10/22 - 09:33:51.603429,53,17.56546401977539,17.47618293762207,17.67746925354004,35.67634582519531,35.50752639770508,35.83543014526367,12345,29.76679039001465,28.597028732299805,29.910432815551758,0.0,0.0,0.0,3.2990000247955322,3.2990000247955322,3.3010001182556152,0.0,0.0,0.0,Idle,None,False,False,False,False,False,False,False,False,4298,137,On,Off,Idle,0,0,32767,0,-32768,32767,-32768,False,False,False,False,False,False,False,False,False,True,False,False,False,False,False,False,False,False,False,False,False,False,False,False,False,False,False,False,False,True,False,False,False,0,3,False,False,617,0,0,1000,1000,0,0,0,0,0,4,0,0,0x0,0,0,0,1,Disabled,False,False,True,1,V0.1,    IR1800,
2019/10/22 - 09:33:52.579718,54,17.56546401977539,17.47618293762207,17.67746925354004,35.478309631347656,35.478309631347656,35.83543014526367,12345,29.80782127380371,28.597028732299805,29.910432815551758,0.0,0.0,0.0,3.2990000247955322,3.2990000247955322,3.3010001182556152,0.0,0.0,0.0,Idle,None,False,False,False,False,False,False,False,False,4298,137,On,Off,Idle,0,0,32767,0,-32768,32767,-32768,True,True,False,False,False,False,False,False,False,True,False,False,False,False,False,False,False,False,False,False,False,False,False,False,False,False,False,False,False,True,False,False,False,0,3,False,False,617,0,0,1000,1000,0,0,0,0,0,4,0,0,0x100070f8,0,0,0,1,Disabled,False,False,True,1,V0.1,    IR1800,
2019/10/22 - 09:33:53.572070,55,17.513519287109375,17.47618293762207,17.67746925354004,35.721797943115234,35.478309631347656,35.83543014526367,12345,29.76679039001465,28.597028732299805,29.910432815551758,0.0,0.0,0.0,3.2990000247955322,3.2990000247955322,3.3010001182556152,0.0,0.0,0.0,Idle,None,False,False,False,False,False,False,False,False,4298,137,On,Off,Idle,0,0,32767,0,-32768,32767,-32768,False,False,False,True,False,True,True,False,False,True,False,False,False,False,False,False,False,False,False,False,False,False,False,False,False,False,False,False,False,True,False,False,False,0,3,False,False,617,0,0,1000,1000,0,0,0,0,0,4,0,0,0x0,0,0,0,1,Disabled,False,False,True,1,V0.1,    IR1800,
2019/10/22 - 09:33:54.579357,56,17.544361114501953,17.47618293762207,17.67746925354004,35.75426483154297,35.478309631347656,35.83543014526367,12345,29.684694290161133,28.597028732299805,29.910432815551758,0.0,0.0,0.0,3.2990000247955322,3.2990000247955322,3.3010001182556152,0.0,0.0,0.0,Idle,None,False,False,False,False,False,False,False,False,4298,137,On,Off,Idle,0,0,32767,0,-32768,32767,-32768,False,False,False,False,False,False,False,False,False,True,False,False,False,False,False,False,False,False,False,False,False,False,False,False,False,False,False,False,False,True,False,False,False,0,3,False,False,617,0,0,1000,1000,0,0,0,0,0,4,0,0,0x0,0,0,0,1,Disabled,False,False,True,1,V0.1,    IR1800,
2019/10/22 - 09:33:55.571431,57,17.58819007873535,17.47618293762207,17.67746925354004,35.76400375366211,35.478309631347656,35.83543014526367,12345,29.74627685546875,28.597028732299805,29.910432815551758,0.0,0.0,0.0,3.2990000247955322,3.2990000247955322,3.3010001182556152,0.0,0.0,0.0,Idle,None,False,False,False,False,False,False,False,False,4298,137,On,Off,Idle,0,0,32767,0,-32768,32767,-32768,False,False,True,False,False,False,False,False,False,True,False,False,False,False,False,False,False,False,False,False,False,False,False,False,False,False,False,False,False,True,False,False,False,0,3,False,False,617,0,0,1000,1000,0,0,0,0,0,4,0,0,0x0,0,0,0,1,Disabled,False,False,True,1,V0.1,    IR1800,
2019/10/22 - 09:33:56.596023,58,17.576826095581055,17.47618293762207,17.67746925354004,35.77374267578125,35.478309631347656,35.83543014526367,12345,29.828372955322266,28.597028732299805,29.910432815551758,0.0,0.0,0.0,3.2990000247955322,3.2990000247955322,3.3010001182556152,0.0,0.0,0.0,Idle,None,False,False,False,False,False,False,False,False,4298,137,On,Off,Idle,0,0,32767,0,-32768,32767,-32768,True,True,False,False,False,False,False,False,False,True,False,False,False,False,False,False,False,False,False,False,False,False,False,False,False,False,False,False,False,True,False,False,False,0,3,False,False,617,0,0,1000,1000,0,0,0,0,0,4,0,0,0x0,0,0,0,1,Disabled,False,False,True,1,V0.1,    IR1800,
2019/10/22 - 09:33:57.587574,59,17.60117530822754,17.47618293762207,17.67746925354004,35.72504425048828,35.478309631347656,35.83543014526367,12345,29.72576141357422,28.597028732299805,29.910432815551758,0.0,0.0,0.0,3.2990000247955322,3.2990000247955322,3.3010001182556152,0.0,0.0,0.0,Idle,None,False,False,False,False,False,False,False,False,4298,137,On,Off,Idle,0,0,32767,0,-32768,32767,-32768,True,False,False,False,True,True,True,False,False,True,False,False,False,False,False,False,False,False,False,False,False,False,False,False,False,False,False,False,False,True,False,False,False,0,3,False,False,617,0,0,1000,1000,0,0,0,0,0,4,0,0,0x0,0,0,0,1,Disabled,False,False,True,1,V0.1,    IR1800,
2019/10/22 - 09:33:58.563478,60,17.599552154541016,17.47618293762207,17.67746925354004,35.82244110107422,35.478309631347656,35.83543014526367,12345,29.78730583190918,28.597028732299805,29.910432815551758,0.0,0.0,0.0,3.2990000247955322,3.2990000247955322,3.3010001182556152,0.0,0.0,0.0,Idle,None,False,False,False,False,False,False,False,False,4298,137,On,Off,Idle,0,0,32767,0,-32768,32767,-32768,True,True,False,False,False,False,False,False,False,True,False,False,False,False,False,False,False,False,False,False,False,False,False,False,False,False,False,False,False,True,False,False,False,0,3,False,False,617,0,0,1000,1000,0,0,0,0,0,4,0,0,0x4,0,0,0,1,Disabled,False,False,True,1,V0.1,    IR1800,
2019/10/22 - 09:33:59.572077,61,17.586566925048828,17.47618293762207,17.67746925354004,35.67634582519531,35.478309631347656,35.83543014526367,12345,29.80782127380371,28.597028732299805,29.910432815551758,0.0,0.0,0.0,3.2990000247955322,3.2990000247955322,3.3010001182556152,0.0,0.0,0.0,Idle,None,False,False,False,False,False,False,False,False,4298,137,On,Off,Idle,0,0,32767,0,-32768,32767,-32768,False,False,False,False,False,False,False,False,False,True,False,False,False,False,False,False,False,False,False,False,False,False,False,False,False,False,False,False,False,True,False,False,False,0,3,False,False,617,0,0,1000,1000,0,0,0,0,0,4,0,0,0x0,0,0,0,1,Disabled,False,False,True,1,V0.1,    IR1800,
2019/10/22 - 09:34:00.563445,62,17.56546401977539,17.47618293762207,17.67746925354004,35.70232009887695,35.478309631347656,35.83543014526367,12345,29.74627685546875,28.597028732299805,29.910432815551758,0.0,0.0,0.0,3.2990000247955322,3.2990000247955322,3.3010001182556152,0.0,0.0,0.0,Idle,None,False,False,False,False,False,False,False,False,4298,137,On,Off,Idle,0,0,32767,0,-32768,32767,-32768,False,False,True,False,False,False,False,False,False,True,False,False,False,False,False,False,False,False,False,False,False,False,False,False,False,False,False,False,False,True,False,False,False,0,3,False,False,617,0,0,1000,1000,0,0,0,0,0,4,0,0,0x0,0,0,0,1,Disabled,False,False,True,1,V0.1,    IR1800,
2019/10/22 - 09:34:01.604085,63,17.612539291381836,17.47618293762207,17.67746925354004,35.67959213256836,35.478309631347656,35.83543014526367,12345,29.930984497070312,28.597028732299805,29.930984497070312,0.0,0.0,0.0,3.2990000247955322,3.2990000247955322,3.3010001182556152,0.0,0.0,0.0,Idle,None,False,False,False,False,False,False,False,False,4298,137,On,Off,Idle,0,0,32767,0,-32768,32767,-32768,False,False,False,False,False,False,False,False,False,True,False,False,False,False,False,False,False,False,False,False,False,False,False,False,False,False,False,False,False,True,False,False,False,0,3,False,False,617,0,0,1000,1000,0,0,0,0,0,4,0,0,0x40534396,0,0,0,1,Disabled,False,False,True,1,V0.1,    IR1800,
2019/10/22 - 09:34:02.612615,64,17.576826095581055,17.47618293762207,17.67746925354004,35.780235290527344,35.478309631347656,35.83543014526367,12345,29.828372955322266,28.597028732299805,29.930984497070312,0.0,0.0,0.0,3.2990000247955322,3.2990000247955322,3.3010001182556152,0.0,0.0,0.0,Idle,None,False,False,False,False,False,False,False,False,4298,137,On,Off,Idle,0,0,32767,0,-32768,32767,-32768,True,True,False,False,False,False,False,False,False,True,False,False,False,False,False,False,False,False,False,False,False,False,False,False,False,False,False,False,False,True,False,False,False,0,3,False,False,617,0,0,1000,1000,0,0,0,0,0,4,0,0,0x0,0,0,0,1,Disabled,False,False,True,1,V0.1,    IR1800,
2019/10/22 - 09:34:03.587944,65,17.602798461914062,17.47618293762207,17.67746925354004,35.71530532836914,35.478309631347656,35.83543014526367,12345,29.78730583190918,28.597028732299805,29.930984497070312,0.0,0.0,0.0,3.2990000247955322,3.2990000247955322,3.3010001182556152,0.0,0.0,0.0,Idle,None,False,False,False,False,False,False,False,False,4298,137,On,Off,Idle,0,0,32767,0,-32768,32767,-32768,True,True,False,False,False,False,False,False,False,True,False,False,False,False,False,False,False,False,False,False,False,False,False,False,False,False,False,False,False,True,False,False,False,0,3,False,False,617,0,0,1000,1000,0,0,0,0,0,4,0,0,0x0,0,0,0,1,Disabled,False,False,True,1,V0.1,    IR1800,
2019/10/22 - 09:34:04.565024,66,17.638511657714844,17.47618293762207,17.67746925354004,35.72504425048828,35.478309631347656,35.83543014526367,12345,29.828372955322266,28.597028732299805,29.930984497070312,0.0,0.0,0.0,3.2990000247955322,3.2990000247955322,3.3010001182556152,0.0,0.0,0.0,Idle,None,False,False,False,False,False,False,False,False,4298,137,On,Off,Idle,0,0,32767,0,-32768,32767,-32768,True,False,True,False,False,False,True,False,False,True,False,False,False,False,False,False,False,False,False,False,False,False,False,False,False,False,False,False,False,True,False,False,False,0,3,False,False,617,0,0,1000,1000,0,0,0,0,0,4,0,0,0x0,0,0,0,1,Disabled,False,False,True,1,V0.1,    IR1800,
2019/10/22 - 09:34:05.555338,67,17.59630584716797,17.47618293762207,17.67746925354004,35.69258117675781,35.478309631347656,35.83543014526367,12345,29.72576141357422,28.597028732299805,29.930984497070312,0.0,0.0,0.0,3.2990000247955322,3.2990000247955322,3.3010001182556152,0.0,0.0,0.0,Idle,None,False,False,False,False,False,False,False,False,4298,137,On,Off,Idle,0,0,32767,0,-32768,32767,-32768,True,True,False,False,False,False,False,False,False,True,False,False,False,False,False,False,False,False,False,False,False,False,False,False,False,False,False,False,False,True,False,False,False,0,3,False,False,617,0,0,1000,1000,0,0,0,0,0,4,0,0,0x10007e38,0,0,0,1,Disabled,False,False,True,1,V0.1,    IR1800,
2019/10/22 - 09:34:06.580121,68,17.568710327148438,17.47618293762207,17.67746925354004,35.67634582519531,35.478309631347656,35.83543014526367,12345,29.889917373657227,28.597028732299805,29.930984497070312,0.0,0.0,0.0,3.2990000247955322,3.2990000247955322,3.3010001182556152,0.0,0.0,0.0,Idle,None,False,False,False,False,False,False,False,False,4298,137,On,Off,Idle,0,0,32767,0,-32768,32767,-32768,False,False,False,True,False,True,True,False,False,True,False,False,False,False,False,False,False,False,False,False,False,False,False,False,False,False,False,False,False,True,False,False,False,0,3,False,False,617,0,0,1000,1000,0,0,0,0,0,4,0,0,0x0,0,0,0,1,Disabled,False,False,True,1,V0.1,    IR1800,
2019/10/22 - 09:34:07.604169,69,17.56546401977539,17.47618293762207,17.67746925354004,35.81270217895508,35.478309631347656,35.83543014526367,12345,29.76679039001465,28.597028732299805,29.930984497070312,0.0,0.0,0.0,3.2990000247955322,3.2990000247955322,3.3010001182556152,0.0,0.0,0.0,Idle,None,False,False,False,False,False,False,False,False,4298,137,On,Off,Idle,0,0,32767,0,-32768,32767,-32768,True,False,True,False,False,False,True,False,False,True,False,False,False,False,False,False,False,False,False,False,False,False,False,False,False,False,False,False,False,True,False,False,False,0,3,False,False,617,0,0,1000,1000,0,0,0,0,0,4,0,0,0x10007e38,0,0,0,1,Disabled,False,False,True,1,V0.1,    IR1800,
