Time,Runtime,Current3V3,Current3V3Min,Current3V3Max,CurrentHTPA,CurrentHTPAMin,CurrentHTPAMax,CurrentCubeDock3V3_1,TemperatureMCU,TemperatureMCUMin,TemperatureMCUMax,TemperatureHTPA,TemperatureHTPAMin,TemperatureHTPAMax,VoltageMCU,VoltageMCUMin,VoltageMCUMax,VoltageHTPA,VoltageHTPAMin,VoltageHTPAMax,ADSSampleMode,HTPACalibLevel,HILEnabled,HILBusy,HILEnableImgVddComp,HILEnableImgTobjCalib,HILEnableEdgeDet,HILEnableLensDistCorr,HILEnablePolyFit,HILEnableAttEst,HTPADeviceID,HTPATableNumber,HtpaPowerState,HtpaWakeState,HtpaCaptureState,HtpaPTAT,HtpaVdd,HTPAImageLastMin,HTPAImageLastMean,HTPAImageLastMax,HTPAImageAllTimeMin,HTPAImageAllTimeMax,3V3OverCurrent,HTPAOverCurrent,Timer1sOverRun,MCUOverTemperature,MCUUnderTemperature,HTPAOverTemperature,HTPAUnderTemperature,HTPACalibLookupOutOfRange,HTPAIntegrationTimeout,HTPANotResponding,HTPAConfigMismatch,HTPASpiTimeout,CommsTcSlotsBuffFull,CommsTcParamBuffFull,CommsUartProtError,CommsUartMsgIncomplete,CommsUartTcParamOverflow,UARTTxOverflow,CommsTcInvalidID,CommsTcInvalidPar,CommsTcInvalidParLen,CommsTcTimeout,CommsTlmInvalidID,UARTTxReadingEmptyBuffer,UARTRxByteOverrun,UARTRxFramingError,UartTxTimeout,FRAMStatusNotResponding,FRAMDeviceNotFound,FRAMSpiTimeout,ConfigRewrittenFromMemory,ConfigExtMemorySlotOverwritten,ConfigNoConfigFoundInMemory,ConfigNumOfValidFramSlots,ConfigNumOfValidFlashSlots,ConfigNotSaved,ConfigDataLoss,SwStartupTime,SwProcessingTime,SwProcessingTimeMax,SwLoopTime,SwLoopTimeMax,SwImgCaptureTime,SwLensDistCorrTime,SwEstimationTime,SwConfigRefreshMaxTime,SwConfigCheckMemoryMaxTime,SwAdcMeasurementTime,DetectedBitFlips,FlashFaults,FlashLastFaultAddress,RadNumOfFaultsLast,RadNumOfFaultsTotal,RadLastFaultIndex,RadIterationsCompleted,RadMode,RadCheckSRAM,RadCheckFRAM,SRAM2ParityCheckEnabled,InterfaceVersion,FirmwareVersion,IRCAM SN,
2019/10/22 - 08:48:19.045620,366,17.59630584716797,17.442094802856445,17.67746925354004,35.71855163574219,35.53025436401367,35.936073303222656,12345,28.699642181396484,25.333961486816406,28.884313583374023,0.0,0.0,0.0,3.2990000247955322,3.2950000762939453,3.2990000247955322,0.0,0.0,0.0,Idle,None,False,False,False,False,False,False,False,False,4298,137,On,Off,Idle,0,0,32767,0,-32768,32767,-32768,False,True,True,False,False,True,True,False,False,True,False,False,False,False,False,False,False,False,False,False,False,False,False,False,False,False,False,False,True,True,False,False,False,0,3,False,False,1713,0,0,1000,1000,0,0,0,0,1,4,0,0,0x10007e38,0,0,0,1,Disabled,False,False,True,1,V0.1,    IR1800,
2019/10/22 - 08:48:25.604878,372,17.550853729248047,17.442094802856445,17.67746925354004,35.72504425048828,35.53025436401367,35.936073303222656,12345,28.84328269958496,25.333961486816406,28.884313583374023,0.0,0.0,0.0,3.296999931335449,3.2950000762939453,3.2990000247955322,0.0,0.0,0.0,Idle,None,False,False,False,False,False,False,False,False,4298,137,On,Off,Idle,0,0,32767,0,-32768,32767,-32768,False,False,False,False,False,False,False,False,False,True,False,False,False,False,False,False,False,False,False,False,False,False,False,False,False,False,False,False,True,True,False,False,False,0,3,False,False,1713,0,0,1000,1000,0,0,0,0,1,4,0,0,0x100,0,0,0,1,Disabled,False,False,True,1,V0.1,    IR1800,
2019/10/22 - 08:48:26.515736,373,17.555723190307617,17.442094802856445,17.67746925354004,35.653621673583984,35.53025436401367,35.936073303222656,12345,28.638059616088867,25.333961486816406,28.884313583374023,0.0,0.0,0.0,3.2990000247955322,3.2950000762939453,3.2990000247955322,0.0,0.0,0.0,Idle,None,False,False,False,False,False,False,False,False,4298,137,On,Off,Idle,0,0,32767,0,-32768,32767,-32768,False,False,False,False,False,False,False,False,False,True,False,False,False,False,False,False,False,False,False,False,False,False,False,False,False,False,False,False,True,True,False,False,False,0,3,False,False,1713,0,0,1000,1000,0,0,0,0,1,4,0,0,0x0,0,0,0,1,Disabled,False,False,True,1,V0.1,    IR1800,
2019/10/22 - 08:48:27.204843,374,17.492416381835938,17.442094802856445,17.67746925354004,35.7932243347168,35.53025436401367,35.936073303222656,12345,28.699642181396484,25.333961486816406,28.884313583374023,0.0,0.0,0.0,3.296999931335449,3.2950000762939453,3.2990000247955322,0.0,0.0,0.0,Idle,None,False,False,False,False,False,False,False,False,4298,137,On,Off,Idle,0,0,32767,0,-32768,32767,-32768,True,True,True,True,True,False,True,False,False,True,False,False,False,False,False,False,False,False,False,False,False,False,False,False,False,False,False,False,True,True,False,False,False,0,3,False,False,1713,0,0,1000,1000,0,0,0,0,1,4,0,0,0x0,0,0,0,1,Disabled,False,False,True,1,V0.1,    IR1800,
2019/10/22 - 08:48:27.796012,374,17.492416381835938,17.442094802856445,17.67746925354004,35.7932243347168,35.53025436401367,35.936073303222656,12345,28.699642181396484,25.333961486816406,28.884313583374023,0.0,0.0,0.0,3.296999931335449,3.2950000762939453,3.2990000247955322,0.0,0.0,0.0,Idle,None,False,False,False,False,False,False,False,False,4298,137,On,Off,Idle,0,0,32767,0,-32768,32767,-32768,False,True,True,False,False,True,True,False,False,True,False,False,False,False,False,False,False,False,False,False,False,False,False,False,False,False,False,False,True,True,False,False,False,0,3,False,False,1713,0,0,1000,1000,0,0,0,0,1,4,0,0,0x10006914,0,0,0,1,Disabled,False,False,True,1,V0.1,    IR1800,
2019/10/22 - 08:48:28.147895,375,17.58331871032715,17.442094802856445,17.67746925354004,35.76400375366211,35.53025436401367,35.936073303222656,12345,28.597028732299805,25.333961486816406,28.884313583374023,0.0,0.0,0.0,3.296999931335449,3.2950000762939453,3.2990000247955322,0.0,0.0,0.0,Idle,None,False,False,False,False,False,False,False,False,4298,137,On,Off,Idle,0,0,32767,0,-32768,32767,-32768,False,False,False,True,True,False,True,False,False,True,False,False,False,False,False,False,False,False,False,False,False,False,False,False,False,False,False,False,True,True,False,False,False,0,3,False,False,1713,0,0,1000,1000,0,0,0,0,1,4,0,0,0x100,0,0,0,1,Disabled,False,False,True,1,V0.1,    IR1800,
2019/10/22 - 08:48:28.676181,375,17.58331871032715,17.442094802856445,17.67746925354004,35.76400375366211,35.53025436401367,35.936073303222656,12345,28.597028732299805,25.333961486816406,28.884313583374023,0.0,0.0,0.0,3.296999931335449,3.2950000762939453,3.2990000247955322,0.0,0.0,0.0,Idle,None,False,False,False,False,False,False,False,False,4298,137,On,Off,Idle,0,0,32767,0,-32768,32767,-32768,False,True,True,False,False,True,True,False,False,True,False,False,False,False,False,False,False,False,False,False,False,False,False,False,False,False,False,False,True,True,False,False,False,0,3,False,False,1713,0,0,1000,1000,0,0,0,0,1,4,0,0,0x10007e38,0,0,0,1,Disabled,False,False,True,1,V0.1,    IR1800,
2019/10/22 - 08:48:29.203603,376,17.49890899658203,17.442094802856445,17.67746925354004,35.77374267578125,35.53025436401367,35.936073303222656,12345,28.597028732299805,25.333961486816406,28.884313583374023,0.0,0.0,0.0,3.2990000247955322,3.2950000762939453,3.2990000247955322,0.0,0.0,0.0,Idle,None,False,False,False,False,False,False,False,False,4298,137,On,Off,Idle,0,0,32767,0,-32768,32767,-32768,True,True,False,True,False,False,True,False,False,True,False,False,False,False,False,False,False,False,False,False,False,False,False,False,False,False,False,False,True,True,False,False,False,0,3,False,False,1713,0,0,1000,1000,0,0,0,0,1,4,0,0,0x0,0,0,0,1,Disabled,False,False,True,1,V0.1,    IR1800,
2019/10/22 - 08:49:23.030024,39,17.539491653442383,17.472936630249023,17.640134811401367,35.64712905883789,35.52375793457031,35.87113952636719,12345,28.6585750579834,28.53544807434082,28.84328269958496,0.0,0.0,0.0,3.2990000247955322,3.2990000247955322,3.2990000247955322,0.0,0.0,0.0,Idle,None,False,False,False,False,False,False,False,False,4298,137,On,Off,Idle,0,0,32767,0,-32768,32767,-32768,True,False,True,False,False,False,True,False,False,True,False,False,False,False,False,False,False,False,False,False,False,False,False,False,False,False,False,False,False,True,False,False,False,0,3,False,False,617,0,0,1000,1000,0,0,0,0,0,4,0,0,0x100,0,0,0,1,Disabled,False,False,True,1,V0.1,    IR1800,
2019/10/22 - 08:49:24.038444,40,17.416122436523438,17.416122436523438,17.640134811401367,35.712059020996094,35.52375793457031,35.87113952636719,12345,28.699642181396484,28.53544807434082,28.84328269958496,0.0,0.0,0.0,3.2990000247955322,3.2990000247955322,3.2990000247955322,0.0,0.0,0.0,Idle,None,False,False,False,False,False,False,False,False,4298,137,On,Off,Idle,0,0,32767,0,-32768,32767,-32768,False,False,False,True,True,True,True,False,False,True,False,False,False,False,False,False,False,False,False,False,False,False,False,False,False,False,False,False,False,True,False,False,False,0,3,False,False,617,0,0,1000,1000,0,0,0,0,0,4,0,0,0x0,0,0,0,1,Disabled,False,False,True,1,V0.1,    IR1800,
2019/10/22 - 08:49:25.078778,41,17.609291076660156,17.416122436523438,17.640134811401367,35.653621673583984,35.52375793457031,35.87113952636719,12345,28.863798141479492,28.53544807434082,28.863798141479492,0.0,0.0,0.0,3.2990000247955322,3.2990000247955322,3.2990000247955322,0.0,0.0,0.0,Idle,None,False,False,False,False,False,False,False,False,4298,137,On,Off,Idle,0,0,32767,0,-32768,32767,-32768,True,False,False,False,True,True,True,False,False,True,False,False,False,False,False,False,False,False,False,False,False,False,False,False,False,False,False,False,False,True,False,False,False,0,3,False,False,617,0,0,1000,1000,0,0,0,0,0,4,0,0,0x0,0,0,0,1,Disabled,False,False,True,1,V0.1,    IR1800,
2019/10/22 - 08:49:26.055411,42,17.532997131347656,17.416122436523438,17.640134811401367,35.63739013671875,35.52375793457031,35.87113952636719,12345,28.720155715942383,28.53544807434082,28.863798141479492,0.0,0.0,0.0,3.2990000247955322,3.2990000247955322,3.2990000247955322,0.0,0.0,0.0,Idle,None,False,False,False,False,False,False,False,False,4298,137,On,Off,Idle,0,0,32767,0,-32768,32767,-32768,True,False,True,False,True,True,True,False,False,True,False,False,False,False,False,False,False,False,False,False,False,False,False,False,False,False,False,False,False,True,False,False,False,0,3,False,False,617,0,0,1000,1000,0,0,0,0,0,4,0,0,0x10006914,0,0,0,1,Disabled,False,False,True,1,V0.1,    IR1800,
2019/10/22 - 08:49:27.047039,43,17.632017135620117,17.416122436523438,17.640134811401367,35.81270217895508,35.52375793457031,35.87113952636719,12345,28.699642181396484,28.53544807434082,28.863798141479492,0.0,0.0,0.0,3.2990000247955322,3.2990000247955322,3.2990000247955322,0.0,0.0,0.0,Idle,None,False,False,False,False,False,False,False,False,4298,137,On,Off,Idle,0,0,32767,0,-32768,32767,-32768,False,False,False,False,False,False,False,False,False,True,False,False,False,False,False,False,False,False,False,False,False,False,False,False,False,False,False,False,False,True,False,False,False,0,3,False,False,617,0,0,1000,1000,0,0,0,0,0,4,0,0,0x10007e30,0,0,0,1,Disabled,False,False,True,1,V0.1,    IR1800,
2019/10/22 - 08:49:28.071542,44,17.523258209228516,17.416122436523438,17.640134811401367,35.69582748413086,35.52375793457031,35.87113952636719,12345,28.6585750579834,28.53544807434082,28.863798141479492,0.0,0.0,0.0,3.2990000247955322,3.2990000247955322,3.2990000247955322,0.0,0.0,0.0,Idle,None,False,False,False,False,False,False,False,False,4298,137,On,Off,Idle,0,0,32767,0,-32768,32767,-32768,False,False,False,False,False,False,False,False,False,True,False,False,False,False,False,False,False,False,False,False,False,False,False,False,False,False,False,False,False,True,False,False,False,0,3,False,False,617,0,0,1000,1000,0,0,0,0,0,4,0,0,0x100,0,0,0,1,Disabled,False,False,True,1,V0.1,    IR1800,
2019/10/22 - 08:49:29.063835,45,17.528127670288086,17.416122436523438,17.640134811401367,35.7704963684082,35.52375793457031,35.87113952636719,12345,28.761186599731445,28.53544807434082,28.863798141479492,0.0,0.0,0.0,3.2990000247955322,3.2990000247955322,3.2990000247955322,0.0,0.0,0.0,Idle,None,False,False,False,False,False,False,False,False,4298,137,On,Off,Idle,0,0,32767,0,-32768,32767,-32768,False,False,False,True,True,False,False,False,False,True,False,False,False,False,False,False,False,False,False,False,False,False,False,False,False,False,False,False,False,True,False,False,False,0,3,False,False,617,0,0,1000,1000,0,0,0,0,0,4,0,0,0x0,0,0,0,1,Disabled,False,False,True,1,V0.1,    IR1800,
2019/10/22 - 08:49:30.088445,46,17.573579788208008,17.416122436523438,17.640134811401367,35.80945587158203,35.52375793457031,35.87113952636719,12345,28.699642181396484,28.53544807434082,28.863798141479492,0.0,0.0,0.0,3.2990000247955322,3.2990000247955322,3.2990000247955322,0.0,0.0,0.0,Idle,None,False,False,False,False,False,False,False,False,4298,137,On,Off,Idle,0,0,32767,0,-32768,32767,-32768,False,False,False,False,True,False,False,False,False,True,False,False,False,False,False,False,False,False,False,False,False,False,False,False,False,False,False,False,False,True,False,False,False,0,3,False,False,617,0,0,1000,1000,0,0,0,0,0,4,0,0,0x0,0,0,0,1,Disabled,False,False,True,1,V0.1,    IR1800,
2019/10/22 - 08:49:31.047095,47,17.479429244995117,17.416122436523438,17.640134811401367,35.83218002319336,35.52375793457031,35.87113952636719,12345,28.781702041625977,28.53544807434082,28.863798141479492,0.0,0.0,0.0,3.2990000247955322,3.2990000247955322,3.2990000247955322,0.0,0.0,0.0,Idle,None,False,False,False,False,False,False,False,False,4298,137,On,Off,Idle,0,0,32767,0,-32768,32767,-32768,False,False,False,True,True,True,True,False,False,True,False,False,False,False,False,False,False,False,False,False,False,False,False,False,False,False,False,False,False,True,False,False,False,0,3,False,False,617,0,0,1000,1000,0,0,0,0,0,4,0,0,0x0,0,0,0,1,Disabled,False,False,True,1,V0.1,    IR1800,
2019/10/22 - 08:49:32.039523,48,17.620655059814453,17.416122436523438,17.640134811401367,35.58869171142578,35.52375793457031,35.87113952636719,12345,28.699642181396484,28.53544807434082,28.863798141479492,0.0,0.0,0.0,3.2990000247955322,3.2990000247955322,3.2990000247955322,0.0,0.0,0.0,Idle,None,False,False,False,False,False,False,False,False,4298,137,On,Off,Idle,0,0,32767,0,-32768,32767,-32768,False,False,False,True,True,True,True,False,False,True,False,False,False,False,False,False,False,False,False,False,False,False,False,False,False,False,False,False,False,True,False,False,False,0,3,False,False,617,0,0,1000,1000,0,0,0,0,0,4,0,0,0x100070f8,0,0,0,1,Disabled,False,False,True,1,V0.1,    IR1800,
2019/10/22 - 08:49:33.032084,49,17.521635055541992,17.416122436523438,17.640134811401367,35.68608856201172,35.52375793457031,35.87113952636719,12345,28.761186599731445,28.53544807434082,28.863798141479492,0.0,0.0,0.0,3.2990000247955322,3.2990000247955322,3.2990000247955322,0.0,0.0,0.0,Idle,None,False,False,False,False,False,False,False,False,4298,137,On,Off,Idle,0,0,32767,0,-32768,32767,-32768,False,False,False,True,True,False,False,False,False,True,False,False,False,False,False,False,False,False,False,False,False,False,False,False,False,False,False,False,False,True,False,False,False,0,3,False,False,617,0,0,1000,1000,0,0,0,0,0,4,0,0,0x0,0,0,0,1,Disabled,False,False,True,1,V0.1,    IR1800,
2019/10/22 - 08:49:34.072088,50,17.55734634399414,17.416122436523438,17.640134811401367,35.520511627197266,35.520511627197266,35.87113952636719,12345,28.67909049987793,28.53544807434082,28.863798141479492,0.0,0.0,0.0,3.2990000247955322,3.2990000247955322,3.2990000247955322,0.0,0.0,0.0,Idle,None,False,False,False,False,False,False,False,False,4298,137,On,Off,Idle,0,0,32767,0,-32768,32767,-32768,True,True,True,False,False,False,True,False,False,True,False,False,False,False,False,False,False,False,False,False,False,False,False,False,False,False,False,False,False,True,False,False,False,0,3,False,False,617,0,0,1000,1000,0,0,0,0,0,4,0,0,0x0,0,0,0,1,Disabled,False,False,True,1,V0.1,    IR1800,
2019/10/22 - 08:49:35.064475,51,17.558969497680664,17.416122436523438,17.640134811401367,35.64712905883789,35.520511627197266,35.87113952636719,12345,28.761186599731445,28.53544807434082,28.863798141479492,0.0,0.0,0.0,3.2990000247955322,3.2990000247955322,3.2990000247955322,0.0,0.0,0.0,Idle,None,False,False,False,False,False,False,False,False,4298,137,On,Off,Idle,0,0,32767,0,-32768,32767,-32768,False,False,False,True,True,False,False,False,False,True,False,False,False,False,False,False,False,False,False,False,False,False,False,False,False,False,False,False,False,True,False,False,False,0,3,False,False,617,0,0,1000,1000,0,0,0,0,0,4,0,0,0x0,0,0,0,1,Disabled,False,False,True,1,V0.1,    IR1800,
2019/10/22 - 08:49:36.056569,52,17.568710327148438,17.416122436523438,17.640134811401367,35.66660690307617,35.520511627197266,35.87113952636719,12345,28.55596351623535,28.53544807434082,28.863798141479492,0.0,0.0,0.0,3.2990000247955322,3.2990000247955322,3.2990000247955322,0.0,0.0,0.0,Idle,None,False,False,False,False,False,False,False,False,4298,137,On,Off,Idle,0,0,32767,0,-32768,32767,-32768,False,False,False,True,True,False,False,False,False,True,False,False,False,False,False,False,False,False,False,False,False,False,False,False,False,False,False,False,False,True,False,False,False,0,3,False,False,617,0,0,1000,1000,0,0,0,0,0,4,0,0,0x10006914,0,0,0,1,Disabled,False,False,True,1,V0.1,    IR1800,
2019/10/22 - 08:49:37.048163,53,17.487546920776367,17.416122436523438,17.640134811401367,35.67959213256836,35.520511627197266,35.87113952636719,12345,28.597028732299805,28.53544807434082,28.863798141479492,0.0,0.0,0.0,3.2990000247955322,3.2990000247955322,3.2990000247955322,0.0,0.0,0.0,Idle,None,False,False,False,False,False,False,False,False,4298,137,On,Off,Idle,0,0,32767,0,-32768,32767,-32768,True,True,True,False,False,False,True,False,False,True,False,False,False,False,False,False,False,False,False,False,False,False,False,False,False,False,False,False,False,True,False,False,False,0,3,False,False,617,0,0,1000,1000,0,0,0,0,0,4,0,0,0x10007e38,0,0,0,1,Disabled,False,False,True,1,V0.1,    IR1800,
2019/10/22 - 08:49:38.057397,54,17.539491653442383,17.416122436523438,17.640134811401367,35.7867317199707,35.520511627197266,35.87113952636719,12345,28.720155715942383,28.53544807434082,28.863798141479492,0.0,0.0,0.0,3.2990000247955322,3.2990000247955322,3.2990000247955322,0.0,0.0,0.0,Idle,None,False,False,False,False,False,False,False,False,4298,137,On,Off,Idle,0,0,32767,0,-32768,32767,-32768,False,False,False,True,True,False,False,False,False,True,False,False,False,False,False,False,False,False,False,False,False,False,False,False,False,False,False,False,False,True,False,False,False,0,3,False,False,617,0,0,1000,1000,0,0,0,0,0,4,0,0,0x10006914,0,0,0,1,Disabled,False,False,True,1,V0.1,    IR1800,
2019/10/22 - 08:49:39.048369,55,17.52975082397461,17.416122436523438,17.640134811401367,35.689334869384766,35.520511627197266,35.87113952636719,12345,28.67909049987793,28.53544807434082,28.863798141479492,0.0,0.0,0.0,3.2990000247955322,3.2990000247955322,3.2990000247955322,0.0,0.0,0.0,Idle,None,False,False,False,False,False,False,False,False,4298,137,On,Off,Idle,0,0,32767,0,-32768,32767,-32768,False,False,False,False,False,False,False,False,False,True,False,False,False,False,False,False,False,False,False,False,False,False,False,False,False,False,False,False,False,True,False,False,False,0,3,False,False,617,0,0,1000,1000,0,0,0,0,0,4,0,0,0x10007e38,0,0,0,1,Disabled,False,False,True,1,V0.1,    IR1800,
2019/10/22 - 08:49:40.072915,56,17.59630584716797,17.416122436523438,17.640134811401367,35.767250061035156,35.520511627197266,35.87113952636719,12345,28.699642181396484,28.53544807434082,28.863798141479492,0.0,0.0,0.0,3.2990000247955322,3.2990000247955322,3.2990000247955322,0.0,0.0,0.0,Idle,None,False,False,False,False,False,False,False,False,4298,137,On,Off,Idle,0,0,32767,0,-32768,32767,-32768,False,False,False,False,False,False,False,False,False,True,False,False,False,False,False,False,False,False,False,False,False,False,False,False,False,False,False,False,False,True,False,False,False,0,3,False,False,617,0,0,1000,1000,0,0,0,0,0,4,0,0,0x405322d1,0,0,0,1,Disabled,False,False,True,1,V0.1,    IR1800,
2019/10/22 - 08:49:41.080937,57,17.502155303955078,17.416122436523438,17.640134811401367,35.45558166503906,35.45558166503906,35.87113952636719,12345,28.720155715942383,28.53544807434082,28.863798141479492,0.0,0.0,0.0,3.2990000247955322,3.2990000247955322,3.2990000247955322,0.0,0.0,0.0,Idle,None,False,False,False,False,False,False,False,False,4298,137,On,Off,Idle,0,0,32767,0,-32768,32767,-32768,False,False,True,False,False,False,False,False,False,True,False,False,False,False,False,False,False,False,False,False,False,False,False,False,False,False,False,False,False,True,False,False,False,0,3,False,False,617,0,0,1000,1000,0,0,0,0,0,4,0,0,0x10006914,0,0,0,1,Disabled,False,False,True,1,V0.1,    IR1800,
2019/10/22 - 08:49:42.072131,58,17.617408752441406,17.416122436523438,17.640134811401367,35.75101852416992,35.45558166503906,35.87113952636719,12345,28.699642181396484,28.53544807434082,28.863798141479492,0.0,0.0,0.0,3.2990000247955322,3.2990000247955322,3.2990000247955322,0.0,0.0,0.0,Idle,None,False,False,False,False,False,False,False,False,4298,137,On,Off,Idle,0,0,32767,0,-32768,32767,-32768,False,False,False,True,False,False,False,False,False,True,False,False,False,False,False,False,False,False,False,False,False,False,False,False,False,False,False,False,False,True,False,False,False,0,3,False,False,617,0,0,1000,1000,0,0,0,0,0,4,0,0,0x0,0,0,0,1,Disabled,False,False,True,1,V0.1,    IR1800,
2019/10/22 - 08:49:43.063907,59,17.586566925048828,17.416122436523438,17.640134811401367,35.780235290527344,35.45558166503906,35.87113952636719,12345,28.6585750579834,28.53544807434082,28.863798141479492,0.0,0.0,0.0,3.2990000247955322,3.2990000247955322,3.2990000247955322,0.0,0.0,0.0,Idle,None,False,False,False,False,False,False,False,False,4298,137,On,Off,Idle,0,0,32767,0,-32768,32767,-32768,False,False,True,True,True,True,False,False,False,True,False,False,False,False,False,False,False,False,False,False,False,False,False,False,False,False,False,False,False,True,False,False,False,0,3,False,False,617,0,0,1000,1000,0,0,0,0,0,4,0,0,0x0,0,0,0,1,Disabled,False,False,True,1,V0.1,    IR1800,
2019/10/22 - 08:49:44.088107,60,17.632017135620117,17.416122436523438,17.640134811401367,35.6406364440918,35.45558166503906,35.87113952636719,12345,28.6585750579834,28.53544807434082,28.863798141479492,0.0,0.0,0.0,3.2990000247955322,3.2990000247955322,3.2990000247955322,0.0,0.0,0.0,Idle,None,False,False,False,False,False,False,False,False,4298,137,On,Off,Idle,0,0,32767,0,-32768,32767,-32768,False,False,False,True,True,False,False,False,False,True,False,False,False,False,False,False,False,False,False,False,False,False,False,False,False,False,False,False,False,True,False,False,False,0,3,False,False,617,0,0,1000,1000,0,0,0,0,0,4,0,0,0x0,0,0,0,1,Disabled,False,False,True,1,V0.1,    IR1800,
2019/10/22 - 08:49:45.064792,61,17.48105239868164,17.416122436523438,17.640134811401367,35.72504425048828,35.45558166503906,35.87113952636719,12345,28.699642181396484,28.53544807434082,28.863798141479492,0.0,0.0,0.0,3.2990000247955322,3.2990000247955322,3.2990000247955322,0.0,0.0,0.0,Idle,None,False,False,False,False,False,False,False,False,4298,137,On,Off,Idle,0,0,32767,0,-32768,32767,-32768,False,False,False,False,True,True,True,False,False,True,False,False,False,False,False,False,False,False,False,False,False,False,False,False,False,False,False,False,False,True,False,False,False,0,3,False,False,617,0,0,1000,1000,0,0,0,0,0,4,0,0,0x0,0,0,0,1,Disabled,False,False,True,1,V0.1,    IR1800,
2019/10/22 - 08:49:46.056672,62,17.490793228149414,17.416122436523438,17.640134811401367,35.61141586303711,35.45558166503906,35.87113952636719,12345,28.80225372314453,28.53544807434082,28.863798141479492,0.0,0.0,0.0,3.2990000247955322,3.2990000247955322,3.2990000247955322,0.0,0.0,0.0,Idle,None,False,False,False,False,False,False,False,False,4298,137,On,Off,Idle,0,0,32767,0,-32768,32767,-32768,False,False,True,True,True,True,False,False,False,True,False,False,False,False,False,False,False,False,False,False,False,False,False,False,False,False,False,False,False,True,False,False,False,0,3,False,False,617,0,0,1000,1000,0,0,0,0,0,4,0,0,0x0,0,0,0,1,Disabled,False,False,True,1,V0.1,    IR1800,
2019/10/22 - 08:49:47.047679,63,17.586566925048828,17.416122436523438,17.640134811401367,35.71530532836914,35.45558166503906,35.87113952636719,12345,28.67909049987793,28.53544807434082,28.863798141479492,0.0,0.0,0.0,3.2990000247955322,3.2990000247955322,3.2990000247955322,0.0,0.0,0.0,Idle,None,False,False,False,False,False,False,False,False,4298,137,On,Off,Idle,0,0,32767,0,-32768,32767,-32768,False,False,False,True,False,False,True,False,False,True,False,False,False,False,False,False,False,False,False,False,False,False,False,False,False,False,False,False,False,True,False,False,False,0,3,False,False,617,0,0,1000,1000,0,0,0,0,0,4,0,0,0x100,0,0,0,1,Disabled,False,False,True,1,V0.1,    IR1800,
2019/10/22 - 08:49:48.088055,64,17.541114807128906,17.416122436523438,17.640134811401367,35.595184326171875,35.45558166503906,35.87113952636719,12345,28.761186599731445,28.53544807434082,28.863798141479492,0.0,0.0,0.0,3.2990000247955322,3.2990000247955322,3.2990000247955322,0.0,0.0,0.0,Idle,None,False,False,False,False,False,False,False,False,4298,137,On,Off,Idle,0,0,32767,0,-32768,32767,-32768,False,False,False,False,False,False,False,False,False,True,False,False,False,False,False,False,False,False,False,False,False,False,False,False,False,False,False,False,False,True,False,False,False,0,3,False,False,617,0,0,1000,1000,0,0,0,0,0,4,0,0,0x100,0,0,0,1,Disabled,False,False,True,1,V0.1,    IR1800,
2019/10/22 - 08:49:49.064302,65,17.5914363861084,17.416122436523438,17.640134811401367,35.643882751464844,35.45558166503906,35.87113952636719,12345,28.84328269958496,28.53544807434082,28.863798141479492,0.0,0.0,0.0,3.2990000247955322,3.2990000247955322,3.2990000247955322,0.0,0.0,0.0,Idle,None,False,False,False,False,False,False,False,False,4298,137,On,Off,Idle,0,0,32767,0,-32768,32767,-32768,False,False,False,True,True,False,False,False,False,True,False,False,False,False,False,False,False,False,False,False,False,False,False,False,False,False,False,False,False,True,False,False,False,0,3,False,False,617,0,0,1000,1000,0,0,0,0,0,4,0,0,0x0,0,0,0,1,Disabled,False,False,True,1,V0.1,    IR1800,
2019/10/22 - 08:49:50.039607,66,17.58819007873535,17.416122436523438,17.640134811401367,35.65037536621094,35.45558166503906,35.87113952636719,12345,28.781702041625977,28.53544807434082,28.863798141479492,0.0,0.0,0.0,3.2990000247955322,3.2990000247955322,3.2990000247955322,0.0,0.0,0.0,Idle,None,False,False,False,False,False,False,False,False,4298,137,On,Off,Idle,0,0,32767,0,-32768,32767,-32768,True,False,True,False,False,False,True,False,False,True,False,False,False,False,False,False,False,False,False,False,False,False,False,False,False,False,False,False,False,True,False,False,False,0,3,False,False,617,0,0,1000,1000,0,0,0,0,0,4,0,0,0x420f7c0c,0,0,0,1,Disabled,False,False,True,1,V0.1,    IR1800,
2019/10/22 - 08:49:51.047343,67,17.567087173461914,17.416122436523438,17.640134811401367,35.60816955566406,35.45558166503906,35.87113952636719,12345,28.884313583374023,28.53544807434082,28.884313583374023,0.0,0.0,0.0,3.2990000247955322,3.2990000247955322,3.2990000247955322,0.0,0.0,0.0,Idle,None,False,False,False,False,False,False,False,False,4298,137,On,Off,Idle,0,0,32767,0,-32768,32767,-32768,True,True,False,True,False,False,True,False,False,True,False,False,False,False,False,False,False,False,False,False,False,False,False,False,False,False,False,False,False,True,False,False,False,0,3,False,False,617,0,0,1000,1000,0,0,0,0,0,4,0,0,0x10006914,0,0,0,1,Disabled,False,False,True,1,V0.1,    IR1800,
2019/10/22 - 08:49:52.072546,68,17.632017135620117,17.416122436523438,17.640134811401367,35.6179084777832,35.45558166503906,35.87113952636719,12345,28.84328269958496,28.53544807434082,28.884313583374023,0.0,0.0,0.0,3.2990000247955322,3.2990000247955322,3.2990000247955322,0.0,0.0,0.0,Idle,None,False,False,False,False,False,False,False,False,4298,137,On,Off,Idle,0,0,32767,0,-32768,32767,-32768,False,False,True,True,True,True,False,False,False,True,False,False,False,False,False,False,False,False,False,False,False,False,False,False,False,False,False,False,False,True,False,False,False,0,3,False,False,617,0,0,1000,1000,0,0,0,0,0,4,0,0,0x0,0,0,0,1,Disabled,False,False,True,1,V0.1,    IR1800,
2019/10/22 - 08:49:53.032358,69,17.490793228149414,17.416122436523438,17.640134811401367,35.61141586303711,35.45558166503906,35.87113952636719,12345,28.781702041625977,28.53544807434082,28.884313583374023,0.0,0.0,0.0,3.2990000247955322,3.2990000247955322,3.2990000247955322,0.0,0.0,0.0,Idle,None,False,False,False,False,False,False,False,False,4298,137,On,Off,Idle,0,0,32767,0,-32768,32767,-32768,False,False,False,True,True,False,False,False,False,True,False,False,False,False,False,False,False,False,False,False,False,False,False,False,False,False,False,False,False,True,False,False,False,0,3,False,False,617,0,0,1000,1000,0,0,0,0,0,4,0,0,0x10007e30,0,0,0,1,Disabled,False,False,True,1,V0.1,    IR1800,
2019/10/22 - 08:49:54.040186,70,17.581695556640625,17.416122436523438,17.640134811401367,35.699073791503906,35.45558166503906,35.87113952636719,12345,28.6585750579834,28.53544807434082,28.884313583374023,0.0,0.0,0.0,3.2990000247955322,3.2990000247955322,3.2990000247955322,0.0,0.0,0.0,Idle,None,False,False,False,False,False,False,False,False,4298,137,On,Off,Idle,0,0,32767,0,-32768,32767,-32768,True,False,False,False,True,True,True,False,False,True,False,False,False,False,False,False,False,False,False,False,False,False,False,False,False,False,False,False,False,True,False,False,False,0,3,False,False,617,0,0,1000,1000,0,0,0,0,0,4,0,0,0x100070f8,0,0,0,1,Disabled,False,False,True,1,V0.1,    IR1800,
2019/10/22 - 08:49:55.032413,71,17.523258209228516,17.416122436523438,17.640134811401367,35.71530532836914,35.45558166503906,35.87113952636719,12345,28.822769165039062,28.53544807434082,28.884313583374023,0.0,0.0,0.0,3.2990000247955322,3.2990000247955322,3.2990000247955322,0.0,0.0,0.0,Idle,None,False,False,False,False,False,False,False,False,4298,137,On,Off,Idle,0,0,32767,0,-32768,32767,-32768,False,False,False,True,True,False,False,False,False,True,False,False,False,False,False,False,False,False,False,False,False,False,False,False,False,False,False,False,False,True,False,False,False,0,3,False,False,617,0,0,1000,1000,0,0,0,0,0,4,0,0,0x10007e38,0,0,0,1,Disabled,False,False,True,1,V0.1,    IR1800,
2019/10/22 - 08:49:56.088216,72,17.536245346069336,17.416122436523438,17.640134811401367,35.81919479370117,35.45558166503906,35.87113952636719,12345,28.80225372314453,28.53544807434082,28.884313583374023,0.0,0.0,0.0,3.2990000247955322,3.2990000247955322,3.2990000247955322,0.0,0.0,0.0,Idle,None,False,False,False,False,False,False,False,False,4298,137,On,Off,Idle,0,0,32767,0,-32768,32767,-32768,False,False,False,False,False,False,False,False,False,True,False,False,False,False,False,False,False,False,False,False,False,False,False,False,False,False,False,False,False,True,False,False,False,0,3,False,False,617,0,0,1000,1000,0,0,0,0,0,2,0,0,0x100070f8,0,0,0,1,Disabled,False,False,True,1,V0.1,    IR1800,
2019/10/22 - 08:49:57.066735,73,17.625524520874023,17.416122436523438,17.640134811401367,35.75101852416992,35.45558166503906,35.87113952636719,12345,28.6585750579834,28.53544807434082,28.884313583374023,0.0,0.0,0.0,3.2990000247955322,3.2990000247955322,3.2990000247955322,0.0,0.0,0.0,Idle,None,False,False,False,False,False,False,False,False,4298,137,On,Off,Idle,0,0,32767,0,-32768,32767,-32768,False,False,False,False,False,False,False,False,False,True,False,False,False,False,False,False,False,False,False,False,False,False,False,False,False,False,False,False,False,True,False,False,False,0,3,False,False,617,0,0,1000,1000,0,0,0,0,0,4,0,0,0x100,0,0,0,1,Disabled,False,False,True,1,V0.1,    IR1800,
2019/10/22 - 08:49:58.040486,74,17.607667922973633,17.416122436523438,17.640134811401367,35.673099517822266,35.45558166503906,35.87113952636719,12345,28.761186599731445,28.53544807434082,28.884313583374023,0.0,0.0,0.0,3.2990000247955322,3.2990000247955322,3.2990000247955322,0.0,0.0,0.0,Idle,None,False,False,False,False,False,False,False,False,4298,137,On,Off,Idle,0,0,32767,0,-32768,32767,-32768,False,False,True,False,False,False,False,False,False,True,False,False,False,False,False,False,False,False,False,False,False,False,False,False,False,False,False,False,False,True,False,False,False,0,3,False,False,617,0,0,1000,1000,0,0,0,0,0,4,0,0,0x0,0,0,0,1,Disabled,False,False,True,1,V0.1,    IR1800,
2019/10/22 - 08:49:59.065843,75,17.568710327148438,17.416122436523438,17.640134811401367,35.87113952636719,35.45558166503906,35.87113952636719,12345,28.720155715942383,28.53544807434082,28.884313583374023,0.0,0.0,0.0,3.2990000247955322,3.2990000247955322,3.2990000247955322,0.0,0.0,0.0,Idle,None,False,False,False,False,False,False,False,False,4298,137,On,Off,Idle,0,0,32767,0,-32768,32767,-32768,True,False,True,False,False,False,True,False,False,True,False,False,False,False,False,False,False,False,False,False,False,False,False,False,False,False,False,False,False,True,False,False,False,0,3,False,False,617,0,0,1000,1000,0,0,0,0,0,4,0,0,0x10007e30,0,0,0,1,Disabled,False,False,True,1,V0.1,    IR1800,
2019/10/22 - 08:50:00.040724,76,17.604421615600586,17.416122436523438,17.640134811401367,35.84841537475586,35.45558166503906,35.87113952636719,12345,28.720155715942383,28.53544807434082,28.884313583374023,0.0,0.0,0.0,3.2990000247955322,3.2990000247955322,3.2990000247955322,0.0,0.0,0.0,Idle,None,False,False,False,False,False,False,False,False,4298,137,On,Off,Idle,0,0,32767,0,-32768,32767,-32768,False,False,False,False,True,True,True,False,False,True,False,False,False,False,False,False,False,False,False,False,False,False,False,False,False,False,False,False,False,True,False,False,False,0,3,False,False,617,0,0,1000,1000,0,0,0,0,0,4,0,0,0x0,0,0,0,1,Disabled,False,False,True,1,V0.1,    IR1800,
2019/10/22 - 08:50:01.048611,77,17.609291076660156,17.416122436523438,17.640134811401367,35.64712905883789,35.45558166503906,35.87113952636719,12345,28.720155715942383,28.53544807434082,28.884313583374023,0.0,0.0,0.0,3.2990000247955322,3.2990000247955322,3.2990000247955322,0.0,0.0,0.0,Idle,None,False,False,False,False,False,False,False,False,4298,137,On,Off,Idle,0,0,32767,0,-32768,32767,-32768,False,False,False,False,False,False,False,False,False,True,False,False,False,False,False,False,False,False,False,False,False,False,False,False,False,False,False,False,False,True,False,False,False,0,3,False,False,617,0,0,1000,1000,0,0,0,0,0,4,0,0,0x10007e30,0,0,0,1,Disabled,False,False,True,1,V0.1,    IR1800,
2019/10/22 - 08:50:02.073208,78,17.576826095581055,17.416122436523438,17.640134811401367,35.66985321044922,35.45558166503906,35.87113952636719,12345,28.720155715942383,28.53544807434082,28.884313583374023,0.0,0.0,0.0,3.2990000247955322,3.2990000247955322,3.2990000247955322,0.0,0.0,0.0,Idle,None,False,False,False,False,False,False,False,False,4298,137,On,Off,Idle,0,0,32767,0,-32768,32767,-32768,True,False,False,False,True,True,True,False,False,True,False,False,False,False,False,False,False,False,False,False,False,False,False,False,False,False,False,False,False,True,False,False,False,0,3,False,False,617,0,0,1000,1000,0,0,0,0,0,4,0,0,0x0,0,0,0,1,Disabled,False,False,True,1,V0.1,    IR1800,
2019/10/22 - 08:50:03.050246,79,17.680715560913086,17.416122436523438,17.680715560913086,35.69258117675781,35.45558166503906,35.87113952636719,12345,28.740671157836914,28.53544807434082,28.884313583374023,0.0,0.0,0.0,3.2990000247955322,3.2990000247955322,3.2990000247955322,0.0,0.0,0.0,Idle,None,False,False,False,False,False,False,False,False,4298,137,On,Off,Idle,0,0,32767,0,-32768,32767,-32768,True,False,True,False,False,False,True,False,False,True,False,False,False,False,False,False,False,False,False,False,False,False,False,False,False,False,False,False,False,True,False,False,False,0,3,False,False,617,0,0,1000,1000,0,0,0,0,0,4,0,0,0x10007e30,0,0,0,1,Disabled,False,False,True,1,V0.1,    IR1800,
2019/10/22 - 08:50:04.058007,80,17.56546401977539,17.416122436523438,17.680715560913086,35.66985321044922,35.45558166503906,35.87113952636719,12345,28.699642181396484,28.53544807434082,28.884313583374023,0.0,0.0,0.0,3.2990000247955322,3.2990000247955322,3.2990000247955322,0.0,0.0,0.0,Idle,None,False,False,False,False,False,False,False,False,4298,137,On,Off,Idle,0,0,32767,0,-32768,32767,-32768,True,False,False,False,True,True,True,False,False,True,False,False,False,False,False,False,False,False,False,False,False,False,False,False,False,False,False,False,False,True,False,False,False,0,3,False,False,617,0,0,1000,1000,0,0,0,0,0,4,0,0,0x0,0,0,0,1,Disabled,False,False,True,1,V0.1,    IR1800,
2019/10/22 - 08:50:05.082619,81,17.47618293762207,17.416122436523438,17.680715560913086,35.689334869384766,35.45558166503906,35.87113952636719,12345,28.740671157836914,28.53544807434082,28.884313583374023,0.0,0.0,0.0,3.2990000247955322,3.2990000247955322,3.2990000247955322,0.0,0.0,0.0,Idle,None,False,False,False,False,False,False,False,False,4298,137,On,Off,Idle,0,0,32767,0,-32768,32767,-32768,True,False,True,False,False,False,True,False,False,True,False,False,False,False,False,False,False,False,False,False,False,False,False,False,False,False,False,False,False,True,False,False,False,0,3,False,False,617,0,0,1000,1000,0,0,0,0,0,4,0,0,0x0,0,0,0,1,Disabled,False,False,True,1,V0.1,    IR1800,
2019/10/22 - 08:50:06.041210,82,17.578449249267578,17.416122436523438,17.680715560913086,35.70556640625,35.45558166503906,35.87113952636719,12345,28.740671157836914,28.53544807434082,28.884313583374023,0.0,0.0,0.0,3.2990000247955322,3.2990000247955322,3.2990000247955322,0.0,0.0,0.0,Idle,None,False,False,False,False,False,False,False,False,4298,137,On,Off,Idle,0,0,32767,0,-32768,32767,-32768,True,False,True,False,False,False,True,False,False,True,False,False,False,False,False,False,False,False,False,False,False,False,False,False,False,False,False,False,False,True,False,False,False,0,3,False,False,617,0,0,1000,1000,0,0,0,0,0,4,0,0,0x0,0,0,0,1,Disabled,False,False,True,1,V0.1,    IR1800,
2019/10/22 - 08:50:07.082027,83,17.617408752441406,17.416122436523438,17.680715560913086,35.76400375366211,35.45558166503906,35.87113952636719,12345,28.822769165039062,28.53544807434082,28.884313583374023,0.0,0.0,0.0,3.2990000247955322,3.2990000247955322,3.2990000247955322,0.0,0.0,0.0,Idle,None,False,False,False,False,False,False,False,False,4298,137,On,Off,Idle,0,0,32767,0,-32768,32767,-32768,False,False,True,False,False,False,False,False,False,True,False,False,False,False,False,False,False,False,False,False,False,False,False,False,False,False,False,False,False,True,False,False,False,0,3,False,False,617,0,0,1000,1000,0,0,0,0,0,4,0,0,0x0,0,0,0,1,Disabled,False,False,True,1,V0.1,    IR1800,
2019/10/22 - 08:50:08.041971,84,17.6239013671875,17.416122436523438,17.680715560913086,35.806209564208984,35.45558166503906,35.87113952636719,12345,28.740671157836914,28.53544807434082,28.884313583374023,0.0,0.0,0.0,3.2990000247955322,3.2990000247955322,3.2990000247955322,0.0,0.0,0.0,Idle,None,False,False,False,False,False,False,False,False,4298,137,On,Off,Idle,0,0,32767,0,-32768,32767,-32768,True,False,True,False,False,False,True,False,False,True,False,False,False,False,False,False,False,False,False,False,False,False,False,False,False,False,False,False,False,True,False,False,False,0,3,False,False,617,0,0,1000,1000,0,0,0,0,0,4,0,0,0x10006914,0,0,0,1,Disabled,False,False,True,1,V0.1,    IR1800,
2019/10/22 - 08:50:09.033870,85,17.58819007873535,17.416122436523438,17.680715560913086,35.7932243347168,35.45558166503906,35.87113952636719,12345,28.740671157836914,28.53544807434082,28.884313583374023,0.0,0.0,0.0,3.2990000247955322,3.2990000247955322,3.2990000247955322,0.0,0.0,0.0,Idle,None,False,False,False,False,False,False,False,False,4298,137,On,Off,Idle,0,0,32767,0,-32768,32767,-32768,False,False,False,True,True,False,False,False,False,True,False,False,False,False,False,False,False,False,False,False,False,False,False,False,False,False,False,False,False,True,False,False,False,0,3,False,False,617,0,0,1000,1000,0,0,0,0,0,4,0,0,0x41e71300,0,0,0,1,Disabled,False,False,True,1,V0.1,    IR1800,
2019/10/22 - 08:50:10.057569,86,17.53786849975586,17.416122436523438,17.680715560913086,35.67959213256836,35.45558166503906,35.87113952636719,12345,28.822769165039062,28.53544807434082,28.884313583374023,0.0,0.0,0.0,3.2990000247955322,3.2990000247955322,3.2990000247955322,0.0,0.0,0.0,Idle,None,False,False,False,False,False,False,False,False,4298,137,On,Off,Idle,0,0,32767,0,-32768,32767,-32768,True,False,True,False,False,False,True,False,False,True,False,False,False,False,False,False,False,False,False,False,False,False,False,False,False,False,False,False,False,True,False,False,False,0,3,False,False,617,0,0,1000,1000,0,0,0,0,0,4,0,0,0x0,0,0,0,1,Disabled,False,False,True,1,V0.1,    IR1800,
2019/10/22 - 08:50:11.018056,87,17.505401611328125,17.416122436523438,17.680715560913086,35.721797943115234,35.45558166503906,35.87113952636719,12345,28.67909049987793,28.53544807434082,28.884313583374023,0.0,0.0,0.0,3.2990000247955322,3.2990000247955322,3.2990000247955322,0.0,0.0,0.0,Idle,None,False,False,False,False,False,False,False,False,4298,137,On,Off,Idle,0,0,32767,0,-32768,32767,-32768,False,True,True,True,False,True,False,False,False,True,False,False,False,False,False,False,False,False,False,False,False,False,False,False,False,False,False,False,False,True,False,False,False,0,3,False,False,617,0,0,1000,1000,0,0,0,0,0,4,0,0,0x10007e30,0,0,0,1,Disabled,False,False,True,1,V0.1,    IR1800,
2019/10/22 - 08:50:12.058332,88,17.586566925048828,17.416122436523438,17.680715560913086,35.73478698730469,35.45558166503906,35.87113952636719,12345,28.720155715942383,28.53544807434082,28.884313583374023,0.0,0.0,0.0,3.2990000247955322,3.2990000247955322,3.2990000247955322,0.0,0.0,0.0,Idle,None,False,False,False,False,False,False,False,False,4298,137,On,Off,Idle,0,0,32767,0,-32768,32767,-32768,False,False,False,True,True,False,False,False,False,True,False,False,False,False,False,False,False,False,False,False,False,False,False,False,False,False,False,False,False,True,False,False,False,0,3,False,False,617,0,0,1000,1000,0,0,0,0,0,4,0,0,0x0,0,0,0,1,Disabled,False,False,True,1,V0.1,    IR1800,
2019/10/22 - 08:50:13.082677,89,17.65149688720703,17.416122436523438,17.680715560913086,35.67634582519531,35.45558166503906,35.87113952636719,12345,28.80225372314453,28.53544807434082,28.884313583374023,0.0,0.0,0.0,3.2990000247955322,3.2990000247955322,3.2990000247955322,0.0,0.0,0.0,Idle,None,False,False,False,False,False,False,False,False,4298,137,On,Off,Idle,0,0,32767,0,-32768,32767,-32768,False,False,True,True,True,True,False,False,False,True,False,False,False,False,False,False,False,False,False,False,False,False,False,False,False,False,False,False,False,True,False,False,False,0,3,False,False,617,0,0,1000,1000,0,0,0,0,0,4,0,0,0x418d721b,0,0,0,1,Disabled,False,False,True,1,V0.1,    IR1800,
2019/10/22 - 08:50:14.043070,90,17.518388748168945,17.416122436523438,17.680715560913086,35.604923248291016,35.45558166503906,35.87113952636719,12345,28.822769165039062,28.53544807434082,28.884313583374023,0.0,0.0,0.0,3.2990000247955322,3.2990000247955322,3.2990000247955322,0.0,0.0,0.0,Idle,None,False,False,False,False,False,False,False,False,4298,137,On,Off,Idle,0,0,32767,0,-32768,32767,-32768,False,False,False,False,True,False,False,False,False,True,False,False,False,False,False,False,False,False,False,False,False,False,False,False,False,False,False,False,False,True,False,False,False,0,3,False,False,617,0,0,1000,1000,0,0,0,0,0,4,0,0,0x100,0,0,0,1,Disabled,False,False,True,1,V0.1,    IR1800,
2019/10/22 - 08:50:15.049708,91,17.622278213500977,17.416122436523438,17.680715560913086,35.52375793457031,35.45558166503906,35.87113952636719,12345,28.904865264892578,28.53544807434082,28.904865264892578,0.0,0.0,0.0,3.2990000247955322,3.2990000247955322,3.2990000247955322,0.0,0.0,0.0,Idle,None,False,False,False,False,False,False,False,False,4298,137,On,Off,Idle,0,0,32767,0,-32768,32767,-32768,False,False,False,True,True,False,True,False,False,True,False,False,False,False,False,False,False,False,False,False,False,False,False,False,False,False,False,False,False,True,False,False,False,0,3,False,False,617,0,0,1000,1000,0,0,0,0,0,4,0,0,0x10000,0,0,0,1,Disabled,False,False,True,1,V0.1,    IR1800,
2019/10/22 - 08:50:16.089998,92,17.573579788208008,17.416122436523438,17.680715560913086,35.806209564208984,35.45558166503906,35.87113952636719,12345,28.740671157836914,28.53544807434082,28.904865264892578,0.0,0.0,0.0,3.2990000247955322,3.2990000247955322,3.2990000247955322,0.0,0.0,0.0,Idle,None,False,False,False,False,False,False,False,False,4298,137,On,Off,Idle,0,0,32767,0,-32768,32767,-32768,True,False,False,True,True,False,False,False,False,True,False,False,False,False,False,False,False,False,False,False,False,False,False,False,False,False,False,False,False,True,False,False,False,0,3,False,False,617,0,0,1000,1000,0,0,0,0,0,4,0,0,0x100,0,0,0,1,Disabled,False,False,True,1,V0.1,    IR1800,
2019/10/22 - 08:50:17.017746,93,17.545984268188477,17.416122436523438,17.680715560913086,35.643882751464844,35.45558166503906,35.87113952636719,12345,28.80225372314453,28.53544807434082,28.904865264892578,0.0,0.0,0.0,3.2990000247955322,3.2990000247955322,3.2990000247955322,0.0,0.0,0.0,Idle,None,False,False,False,False,False,False,False,False,4298,137,On,Off,Idle,0,0,32767,0,-32768,32767,-32768,False,False,False,False,False,False,False,False,False,True,False,False,False,False,False,False,False,False,False,False,False,False,False,False,False,False,False,False,False,True,False,False,False,0,3,False,False,617,0,0,1000,1000,0,0,0,0,0,4,0,0,0x100,0,0,0,1,Disabled,False,False,True,1,V0.1,    IR1800,
2019/10/22 - 08:50:18.074352,94,17.518388748168945,17.416122436523438,17.680715560913086,35.80945587158203,35.45558166503906,35.87113952636719,12345,28.597028732299805,28.53544807434082,28.904865264892578,0.0,0.0,0.0,3.2990000247955322,3.2990000247955322,3.2990000247955322,0.0,0.0,0.0,Idle,None,False,False,False,False,False,False,False,False,4298,137,On,Off,Idle,0,0,32767,0,-32768,32767,-32768,False,False,False,True,False,False,True,False,False,True,False,False,False,False,False,False,False,False,False,False,False,False,False,False,False,False,False,False,False,True,False,False,False,0,3,False,False,617,0,0,1000,1000,0,0,0,0,0,4,0,0,0x40532200,0,0,0,1,Disabled,False,False,True,1,V0.1,    IR1800,
2019/10/22 - 08:50:19.050632,95,17.558969497680664,17.416122436523438,17.680715560913086,35.6406364440918,35.45558166503906,35.87113952636719,12345,28.822769165039062,28.53544807434082,28.904865264892578,0.0,0.0,0.0,3.2990000247955322,3.2990000247955322,3.2990000247955322,0.0,0.0,0.0,Idle,None,False,False,False,False,False,False,False,False,4298,137,On,Off,Idle,0,0,32767,0,-32768,32767,-32768,False,False,False,True,True,False,False,False,False,True,False,False,False,False,False,False,False,False,False,False,False,False,False,False,False,False,False,False,False,True,False,False,False,0,3,False,False,617,0,0,1000,1000,0,0,0,0,0,4,0,0,0x0,0,0,0,1,Disabled,False,False,True,1,V0.1,    IR1800,
2019/10/22 - 08:50:20.042637,96,17.60117530822754,17.416122436523438,17.680715560913086,35.73478698730469,35.45558166503906,35.87113952636719,12345,28.863798141479492,28.53544807434082,28.904865264892578,0.0,0.0,0.0,3.2990000247955322,3.2990000247955322,3.2990000247955322,0.0,0.0,0.0,Idle,None,False,False,False,False,False,False,False,False,4298,137,On,Off,Idle,0,0,32767,0,-32768,32767,-32768,False,False,True,True,True,True,False,False,False,True,False,False,False,False,False,False,False,False,False,False,False,False,False,False,False,False,False,False,False,True,False,False,False,0,3,False,False,617,0,0,1000,1000,0,0,0,0,0,4,0,0,0x100070f8,0,0,0,1,Disabled,False,False,True,1,V0.1,    IR1800,
2019/10/22 - 08:50:21.017928,97,17.649873733520508,17.416122436523438,17.680715560913086,35.6406364440918,35.45558166503906,35.87113952636719,12345,28.863798141479492,28.53544807434082,28.904865264892578,0.0,0.0,0.0,3.2990000247955322,3.2990000247955322,3.2990000247955322,0.0,0.0,0.0,Idle,None,False,False,False,False,False,False,False,False,4298,137,On,Off,Idle,0,0,32767,0,-32768,32767,-32768,True,False,False,False,True,True,True,False,False,True,False,False,False,False,False,False,False,False,False,False,False,False,False,False,False,False,False,False,False,True,False,False,False,0,3,False,False,617,0,0,1000,1000,0,0,0,0,0,4,0,0,0x0,0,0,0,1,Disabled,False,False,True,1,V0.1,    IR1800,
2019/10/22 - 08:50:22.057732,98,17.52001190185547,17.416122436523438,17.680715560913086,35.72504425048828,35.45558166503906,35.87113952636719,12345,28.884313583374023,28.53544807434082,28.904865264892578,0.0,0.0,0.0,3.2990000247955322,3.2990000247955322,3.2990000247955322,0.0,0.0,0.0,Idle,None,False,False,False,False,False,False,False,False,4298,137,On,Off,Idle,0,0,32767,0,-32768,32767,-32768,False,False,False,False,True,True,True,False,False,True,False,False,False,False,False,False,False,False,False,False,False,False,False,False,False,False,False,False,False,True,False,False,False,0,3,False,False,617,0,0,1000,1000,0,0,0,0,0,4,0,0,0x0,0,0,0,1,Disabled,False,False,True,1,V0.1,    IR1800,
2019/10/22 - 08:50:23.002067,99,17.567087173461914,17.416122436523438,17.680715560913086,35.76075744628906,35.45558166503906,35.87113952636719,12345,28.720155715942383,28.53544807434082,28.904865264892578,0.0,0.0,0.0,3.2990000247955322,3.2990000247955322,3.2990000247955322,0.0,0.0,0.0,Idle,None,False,False,False,False,False,False,False,False,4298,137,On,Off,Idle,0,0,32767,0,-32768,32767,-32768,False,False,False,True,True,False,False,False,False,True,False,False,False,False,False,False,False,False,False,False,False,False,False,False,False,False,False,False,False,True,False,False,False,0,3,False,False,617,0,0,1000,1000,0,0,0,0,0,4,0,0,0x0,0,0,0,1,Disabled,False,False,True,1,V0.1,    IR1800,
2019/10/22 - 08:50:24.090279,100,17.50702476501465,17.416122436523438,17.680715560913086,35.70232009887695,35.45558166503906,35.87113952636719,12345,28.822769165039062,28.53544807434082,28.904865264892578,0.0,0.0,0.0,3.2990000247955322,3.2990000247955322,3.2990000247955322,0.0,0.0,0.0,Idle,None,False,False,False,False,False,False,False,False,4298,137,On,Off,Idle,0,0,32767,0,-32768,32767,-32768,True,False,True,False,False,False,True,False,False,True,False,False,False,False,False,False,False,False,False,False,False,False,False,False,False,False,False,False,False,True,False,False,False,0,3,False,False,617,0,0,1000,1000,0,0,0,0,0,4,0,0,0x0,0,0,0,1,Disabled,False,False,True,1,V0.1,    IR1800,
2019/10/22 - 08:50:25.067366,101,17.52001190185547,17.416122436523438,17.680715560913086,35.738033294677734,35.45558166503906,35.87113952636719,12345,28.781702041625977,28.53544807434082,28.904865264892578,0.0,0.0,0.0,3.2990000247955322,3.2990000247955322,3.2990000247955322,0.0,0.0,0.0,Idle,None,False,False,False,False,False,False,False,False,4298,137,On,Off,Idle,0,0,32767,0,-32768,32767,-32768,False,False,False,True,True,False,False,False,False,True,False,False,False,False,False,False,False,False,False,False,False,False,False,False,False,False,False,False,False,True,False,False,False,0,3,False,False,617,0,0,1000,1000,0,0,0,0,0,4,0,0,0x0,0,0,0,1,Disabled,False,False,True,1,V0.1,    IR1800,
2019/10/22 - 08:50:26.091379,102,17.568710327148438,17.416122436523438,17.680715560913086,35.6341438293457,35.45558166503906,35.87113952636719,12345,28.761186599731445,28.53544807434082,28.904865264892578,0.0,0.0,0.0,3.2990000247955322,3.2990000247955322,3.2990000247955322,0.0,0.0,0.0,Idle,None,False,False,False,False,False,False,False,False,4298,137,On,Off,Idle,0,0,32767,0,-32768,32767,-32768,False,False,False,True,True,False,False,False,False,True,False,False,False,False,False,False,False,False,False,False,False,False,False,False,False,False,False,False,False,True,False,False,False,0,3,False,False,617,0,0,1000,1000,0,0,0,0,0,4,0,0,0x0,0,0,0,1,Disabled,False,False,True,1,V0.1,    IR1800,
2019/10/22 - 08:50:27.018866,103,17.477806091308594,17.416122436523438,17.680715560913086,35.630897521972656,35.45558166503906,35.87113952636719,12345,28.84328269958496,28.53544807434082,28.904865264892578,0.0,0.0,0.0,3.2990000247955322,3.2990000247955322,3.2990000247955322,0.0,0.0,0.0,Idle,None,False,False,False,False,False,False,False,False,4298,137,On,Off,Idle,0,0,32767,0,-32768,32767,-32768,False,False,False,True,True,False,False,False,False,True,False,False,False,False,False,False,False,False,False,False,False,False,False,False,False,False,False,False,False,True,False,False,False,0,3,False,False,617,0,0,1000,1000,0,0,0,0,0,4,0,0,0x0,0,0,0,1,Disabled,False,False,True,1,V0.1,    IR1800,
2019/10/22 - 08:50:28.059107,104,17.61416244506836,17.416122436523438,17.680715560913086,35.67959213256836,35.45558166503906,35.87113952636719,12345,28.781702041625977,28.53544807434082,28.904865264892578,0.0,0.0,0.0,3.2990000247955322,3.2990000247955322,3.2990000247955322,0.0,0.0,0.0,Idle,None,False,False,False,False,False,False,False,False,4298,137,On,Off,Idle,0,0,32767,0,-32768,32767,-32768,False,False,False,False,True,True,True,False,False,True,False,False,False,False,False,False,False,False,False,False,False,False,False,False,False,False,False,False,False,True,False,False,False,0,3,False,False,617,0,0,1000,1000,0,0,0,0,0,4,0,0,0x0,0,0,0,1,Disabled,False,False,True,1,V0.1,    IR1800,
2019/10/22 - 08:50:29.019570,105,17.56059455871582,17.416122436523438,17.680715560913086,35.77374267578125,35.45558166503906,35.87113952636719,12345,28.863798141479492,28.53544807434082,28.904865264892578,0.0,0.0,0.0,3.2990000247955322,3.2990000247955322,3.2990000247955322,0.0,0.0,0.0,Idle,None,False,False,False,False,False,False,False,False,4298,137,On,Off,Idle,0,0,32767,0,-32768,32767,-32768,False,False,False,True,True,False,False,False,False,True,False,False,False,False,False,False,False,False,False,False,False,False,False,False,False,False,False,False,False,True,False,False,False,0,3,False,False,617,0,0,1000,1000,0,0,0,0,0,4,0,0,0x10006914,0,0,0,1,Disabled,False,False,True,1,V0.1,    IR1800,
2019/10/22 - 08:50:30.060038,106,17.59630584716797,17.416122436523438,17.680715560913086,35.71855163574219,35.45558166503906,35.87113952636719,12345,28.80225372314453,28.53544807434082,28.904865264892578,0.0,0.0,0.0,3.2990000247955322,3.2990000247955322,3.2990000247955322,0.0,0.0,0.0,Idle,None,False,False,False,False,False,False,False,False,4298,137,On,Off,Idle,0,0,32767,0,-32768,32767,-32768,False,False,False,True,True,False,False,False,False,True,False,False,False,False,False,False,False,False,False,False,False,False,False,False,False,False,False,False,False,True,False,False,False,0,3,False,False,617,0,0,1000,1000,0,0,0,0,0,4,0,0,0x420edfcc,0,0,0,1,Disabled,False,False,True,1,V0.1,    IR1800,
2019/10/22 - 08:50:31.052335,107,17.5914363861084,17.416122436523438,17.680715560913086,35.75426483154297,35.45558166503906,35.87113952636719,12345,28.740671157836914,28.53544807434082,28.904865264892578,0.0,0.0,0.0,3.2990000247955322,3.2990000247955322,3.2990000247955322,0.0,0.0,0.0,Idle,None,False,False,False,False,False,False,False,False,4298,137,On,Off,Idle,0,0,32767,0,-32768,32767,-32768,False,False,False,True,False,False,True,False,False,True,False,False,False,False,False,False,False,False,False,False,False,False,False,False,False,False,False,False,False,True,False,False,False,0,3,False,False,617,0,0,1000,1000,0,0,0,0,0,4,0,0,0x0,0,0,0,1,Disabled,False,False,True,1,V0.1,    IR1800,
2019/10/22 - 08:50:32.060123,108,17.554100036621094,17.416122436523438,17.680715560913086,35.7867317199707,35.45558166503906,35.87113952636719,12345,28.80225372314453,28.53544807434082,28.904865264892578,0.0,0.0,0.0,3.2990000247955322,3.2990000247955322,3.2990000247955322,0.0,0.0,0.0,Idle,None,False,False,False,False,False,False,False,False,4298,137,On,Off,Idle,0,0,32767,0,-32768,32767,-32768,False,False,True,True,True,True,False,False,False,True,False,False,False,False,False,False,False,False,False,False,False,False,False,False,False,False,False,False,False,True,False,False,False,0,3,False,False,617,0,0,1000,1000,0,0,0,0,0,4,0,0,0x418d721b,0,0,0,1,Disabled,False,False,True,1,V0.1,    IR1800,
2019/10/22 - 08:50:33.053076,109,17.657989501953125,17.416122436523438,17.680715560913086,35.75426483154297,35.45558166503906,35.87113952636719,12345,28.863798141479492,28.53544807434082,28.904865264892578,0.0,0.0,0.0,3.2990000247955322,3.2990000247955322,3.2990000247955322,0.0,0.0,0.0,Idle,None,False,False,False,False,False,False,False,False,4298,137,On,Off,Idle,0,0,32767,0,-32768,32767,-32768,False,False,False,False,True,True,True,False,False,True,False,False,False,False,False,False,False,False,False,False,False,False,False,False,False,False,False,False,False,True,False,False,False,0,3,False,False,617,0,0,1000,1000,0,0,0,0,0,4,0,0,0x0,0,0,0,1,Disabled,False,False,True,1,V0.1,    IR1800,
2019/10/22 - 08:50:34.044004,110,17.625524520874023,17.416122436523438,17.680715560913086,35.767250061035156,35.45558166503906,35.87113952636719,12345,28.884313583374023,28.53544807434082,28.904865264892578,0.0,0.0,0.0,3.2990000247955322,3.2990000247955322,3.2990000247955322,0.0,0.0,0.0,Idle,None,False,False,False,False,False,False,False,False,4298,137,On,Off,Idle,0,0,32767,0,-32768,32767,-32768,False,False,True,True,True,True,False,False,False,True,False,False,False,False,False,False,False,False,False,False,False,False,False,False,False,False,False,False,False,True,False,False,False,0,3,False,False,617,0,0,1000,1000,0,0,0,0,0,4,0,0,0x100070f8,0,0,0,1,Disabled,False,False,True,1,V0.1,    IR1800,
2019/10/22 - 08:50:35.052020,111,17.495662689208984,17.416122436523438,17.680715560913086,35.7867317199707,35.45558166503906,35.87113952636719,12345,28.720155715942383,28.53544807434082,28.904865264892578,0.0,0.0,0.0,3.2990000247955322,3.2990000247955322,3.2990000247955322,0.0,0.0,0.0,Idle,None,False,False,False,False,False,False,False,False,4298,137,On,Off,Idle,0,0,32767,0,-32768,32767,-32768,False,False,False,True,False,True,True,False,False,True,False,False,False,False,False,False,False,False,False,False,False,False,False,False,False,False,False,False,False,True,False,False,False,0,3,False,False,617,0,0,1000,1000,0,0,0,0,0,4,0,0,0x10006914,0,0,0,1,Disabled,False,False,True,1,V0.1,    IR1800,
2019/10/22 - 08:50:36.044058,112,17.578449249267578,17.416122436523438,17.680715560913086,35.585445404052734,35.45558166503906,35.87113952636719,12345,28.80225372314453,28.53544807434082,28.904865264892578,0.0,0.0,0.0,3.2990000247955322,3.2990000247955322,3.2990000247955322,0.0,0.0,0.0,Idle,None,False,False,False,False,False,False,False,False,4298,137,On,Off,Idle,0,0,32767,0,-32768,32767,-32768,True,False,True,False,False,False,True,False,False,True,False,False,False,False,False,False,False,False,False,False,False,False,False,False,False,False,False,False,False,True,False,False,False,0,3,False,False,617,0,0,1000,1000,0,0,0,0,0,4,0,0,0x10006914,0,0,0,1,Disabled,False,False,True,1,V0.1,    IR1800,
2019/10/22 - 08:50:37.004431,113,17.5800724029541,17.416122436523438,17.680715560913086,35.858154296875,35.45558166503906,35.87113952636719,12345,28.80225372314453,28.53544807434082,28.904865264892578,0.0,0.0,0.0,3.2990000247955322,3.2990000247955322,3.2990000247955322,0.0,0.0,0.0,Idle,None,False,False,False,False,False,False,False,False,4298,137,On,Off,Idle,0,0,32767,0,-32768,32767,-32768,False,False,True,True,True,True,False,False,False,True,False,False,False,False,False,False,False,False,False,False,False,False,False,False,False,False,False,False,False,True,False,False,False,0,3,False,False,617,0,0,1000,1000,0,0,0,0,0,4,0,0,0x0,0,0,0,1,Disabled,False,False,True,1,V0.1,    IR1800,
2019/10/22 - 08:50:38.012513,114,17.617408752441406,17.416122436523438,17.680715560913086,35.851661682128906,35.45558166503906,35.87113952636719,12345,28.781702041625977,28.53544807434082,28.904865264892578,0.0,0.0,0.0,3.2990000247955322,3.2990000247955322,3.2990000247955322,0.0,0.0,0.0,Idle,None,False,False,False,False,False,False,False,False,4298,137,On,Off,Idle,0,0,32767,0,-32768,32767,-32768,False,False,True,True,True,True,False,False,False,True,False,False,False,False,False,False,False,False,False,False,False,False,False,False,False,False,False,False,False,True,False,False,False,0,3,False,False,617,0,0,1000,1000,0,0,0,0,0,4,0,0,0x0,0,0,0,1,Disabled,False,False,True,1,V0.1,    IR1800,
2019/10/22 - 08:50:39.037187,115,17.63688850402832,17.416122436523438,17.680715560913086,35.83867645263672,35.45558166503906,35.87113952636719,12345,28.904865264892578,28.53544807434082,28.904865264892578,0.0,0.0,0.0,3.2990000247955322,3.2990000247955322,3.2990000247955322,0.0,0.0,0.0,Idle,None,False,False,False,False,False,False,False,False,4298,137,On,Off,Idle,0,0,32767,0,-32768,32767,-32768,False,False,False,True,False,False,True,False,False,True,False,False,False,False,False,False,False,False,False,False,False,False,False,False,False,False,False,False,False,True,False,False,False,0,3,False,False,617,0,0,1000,1000,0,0,0,0,0,4,0,0,0x0,0,0,0,1,Disabled,False,False,True,1,V0.1,    IR1800,
2019/10/22 - 08:50:40.013207,116,17.57520294189453,17.416122436523438,17.680715560913086,35.7769889831543,35.45558166503906,35.87113952636719,12345,28.92538070678711,28.53544807434082,28.92538070678711,0.0,0.0,0.0,3.2990000247955322,3.2990000247955322,3.2990000247955322,0.0,0.0,0.0,Idle,None,False,False,False,False,False,False,False,False,4298,137,On,Off,Idle,0,0,32767,0,-32768,32767,-32768,False,False,True,False,False,False,False,False,False,True,False,False,False,False,False,False,False,False,False,False,False,False,False,False,False,False,False,False,False,True,False,False,False,0,3,False,False,617,0,0,1000,1000,0,0,0,0,0,4,0,0,0x0,0,0,0,1,Disabled,False,False,True,1,V0.1,    IR1800,
2019/10/22 - 08:50:41.037013,117,17.5800724029541,17.416122436523438,17.680715560913086,35.712059020996094,35.45558166503906,35.87113952636719,12345,28.884313583374023,28.53544807434082,28.92538070678711,0.0,0.0,0.0,3.2990000247955322,3.2990000247955322,3.2990000247955322,0.0,0.0,0.0,Idle,None,False,False,False,False,False,False,False,False,4298,137,On,Off,Idle,0,0,32767,0,-32768,32767,-32768,True,True,True,False,False,True,True,False,False,True,False,False,False,False,False,False,False,False,False,False,False,False,False,False,False,False,False,False,False,True,False,False,False,0,3,False,False,617,0,0,1000,1000,0,0,0,0,0,4,0,0,0x0,0,0,0,1,Disabled,False,False,True,1,V0.1,    IR1800,
2019/10/22 - 08:50:42.077660,118,17.612539291381836,17.416122436523438,17.680715560913086,35.780235290527344,35.45558166503906,35.87113952636719,12345,28.720155715942383,28.53544807434082,28.92538070678711,0.0,0.0,0.0,3.2990000247955322,3.2990000247955322,3.2990000247955322,0.0,0.0,0.0,Idle,None,False,False,False,False,False,False,False,False,4298,137,On,Off,Idle,0,0,32767,0,-32768,32767,-32768,False,False,False,False,True,True,True,False,False,True,False,False,False,False,False,False,False,False,False,False,False,False,False,False,False,False,False,False,False,True,False,False,False,0,3,False,False,617,0,0,1000,1000,0,0,0,0,0,4,0,0,0x0,0,0,0,1,Disabled,False,False,True,1,V0.1,    IR1800,
2019/10/22 - 08:50:43.037416,119,17.544361114501953,17.416122436523438,17.680715560913086,35.65037536621094,35.45558166503906,35.87113952636719,12345,28.80225372314453,28.53544807434082,28.92538070678711,0.0,0.0,0.0,3.2990000247955322,3.2990000247955322,3.2990000247955322,0.0,0.0,0.0,Idle,None,False,False,False,False,False,False,False,False,4298,137,On,Off,Idle,0,0,32767,0,-32768,32767,-32768,False,False,False,True,True,False,False,False,False,True,False,False,False,False,False,False,False,False,False,False,False,False,False,False,False,False,False,False,False,True,False,False,False,0,3,False,False,617,0,0,1000,1000,0,0,0,0,0,4,0,0,0x100,0,0,0,1,Disabled,False,False,True,1,V0.1,    IR1800,
2019/10/22 - 08:50:44.045371,120,17.589813232421875,17.416122436523438,17.680715560913086,35.630897521972656,35.45558166503906,35.87113952636719,12345,28.80225372314453,28.53544807434082,28.92538070678711,0.0,0.0,0.0,3.2990000247955322,3.2990000247955322,3.2990000247955322,0.0,0.0,0.0,Idle,None,False,False,False,False,False,False,False,False,4298,137,On,Off,Idle,0,0,32767,0,-32768,32767,-32768,False,False,True,True,True,True,False,False,False,True,False,False,False,False,False,False,False,False,False,False,False,False,False,False,False,False,False,False,False,True,False,False,False,0,3,False,False,617,0,0,1000,1000,0,0,0,0,1,4,0,0,0x10006914,0,0,0,1,Disabled,False,False,True,1,V0.1,    IR1800,
2019/10/22 - 08:50:45.069674,121,17.53462028503418,17.416122436523438,17.680715560913086,35.663360595703125,35.45558166503906,35.87113952636719,12345,28.84328269958496,28.53544807434082,28.92538070678711,0.0,0.0,0.0,3.2990000247955322,3.2990000247955322,3.2990000247955322,0.0,0.0,0.0,Idle,None,False,False,False,False,False,False,False,False,4298,137,On,Off,Idle,0,0,32767,0,-32768,32767,-32768,False,False,False,True,True,False,False,False,False,True,False,False,False,False,False,False,False,False,False,False,False,False,False,False,False,False,False,False,False,True,False,False,False,0,3,False,False,617,0,0,1000,1000,0,0,0,0,1,4,0,0,0x100070f8,0,0,0,1,Disabled,False,False,True,1,V0.1,    IR1800,
2019/10/22 - 08:50:46.044845,122,17.643381118774414,17.416122436523438,17.680715560913086,35.66660690307617,35.45558166503906,35.87113952636719,12345,28.966411590576172,28.53544807434082,28.966411590576172,0.0,0.0,0.0,3.2990000247955322,3.2990000247955322,3.2990000247955322,0.0,0.0,0.0,Idle,None,False,False,False,False,False,False,False,False,4298,137,On,Off,Idle,0,0,32767,0,-32768,32767,-32768,False,False,False,False,False,False,False,False,False,True,False,False,False,False,False,False,False,False,False,False,False,False,False,False,False,False,False,False,False,True,False,False,False,0,3,False,False,617,0,0,1000,1000,0,0,0,0,1,4,0,0,0x0,0,0,0,1,Disabled,False,False,True,1,V0.1,    IR1800,
2019/10/22 - 08:50:47.036908,123,17.622278213500977,17.416122436523438,17.680715560913086,35.75426483154297,35.45558166503906,35.87113952636719,12345,28.904865264892578,28.53544807434082,28.966411590576172,0.0,0.0,0.0,3.2990000247955322,3.2990000247955322,3.2990000247955322,0.0,0.0,0.0,Idle,None,False,False,False,False,False,False,False,False,4298,137,On,Off,Idle,0,0,32767,0,-32768,32767,-32768,False,False,False,False,False,False,False,False,False,True,False,False,False,False,False,False,False,False,False,False,False,False,False,False,False,False,False,False,False,True,False,False,False,0,3,False,False,617,0,0,1000,1000,0,0,0,0,1,4,0,0,0x0,0,0,0,1,Disabled,False,False,True,1,V0.1,    IR1800,
2019/10/22 - 08:50:48.060858,124,17.558969497680664,17.416122436523438,17.680715560913086,35.76400375366211,35.45558166503906,35.87113952636719,12345,28.884313583374023,28.53544807434082,28.966411590576172,0.0,0.0,0.0,3.2990000247955322,3.2990000247955322,3.2990000247955322,0.0,0.0,0.0,Idle,None,False,False,False,False,False,False,False,False,4298,137,On,Off,Idle,0,0,32767,0,-32768,32767,-32768,False,False,False,True,True,False,False,False,False,True,False,False,False,False,False,False,False,False,False,False,False,False,False,False,False,False,False,False,False,True,False,False,False,0,3,False,False,617,0,0,1000,1000,0,0,0,0,1,4,0,0,0x0,0,0,0,1,Disabled,False,False,True,1,V0.1,    IR1800,
2019/10/22 - 08:50:49.068239,125,17.46157455444336,17.416122436523438,17.680715560913086,35.689334869384766,35.45558166503906,35.87113952636719,12345,28.863798141479492,28.53544807434082,28.966411590576172,0.0,0.0,0.0,3.2990000247955322,3.2990000247955322,3.2990000247955322,0.0,0.0,0.0,Idle,None,False,False,False,False,False,False,False,False,4298,137,On,Off,Idle,0,0,32767,0,-32768,32767,-32768,False,False,True,False,False,False,False,False,False,True,False,False,False,False,False,False,False,False,False,False,False,False,False,False,False,False,False,False,False,True,False,False,False,0,3,False,False,617,0,0,1000,1000,0,0,0,0,1,4,0,0,0x0,0,0,0,1,Disabled,False,False,True,1,V0.1,    IR1800,
2019/10/22 - 08:50:50.028443,126,17.620655059814453,17.416122436523438,17.680715560913086,35.780235290527344,35.45558166503906,35.87113952636719,12345,29.027992248535156,28.53544807434082,29.027992248535156,0.0,0.0,0.0,3.2990000247955322,3.2990000247955322,3.2990000247955322,0.0,0.0,0.0,Idle,None,False,False,False,False,False,False,False,False,4298,137,On,Off,Idle,0,0,32767,0,-32768,32767,-32768,False,False,False,True,True,False,True,False,False,True,False,False,False,False,False,False,False,False,False,False,False,False,False,False,False,False,False,False,False,True,False,False,False,0,3,False,False,617,0,0,1000,1000,0,0,0,0,1,4,0,0,0x0,0,0,0,1,Disabled,False,False,True,1,V0.1,    IR1800,
2019/10/22 - 08:50:51.052222,127,17.599552154541016,17.416122436523438,17.680715560913086,35.841922760009766,35.45558166503906,35.87113952636719,12345,28.822769165039062,28.53544807434082,29.027992248535156,0.0,0.0,0.0,3.2990000247955322,3.2990000247955322,3.2990000247955322,0.0,0.0,0.0,Idle,None,False,False,False,False,False,False,False,False,4298,137,On,Off,Idle,0,0,32767,0,-32768,32767,-32768,True,False,False,False,True,True,True,False,False,True,False,False,False,False,False,False,False,False,False,False,False,False,False,False,False,False,False,False,False,True,False,False,False,0,3,False,False,617,0,0,1000,1000,0,0,0,0,1,4,0,0,0x100070f8,0,0,0,1,Disabled,False,False,True,1,V0.1,    IR1800,
2019/10/22 - 08:50:52.060242,128,17.60604476928711,17.416122436523438,17.680715560913086,35.80945587158203,35.45558166503906,35.87113952636719,12345,28.92538070678711,28.53544807434082,29.027992248535156,0.0,0.0,0.0,3.2990000247955322,3.2990000247955322,3.2990000247955322,0.0,0.0,0.0,Idle,None,False,False,False,False,False,False,False,False,4298,137,On,Off,Idle,0,0,32767,0,-32768,32767,-32768,False,False,False,False,False,True,False,False,False,True,False,False,False,False,False,False,False,False,False,False,False,False,False,False,False,False,False,False,False,True,False,False,False,0,3,False,False,617,0,0,1000,1000,0,0,0,0,1,4,0,0,0x10006914,0,0,0,1,Disabled,False,False,True,1,V0.1,    IR1800,
2019/10/22 - 08:50:53.068854,129,17.555723190307617,17.416122436523438,17.680715560913086,35.63739013671875,35.45558166503906,35.87113952636719,12345,28.84328269958496,28.53544807434082,29.027992248535156,0.0,0.0,0.0,3.2990000247955322,3.2990000247955322,3.2990000247955322,0.0,0.0,0.0,Idle,None,False,False,False,False,False,False,False,False,4298,137,On,Off,Idle,0,0,32767,0,-32768,32767,-32768,False,False,True,True,True,True,False,False,False,True,False,False,False,False,False,False,False,False,False,False,False,False,False,False,False,False,False,False,False,True,False,False,False,0,3,False,False,617,0,0,1000,1000,0,0,0,0,1,4,0,0,0x0,0,0,0,1,Disabled,False,False,True,1,V0.1,    IR1800,
2019/10/22 - 08:50:54.078086,130,17.625524520874023,17.416122436523438,17.680715560913086,35.68284225463867,35.45558166503906,35.87113952636719,12345,28.92538070678711,28.53544807434082,29.027992248535156,0.0,0.0,0.0,3.2990000247955322,3.2990000247955322,3.2990000247955322,0.0,0.0,0.0,Idle,None,False,False,False,False,False,False,False,False,4298,137,On,Off,Idle,0,0,32767,0,-32768,32767,-32768,False,False,False,False,True,True,True,False,False,True,False,False,False,False,False,False,False,False,False,False,False,False,False,False,False,False,False,False,False,True,False,False,False,0,3,False,False,617,0,0,1000,1000,0,0,0,0,1,4,0,0,0x0,0,0,0,1,Disabled,False,False,True,1,V0.1,    IR1800,
2019/10/22 - 08:50:55.053588,131,17.536245346069336,17.416122436523438,17.680715560913086,35.70232009887695,35.45558166503906,35.87113952636719,12345,28.92538070678711,28.53544807434082,29.027992248535156,0.0,0.0,0.0,3.2990000247955322,3.2990000247955322,3.2990000247955322,0.0,0.0,0.0,Idle,None,False,False,False,False,False,False,False,False,4298,137,On,Off,Idle,0,0,32767,0,-32768,32767,-32768,True,False,True,False,False,False,True,False,False,True,False,False,False,False,False,False,False,False,False,False,False,False,False,False,False,False,False,False,False,True,False,False,False,0,3,False,False,617,0,0,1000,1000,0,0,0,0,1,4,0,0,0x0,0,0,0,1,Disabled,False,False,True,1,V0.1,    IR1800,
2019/10/22 - 08:50:56.028991,132,17.55734634399414,17.416122436523438,17.680715560913086,35.76075744628906,35.45558166503906,35.87113952636719,12345,28.761186599731445,28.53544807434082,29.027992248535156,0.0,0.0,0.0,3.2990000247955322,3.2990000247955322,3.2990000247955322,0.0,0.0,0.0,Idle,None,False,False,False,False,False,False,False,False,4298,137,On,Off,Idle,0,0,32767,0,-32768,32767,-32768,False,False,False,True,True,False,False,False,False,True,False,False,False,False,False,False,False,False,False,False,False,False,False,False,False,False,False,False,False,True,False,False,False,0,3,False,False,617,0,0,1000,1000,0,0,0,0,1,4,0,0,0x41e83900,0,0,0,1,Disabled,False,False,True,1,V0.1,    IR1800,
2019/10/22 - 08:50:57.069589,133,17.615785598754883,17.416122436523438,17.680715560913086,35.689334869384766,35.45558166503906,35.87113952636719,12345,28.904865264892578,28.53544807434082,29.027992248535156,0.0,0.0,0.0,3.2990000247955322,3.2990000247955322,3.2990000247955322,0.0,0.0,0.0,Idle,None,False,False,False,False,False,False,False,False,4298,137,On,Off,Idle,0,0,32767,0,-32768,32767,-32768,False,False,False,True,True,False,True,False,False,True,False,False,False,False,False,False,False,False,False,False,False,False,False,False,False,False,False,False,False,True,False,False,False,0,3,False,False,617,0,0,1000,1000,0,0,0,0,1,4,0,0,0x100,0,0,0,1,Disabled,False,False,True,1,V0.1,    IR1800,
2019/10/22 - 08:50:58.045180,134,17.554100036621094,17.416122436523438,17.680715560913086,35.689334869384766,35.45558166503906,35.87113952636719,12345,28.80225372314453,28.53544807434082,29.027992248535156,0.0,0.0,0.0,3.2990000247955322,3.2990000247955322,3.2990000247955322,0.0,0.0,0.0,Idle,None,False,False,False,False,False,False,False,False,4298,137,On,Off,Idle,0,0,32767,0,-32768,32767,-32768,True,False,True,False,False,False,True,False,False,True,False,False,False,False,False,False,False,False,False,False,False,False,False,False,False,False,False,False,False,True,False,False,False,0,3,False,False,617,0,0,1000,1000,0,0,0,0,1,4,0,0,0x10007e38,0,0,0,1,Disabled,False,False,True,1,V0.1,    IR1800,
2019/10/22 - 08:50:59.052897,135,17.599552154541016,17.416122436523438,17.680715560913086,35.76400375366211,35.45558166503906,35.87113952636719,12345,28.92538070678711,28.53544807434082,29.027992248535156,0.0,0.0,0.0,3.2990000247955322,3.2990000247955322,3.2990000247955322,0.0,0.0,0.0,Idle,None,False,False,False,False,False,False,False,False,4298,137,On,Off,Idle,0,0,32767,0,-32768,32767,-32768,False,False,False,True,True,False,False,False,False,True,False,False,False,False,False,False,False,False,False,False,False,False,False,False,False,False,False,False,False,True,False,False,False,0,3,False,False,617,0,0,1000,1000,0,0,0,0,1,4,0,0,0x0,0,0,0,1,Disabled,False,False,True,1,V0.1,    IR1800,
2019/10/22 - 08:51:00.044568,136,17.594682693481445,17.416122436523438,17.680715560913086,35.68284225463867,35.45558166503906,35.87113952636719,12345,28.884313583374023,28.53544807434082,29.027992248535156,0.0,0.0,0.0,3.2990000247955322,3.2990000247955322,3.2990000247955322,0.0,0.0,0.0,Idle,None,False,False,False,False,False,False,False,False,4298,137,On,Off,Idle,0,0,32767,0,-32768,32767,-32768,True,False,False,False,False,True,True,False,False,True,False,False,False,False,False,False,False,False,False,False,False,False,False,False,False,False,False,False,False,True,False,False,False,0,3,False,False,617,0,0,1000,1000,0,0,0,0,1,4,0,0,0x0,0,0,0,1,Disabled,False,False,True,1,V0.1,    IR1800,
2019/10/22 - 08:51:01.037815,137,17.5800724029541,17.416122436523438,17.680715560913086,35.663360595703125,35.45558166503906,35.87113952636719,12345,28.94589614868164,28.53544807434082,29.027992248535156,0.0,0.0,0.0,3.2990000247955322,3.2990000247955322,3.2990000247955322,0.0,0.0,0.0,Idle,None,False,False,False,False,False,False,False,False,4298,137,On,Off,Idle,0,0,32767,0,-32768,32767,-32768,False,False,False,False,True,True,True,False,False,True,False,False,False,False,False,False,False,False,False,False,False,False,False,False,False,False,False,False,False,True,False,False,False,0,3,False,False,617,0,0,1000,1000,0,0,0,0,1,4,0,0,0x0,0,0,0,1,Disabled,False,False,True,1,V0.1,    IR1800,
2019/10/22 - 08:51:02.060991,138,17.581695556640625,17.416122436523438,17.680715560913086,35.72829055786133,35.45558166503906,35.87113952636719,12345,28.94589614868164,28.53544807434082,29.027992248535156,0.0,0.0,0.0,3.2990000247955322,3.2990000247955322,3.2990000247955322,0.0,0.0,0.0,Idle,None,False,False,False,False,False,False,False,False,4298,137,On,Off,Idle,0,0,32767,0,-32768,32767,-32768,False,False,False,False,False,False,False,False,False,True,False,False,False,False,False,False,False,False,False,False,False,False,False,False,False,False,False,False,False,True,False,False,False,0,3,False,False,617,0,0,1000,1000,0,0,0,0,1,4,0,0,0x10006914,0,0,0,1,Disabled,False,False,True,1,V0.1,    IR1800,
