Time,Runtime,Current3V3,Current3V3Min,Current3V3Max,CurrentHTPA,CurrentHTPAMin,CurrentHTPAMax,CurrentCubeDock3V3_1,TemperatureMCU,TemperatureMCUMin,TemperatureMCUMax,TemperatureHTPA,TemperatureHTPAMin,TemperatureHTPAMax,VoltageMCU,VoltageMCUMin,VoltageMCUMax,VoltageHTPA,VoltageHTPAMin,VoltageHTPAMax,ADSSampleMode,HTPACalibLevel,HILEnabled,HILBusy,HILEnableImgVddComp,HILEnableImgTobjCalib,HILEnableEdgeDet,HILEnableLensDistCorr,HILEnablePolyFit,HILEnableAttEst,HTPADeviceID,HTPATableNumber,HtpaPowerState,HtpaWakeState,HtpaCaptureState,HtpaPTAT,HtpaVdd,HTPAImageLastMin,HTPAImageLastMean,HTPAImageLastMax,HTPAImageAllTimeMin,HTPAImageAllTimeMax,SRAM2ParityError,FlashCorruption,3V3OverCurrent,HTPAOverCurrent,Timer1sOverRun,MCUOverTemperature,MCUUnderTemperature,HTPAOverTemperature,HTPAUnderTemperature,HTPACalibLookupOutOfRange,HTPAIntegrationTimeout,HTPANotResponding,HTPAConfigMismatch,HTPASpiTimeout,CommsTcSlotsBuffFull,CommsTcParamBuffFull,CommsUartProtError,CommsUartMsgIncomplete,CommsUartTcParamOverflow,UARTTxOverflow,CommsTcInvalidID,CommsTcInvalidPar,CommsTcInvalidParLen,CommsTcTimeout,CommsTlmInvalidID,UARTTxReadingEmptyBuffer,UARTRxByteOverrun,UARTRxFramingError,UartTxTimeout,FRAMStatusNotResponding,FRAMDeviceNotFound,FRAMSpiTimeout,ConfigRewrittenFromMemory,ConfigExtMemorySlotOverwritten,ConfigNoConfigFoundInMemory,ConfigNumOfValidSlots,ConfigNotSaved,ConfigDataLoss,SwStartupTime,SwProcessingTime,SwProcessingTimeMax,SwLoopTime,SwLoopTimeMax,SwImgCaptureTime,SwLensDistCorrTime,SwEstimationTime,SwConfigRefreshMaxTime,SwConfigCheckMemoryMaxTime,SwAdcMeasurementTime,DetectedBitFlips,FlashFaults,FlashLastFaultAddress,RadNumOfFaultsLast,RadNumOfFaultsTotal,RadLastFaultIndex,RadIterationsCompleted,RadMode,RadCheckSRAM,RadCheckFRAM,SRAM2ParityCheckEnabled,InterfaceVersion,FirmwareVersion,CubeIR SN,IRCAM SN,
2019/10/22 - 15:30:18.881761,-,17.571956634521484,17.279766082763672,17.64175796508789,35.76400375366211,35.11469268798828,35.858154296875,-,29.684694290161133,27.673503875732422,29.80782127380371,0.0,0.0,0.0,3.3010001182556152,3.2920000553131104,3.3010001182556152,0.0,0.0,0.0,-,-,-,-,-,-,-,-,-,-,-,-,-,-,-,-,-,-,-,-,-,-,False,False,False,False,False,False,False,False,False,False,False,True,False,False,False,False,False,False,False,False,False,False,False,False,False,False,False,False,False,True,True,False,-,-,-,-,-,-,-,-,-,-,-,-,-,-,-,-,-,0,0,0,-,-,-,-,-,-,-,-,1,V0.1,-,-,
2019/10/22 - 15:30:19.830981,-,17.581695556640625,17.279766082763672,17.64175796508789,35.712059020996094,35.11469268798828,35.858154296875,-,29.78730583190918,27.673503875732422,29.80782127380371,0.0,0.0,0.0,3.3010001182556152,3.2920000553131104,3.3010001182556152,0.0,0.0,0.0,-,-,-,-,-,-,-,-,-,-,-,-,-,-,-,-,-,-,-,-,-,-,False,False,False,False,False,False,False,False,False,False,False,True,False,False,False,False,False,False,False,False,False,False,False,False,False,False,False,False,False,True,True,False,-,-,-,-,-,-,-,-,-,-,-,-,-,-,-,-,-,0,0,0,-,-,-,-,-,-,-,-,1,V0.1,-,-,
2019/10/22 - 15:30:20.847511,-,17.495662689208984,17.279766082763672,17.64175796508789,35.663360595703125,35.11469268798828,35.858154296875,-,29.64366340637207,27.673503875732422,29.80782127380371,0.0,0.0,0.0,3.3010001182556152,3.2920000553131104,3.3010001182556152,0.0,0.0,0.0,-,-,-,-,-,-,-,-,-,-,-,-,-,-,-,-,-,-,-,-,-,-,False,False,False,False,False,False,False,False,False,False,False,True,False,False,False,False,False,False,False,False,False,False,False,False,False,False,False,False,False,True,True,False,-,-,-,-,-,-,-,-,-,-,-,-,-,-,-,-,-,0,0,0,-,-,-,-,-,-,-,-,1,V0.1,-,-,
2019/10/22 - 15:30:21.783239,-,17.602798461914062,17.279766082763672,17.64175796508789,35.80296325683594,35.11469268798828,35.858154296875,-,29.74627685546875,27.673503875732422,29.80782127380371,0.0,0.0,0.0,3.3010001182556152,3.2920000553131104,3.3010001182556152,0.0,0.0,0.0,-,-,-,-,-,-,-,-,-,-,-,-,-,-,-,-,-,-,-,-,-,-,False,False,False,False,False,False,False,False,False,False,False,True,False,False,False,False,False,False,False,False,False,False,False,False,False,False,False,False,False,True,True,False,-,-,-,-,-,-,-,-,-,-,-,-,-,-,-,-,-,0,0,0,-,-,-,-,-,-,-,-,1,V0.1,-,-,
2019/10/22 - 15:30:22.807259,-,17.57033348083496,17.279766082763672,17.64175796508789,35.643882751464844,35.11469268798828,35.858154296875,-,29.72576141357422,27.673503875732422,29.80782127380371,0.0,0.0,0.0,3.3010001182556152,3.2920000553131104,3.3010001182556152,0.0,0.0,0.0,-,-,-,-,-,-,-,-,-,-,-,-,-,-,-,-,-,-,-,-,-,-,False,False,False,False,False,False,False,False,False,False,False,True,False,False,False,False,False,False,False,False,False,False,False,False,False,False,False,False,False,True,True,False,-,-,-,-,-,-,-,-,-,-,-,-,-,-,-,-,-,0,0,0,-,-,-,-,-,-,-,-,1,V0.1,-,-,
2019/10/22 - 15:30:23.819677,-,17.554100036621094,17.279766082763672,17.64175796508789,35.56596374511719,35.11469268798828,35.858154296875,-,29.828372955322266,27.673503875732422,29.828372955322266,0.0,0.0,0.0,3.3010001182556152,3.2920000553131104,3.3010001182556152,0.0,0.0,0.0,-,-,-,-,-,-,-,-,-,-,-,-,-,-,-,-,-,-,-,-,-,-,False,False,False,False,False,False,False,False,False,False,False,True,False,False,False,False,False,False,False,False,False,False,False,False,False,False,False,False,False,True,True,False,-,-,-,-,-,-,-,-,-,-,-,-,-,-,-,-,-,0,0,0,-,-,-,-,-,-,-,-,1,V0.1,-,-,
2019/10/22 - 15:30:24.823640,-,17.58819007873535,17.279766082763672,17.64175796508789,35.767250061035156,35.11469268798828,35.858154296875,-,29.889917373657227,27.673503875732422,29.889917373657227,0.0,0.0,0.0,3.3010001182556152,3.2920000553131104,3.3010001182556152,0.0,0.0,0.0,-,-,-,-,-,-,-,-,-,-,-,-,-,-,-,-,-,-,-,-,-,-,False,False,False,False,False,False,False,False,False,False,False,True,False,False,False,False,False,False,False,False,False,False,False,False,False,False,False,False,False,True,True,False,-,-,-,-,-,-,-,-,-,-,-,-,-,-,-,-,-,0,0,0,-,-,-,-,-,-,-,-,1,V0.1,-,-,
2019/10/22 - 15:30:25.874296,-,17.622278213500977,17.279766082763672,17.64175796508789,35.614662170410156,35.11469268798828,35.858154296875,-,29.76679039001465,27.673503875732422,29.889917373657227,0.0,0.0,0.0,3.3010001182556152,3.2920000553131104,3.3010001182556152,0.0,0.0,0.0,-,-,-,-,-,-,-,-,-,-,-,-,-,-,-,-,-,-,-,-,-,-,False,False,False,False,False,False,False,False,False,False,False,True,False,False,False,False,False,False,False,False,False,False,False,False,False,False,False,False,False,True,True,False,-,-,-,-,-,-,-,-,-,-,-,-,-,-,-,-,-,0,0,0,-,-,-,-,-,-,-,-,1,V0.1,-,-,
2019/10/22 - 15:30:26.828828,-,17.56059455871582,17.279766082763672,17.64175796508789,35.757511138916016,35.11469268798828,35.858154296875,-,29.828372955322266,27.673503875732422,29.889917373657227,0.0,0.0,0.0,3.3010001182556152,3.2920000553131104,3.3010001182556152,0.0,0.0,0.0,-,-,-,-,-,-,-,-,-,-,-,-,-,-,-,-,-,-,-,-,-,-,False,False,False,False,False,False,False,False,False,False,False,True,False,False,False,False,False,False,False,False,False,False,False,False,False,False,False,False,False,True,True,False,-,-,-,-,-,-,-,-,-,-,-,-,-,-,-,-,-,0,0,0,-,-,-,-,-,-,-,-,1,V0.1,-,-,
2019/10/22 - 15:30:27.806290,-,17.56546401977539,17.279766082763672,17.64175796508789,35.851661682128906,35.11469268798828,35.858154296875,-,29.828372955322266,27.673503875732422,29.889917373657227,0.0,0.0,0.0,3.3010001182556152,3.2920000553131104,3.3010001182556152,0.0,0.0,0.0,-,-,-,-,-,-,-,-,-,-,-,-,-,-,-,-,-,-,-,-,-,-,False,False,False,False,False,False,False,False,False,False,False,True,False,False,False,False,False,False,False,False,False,False,False,False,False,False,False,False,False,True,True,False,-,-,-,-,-,-,-,-,-,-,-,-,-,-,-,-,-,0,0,0,-,-,-,-,-,-,-,-,1,V0.1,-,-,
