2019/10/22 - 14:48:48.260044 | MAIN                | App started running
2019/10/22 - 14:48:53.116786 | CommsUART           | Successfully connected to COM8.
2019/10/22 - 14:48:54.218827 | App                 | Device is Responding
2019/10/22 - 14:49:02.062162 | EXCEPTION           | Traceback (most recent call last):
  File "C:/Users/heinw/Documents/CubeSpace/CubeIR/Software Design/GUI-Python/app_threaded.py", line 654, in butt_fcn_setconfig_device
    oc = int(self.ui.text_config_device_overcurrent.text())
ValueError: invalid literal for int() with base 10: ''

2019/10/22 - 14:49:06.013257 | App                 | Setting General Configuration to: [0, True, False, False]
2019/10/22 - 14:49:12.725223 | App                 | Setting General Configuration to: [0, False, False, False]
2019/10/22 - 14:49:19.613272 | App                 | Setting General Configuration to: [0, False, True, False]
2019/10/22 - 14:49:44.661232 | App                 | Setting General Configuration to: [0, False, False, False]
