2019/10/22 - 09:05:07.161103 | MAIN                | App started running
2019/10/22 - 09:05:29.269284 | CommsUART           | Successfully connected to COM8.
2019/10/22 - 09:05:30.244746 | App                 | Device is Responding
2019/10/22 - 09:05:34.518637 | App                 | Setting Configuration name to SN: "Vis" and I2C Address to 0x22.
