2019/10/16 - 15:35:02.375475 | MAIN                | App started running
2019/10/16 - 15:35:13.828165 | MAIN                | App started running
2019/10/16 - 15:35:17.826523 | CommsUART           | Successfully connected to COM8.
2019/10/16 - 15:35:18.240721 | App                 | Device is Responding
2019/10/16 - 15:35:18.420760 | EXCEPTION           | Traceback (most recent call last):
  File "C:/Users/heinw/Documents/CubeSpace/CubeIR/Software Design/GUI-Python/app_threaded.py", line 192, in slot_receive_generic_tctlm
    self.update_gui_fields(tctlm)
  File "C:/Users/heinw/Documents/CubeSpace/CubeIR/Software Design/GUI-Python/app_threaded.py", line 342, in update_gui_fields
    self.ui.text_swtimings_maxproself.cessingtime.setText("%d" % tlm.reply.ProcessingTimeMax)
AttributeError: 'Ui_MainWindow' object has no attribute 'text_swtimings_maxproself'

2019/10/16 - 15:35:39.642287 | MAIN                | App started running
2019/10/16 - 15:35:43.524660 | CommsUART           | Successfully connected to COM8.
2019/10/16 - 15:35:43.890520 | App                 | Device is Responding
2019/10/16 - 15:35:44.070492 | EXCEPTION           | Traceback (most recent call last):
  File "C:/Users/heinw/Documents/CubeSpace/CubeIR/Software Design/GUI-Python/app_threaded.py", line 192, in slot_receive_generic_tctlm
    self.update_gui_fields(tctlm)
  File "C:/Users/heinw/Documents/CubeSpace/CubeIR/Software Design/GUI-Python/app_threaded.py", line 342, in update_gui_fields
    self.ui.text_swtimings_max.cessingtime.setText("%d" % tlm.reply.ProcessingTimeMax)
AttributeError: 'Ui_MainWindow' object has no attribute 'text_swtimings_max'

