2019/10/16 - 14:50:09.307925 | MAIN                | App started running
2019/10/16 - 14:50:13.475109 | CommsUART           | Successfully connected to COM8.
2019/10/16 - 14:50:13.809494 | App                 | Device is Responding
2019/10/16 - 14:50:13.937372 | EXCEPTION           | Traceback (most recent call last):
  File "C:/Users/heinw/Documents/CubeSpace/CubeIR/Software Design/GUI-Python/app_threaded.py", line 192, in slot_receive_generic_tctlm
    self.update_gui_fields(tctlm)
  File "C:/Users/heinw/Documents/CubeSpace/CubeIR/Software Design/GUI-Python/app_threaded.py", line 409, in update_gui_fields
    tlm.reply.DeviceErrorFlags.UnderTemperatureHTPA)
AttributeError: 'AppThreaded' object has no attribute 'data_tself'

2019/10/16 - 14:50:38.016377 | MAIN                | App started running
2019/10/16 - 14:50:42.498795 | CommsUART           | Successfully connected to COM8.
2019/10/16 - 14:50:42.895889 | App                 | Device is Responding
