2019/10/16 - 14:30:19.193887 | MAIN                | App started running
2019/10/16 - 14:30:23.461879 | CommsUART           | Successfully connected to COM8.
2019/10/16 - 14:30:23.475857 | App                 | Device is Responding
2019/10/16 - 14:30:23.477857 | EXCEPTION           | Traceback (most recent call last):
  File "C:/Users/heinw/Documents/CubeSpace/CubeIR/Software Design/GUI-Python/app_threaded.py", line 192, in slot_receive_generic_tctlm
    self.update_gui_fields(tctlm)
  File "C:/Users/heinw/Documents/CubeSpace/CubeIR/Software Design/GUI-Python/app_threaded.py", line 207, in update_gui_fields
    self.data_to_log[self.loggers['data'].key_index("InterfaceVersion")] = str(d.InterfaceVersion)
TypeError: 'NoneType' object does not support item assignment

2019/10/16 - 14:30:44.233664 | MAIN                | App started running
2019/10/16 - 14:30:49.076543 | CommsUART           | Successfully connected to COM8.
2019/10/16 - 14:30:49.092609 | App                 | Device is Responding
