2019/10/16 - 14:40:24.616903 | MAIN                | App started running
2019/10/16 - 14:40:28.996962 | CommsUART           | Successfully connected to COM8.
2019/10/16 - 14:40:29.586553 | App                 | Device is Responding
