2019/10/16 - 14:27:02.932499 | MAIN                | App started running
2019/10/16 - 14:27:07.029391 | CommsUART           | Successfully connected to COM8.
2019/10/16 - 14:27:07.044383 | App                 | Device is Responding
2019/10/16 - 14:27:07.045395 | EXCEPTION           | Traceback (most recent call last):
  File "C:/Users/heinw/Documents/CubeSpace/CubeIR/Software Design/GUI-Python/app_threaded.py", line 191, in slot_receive_generic_tctlm
    self.update_gui_fields(tctlm)
  File "C:/Users/heinw/Documents/CubeSpace/CubeIR/Software Design/GUI-Python/app_threaded.py", line 199, in update_gui_fields
    self.ui.text_iden_node.setText(str(tlm.tctlm.reply.NodeType))
AttributeError: type object 'Identification_t' has no attribute 'reply'

