2019/10/16 - 14:05:02.856917 | MAIN                | App started running
2019/10/16 - 14:05:19.560420 | MAIN                | App started running
2019/10/16 - 14:05:22.643089 | EXCEPTION           | TypeError: slot_handle_generic_tctlm() missing 1 required positional argument: 'tctlms'

2019/10/16 - 14:05:42.416375 | MAIN                | App started running
2019/10/16 - 14:05:45.515063 | EXCEPTION           | Traceback (most recent call last):
  File "C:\Users\heinw\Documents\CubeSpace\CubeIR\Software Design\GUI-Python\tctlm_wrapper.py", line 54, in slot_handle_generic_tctlm
    tctlm.set_reply(self.attempt_comms(tctlm.get_fun, params=tctlm.params, raise_exception=True))
AttributeError: 'Generic_TCTLM_t' object has no attribute 'get_fun'

