2019/10/16 - 15:00:16.606215 | MAIN                | App started running
2019/10/16 - 15:00:20.422802 | CommsUART           | Successfully connected to COM8.
2019/10/16 - 15:00:21.173773 | App                 | Device is Responding
2019/10/16 - 15:00:21.683468 | EXCEPTION           | Traceback (most recent call last):
  File "C:/Users/heinw/Documents/CubeSpace/CubeIR/Software Design/GUI-Python/app_threaded.py", line 192, in slot_receive_generic_tctlm
    self.update_gui_fields(tctlm)
  File "C:/Users/heinw/Documents/CubeSpace/CubeIR/Software Design/GUI-Python/app_threaded.py", line 222, in update_gui_fields
    hours, remainder = divmod(int(tlm.tctlm.RunTimeSeconds), 3600)
TypeError: int() argument must be a string, a bytes-like object or a number, not 'property'

