2019/11/08 - 08:29:50.230934 | MAIN                | App started running
2019/11/08 - 08:30:09.952407 | UART                | Successfully connected to COM13.
2019/11/08 - 08:30:11.463819 | App                 | Device Not Responding: [<bound method TCTLM.get_identification of <tctlm_wrapper.TCTLM_SignalWrapper object at 0x000001B2B00D41F8>>. No Reply from device.]
2019/11/08 - 08:30:11.467755 | EXCEPTION           | Traceback (most recent call last):
  File "C:\Users\heinw\Documents\CubeSpace\CubeIR\Software Design\GUI-Python\comms.py", line 92, in uart_receive_response
    byte = self.uart.read_byte()[0]         # This call should have the time out that
TypeError: 'NoneType' object is not subscriptable

During handling of the above exception, another exception occurred:

Traceback (most recent call last):
  File "C:\Users\heinw\Documents\CubeSpace\CubeIR\Software Design\GUI-Python\tctlm_wrapper.py", line 58, in slot_handle_generic_tctlm
    tctlm.set_reply(self.attempt_comms(tctlm.tlm_fun, raise_exception=True))
  File "C:\Users\heinw\Documents\CubeSpace\CubeIR\Software Design\GUI-Python\tctlm_wrapper.py", line 80, in attempt_comms
    raise e
  File "C:\Users\heinw\Documents\CubeSpace\CubeIR\Software Design\GUI-Python\tctlm_wrapper.py", line 73, in attempt_comms
    rx = tctlm(*params)
  File "C:\Users\heinw\Documents\CubeSpace\CubeIR\Software Design\GUI-Python\tctlm.py", line 88, in get_identification
    rx = self.comms.tlm(128, tlm_length=8)
  File "C:\Users\heinw\Documents\CubeSpace\CubeIR\Software Design\GUI-Python\comms.py", line 71, in tlm
    return self.uart_receive_response()
  File "C:\Users\heinw\Documents\CubeSpace\CubeIR\Software Design\GUI-Python\comms.py", line 94, in uart_receive_response
    raise self.NoResponseError('No Reply from device.')
comms.Comms.NoResponseError: No Reply from device.

2019/11/08 - 08:30:22.871128 | App                 | Device is Responding
2019/11/08 - 08:31:31.849483 | App                 | Setting HTPA Power: Off.
2019/11/08 - 08:31:31.850483 | App                 | Setting HTPA Power: Off.
2019/11/08 - 08:31:34.697298 | App                 | Setting HTPA Power: On.
2019/11/08 - 08:31:34.698298 | App                 | Setting HTPA Power: On.
2019/11/08 - 08:31:39.565032 | UART                | Successfully disconneted from port.
