2993.00000,2993.00000,2993.00000,2993.00000,2993.00000,2993.00000,2993.00000,2993.00000,2993.00000,2993.00000,2993.00000,2993.00000,2993.00000,2993.00000,2993.00000,2992.00000,2985.00000,2988.00000,2981.00000,2988.00000,2984.00000,2978.00000,2980.00000,2985.00000,2978.00000,2983.00000,2984.00000,2978.00000,2979.00000,2977.00000,2982.00000,2983.00000,2980.00000,2979.00000,2981.00000,2983.00000,2982.00000,2982.00000,2981.00000,2984.00000,2979.00000,2981.00000,2981.00000,2979.00000,2977.00000,2984.00000,2980.00000,2986.00000,2987.00000,2979.00000,2978.00000,2978.00000,2980.00000,2982.00000,2984.00000,2981.00000,2984.00000,2983.00000,2986.00000,2992.00000,2987.00000,2991.00000,2987.00000,2991.00000,2987.00000,2982.00000,2993.00000,2993.00000,2993.00000,2993.00000,2993.00000,2993.00000,2993.00000,2993.00000,2993.00000,2993.00000,2993.00000,2993.00000,2993.00000,2993.00000
2993.00000,2993.00000,2993.00000,2993.00000,2993.00000,2993.00000,2993.00000,2993.00000,2993.00000,2993.00000,2993.00000,2993.00000,2993.00000,2993.00000,2985.00000,2982.00000,2988.00000,2985.00000,2985.00000,2979.00000,2980.00000,2983.00000,2980.00000,2990.00000,2978.00000,2983.00000,2987.00000,2986.00000,2980.00000,2984.00000,2977.00000,2977.00000,2981.00000,2984.00000,2983.00000,2980.00000,2985.00000,2979.00000,2985.00000,2987.00000,2985.00000,2985.00000,2984.00000,2985.00000,2980.00000,2980.00000,2983.00000,2981.00000,2983.00000,2984.00000,2981.00000,2985.00000,2984.00000,2987.00000,2984.00000,2979.00000,2982.00000,2980.00000,2985.00000,2983.00000,2980.00000,2981.00000,2981.00000,2985.00000,2986.00000,2988.00000,2989.00000,2993.00000,2993.00000,2993.00000,2993.00000,2993.00000,2993.00000,2993.00000,2993.00000,2993.00000,2993.00000,2993.00000,2993.00000,2993.00000
2993.00000,2993.00000,2993.00000,2993.00000,2993.00000,2993.00000,2993.00000,2993.00000,2993.00000,2993.00000,2993.00000,2993.00000,2993.00000,2981.00000,2988.00000,2988.00000,2993.00000,2986.00000,2986.00000,2988.00000,2986.00000,2981.00000,2987.00000,2986.00000,2985.00000,2983.00000,2986.00000,2983.00000,2984.00000,2980.00000,2981.00000,2981.00000,2982.00000,2980.00000,2984.00000,2984.00000,2983.00000,2980.00000,2985.00000,2984.00000,2982.00000,2978.00000,2982.00000,2981.00000,2984.00000,2983.00000,2984.00000,2986.00000,2983.00000,2983.00000,2977.00000,2986.00000,2982.00000,2985.00000,2982.00000,2986.00000,2990.00000,2988.00000,2985.00000,2976.00000,2983.00000,2985.00000,2983.00000,2989.00000,2987.00000,2984.00000,2995.00000,2989.00000,2993.00000,2993.00000,2993.00000,2993.00000,2993.00000,2993.00000,2993.00000,2993.00000,2993.00000,2993.00000,2993.00000,2993.00000
2993.00000,2993.00000,2993.00000,2993.00000,2993.00000,2993.00000,2993.00000,2993.00000,2993.00000,2993.00000,2993.00000,2993.00000,2994.00000,2981.00000,2983.00000,2980.00000,2977.00000,2986.00000,2983.00000,2990.00000,2980.00000,2990.00000,2984.00000,2984.00000,2986.00000,2986.00000,2987.00000,2980.00000,2984.00000,2979.00000,2984.00000,2986.00000,2983.00000,2982.00000,2985.00000,2988.00000,2980.00000,2981.00000,2982.00000,2978.00000,2981.00000,2988.00000,2986.00000,2984.00000,2986.00000,2984.00000,2985.00000,2981.00000,2982.00000,2984.00000,2984.00000,2982.00000,2982.00000,2983.00000,2979.00000,2982.00000,2983.00000,2985.00000,2987.00000,2985.00000,2983.00000,2990.00000,2984.00000,2987.00000,2991.00000,2990.00000,2985.00000,2990.00000,2983.00000,2993.00000,2993.00000,2993.00000,2993.00000,2993.00000,2993.00000,2993.00000,2993.00000,2993.00000,2993.00000,2993.00000
2993.00000,2993.00000,2993.00000,2993.00000,2993.00000,2993.00000,2993.00000,2993.00000,2993.00000,2993.00000,2993.00000,2994.00000,2981.00000,2978.00000,2983.00000,2985.00000,2982.00000,2988.00000,2983.00000,2989.00000,2984.00000,2978.00000,2992.00000,2984.00000,2982.00000,2979.00000,2982.00000,2985.00000,2983.00000,2986.00000,2984.00000,2986.00000,2978.00000,2985.00000,2985.00000,2982.00000,2983.00000,2982.00000,2981.00000,2980.00000,2986.00000,2981.00000,2985.00000,2982.00000,2987.00000,2983.00000,2984.00000,2983.00000,2980.00000,2987.00000,2987.00000,2983.00000,2988.00000,2980.00000,2986.00000,2986.00000,2988.00000,2990.00000,2980.00000,2987.00000,2982.00000,2988.00000,2982.00000,2984.00000,2982.00000,2991.00000,2989.00000,2993.00000,2992.00000,2992.00000,2993.00000,2993.00000,2993.00000,2993.00000,2993.00000,2993.00000,2993.00000,2993.00000,2993.00000,2993.00000
2993.00000,2993.00000,2993.00000,2993.00000,2993.00000,2993.00000,2993.00000,2993.00000,2993.00000,2993.00000,2992.00000,2991.00000,2983.00000,2981.00000,2987.00000,2988.00000,2994.00000,2986.00000,2984.00000,2987.00000,2990.00000,2987.00000,2985.00000,2984.00000,2985.00000,2988.00000,2987.00000,2987.00000,2983.00000,2985.00000,2980.00000,2984.00000,2985.00000,2980.00000,2985.00000,2987.00000,2980.00000,2988.00000,2987.00000,2984.00000,2985.00000,2990.00000,2986.00000,2984.00000,2981.00000,2981.00000,2987.00000,2984.00000,2981.00000,2982.00000,2988.00000,2984.00000,2987.00000,2990.00000,2990.00000,2981.00000,2988.00000,2984.00000,2983.00000,2982.00000,2980.00000,2978.00000,2985.00000,2985.00000,2985.00000,2986.00000,2983.00000,2993.00000,2982.00000,2988.00000,2993.00000,2993.00000,2993.00000,2993.00000,2993.00000,2993.00000,2993.00000,2993.00000,2993.00000,2993.00000
2993.00000,2993.00000,2993.00000,2993.00000,2993.00000,2993.00000,2993.00000,2993.00000,2993.00000,2993.00000,2980.00000,2987.00000,2987.00000,2990.00000,2980.00000,2989.00000,2987.00000,2987.00000,2983.00000,2988.00000,2986.00000,2985.00000,2986.00000,2985.00000,2984.00000,2982.00000,2986.00000,2986.00000,2983.00000,2982.00000,2982.00000,2989.00000,2985.00000,2984.00000,2987.00000,2981.00000,2981.00000,2981.00000,2981.00000,2985.00000,2981.00000,2988.00000,2987.00000,2986.00000,2986.00000,2981.00000,2987.00000,2987.00000,2986.00000,2987.00000,2980.00000,2986.00000,2985.00000,2985.00000,2987.00000,2986.00000,2985.00000,2989.00000,2987.00000,2984.00000,2981.00000,2988.00000,2988.00000,2987.00000,2982.00000,2981.00000,2987.00000,2990.00000,2990.00000,2997.00000,2990.00000,2990.00000,2993.00000,2993.00000,2993.00000,2993.00000,2993.00000,2993.00000,2993.00000,2993.00000
2993.00000,2993.00000,2993.00000,2993.00000,2993.00000,2993.00000,2993.00000,2993.00000,3001.00000,2995.00000,2994.00000,2993.00000,2990.00000,2992.00000,2979.00000,2983.00000,2989.00000,2986.00000,2978.00000,2989.00000,2985.00000,2987.00000,2985.00000,2989.00000,2986.00000,2988.00000,2988.00000,2987.00000,2988.00000,2985.00000,2990.00000,2986.00000,2989.00000,2983.00000,2984.00000,2985.00000,2985.00000,2988.00000,2986.00000,2983.00000,2989.00000,2984.00000,2987.00000,2983.00000,2984.00000,2982.00000,2985.00000,2984.00000,2986.00000,2980.00000,2988.00000,2987.00000,2986.00000,2985.00000,2984.00000,2984.00000,2984.00000,2986.00000,2986.00000,2979.00000,2980.00000,2984.00000,2983.00000,2981.00000,2985.00000,2982.00000,2994.00000,2989.00000,2988.00000,2983.00000,2990.00000,2993.00000,2998.00000,2993.00000,2993.00000,2993.00000,2993.00000,2993.00000,2993.00000,2993.00000
2993.00000,2993.00000,2993.00000,2993.00000,2993.00000,2993.00000,2993.00000,2997.00000,2997.00000,3006.00000,2999.00000,2994.00000,2994.00000,2985.00000,2995.00000,2989.00000,2993.00000,2991.00000,2986.00000,2988.00000,2989.00000,2989.00000,2987.00000,2997.00000,2994.00000,2989.00000,2986.00000,2985.00000,2984.00000,2984.00000,2991.00000,2987.00000,2988.00000,2987.00000,2990.00000,2990.00000,2989.00000,2988.00000,2986.00000,2986.00000,2986.00000,2988.00000,2989.00000,2985.00000,2987.00000,2988.00000,2989.00000,2993.00000,2987.00000,2985.00000,2987.00000,2982.00000,2990.00000,2988.00000,2992.00000,2985.00000,2990.00000,2988.00000,2991.00000,2994.00000,2992.00000,2989.00000,2989.00000,2986.00000,2989.00000,2984.00000,2992.00000,2995.00000,3001.00000,2984.00000,2995.00000,2993.00000,3004.00000,3006.00000,2993.00000,2993.00000,2993.00000,2993.00000,2993.00000,2993.00000
2993.00000,2993.00000,2993.00000,2993.00000,2993.00000,2993.00000,2993.00000,3004.00000,3008.00000,3004.00000,2993.00000,2996.00000,2992.00000,2994.00000,2991.00000,2992.00000,2986.00000,2986.00000,2993.00000,2988.00000,2989.00000,2993.00000,2990.00000,2992.00000,2988.00000,2988.00000,2992.00000,2996.00000,2986.00000,2991.00000,2984.00000,2986.00000,2984.00000,2987.00000,2987.00000,2982.00000,2991.00000,2989.00000,2991.00000,2989.00000,2986.00000,2987.00000,2986.00000,2986.00000,2983.00000,2989.00000,2985.00000,2989.00000,2987.00000,2986.00000,2985.00000,2987.00000,2992.00000,2990.00000,2989.00000,2990.00000,2993.00000,2991.00000,2999.00000,2986.00000,2988.00000,2984.00000,2982.00000,2991.00000,2994.00000,2988.00000,2990.00000,2994.00000,2997.00000,2998.00000,3000.00000,3004.00000,3002.00000,3006.00000,2993.00000,2993.00000,2993.00000,2993.00000,2993.00000,2993.00000
2993.00000,2993.00000,2993.00000,2993.00000,2993.00000,2993.00000,3009.00000,3001.00000,2992.00000,2998.00000,2999.00000,2993.00000,2991.00000,2985.00000,2989.00000,2995.00000,2993.00000,2995.00000,2991.00000,2992.00000,2987.00000,2990.00000,2990.00000,2989.00000,2988.00000,2985.00000,2993.00000,2990.00000,2991.00000,2986.00000,2985.00000,2988.00000,2989.00000,2990.00000,2986.00000,2984.00000,2988.00000,2991.00000,2989.00000,2986.00000,2987.00000,2986.00000,2986.00000,2987.00000,2989.00000,2991.00000,2988.00000,2986.00000,2987.00000,2989.00000,2983.00000,2991.00000,2988.00000,2985.00000,2993.00000,2992.00000,2993.00000,2989.00000,2987.00000,2988.00000,2985.00000,2988.00000,2990.00000,2993.00000,2989.00000,2992.00000,2993.00000,2993.00000,2986.00000,2994.00000,2998.00000,3001.00000,2998.00000,3008.00000,3015.00000,2993.00000,2993.00000,2993.00000,2993.00000,2993.00000
2993.00000,2993.00000,2993.00000,2993.00000,2993.00000,3011.00000,3010.00000,2992.00000,2994.00000,2989.00000,3000.00000,2992.00000,2995.00000,2988.00000,2989.00000,2995.00000,2988.00000,2989.00000,2994.00000,2995.00000,2993.00000,2993.00000,2991.00000,2994.00000,2989.00000,2995.00000,2988.00000,2991.00000,2990.00000,2987.00000,2989.00000,2984.00000,2985.00000,2991.00000,2989.00000,2987.00000,2990.00000,2986.00000,2989.00000,2988.00000,2986.00000,2991.00000,2992.00000,2989.00000,2988.00000,2992.00000,2989.00000,2987.00000,2987.00000,2990.00000,2989.00000,2985.00000,2987.00000,2986.00000,2988.00000,2990.00000,2983.00000,2989.00000,2985.00000,2992.00000,2994.00000,2990.00000,2983.00000,2992.00000,2989.00000,2990.00000,2988.00000,2990.00000,2996.00000,3000.00000,2996.00000,2993.00000,2998.00000,3011.00000,3006.00000,3003.00000,2993.00000,2993.00000,2993.00000,2993.00000
2993.00000,2993.00000,2993.00000,2993.00000,2993.00000,3007.00000,3008.00000,2991.00000,2999.00000,2996.00000,3000.00000,2999.00000,2991.00000,2986.00000,2990.00000,2996.00000,2987.00000,2991.00000,2992.00000,2993.00000,2993.00000,2986.00000,2995.00000,2988.00000,2993.00000,2988.00000,2990.00000,2995.00000,2987.00000,2989.00000,2991.00000,2987.00000,2988.00000,2991.00000,2989.00000,2987.00000,2984.00000,2984.00000,2989.00000,2985.00000,2993.00000,2988.00000,2985.00000,2995.00000,2990.00000,2988.00000,2988.00000,2986.00000,2991.00000,2989.00000,2990.00000,2988.00000,2989.00000,2986.00000,2989.00000,2996.00000,2995.00000,2990.00000,2988.00000,2992.00000,2995.00000,2986.00000,2986.00000,2991.00000,2992.00000,2987.00000,2990.00000,2989.00000,2995.00000,2990.00000,2993.00000,2998.00000,3001.00000,2998.00000,2995.00000,3013.00000,2993.00000,2993.00000,2993.00000,2993.00000
2993.00000,2993.00000,2993.00000,2993.00000,3011.00000,3004.00000,2999.00000,2994.00000,2997.00000,2998.00000,2993.00000,2989.00000,2987.00000,2988.00000,2994.00000,2992.00000,2995.00000,2994.00000,2987.00000,2988.00000,2992.00000,2990.00000,2991.00000,2985.00000,2991.00000,2991.00000,2991.00000,2990.00000,2987.00000,2989.00000,2987.00000,2988.00000,2993.00000,2986.00000,2987.00000,2992.00000,2986.00000,2991.00000,2992.00000,2989.00000,2985.00000,2990.00000,2987.00000,2987.00000,2986.00000,2990.00000,2986.00000,2988.00000,2987.00000,2989.00000,2990.00000,2987.00000,2989.00000,2989.00000,2987.00000,2986.00000,2987.00000,2991.00000,2994.00000,2996.00000,2990.00000,2990.00000,2989.00000,2991.00000,2988.00000,2990.00000,2985.00000,2994.00000,2989.00000,2990.00000,2999.00000,2989.00000,2998.00000,3001.00000,2998.00000,3006.00000,3008.00000,2993.00000,2993.00000,2993.00000
2993.00000,2993.00000,2993.00000,2993.00000,3004.00000,2999.00000,3002.00000,3001.00000,2991.00000,2992.00000,2988.00000,2991.00000,2988.00000,2996.00000,2990.00000,2996.00000,2990.00000,2990.00000,2989.00000,2990.00000,2996.00000,2988.00000,2985.00000,2988.00000,2988.00000,2990.00000,2990.00000,2988.00000,2990.00000,2987.00000,2988.00000,2988.00000,2992.00000,2985.00000,2985.00000,2983.00000,2989.00000,2988.00000,2988.00000,2992.00000,2985.00000,2990.00000,2988.00000,2988.00000,2987.00000,2988.00000,2993.00000,2989.00000,2989.00000,2989.00000,2989.00000,2989.00000,2992.00000,2991.00000,2989.00000,2993.00000,2992.00000,2993.00000,2989.00000,2985.00000,2986.00000,2984.00000,2991.00000,2990.00000,2991.00000,2987.00000,2986.00000,2991.00000,2996.00000,3002.00000,2993.00000,2995.00000,2997.00000,3003.00000,3002.00000,3002.00000,3015.00000,2993.00000,2993.00000,2993.00000
2993.00000,2993.00000,2993.00000,3005.00000,3004.00000,3005.00000,2998.00000,2999.00000,2997.00000,2991.00000,2994.00000,2992.00000,2990.00000,2989.00000,2989.00000,2988.00000,2990.00000,2994.00000,2984.00000,2997.00000,2992.00000,2991.00000,2986.00000,2992.00000,2989.00000,2992.00000,2995.00000,2989.00000,2990.00000,2991.00000,2996.00000,2991.00000,2992.00000,2994.00000,2987.00000,2990.00000,2991.00000,2989.00000,2990.00000,2986.00000,2990.00000,2985.00000,2989.00000,2989.00000,2991.00000,2989.00000,2989.00000,2988.00000,2992.00000,2994.00000,2992.00000,2991.00000,2987.00000,2994.00000,2994.00000,2995.00000,2993.00000,2990.00000,2992.00000,2988.00000,2986.00000,2991.00000,2990.00000,2987.00000,2990.00000,2991.00000,2994.00000,2994.00000,3000.00000,2994.00000,2990.00000,2992.00000,3003.00000,2996.00000,3005.00000,3006.00000,3008.00000,3018.00000,2993.00000,2993.00000
2993.00000,2993.00000,2993.00000,3012.00000,3007.00000,3012.00000,3000.00000,2995.00000,2992.00000,3000.00000,2998.00000,3000.00000,2993.00000,2998.00000,2990.00000,2994.00000,2994.00000,2996.00000,2990.00000,2993.00000,2994.00000,2992.00000,2991.00000,2997.00000,2990.00000,2991.00000,2988.00000,2986.00000,2989.00000,2989.00000,2997.00000,2990.00000,2990.00000,2989.00000,2990.00000,2992.00000,2988.00000,2989.00000,2989.00000,2992.00000,2991.00000,2993.00000,2993.00000,2992.00000,2992.00000,2989.00000,2993.00000,2991.00000,2996.00000,2985.00000,2986.00000,2985.00000,2986.00000,2991.00000,2994.00000,2987.00000,2990.00000,2994.00000,2993.00000,2994.00000,2994.00000,2993.00000,2993.00000,2990.00000,2991.00000,2991.00000,2995.00000,2992.00000,2997.00000,2990.00000,2998.00000,2998.00000,3000.00000,2998.00000,3000.00000,2999.00000,3015.00000,3017.00000,2993.00000,2993.00000
2993.00000,2993.00000,3029.00000,3014.00000,3008.00000,3005.00000,3003.00000,2995.00000,2997.00000,3001.00000,2996.00000,2997.00000,3000.00000,2997.00000,2991.00000,2994.00000,2988.00000,2988.00000,2990.00000,2997.00000,2995.00000,2995.00000,2997.00000,2995.00000,2991.00000,2989.00000,2995.00000,2989.00000,2989.00000,2996.00000,2988.00000,2989.00000,2987.00000,2987.00000,2990.00000,2989.00000,2988.00000,2988.00000,2991.00000,2988.00000,2991.00000,2989.00000,2992.00000,2990.00000,2986.00000,2994.00000,2990.00000,2993.00000,2990.00000,2990.00000,2990.00000,2988.00000,2995.00000,2990.00000,2988.00000,2997.00000,2996.00000,2997.00000,2996.00000,2992.00000,2994.00000,2991.00000,2990.00000,2995.00000,2995.00000,2991.00000,2995.00000,2995.00000,2996.00000,2991.00000,3002.00000,2992.00000,3002.00000,3006.00000,3008.00000,3004.00000,3015.00000,3008.00000,3018.00000,2993.00000
2993.00000,2993.00000,3005.00000,3008.00000,3002.00000,3008.00000,3002.00000,2995.00000,2994.00000,2993.00000,2999.00000,2998.00000,2995.00000,2991.00000,2991.00000,2993.00000,2993.00000,2990.00000,2994.00000,2989.00000,2991.00000,2995.00000,2994.00000,2989.00000,2987.00000,2989.00000,2989.00000,2991.00000,2990.00000,2990.00000,2989.00000,2991.00000,2993.00000,2988.00000,2988.00000,2990.00000,2990.00000,2994.00000,2989.00000,2989.00000,2991.00000,2985.00000,2992.00000,2987.00000,2991.00000,2992.00000,2995.00000,2991.00000,2991.00000,2989.00000,2987.00000,2995.00000,2988.00000,2989.00000,2987.00000,2991.00000,2995.00000,2995.00000,2992.00000,2990.00000,2988.00000,2992.00000,2995.00000,2996.00000,2995.00000,2991.00000,3000.00000,2995.00000,2998.00000,2994.00000,2997.00000,3002.00000,2996.00000,3004.00000,2999.00000,3001.00000,3009.00000,3018.00000,3018.00000,2993.00000
2993.00000,2993.00000,3005.00000,3020.00000,3001.00000,2998.00000,3004.00000,3003.00000,2999.00000,2998.00000,2995.00000,2998.00000,2994.00000,2992.00000,2990.00000,2991.00000,2986.00000,2992.00000,2993.00000,2992.00000,2993.00000,2994.00000,2993.00000,2995.00000,2992.00000,2994.00000,2995.00000,2995.00000,2996.00000,2993.00000,2992.00000,2996.00000,2987.00000,2995.00000,2989.00000,2992.00000,2993.00000,2990.00000,2990.00000,2992.00000,2996.00000,2994.00000,2993.00000,2989.00000,2990.00000,2990.00000,2991.00000,2991.00000,2992.00000,2994.00000,2992.00000,2990.00000,2985.00000,2987.00000,2990.00000,2990.00000,2992.00000,2993.00000,2994.00000,2997.00000,2997.00000,2992.00000,2988.00000,2995.00000,2992.00000,2994.00000,2990.00000,2991.00000,3003.00000,2998.00000,2992.00000,2998.00000,3001.00000,3006.00000,3002.00000,3005.00000,3006.00000,3020.00000,3018.00000,2993.00000
2993.00000,3020.00000,3005.00000,3003.00000,3001.00000,3005.00000,3005.00000,2998.00000,2999.00000,2994.00000,3001.00000,2998.00000,2994.00000,2991.00000,2991.00000,2989.00000,2995.00000,2990.00000,2995.00000,2994.00000,2995.00000,2990.00000,2997.00000,2993.00000,2996.00000,2989.00000,2991.00000,2995.00000,2989.00000,2989.00000,2994.00000,2996.00000,2988.00000,2994.00000,2986.00000,2992.00000,2991.00000,2989.00000,2988.00000,2984.00000,2986.00000,2990.00000,2992.00000,2993.00000,2989.00000,2988.00000,2989.00000,2988.00000,2998.00000,2993.00000,2991.00000,2991.00000,2994.00000,2991.00000,2992.00000,2995.00000,2996.00000,2988.00000,2990.00000,2997.00000,2994.00000,2992.00000,2988.00000,2992.00000,2992.00000,2992.00000,2996.00000,2994.00000,2991.00000,2998.00000,2998.00000,2998.00000,3001.00000,2999.00000,2997.00000,3003.00000,3012.00000,3012.00000,3021.00000,3029.00000
2993.00000,3016.00000,3005.00000,3011.00000,2999.00000,3000.00000,2996.00000,2998.00000,2991.00000,3000.00000,2993.00000,2992.00000,2993.00000,2986.00000,2995.00000,2999.00000,2994.00000,2992.00000,2996.00000,2992.00000,2994.00000,2992.00000,2992.00000,2993.00000,2991.00000,2995.00000,2995.00000,2993.00000,2989.00000,2993.00000,2990.00000,2990.00000,2991.00000,2990.00000,2988.00000,2992.00000,2986.00000,2995.00000,2995.00000,2988.00000,2990.00000,2991.00000,2990.00000,2993.00000,2989.00000,2988.00000,2990.00000,2989.00000,2995.00000,2987.00000,2992.00000,2988.00000,2989.00000,2990.00000,2994.00000,2988.00000,2992.00000,2996.00000,2996.00000,2998.00000,2996.00000,2997.00000,2993.00000,2997.00000,2994.00000,2994.00000,2994.00000,2995.00000,2992.00000,2994.00000,2997.00000,2996.00000,2998.00000,2997.00000,3005.00000,3005.00000,3014.00000,3008.00000,3022.00000,3028.00000
2993.00000,3015.00000,3009.00000,3005.00000,2996.00000,3002.00000,3000.00000,3002.00000,2990.00000,2996.00000,2992.00000,2998.00000,2993.00000,2987.00000,2990.00000,2992.00000,2994.00000,2992.00000,2993.00000,2990.00000,2998.00000,2995.00000,2994.00000,2991.00000,2995.00000,2994.00000,2990.00000,2993.00000,2989.00000,2991.00000,2990.00000,2995.00000,2989.00000,2988.00000,2990.00000,2986.00000,2991.00000,2990.00000,2992.00000,2997.00000,2986.00000,2996.00000,2991.00000,2997.00000,2989.00000,2992.00000,2993.00000,2989.00000,2992.00000,2995.00000,2987.00000,2989.00000,2993.00000,2991.00000,2996.00000,2992.00000,2992.00000,2993.00000,2990.00000,2990.00000,2992.00000,2991.00000,2994.00000,2995.00000,2993.00000,2991.00000,2990.00000,2997.00000,2998.00000,3000.00000,2995.00000,2992.00000,3003.00000,3000.00000,3005.00000,3005.00000,3006.00000,3011.00000,3019.00000,3027.00000
2993.00000,3006.00000,3009.00000,3008.00000,3007.00000,2993.00000,3005.00000,2998.00000,2997.00000,2998.00000,2991.00000,2995.00000,2992.00000,2989.00000,2990.00000,2993.00000,2990.00000,2988.00000,2990.00000,2997.00000,2985.00000,2989.00000,2986.00000,2994.00000,2992.00000,2996.00000,2990.00000,2990.00000,2988.00000,2987.00000,2991.00000,2992.00000,2992.00000,2996.00000,2992.00000,2989.00000,2992.00000,2988.00000,2990.00000,2996.00000,2994.00000,2991.00000,2991.00000,2991.00000,2991.00000,2992.00000,2989.00000,2993.00000,2993.00000,2995.00000,2990.00000,2990.00000,2987.00000,2997.00000,2993.00000,2996.00000,2990.00000,2992.00000,2993.00000,2991.00000,2984.00000,2995.00000,2993.00000,2989.00000,2989.00000,2993.00000,2998.00000,2995.00000,2990.00000,2998.00000,2992.00000,2997.00000,3000.00000,3004.00000,2998.00000,3004.00000,3001.00000,3015.00000,3010.00000,3029.00000
3022.00000,3012.00000,3010.00000,3005.00000,3001.00000,2996.00000,2995.00000,2998.00000,2990.00000,3003.00000,2996.00000,2992.00000,2993.00000,2998.00000,2993.00000,2998.00000,2993.00000,2994.00000,2995.00000,2990.00000,3001.00000,2993.00000,2995.00000,2990.00000,2994.00000,2990.00000,2989.00000,2988.00000,2989.00000,2987.00000,2992.00000,2997.00000,2988.00000,2989.00000,2994.00000,2994.00000,2990.00000,2990.00000,2987.00000,2993.00000,2992.00000,2996.00000,2991.00000,2992.00000,2990.00000,2996.00000,2991.00000,2992.00000,2996.00000,2988.00000,2992.00000,2990.00000,2989.00000,2992.00000,2995.00000,2991.00000,2995.00000,2994.00000,2997.00000,2994.00000,2995.00000,2995.00000,2992.00000,2989.00000,2992.00000,2997.00000,2996.00000,2998.00000,2991.00000,2992.00000,3001.00000,2998.00000,2999.00000,2999.00000,2996.00000,2999.00000,3013.00000,3008.00000,3009.00000,3023.00000
3018.00000,3020.00000,3013.00000,3004.00000,3005.00000,2996.00000,2999.00000,2997.00000,2996.00000,2993.00000,2996.00000,2996.00000,2996.00000,2995.00000,3001.00000,2997.00000,2991.00000,2992.00000,2995.00000,2993.00000,2992.00000,2994.00000,2989.00000,2998.00000,2990.00000,2994.00000,2993.00000,2997.00000,2993.00000,2998.00000,2988.00000,2991.00000,2989.00000,2991.00000,2992.00000,2992.00000,2993.00000,2991.00000,2993.00000,2991.00000,2993.00000,2992.00000,2991.00000,2995.00000,2990.00000,2995.00000,2991.00000,2992.00000,2989.00000,2991.00000,2988.00000,2991.00000,2995.00000,2994.00000,2991.00000,2994.00000,2998.00000,2996.00000,2996.00000,2996.00000,2993.00000,2990.00000,2993.00000,2997.00000,2992.00000,2997.00000,2990.00000,2995.00000,2994.00000,2995.00000,2995.00000,2999.00000,2998.00000,2999.00000,3002.00000,2997.00000,3010.00000,3009.00000,3002.00000,3021.00000
3015.00000,3016.00000,3014.00000,3008.00000,3003.00000,3003.00000,3007.00000,2999.00000,2994.00000,2996.00000,3003.00000,2996.00000,2998.00000,2992.00000,2995.00000,2992.00000,2988.00000,2995.00000,2997.00000,2998.00000,2992.00000,2994.00000,2996.00000,2994.00000,2992.00000,2993.00000,2994.00000,2991.00000,2992.00000,2989.00000,2990.00000,2993.00000,2989.00000,2993.00000,2987.00000,2990.00000,2992.00000,2992.00000,2993.00000,2992.00000,2990.00000,2988.00000,2987.00000,2995.00000,2993.00000,2996.00000,2994.00000,2992.00000,2988.00000,2991.00000,2986.00000,2992.00000,2992.00000,2992.00000,2996.00000,2995.00000,2995.00000,2993.00000,2994.00000,2991.00000,2992.00000,2990.00000,2995.00000,2992.00000,2990.00000,2989.00000,3000.00000,2997.00000,2998.00000,3000.00000,3002.00000,3001.00000,2998.00000,3000.00000,2998.00000,3007.00000,3003.00000,3007.00000,3018.00000,3021.00000
3019.00000,3003.00000,3011.00000,3001.00000,3007.00000,3006.00000,3004.00000,3000.00000,3001.00000,2993.00000,3004.00000,3004.00000,2997.00000,2995.00000,2996.00000,2990.00000,2995.00000,2992.00000,2992.00000,2997.00000,2993.00000,2999.00000,2995.00000,2998.00000,2996.00000,2996.00000,2997.00000,2995.00000,2990.00000,2994.00000,2993.00000,2995.00000,2992.00000,2994.00000,2995.00000,2998.00000,2991.00000,2984.00000,2992.00000,2988.00000,2994.00000,2995.00000,2997.00000,2985.00000,2994.00000,2994.00000,2996.00000,2990.00000,2995.00000,2998.00000,2992.00000,2988.00000,2991.00000,2992.00000,2986.00000,2993.00000,2986.00000,2993.00000,2996.00000,2994.00000,2993.00000,2992.00000,2988.00000,2996.00000,2997.00000,2989.00000,2993.00000,2991.00000,2995.00000,2998.00000,2990.00000,3000.00000,3000.00000,3006.00000,2998.00000,2993.00000,3011.00000,3011.00000,3011.00000,3021.00000
3013.00000,3008.00000,3014.00000,3006.00000,3007.00000,2998.00000,3004.00000,3000.00000,2999.00000,2997.00000,2993.00000,2997.00000,2999.00000,2989.00000,2991.00000,2998.00000,2997.00000,2991.00000,2998.00000,2996.00000,2993.00000,2996.00000,2992.00000,2997.00000,2996.00000,2988.00000,2995.00000,2995.00000,2992.00000,2991.00000,2993.00000,2995.00000,2991.00000,2996.00000,2996.00000,2989.00000,2990.00000,2990.00000,2992.00000,2988.00000,2992.00000,2988.00000,2992.00000,2988.00000,2992.00000,2994.00000,2993.00000,2992.00000,2991.00000,2993.00000,2992.00000,2989.00000,2994.00000,2988.00000,2995.00000,2997.00000,2999.00000,2991.00000,2995.00000,2990.00000,2994.00000,2999.00000,2989.00000,2993.00000,2996.00000,3000.00000,2995.00000,2998.00000,2995.00000,2996.00000,2994.00000,2996.00000,2998.00000,3000.00000,3002.00000,2998.00000,3011.00000,3006.00000,3011.00000,3014.00000
3014.00000,3013.00000,3010.00000,3001.00000,3002.00000,3001.00000,2989.00000,2993.00000,2994.00000,2990.00000,2993.00000,2992.00000,2992.00000,2989.00000,2993.00000,2993.00000,2994.00000,2998.00000,2994.00000,2989.00000,2991.00000,2998.00000,2999.00000,2989.00000,2994.00000,2995.00000,2995.00000,2996.00000,2992.00000,2994.00000,2991.00000,2992.00000,2993.00000,2984.00000,2990.00000,2991.00000,2987.00000,2991.00000,2990.00000,2988.00000,2992.00000,2993.00000,2990.00000,2991.00000,2987.00000,2988.00000,2991.00000,2991.00000,2992.00000,2988.00000,2994.00000,2989.00000,2991.00000,2994.00000,2991.00000,2989.00000,2992.00000,3000.00000,2992.00000,2990.00000,2993.00000,2990.00000,2988.00000,2993.00000,2985.00000,2995.00000,2993.00000,2997.00000,2992.00000,2996.00000,2989.00000,2992.00000,2996.00000,2999.00000,3001.00000,3001.00000,3006.00000,3000.00000,3010.00000,3013.00000
3014.00000,3008.00000,3009.00000,3002.00000,3001.00000,2998.00000,3000.00000,3000.00000,2997.00000,3002.00000,2992.00000,2998.00000,2995.00000,2990.00000,2991.00000,2991.00000,2993.00000,3000.00000,2991.00000,2998.00000,2997.00000,2999.00000,2992.00000,2995.00000,2996.00000,2995.00000,2998.00000,2993.00000,2990.00000,2993.00000,2990.00000,2995.00000,2990.00000,2989.00000,2992.00000,2988.00000,2988.00000,2989.00000,2995.00000,2996.00000,2987.00000,2999.00000,2990.00000,2994.00000,2992.00000,2991.00000,2992.00000,2992.00000,2996.00000,2995.00000,2990.00000,2991.00000,2990.00000,2994.00000,2993.00000,2994.00000,2993.00000,2996.00000,2992.00000,2988.00000,2994.00000,2995.00000,3001.00000,2994.00000,2993.00000,2992.00000,2995.00000,2990.00000,2992.00000,3000.00000,2991.00000,2996.00000,2996.00000,3002.00000,3005.00000,2994.00000,3003.00000,3012.00000,3018.00000,3012.00000
3024.00000,3007.00000,3009.00000,2999.00000,3001.00000,2999.00000,2993.00000,2999.00000,2997.00000,2993.00000,2993.00000,2994.00000,2994.00000,2993.00000,2993.00000,2998.00000,2992.00000,2994.00000,2995.00000,2991.00000,2992.00000,2995.00000,2991.00000,2996.00000,2989.00000,2993.00000,2989.00000,2991.00000,2991.00000,2990.00000,2994.00000,2990.00000,2992.00000,2991.00000,2991.00000,2989.00000,2990.00000,2990.00000,2992.00000,2988.00000,2992.00000,2990.00000,2991.00000,2990.00000,2988.00000,2992.00000,2988.00000,2994.00000,2994.00000,2991.00000,2992.00000,2991.00000,2991.00000,2997.00000,2994.00000,2992.00000,2988.00000,2992.00000,2994.00000,2990.00000,2986.00000,2997.00000,2994.00000,2993.00000,2989.00000,2989.00000,2995.00000,2994.00000,2992.00000,2988.00000,2989.00000,2994.00000,2998.00000,3004.00000,2995.00000,3002.00000,3007.00000,3007.00000,3011.00000,3015.00000
3011.00000,3013.00000,3007.00000,3002.00000,2999.00000,3004.00000,2996.00000,2992.00000,2999.00000,2991.00000,2997.00000,2995.00000,2990.00000,2990.00000,2986.00000,2998.00000,2995.00000,2997.00000,2990.00000,2992.00000,2989.00000,2989.00000,2993.00000,2989.00000,2990.00000,2991.00000,2993.00000,2987.00000,2990.00000,2986.00000,2991.00000,2988.00000,2990.00000,2990.00000,2993.00000,2991.00000,2989.00000,2992.00000,2987.00000,2983.00000,2988.00000,2994.00000,2990.00000,2989.00000,2986.00000,2987.00000,2996.00000,2994.00000,2988.00000,2992.00000,2990.00000,2988.00000,2996.00000,2990.00000,2994.00000,2987.00000,2987.00000,2990.00000,2992.00000,2996.00000,2994.00000,2994.00000,2989.00000,2995.00000,2996.00000,2994.00000,2992.00000,2991.00000,2994.00000,2983.00000,2995.00000,2992.00000,2997.00000,2996.00000,3001.00000,2999.00000,2998.00000,3010.00000,3005.00000,3006.00000
3014.00000,3008.00000,3007.00000,3002.00000,3001.00000,2999.00000,2997.00000,3000.00000,2998.00000,3002.00000,2996.00000,2988.00000,2994.00000,2990.00000,2995.00000,2991.00000,2996.00000,2994.00000,2989.00000,2996.00000,2991.00000,2989.00000,2992.00000,2994.00000,2988.00000,2989.00000,2996.00000,3000.00000,2986.00000,2987.00000,2985.00000,2990.00000,2993.00000,2990.00000,2992.00000,2991.00000,2991.00000,2992.00000,2995.00000,2989.00000,2990.00000,2991.00000,2989.00000,2991.00000,2990.00000,2989.00000,2993.00000,2990.00000,2992.00000,2989.00000,2989.00000,2991.00000,2993.00000,2993.00000,2997.00000,2988.00000,2990.00000,2992.00000,2990.00000,2992.00000,2989.00000,2996.00000,2986.00000,2995.00000,2992.00000,3002.00000,2992.00000,2991.00000,3001.00000,2992.00000,2991.00000,2994.00000,2998.00000,2993.00000,2999.00000,2999.00000,3002.00000,3009.00000,3016.00000,3015.00000
3014.00000,3005.00000,3004.00000,2997.00000,2998.00000,2999.00000,3002.00000,2998.00000,2995.00000,2997.00000,3000.00000,2993.00000,2988.00000,2995.00000,2991.00000,2989.00000,2999.00000,2995.00000,2989.00000,2993.00000,2992.00000,2993.00000,2993.00000,2990.00000,2991.00000,2985.00000,2993.00000,2989.00000,2990.00000,2991.00000,2992.00000,2988.00000,2990.00000,2991.00000,2987.00000,2990.00000,2990.00000,2989.00000,2988.00000,2994.00000,2992.00000,2995.00000,2990.00000,2992.00000,2993.00000,2990.00000,2997.00000,2994.00000,2990.00000,2987.00000,2991.00000,2992.00000,2992.00000,2996.00000,2990.00000,2986.00000,2991.00000,2991.00000,2993.00000,2993.00000,2993.00000,2997.00000,2990.00000,2999.00000,2999.00000,2986.00000,2997.00000,2991.00000,2996.00000,2997.00000,2991.00000,2996.00000,3001.00000,3005.00000,3001.00000,2999.00000,3008.00000,3009.00000,3007.00000,3020.00000
3019.00000,3020.00000,3004.00000,2995.00000,2995.00000,2996.00000,2995.00000,2989.00000,2997.00000,2993.00000,2999.00000,2999.00000,2992.00000,2998.00000,2994.00000,2998.00000,2992.00000,2989.00000,2990.00000,2993.00000,2993.00000,2988.00000,2989.00000,2992.00000,2991.00000,2996.00000,2995.00000,2989.00000,2988.00000,2987.00000,2987.00000,2992.00000,2994.00000,2995.00000,2991.00000,2998.00000,2988.00000,2991.00000,2992.00000,2990.00000,2990.00000,2991.00000,2992.00000,2991.00000,2988.00000,2991.00000,2991.00000,2991.00000,2994.00000,2989.00000,2990.00000,2995.00000,2990.00000,2993.00000,2991.00000,2996.00000,2991.00000,2988.00000,2991.00000,2989.00000,2992.00000,2986.00000,2988.00000,2992.00000,2997.00000,2997.00000,2994.00000,2994.00000,2995.00000,2990.00000,2991.00000,2996.00000,2997.00000,2996.00000,2999.00000,3001.00000,3001.00000,3008.00000,3010.00000,3011.00000
3012.00000,3010.00000,3006.00000,2999.00000,3003.00000,2998.00000,3005.00000,2996.00000,2987.00000,2998.00000,2996.00000,2996.00000,2992.00000,2992.00000,2994.00000,2990.00000,2990.00000,2994.00000,2996.00000,2990.00000,2990.00000,2998.00000,2990.00000,2987.00000,2992.00000,2987.00000,2991.00000,2991.00000,2992.00000,2994.00000,2995.00000,2990.00000,2994.00000,2991.00000,2996.00000,2990.00000,2990.00000,2987.00000,2995.00000,2990.00000,2986.00000,2997.00000,2993.00000,2985.00000,2986.00000,2991.00000,2992.00000,2995.00000,2992.00000,2989.00000,2996.00000,2991.00000,2987.00000,2985.00000,2994.00000,2990.00000,2995.00000,2989.00000,2997.00000,2993.00000,2994.00000,2995.00000,2994.00000,2992.00000,2993.00000,2996.00000,2996.00000,2994.00000,2995.00000,2992.00000,2993.00000,2996.00000,2998.00000,2998.00000,3003.00000,3007.00000,3007.00000,3014.00000,3011.00000,3017.00000
3019.00000,3005.00000,3012.00000,3003.00000,3004.00000,3008.00000,3005.00000,2995.00000,2995.00000,3000.00000,2993.00000,2998.00000,2990.00000,2994.00000,2997.00000,2997.00000,2998.00000,2999.00000,2994.00000,2997.00000,2994.00000,2991.00000,3001.00000,2992.00000,2989.00000,2988.00000,2987.00000,2991.00000,2988.00000,2996.00000,3000.00000,2991.00000,2986.00000,2990.00000,2994.00000,2994.00000,2989.00000,2987.00000,2993.00000,2991.00000,2991.00000,2993.00000,2994.00000,2995.00000,2990.00000,2993.00000,2988.00000,2990.00000,2996.00000,2993.00000,2994.00000,2984.00000,2992.00000,2987.00000,2989.00000,2993.00000,2992.00000,2994.00000,2994.00000,2998.00000,2992.00000,2991.00000,2995.00000,2995.00000,2994.00000,3001.00000,2997.00000,2988.00000,2998.00000,2999.00000,2993.00000,3005.00000,2996.00000,2996.00000,2997.00000,3004.00000,3006.00000,3009.00000,3016.00000,3024.00000
3017.00000,3008.00000,3008.00000,2994.00000,3005.00000,3006.00000,2998.00000,2998.00000,2997.00000,2998.00000,3001.00000,2990.00000,2991.00000,3000.00000,2994.00000,2993.00000,2999.00000,2996.00000,2997.00000,2996.00000,2990.00000,2990.00000,2990.00000,2989.00000,2995.00000,2992.00000,2998.00000,2988.00000,2992.00000,2988.00000,2987.00000,2989.00000,2992.00000,2990.00000,2995.00000,2990.00000,2995.00000,2993.00000,2992.00000,2991.00000,2995.00000,2987.00000,2995.00000,2988.00000,2989.00000,2986.00000,2987.00000,2990.00000,2990.00000,2984.00000,2991.00000,2990.00000,2987.00000,2989.00000,2991.00000,2984.00000,2990.00000,2993.00000,2996.00000,2992.00000,2993.00000,2995.00000,2995.00000,2999.00000,2993.00000,2994.00000,2990.00000,2984.00000,2993.00000,2995.00000,2995.00000,2996.00000,2996.00000,3002.00000,2998.00000,3002.00000,3010.00000,3014.00000,3011.00000,3016.00000
3004.00000,3006.00000,3000.00000,2993.00000,3005.00000,3002.00000,3006.00000,2995.00000,2992.00000,3001.00000,2990.00000,2996.00000,2987.00000,2997.00000,2996.00000,3000.00000,2999.00000,2991.00000,2995.00000,2995.00000,2995.00000,2995.00000,2996.00000,2995.00000,2993.00000,2989.00000,2992.00000,2992.00000,2992.00000,2990.00000,2989.00000,2987.00000,2994.00000,2988.00000,2990.00000,2989.00000,2989.00000,2995.00000,2994.00000,2993.00000,2990.00000,2990.00000,2995.00000,2987.00000,2988.00000,2989.00000,2989.00000,2989.00000,2988.00000,2991.00000,2990.00000,2990.00000,2988.00000,2989.00000,2993.00000,2990.00000,2993.00000,2991.00000,2992.00000,2992.00000,2991.00000,2990.00000,2991.00000,2994.00000,2995.00000,2999.00000,2995.00000,2992.00000,2990.00000,2992.00000,2998.00000,3001.00000,2998.00000,3002.00000,3002.00000,3004.00000,3001.00000,3010.00000,3004.00000,3008.00000
3008.00000,3015.00000,3017.00000,3006.00000,3002.00000,3000.00000,3000.00000,3001.00000,2993.00000,2989.00000,3002.00000,2995.00000,2995.00000,2992.00000,2995.00000,2995.00000,2998.00000,2995.00000,2993.00000,2997.00000,2997.00000,2998.00000,2990.00000,2995.00000,2993.00000,2993.00000,2992.00000,2991.00000,2992.00000,2994.00000,2993.00000,2986.00000,2990.00000,2991.00000,3000.00000,2995.00000,2989.00000,2988.00000,2990.00000,2988.00000,2994.00000,2989.00000,2991.00000,2988.00000,2992.00000,2993.00000,2989.00000,2995.00000,2991.00000,2991.00000,2990.00000,2988.00000,2994.00000,2992.00000,2992.00000,2990.00000,2994.00000,2993.00000,2995.00000,2993.00000,2994.00000,2995.00000,2994.00000,2998.00000,2989.00000,3000.00000,2993.00000,2994.00000,2995.00000,2993.00000,3001.00000,2997.00000,2992.00000,2993.00000,3005.00000,3001.00000,3003.00000,3011.00000,3012.00000,3017.00000
2993.00000,3014.00000,3012.00000,3013.00000,3010.00000,2997.00000,3001.00000,3009.00000,2992.00000,2999.00000,2994.00000,2997.00000,2997.00000,2993.00000,2997.00000,2996.00000,3001.00000,2995.00000,2997.00000,2998.00000,2995.00000,2999.00000,2992.00000,2994.00000,2996.00000,2991.00000,2994.00000,2994.00000,2988.00000,2990.00000,2987.00000,2989.00000,2990.00000,2994.00000,2994.00000,2989.00000,2990.00000,2988.00000,2993.00000,2992.00000,2988.00000,2997.00000,2991.00000,2987.00000,2989.00000,2998.00000,2991.00000,2985.00000,2993.00000,2990.00000,2997.00000,2989.00000,2991.00000,2992.00000,2992.00000,2994.00000,2990.00000,2990.00000,2993.00000,2994.00000,2986.00000,2992.00000,2987.00000,2991.00000,2990.00000,3002.00000,2996.00000,2995.00000,3001.00000,2995.00000,2995.00000,2989.00000,2996.00000,2992.00000,2999.00000,3004.00000,3004.00000,3003.00000,3017.00000,3022.00000
2993.00000,3011.00000,3013.00000,3008.00000,3009.00000,3001.00000,3004.00000,2998.00000,2997.00000,2990.00000,3001.00000,3004.00000,2998.00000,2991.00000,2983.00000,2998.00000,2989.00000,2991.00000,2998.00000,2996.00000,2990.00000,2997.00000,2995.00000,2995.00000,2993.00000,2991.00000,2995.00000,2991.00000,2994.00000,2995.00000,2990.00000,2993.00000,2992.00000,2986.00000,2991.00000,2991.00000,2986.00000,2991.00000,2989.00000,2988.00000,2994.00000,2989.00000,2987.00000,2989.00000,2992.00000,2985.00000,2997.00000,2992.00000,2989.00000,2989.00000,2988.00000,2986.00000,2988.00000,2992.00000,2990.00000,2987.00000,2993.00000,2994.00000,2999.00000,2987.00000,2992.00000,2991.00000,2989.00000,2993.00000,3001.00000,2990.00000,2987.00000,2993.00000,2992.00000,2997.00000,2985.00000,3000.00000,3001.00000,3006.00000,2996.00000,3001.00000,3014.00000,3011.00000,3005.00000,3028.00000
2993.00000,3021.00000,3020.00000,3008.00000,3010.00000,3000.00000,3010.00000,3002.00000,2992.00000,3000.00000,2998.00000,2995.00000,3001.00000,2996.00000,2998.00000,2997.00000,2994.00000,2998.00000,2991.00000,2992.00000,2997.00000,2992.00000,2992.00000,2991.00000,2991.00000,2989.00000,2995.00000,2992.00000,2990.00000,2996.00000,2993.00000,2996.00000,2995.00000,2995.00000,2990.00000,2991.00000,2988.00000,2993.00000,2999.00000,2991.00000,2993.00000,2995.00000,2994.00000,2990.00000,2993.00000,2988.00000,2995.00000,2987.00000,2996.00000,2989.00000,2993.00000,2991.00000,2987.00000,2997.00000,2988.00000,2995.00000,2991.00000,2990.00000,2992.00000,2992.00000,2996.00000,2994.00000,2990.00000,2991.00000,2992.00000,2998.00000,2991.00000,2987.00000,2992.00000,2995.00000,2996.00000,3002.00000,2997.00000,2996.00000,3003.00000,3002.00000,3004.00000,3013.00000,3015.00000,3023.00000
2993.00000,3023.00000,3021.00000,3005.00000,2998.00000,3010.00000,3001.00000,2993.00000,2996.00000,2998.00000,2997.00000,2995.00000,2994.00000,2994.00000,2996.00000,2994.00000,2995.00000,2992.00000,2998.00000,2997.00000,2999.00000,3000.00000,2994.00000,2990.00000,2992.00000,2994.00000,2995.00000,2992.00000,2996.00000,2992.00000,2990.00000,2993.00000,2998.00000,2985.00000,2994.00000,2987.00000,2989.00000,2990.00000,2991.00000,2993.00000,2990.00000,2988.00000,2989.00000,2995.00000,2990.00000,2988.00000,2991.00000,2993.00000,2990.00000,2991.00000,2992.00000,2991.00000,2990.00000,2993.00000,2994.00000,2990.00000,2989.00000,2991.00000,2995.00000,2992.00000,2993.00000,2995.00000,2993.00000,2995.00000,2994.00000,2995.00000,2995.00000,2993.00000,2993.00000,2994.00000,2995.00000,3000.00000,2998.00000,3000.00000,3006.00000,3010.00000,3007.00000,3013.00000,3014.00000,3024.00000
2993.00000,2993.00000,3026.00000,3020.00000,3007.00000,3007.00000,3010.00000,2999.00000,2994.00000,3004.00000,2997.00000,3002.00000,2999.00000,3004.00000,2993.00000,2993.00000,2987.00000,3002.00000,2990.00000,2998.00000,2991.00000,2993.00000,2999.00000,2999.00000,2993.00000,2988.00000,2994.00000,2996.00000,2989.00000,2993.00000,2992.00000,2995.00000,2993.00000,2994.00000,2998.00000,2996.00000,2988.00000,2987.00000,2986.00000,2990.00000,2990.00000,2994.00000,2988.00000,2993.00000,2985.00000,2990.00000,2992.00000,2991.00000,2995.00000,2986.00000,2987.00000,2991.00000,2989.00000,2990.00000,2986.00000,2994.00000,2993.00000,2994.00000,2990.00000,2994.00000,2990.00000,2992.00000,2989.00000,2995.00000,3002.00000,3000.00000,3002.00000,2991.00000,2994.00000,2997.00000,2993.00000,2997.00000,3001.00000,3003.00000,2999.00000,3015.00000,3009.00000,3015.00000,3017.00000,2993.00000
2993.00000,2993.00000,3019.00000,3007.00000,3008.00000,3008.00000,3004.00000,3010.00000,3003.00000,3001.00000,2994.00000,2987.00000,2996.00000,3002.00000,2998.00000,2992.00000,2992.00000,2998.00000,2997.00000,2998.00000,2990.00000,2998.00000,2996.00000,2993.00000,2996.00000,2996.00000,2996.00000,2990.00000,2997.00000,2990.00000,2991.00000,2996.00000,2992.00000,2994.00000,2990.00000,2995.00000,2988.00000,2990.00000,2990.00000,2991.00000,2993.00000,2994.00000,2995.00000,2996.00000,2994.00000,2991.00000,2992.00000,2995.00000,2994.00000,2988.00000,2990.00000,2992.00000,2989.00000,2991.00000,2989.00000,2987.00000,2994.00000,2991.00000,2995.00000,2996.00000,2989.00000,2995.00000,3001.00000,2995.00000,2995.00000,3001.00000,2992.00000,2990.00000,2996.00000,2994.00000,2998.00000,3004.00000,3004.00000,3000.00000,3000.00000,3009.00000,3014.00000,3017.00000,3013.00000,2993.00000
2993.00000,2993.00000,3019.00000,3007.00000,3007.00000,2997.00000,3004.00000,3006.00000,3002.00000,2999.00000,2993.00000,2991.00000,2992.00000,3001.00000,2992.00000,2996.00000,2995.00000,2988.00000,2997.00000,2992.00000,2995.00000,2993.00000,2996.00000,2992.00000,2997.00000,2989.00000,2996.00000,2991.00000,2995.00000,2991.00000,2990.00000,2992.00000,2991.00000,2992.00000,2991.00000,2996.00000,2994.00000,2993.00000,2990.00000,2989.00000,2994.00000,2986.00000,2990.00000,2990.00000,2991.00000,2992.00000,2991.00000,2996.00000,2990.00000,2994.00000,2989.00000,2990.00000,2995.00000,2990.00000,2994.00000,2994.00000,2996.00000,2996.00000,2994.00000,2998.00000,2988.00000,2992.00000,2989.00000,2993.00000,2998.00000,2998.00000,2997.00000,2999.00000,2988.00000,2991.00000,3006.00000,2997.00000,2993.00000,3002.00000,3005.00000,3007.00000,3011.00000,3012.00000,3013.00000,2993.00000
2993.00000,2993.00000,2993.00000,3016.00000,3013.00000,3015.00000,3004.00000,3004.00000,3008.00000,2998.00000,2998.00000,2996.00000,2996.00000,2997.00000,3000.00000,2993.00000,2998.00000,2997.00000,2992.00000,2995.00000,2998.00000,2999.00000,2990.00000,2998.00000,2999.00000,2993.00000,2996.00000,2997.00000,2993.00000,2995.00000,2998.00000,2993.00000,2989.00000,2992.00000,2993.00000,2995.00000,2992.00000,2994.00000,2994.00000,2992.00000,2991.00000,2993.00000,2995.00000,2991.00000,2989.00000,2992.00000,2992.00000,2987.00000,2992.00000,2993.00000,2992.00000,2993.00000,2990.00000,2990.00000,2995.00000,2989.00000,2992.00000,2993.00000,2995.00000,2994.00000,2992.00000,2998.00000,2991.00000,2992.00000,2991.00000,2996.00000,2992.00000,2992.00000,2998.00000,2992.00000,2998.00000,3000.00000,3001.00000,2997.00000,3001.00000,3002.00000,3005.00000,3019.00000,2993.00000,2993.00000
2993.00000,2993.00000,2993.00000,3021.00000,3016.00000,3015.00000,3007.00000,3002.00000,3005.00000,3008.00000,3000.00000,2995.00000,3008.00000,3005.00000,3001.00000,2995.00000,2994.00000,2993.00000,2989.00000,2993.00000,2995.00000,2996.00000,2995.00000,2996.00000,2992.00000,2988.00000,2998.00000,2997.00000,2992.00000,2991.00000,2990.00000,2997.00000,2991.00000,2997.00000,2989.00000,2994.00000,2992.00000,2992.00000,2994.00000,2995.00000,2992.00000,2998.00000,2993.00000,2989.00000,2994.00000,2991.00000,2990.00000,2993.00000,2995.00000,2996.00000,2990.00000,2994.00000,2992.00000,2992.00000,2989.00000,2992.00000,2988.00000,2989.00000,2990.00000,2994.00000,2992.00000,2993.00000,2992.00000,3001.00000,2993.00000,2996.00000,2991.00000,2997.00000,3006.00000,2998.00000,2995.00000,2994.00000,3005.00000,3001.00000,2998.00000,2999.00000,3012.00000,3009.00000,2993.00000,2993.00000
2993.00000,2993.00000,2993.00000,2993.00000,3018.00000,3009.00000,3009.00000,3001.00000,3010.00000,2995.00000,3001.00000,3001.00000,2992.00000,2996.00000,2991.00000,2999.00000,3000.00000,2996.00000,2993.00000,2999.00000,2995.00000,2991.00000,2992.00000,2989.00000,2998.00000,2994.00000,2997.00000,2994.00000,2992.00000,2992.00000,2994.00000,2993.00000,2993.00000,2992.00000,2994.00000,2993.00000,2990.00000,2995.00000,2998.00000,2994.00000,2993.00000,2997.00000,2989.00000,2990.00000,2991.00000,2993.00000,2993.00000,2992.00000,2990.00000,2992.00000,2994.00000,2991.00000,2992.00000,2994.00000,2991.00000,2991.00000,2995.00000,2996.00000,2994.00000,2989.00000,2993.00000,2999.00000,2992.00000,2987.00000,2996.00000,2988.00000,2990.00000,2995.00000,2996.00000,2998.00000,2998.00000,3001.00000,3005.00000,3004.00000,3004.00000,3012.00000,3012.00000,2993.00000,2993.00000,2993.00000
2993.00000,2993.00000,2993.00000,2993.00000,3023.00000,3017.00000,3008.00000,3014.00000,3006.00000,2996.00000,3006.00000,3008.00000,2994.00000,3001.00000,2996.00000,3001.00000,2991.00000,2988.00000,2990.00000,2993.00000,2999.00000,2989.00000,2995.00000,2997.00000,2994.00000,2998.00000,3000.00000,2995.00000,2999.00000,2996.00000,2992.00000,2988.00000,2995.00000,2999.00000,2989.00000,2994.00000,2988.00000,2993.00000,2992.00000,2992.00000,2993.00000,2993.00000,2992.00000,2992.00000,2988.00000,2989.00000,2998.00000,2995.00000,2995.00000,2992.00000,2992.00000,2994.00000,2990.00000,2992.00000,2992.00000,2992.00000,2996.00000,2993.00000,2990.00000,2990.00000,2994.00000,2997.00000,2996.00000,2992.00000,2993.00000,2993.00000,2998.00000,2986.00000,2992.00000,3000.00000,2993.00000,3003.00000,2994.00000,3004.00000,3002.00000,3014.00000,3008.00000,2993.00000,2993.00000,2993.00000
2993.00000,2993.00000,2993.00000,2993.00000,2993.00000,3011.00000,3017.00000,3004.00000,3007.00000,3005.00000,2997.00000,3000.00000,2992.00000,2995.00000,2998.00000,3000.00000,2993.00000,2993.00000,3000.00000,2993.00000,2995.00000,2994.00000,2999.00000,2994.00000,2996.00000,2996.00000,2996.00000,2999.00000,3003.00000,2989.00000,2998.00000,2995.00000,3002.00000,2996.00000,2993.00000,2992.00000,2990.00000,2995.00000,2993.00000,2995.00000,2994.00000,2995.00000,2992.00000,2996.00000,2989.00000,2993.00000,2993.00000,2988.00000,2996.00000,2992.00000,2994.00000,2995.00000,2991.00000,2993.00000,2998.00000,2991.00000,2992.00000,2997.00000,2996.00000,2991.00000,2998.00000,2989.00000,2997.00000,2998.00000,2998.00000,2998.00000,2997.00000,2993.00000,2996.00000,3000.00000,2997.00000,3002.00000,3004.00000,3003.00000,3006.00000,3016.00000,2993.00000,2993.00000,2993.00000,2993.00000
2993.00000,2993.00000,2993.00000,2993.00000,2993.00000,3033.00000,3019.00000,3007.00000,3006.00000,3003.00000,3012.00000,3004.00000,2997.00000,3000.00000,3000.00000,3001.00000,2994.00000,2997.00000,2996.00000,2997.00000,2996.00000,2993.00000,3001.00000,2999.00000,2991.00000,2997.00000,2998.00000,2991.00000,2989.00000,2996.00000,2996.00000,2991.00000,2992.00000,2989.00000,2991.00000,2994.00000,2995.00000,2991.00000,2992.00000,2991.00000,2993.00000,2991.00000,2994.00000,2991.00000,2994.00000,2992.00000,2991.00000,2993.00000,2994.00000,2992.00000,2990.00000,2992.00000,2995.00000,2994.00000,2994.00000,2990.00000,2998.00000,2992.00000,2995.00000,2993.00000,2994.00000,2992.00000,2991.00000,2988.00000,2997.00000,2989.00000,2990.00000,2992.00000,2989.00000,3002.00000,2994.00000,3006.00000,3003.00000,3004.00000,3013.00000,3014.00000,2993.00000,2993.00000,2993.00000,2993.00000
2993.00000,2993.00000,2993.00000,2993.00000,2993.00000,2993.00000,3016.00000,3019.00000,3007.00000,3010.00000,3007.00000,2994.00000,2996.00000,3002.00000,3004.00000,2990.00000,3000.00000,2998.00000,3000.00000,2999.00000,2995.00000,2992.00000,2997.00000,2992.00000,2992.00000,2995.00000,2992.00000,2987.00000,3000.00000,2996.00000,2997.00000,2998.00000,2994.00000,2994.00000,2999.00000,2998.00000,2993.00000,2994.00000,2994.00000,2995.00000,2993.00000,2995.00000,2994.00000,2999.00000,2996.00000,2996.00000,2993.00000,2989.00000,2996.00000,2993.00000,2994.00000,2994.00000,2989.00000,2994.00000,2991.00000,2990.00000,2998.00000,2997.00000,2997.00000,2995.00000,2995.00000,2997.00000,2998.00000,2995.00000,2995.00000,2995.00000,2994.00000,2993.00000,3002.00000,3005.00000,3004.00000,2998.00000,3010.00000,3003.00000,3019.00000,2993.00000,2993.00000,2993.00000,2993.00000,2993.00000
2993.00000,2993.00000,2993.00000,2993.00000,2993.00000,2993.00000,2993.00000,3017.00000,3001.00000,3011.00000,2997.00000,2996.00000,3002.00000,3000.00000,2997.00000,3000.00000,2998.00000,2997.00000,2991.00000,3001.00000,2995.00000,2996.00000,2996.00000,2996.00000,2996.00000,2988.00000,2990.00000,2999.00000,2994.00000,2991.00000,2987.00000,2997.00000,2989.00000,2989.00000,2992.00000,2996.00000,2993.00000,2995.00000,2990.00000,2992.00000,2992.00000,2991.00000,2996.00000,2993.00000,2997.00000,2999.00000,2991.00000,2999.00000,2990.00000,2986.00000,2989.00000,2995.00000,2998.00000,2992.00000,2992.00000,2992.00000,2996.00000,2996.00000,2994.00000,2992.00000,2994.00000,2998.00000,2989.00000,2985.00000,2996.00000,3006.00000,2998.00000,2997.00000,2996.00000,3002.00000,3013.00000,3011.00000,3002.00000,3010.00000,2993.00000,2993.00000,2993.00000,2993.00000,2993.00000,2993.00000
2993.00000,2993.00000,2993.00000,2993.00000,2993.00000,2993.00000,2993.00000,3017.00000,3010.00000,2993.00000,3005.00000,3002.00000,3001.00000,3000.00000,2994.00000,3004.00000,3000.00000,2998.00000,2998.00000,2996.00000,2993.00000,2995.00000,3001.00000,2994.00000,2994.00000,2989.00000,2991.00000,2991.00000,2991.00000,2993.00000,2991.00000,2985.00000,2991.00000,2995.00000,3000.00000,2993.00000,2987.00000,2991.00000,2988.00000,2994.00000,2993.00000,2992.00000,2992.00000,2988.00000,2994.00000,2987.00000,2992.00000,2995.00000,2996.00000,2991.00000,2988.00000,2992.00000,2994.00000,2989.00000,2992.00000,2991.00000,2990.00000,2993.00000,2985.00000,2987.00000,2986.00000,2992.00000,2992.00000,2990.00000,2992.00000,2992.00000,2991.00000,2995.00000,2995.00000,2988.00000,2999.00000,2999.00000,3001.00000,2988.00000,2993.00000,2993.00000,2993.00000,2993.00000,2993.00000,2993.00000
2993.00000,2993.00000,2993.00000,2993.00000,2993.00000,2993.00000,2993.00000,2993.00000,3011.00000,3013.00000,3001.00000,3002.00000,3007.00000,3003.00000,3003.00000,2998.00000,3006.00000,2993.00000,3000.00000,2998.00000,2994.00000,3000.00000,2991.00000,2992.00000,2990.00000,2990.00000,2997.00000,2999.00000,2992.00000,2985.00000,2992.00000,2990.00000,2989.00000,2989.00000,2991.00000,2997.00000,2992.00000,2995.00000,2998.00000,2991.00000,2990.00000,2993.00000,2995.00000,2986.00000,2994.00000,2988.00000,2994.00000,2990.00000,2998.00000,2992.00000,2991.00000,2989.00000,2993.00000,2990.00000,2987.00000,2998.00000,2991.00000,2989.00000,2991.00000,2994.00000,2995.00000,2987.00000,2985.00000,2990.00000,2983.00000,3001.00000,2990.00000,2990.00000,2997.00000,2998.00000,2996.00000,3006.00000,2997.00000,2993.00000,2993.00000,2993.00000,2993.00000,2993.00000,2993.00000,2993.00000
2993.00000,2993.00000,2993.00000,2993.00000,2993.00000,2993.00000,2993.00000,2993.00000,2993.00000,3006.00000,3008.00000,2997.00000,3000.00000,2996.00000,2992.00000,3001.00000,3000.00000,2990.00000,3000.00000,2998.00000,2992.00000,2997.00000,2996.00000,2994.00000,2996.00000,2994.00000,2992.00000,2992.00000,2990.00000,2989.00000,2988.00000,2986.00000,2991.00000,2984.00000,2988.00000,2989.00000,2983.00000,2990.00000,2992.00000,2993.00000,2987.00000,2995.00000,2986.00000,2988.00000,2995.00000,2994.00000,2995.00000,2993.00000,2985.00000,2984.00000,2989.00000,2988.00000,2995.00000,2985.00000,2986.00000,2983.00000,2994.00000,2987.00000,2988.00000,2984.00000,2991.00000,2990.00000,2989.00000,2992.00000,2993.00000,2988.00000,2996.00000,2991.00000,3002.00000,2999.00000,2989.00000,2993.00000,2993.00000,2993.00000,2993.00000,2993.00000,2993.00000,2993.00000,2993.00000,2993.00000
2993.00000,2993.00000,2993.00000,2993.00000,2993.00000,2993.00000,2993.00000,2993.00000,2993.00000,2993.00000,3010.00000,3013.00000,3001.00000,3004.00000,3004.00000,2998.00000,2991.00000,2992.00000,2999.00000,2990.00000,2990.00000,2994.00000,2995.00000,2993.00000,2988.00000,2989.00000,2996.00000,2996.00000,2993.00000,2989.00000,2987.00000,2991.00000,2988.00000,2991.00000,2990.00000,2991.00000,2988.00000,2989.00000,2990.00000,2990.00000,2991.00000,2992.00000,2995.00000,2991.00000,2994.00000,2993.00000,2989.00000,2988.00000,2991.00000,2990.00000,2988.00000,2992.00000,2992.00000,2994.00000,2994.00000,2988.00000,2984.00000,2990.00000,2993.00000,2993.00000,2987.00000,2994.00000,2992.00000,2993.00000,2992.00000,2992.00000,2989.00000,2987.00000,2995.00000,3004.00000,3003.00000,2993.00000,2993.00000,2993.00000,2993.00000,2993.00000,2993.00000,2993.00000,2993.00000,2993.00000
2993.00000,2993.00000,2993.00000,2993.00000,2993.00000,2993.00000,2993.00000,2993.00000,2993.00000,2993.00000,2993.00000,3008.00000,3005.00000,3000.00000,2997.00000,2999.00000,2991.00000,2995.00000,2992.00000,2995.00000,3000.00000,2994.00000,2992.00000,2993.00000,2990.00000,2988.00000,2989.00000,2993.00000,2993.00000,2989.00000,2992.00000,2994.00000,2997.00000,2985.00000,2989.00000,2981.00000,2982.00000,2990.00000,2987.00000,2990.00000,2990.00000,2987.00000,2985.00000,2988.00000,2983.00000,2985.00000,2987.00000,2991.00000,2992.00000,2985.00000,2989.00000,2985.00000,2980.00000,2987.00000,2988.00000,2988.00000,2992.00000,2992.00000,2992.00000,2990.00000,2988.00000,2986.00000,2989.00000,2993.00000,2989.00000,2992.00000,2996.00000,3004.00000,2997.00000,3008.00000,2993.00000,2993.00000,2993.00000,2993.00000,2993.00000,2993.00000,2993.00000,2993.00000,2993.00000,2993.00000
2993.00000,2993.00000,2993.00000,2993.00000,2993.00000,2993.00000,2993.00000,2993.00000,2993.00000,2993.00000,2993.00000,2993.00000,3008.00000,3005.00000,3004.00000,3000.00000,2988.00000,2995.00000,3002.00000,2994.00000,2995.00000,2991.00000,2994.00000,2994.00000,2995.00000,2989.00000,2991.00000,2997.00000,2992.00000,2991.00000,2989.00000,2994.00000,2986.00000,2987.00000,2985.00000,2991.00000,2989.00000,2982.00000,2985.00000,2985.00000,2984.00000,2986.00000,2981.00000,2990.00000,2991.00000,2993.00000,2990.00000,2992.00000,2988.00000,2982.00000,2984.00000,2982.00000,2985.00000,2982.00000,2987.00000,2986.00000,2989.00000,2984.00000,2988.00000,2991.00000,2986.00000,2985.00000,2992.00000,2998.00000,2996.00000,2997.00000,2994.00000,2998.00000,2996.00000,2993.00000,2993.00000,2993.00000,2993.00000,2993.00000,2993.00000,2993.00000,2993.00000,2993.00000,2993.00000,2993.00000
2993.00000,2993.00000,2993.00000,2993.00000,2993.00000,2993.00000,2993.00000,2993.00000,2993.00000,2993.00000,2993.00000,2993.00000,2993.00000,3004.00000,3009.00000,2998.00000,3004.00000,2994.00000,3005.00000,2998.00000,2990.00000,2998.00000,2993.00000,2992.00000,2990.00000,2990.00000,2996.00000,2992.00000,2997.00000,2991.00000,2992.00000,2994.00000,2984.00000,2985.00000,2990.00000,2989.00000,2993.00000,2984.00000,2989.00000,2992.00000,2989.00000,2988.00000,2991.00000,2994.00000,2992.00000,2989.00000,2988.00000,2987.00000,2986.00000,2988.00000,2990.00000,2988.00000,2986.00000,2986.00000,2982.00000,2983.00000,2990.00000,2990.00000,2991.00000,2987.00000,2991.00000,2990.00000,3003.00000,3001.00000,2992.00000,3007.00000,3001.00000,3000.00000,2993.00000,2993.00000,2993.00000,2993.00000,2993.00000,2993.00000,2993.00000,2993.00000,2993.00000,2993.00000,2993.00000,2993.00000
2993.00000,2993.00000,2993.00000,2993.00000,2993.00000,2993.00000,2993.00000,2993.00000,2993.00000,2993.00000,2993.00000,2993.00000,2993.00000,2993.00000,2992.00000,3004.00000,3003.00000,2994.00000,3004.00000,2994.00000,2992.00000,2994.00000,2993.00000,2993.00000,2989.00000,2984.00000,2987.00000,2993.00000,2983.00000,2984.00000,2988.00000,2987.00000,2990.00000,2982.00000,2987.00000,2994.00000,2992.00000,2986.00000,2988.00000,2986.00000,2990.00000,2981.00000,2987.00000,2987.00000,2995.00000,2987.00000,2989.00000,2983.00000,2981.00000,2996.00000,2983.00000,2992.00000,2994.00000,2985.00000,2983.00000,2985.00000,2991.00000,2993.00000,2984.00000,2993.00000,2987.00000,2991.00000,2984.00000,2990.00000,2996.00000,2993.00000,3008.00000,2993.00000,2993.00000,2993.00000,2993.00000,2993.00000,2993.00000,2993.00000,2993.00000,2993.00000,2993.00000,2993.00000,2993.00000,2993.00000
