Time,Runtime,Current3V3,Current3V3Min,Current3V3Max,CurrentHTPA,CurrentHTPAMin,CurrentHTPAMax,CurrentCubeDock3V3_1,TemperatureMCU,TemperatureMCUMin,TemperatureMCUMax,TemperatureHTPA,TemperatureHTPAMin,TemperatureHTPAMax,VoltageMCU,VoltageMCUMin,VoltageMCUMax,VoltageHTPA,VoltageHTPAMin,VoltageHTPAMax,ADSSampleMode,HTPACalibLevel,HILEnabled,HILBusy,HILEnableImgVddComp,HILEnableImgTobjCalib,HILEnableEdgeDet,HILEnableLensDistCorr,HILEnablePolyFit,HILEnableAttEst,HTPADeviceID,HTPATableNumber,HtpaPowerState,HtpaWakeState,HtpaCaptureState,HtpaPTAT,HtpaVdd,HTPAImageLastMin,HTPAImageLastMean,HTPAImageLastMax,HTPAImageAllTimeMin,HTPAImageAllTimeMax,3V3OverCurrent,HTPAOverCurrent,Timer1sOverRun,MCUOverTemperature,MCUUnderTemperature,HTPAOverTemperature,HTPAUnderTemperature,HTPACalibLookupOutOfRange,HTPAIntegrationTimeout,HTPANotResponding,HTPAConfigMismatch,HTPASpiTimeout,CommsTcSlotsBuffFull,CommsTcParamBuffFull,CommsUartProtError,CommsUartMsgIncomplete,CommsUartTcParamOverflow,UARTTxOverflow,CommsTcInvalidID,CommsTcInvalidPar,CommsTcInvalidParLen,CommsTcTimeout,CommsTlmInvalidID,UARTTxReadingEmptyBuffer,UARTRxByteOverrun,UARTRxFramingError,UartTxTimeout,FRAMStatusNotResponding,FRAMDeviceNotFound,FRAMSpiTimeout,ConfigRewrittenFromMemory,ConfigExtMemorySlotOverwritten,ConfigNoConfigFoundInMemory,ConfigNumOfValidFramSlots,ConfigNumOfValidFlashSlots,ConfigNotSaved,ConfigDataLoss,SwStartupTime,SwProcessingTime,SwProcessingTimeMax,SwLoopTime,SwLoopTimeMax,SwImgCaptureTime,SwLensDistCorrTime,SwEstimationTime,SwConfigRefreshMaxTime,SwConfigCheckMemoryMaxTime,SwAdcMeasurementTime,DetectedBitFlips,FlashFaults,FlashLastFaultAddress,RadNumOfFaultsLast,RadNumOfFaultsTotal,RadLastFaultIndex,RadIterationsCompleted,RadMode,RadCheckSRAM,RadCheckFRAM,SRAM2ParityCheckEnabled,InterfaceVersion,FirmwareVersion,CubeIR SN,IRCAM SN,
2019/10/21 - 15:02:14.866887,524.289,18.531312942504883,18.41443634033203,18.630332946777344,36.99444580078125,36.663299560546875,37.20872116088867,12345,27.119396209716797,26.236936569213867,28.473865509033203,0.0,0.0,0.0,3.305999994277954,3.302999973297119,3.305999994277954,0.0,0.0,0.0,Idle,None,False,False,False,False,False,False,False,False,4298,137,On,Off,Idle,0,0,32767,0,-32768,32767,-32768,False,False,False,False,False,True,True,False,False,True,False,False,False,False,False,False,False,False,False,False,False,False,False,False,False,False,False,False,False,False,False,False,True,0,0,True,False,617,0,0,1000,1000,0,0,0,0,0,0,0,0,0x0,0,0,0,1,Disabled,False,False,True,1,V0.1,CubeIRV0.1,    IR1800,
2019/10/21 - 15:02:15.827787,525.248,18.466381072998047,18.41443634033203,18.630332946777344,36.987953186035156,36.663299560546875,37.20872116088867,12345,27.222007751464844,26.236936569213867,28.473865509033203,0.0,0.0,0.0,3.305999994277954,3.302999973297119,3.305999994277954,0.0,0.0,0.0,Idle,None,False,False,False,False,False,False,False,False,4298,137,On,Off,Idle,0,0,32767,0,-32768,32767,-32768,False,True,True,True,True,False,False,False,False,True,False,False,False,False,False,False,False,False,False,False,False,False,False,False,False,False,False,False,False,False,False,False,True,0,0,True,False,617,0,0,1000,1000,0,0,0,0,0,0,0,0,0x0,0,0,0,1,Disabled,False,False,True,1,V0.1,CubeIRV0.1,    IR1800,
2019/10/21 - 15:02:16.787761,526.208,18.47287368774414,18.41443634033203,18.630332946777344,36.8613395690918,36.663299560546875,37.20872116088867,12345,27.160444259643555,26.236936569213867,28.473865509033203,0.0,0.0,0.0,3.305999994277954,3.302999973297119,3.305999994277954,0.0,0.0,0.0,Idle,None,False,False,False,False,False,False,False,False,4298,137,On,Off,Idle,0,0,32767,0,-32768,32767,-32768,False,False,False,False,False,True,True,False,False,True,False,False,False,False,False,False,False,False,False,False,False,False,False,False,False,False,False,False,False,False,False,False,True,0,0,True,False,617,0,0,1000,1000,0,0,0,0,0,0,0,0,0x0,0,0,0,1,Disabled,False,False,True,1,V0.1,CubeIRV0.1,    IR1800,
2019/10/21 - 15:02:17.778387,527.199,18.55241584777832,18.41443634033203,18.630332946777344,36.87757110595703,36.663299560546875,37.20872116088867,12345,27.18097686767578,26.236936569213867,28.473865509033203,0.0,0.0,0.0,3.305999994277954,3.302999973297119,3.305999994277954,0.0,0.0,0.0,Idle,None,False,False,False,False,False,False,False,False,4298,137,On,Off,Idle,0,0,32767,0,-32768,32767,-32768,True,True,True,True,True,False,False,False,False,True,False,False,False,False,False,False,False,False,False,False,False,False,False,False,False,False,False,False,False,False,False,False,True,0,0,True,False,617,0,0,1000,1000,0,0,0,0,0,0,0,0,0x0,0,0,0,1,Disabled,False,False,True,1,V0.1,CubeIRV0.1,    IR1800,
2019/10/21 - 15:02:18.802895,528.223,18.502094268798828,18.41443634033203,18.630332946777344,36.82887268066406,36.663299560546875,37.20872116088867,12345,27.222007751464844,26.236936569213867,28.473865509033203,0.0,0.0,0.0,3.305999994277954,3.302999973297119,3.305999994277954,0.0,0.0,0.0,Idle,None,False,False,False,False,False,False,False,False,4298,137,On,Off,Idle,0,0,32767,0,-32768,32767,-32768,False,True,True,True,True,False,False,False,False,True,False,False,False,False,False,False,False,False,False,False,False,False,False,False,False,False,False,False,False,False,False,False,True,0,0,True,False,617,0,0,1000,1000,0,0,0,0,0,0,0,0,0x41950aec,0,0,0,1,Disabled,False,False,True,1,V0.1,CubeIRV0.1,    IR1800,
2019/10/21 - 15:02:19.810590,529.230,18.49884605407715,18.41443634033203,18.630332946777344,36.82238006591797,36.663299560546875,37.20872116088867,12345,27.119396209716797,26.236936569213867,28.473865509033203,0.0,0.0,0.0,3.305999994277954,3.302999973297119,3.305999994277954,0.0,0.0,0.0,Idle,None,False,False,False,False,False,False,False,False,4298,137,On,Off,Idle,0,0,32767,0,-32768,32767,-32768,True,False,True,False,True,False,True,False,False,True,False,False,False,False,False,False,False,False,False,False,False,False,False,False,False,False,False,False,False,False,False,False,True,0,0,True,False,617,0,0,1000,1000,0,0,0,0,0,0,0,0,0x100,0,0,0,1,Disabled,False,False,True,1,V0.1,CubeIRV0.1,    IR1800,
2019/10/21 - 15:02:20.786625,530.206,18.51183319091797,18.41443634033203,18.630332946777344,36.81264114379883,36.663299560546875,37.20872116088867,12345,27.201492309570312,26.236936569213867,28.473865509033203,0.0,0.0,0.0,3.305999994277954,3.302999973297119,3.305999994277954,0.0,0.0,0.0,Idle,None,False,False,False,False,False,False,False,False,4298,137,On,Off,Idle,0,0,32767,0,-32768,32767,-32768,False,True,True,True,True,False,False,False,False,True,False,False,False,False,False,False,False,False,False,False,False,False,False,False,False,False,False,False,False,False,False,False,True,0,0,True,False,617,0,0,1000,1000,0,0,0,0,0,0,0,0,0x0,0,0,0,1,Disabled,False,False,True,1,V0.1,CubeIRV0.1,    IR1800,
2019/10/21 - 15:02:21.826354,531.245,18.55241584777832,18.41443634033203,18.630332946777344,37.01068115234375,36.663299560546875,37.20872116088867,12345,27.222007751464844,26.236936569213867,28.473865509033203,0.0,0.0,0.0,3.305999994277954,3.302999973297119,3.305999994277954,0.0,0.0,0.0,Idle,None,False,False,False,False,False,False,False,False,4298,137,On,Off,Idle,0,0,32767,0,-32768,32767,-32768,False,True,True,True,True,False,False,False,False,True,False,False,False,False,False,False,False,False,False,False,False,False,False,False,False,False,False,False,False,False,False,False,True,0,0,True,False,617,0,0,1000,1000,0,0,0,0,0,0,0,0,0x0,0,0,0,1,Disabled,False,False,True,1,V0.1,CubeIRV0.1,    IR1800,
2019/10/21 - 15:02:22.770318,532.188,18.528066635131836,18.41443634033203,18.630332946777344,37.046390533447266,36.663299560546875,37.20872116088867,12345,27.24254035949707,26.236936569213867,28.473865509033203,0.0,0.0,0.0,3.305999994277954,3.302999973297119,3.305999994277954,0.0,0.0,0.0,Idle,None,False,False,False,False,False,False,False,False,4298,137,On,Off,Idle,0,0,32767,0,-32768,32767,-32768,False,False,True,False,False,False,False,False,False,True,False,False,False,False,False,False,False,False,False,False,False,False,False,False,False,False,False,False,False,False,False,False,True,0,0,True,False,617,0,0,1000,1000,0,0,0,0,0,0,0,0,0x0,0,0,0,1,Disabled,False,False,True,1,V0.1,CubeIRV0.1,    IR1800,
2019/10/21 - 15:02:23.809716,533.228,18.5394287109375,18.41443634033203,18.630332946777344,37.03015899658203,36.663299560546875,37.20872116088867,12345,27.119396209716797,26.236936569213867,28.473865509033203,0.0,0.0,0.0,3.305999994277954,3.302999973297119,3.305999994277954,0.0,0.0,0.0,Idle,None,False,False,False,False,False,False,False,False,4298,137,On,Off,Idle,0,0,32767,0,-32768,32767,-32768,False,False,False,False,False,True,True,False,False,True,False,False,False,False,False,False,False,False,False,False,False,False,False,False,False,False,False,False,False,False,False,False,True,0,0,True,False,617,0,0,1000,1000,0,0,0,0,0,0,0,0,0x0,0,0,0,1,Disabled,False,False,True,1,V0.1,CubeIRV0.1,    IR1800,
2019/10/21 - 15:02:24.817729,534.235,18.508586883544922,18.41443634033203,18.630332946777344,36.96198272705078,36.663299560546875,37.20872116088867,12345,27.2630558013916,26.236936569213867,28.473865509033203,0.0,0.0,0.0,3.305999994277954,3.302999973297119,3.305999994277954,0.0,0.0,0.0,Idle,None,False,False,False,False,False,False,False,False,4298,137,On,Off,Idle,0,0,32767,0,-32768,32767,-32768,False,False,False,False,True,False,False,False,False,True,False,False,False,False,False,False,False,False,False,False,False,False,False,False,False,False,False,False,False,False,False,False,True,0,0,True,False,617,0,0,1000,1000,0,0,0,0,0,0,0,0,0x0,0,0,0,1,Disabled,False,False,True,1,V0.1,CubeIRV0.1,    IR1800,
2019/10/21 - 15:02:25.826645,535.242,18.537805557250977,18.41443634033203,18.630332946777344,36.987953186035156,36.663299560546875,37.20872116088867,12345,27.32461929321289,26.236936569213867,28.473865509033203,0.0,0.0,0.0,3.305999994277954,3.302999973297119,3.305999994277954,0.0,0.0,0.0,Idle,None,False,False,False,False,False,False,False,False,4298,137,On,Off,Idle,0,0,32767,0,-32768,32767,-32768,True,False,True,True,True,False,False,False,False,True,False,False,False,False,False,False,False,False,False,False,False,False,False,False,False,False,False,False,False,False,False,False,True,0,0,True,False,617,0,0,1000,1000,0,0,0,0,0,0,0,0,0x0,0,0,0,1,Disabled,False,False,True,1,V0.1,CubeIRV0.1,    IR1800,
2019/10/21 - 15:02:26.785626,536.202,18.591373443603516,18.41443634033203,18.630332946777344,37.1437873840332,36.663299560546875,37.20872116088867,12345,27.24254035949707,26.236936569213867,28.473865509033203,0.0,0.0,0.0,3.305999994277954,3.302999973297119,3.305999994277954,0.0,0.0,0.0,Idle,None,False,False,False,False,False,False,False,False,4298,137,On,Off,Idle,0,0,32767,0,-32768,32767,-32768,False,True,True,True,True,False,False,False,False,True,False,False,False,False,False,False,False,False,False,False,False,False,False,False,False,False,False,False,False,False,False,False,True,0,0,True,False,617,0,0,1000,1000,0,0,0,0,0,0,0,0,0x0,0,0,0,1,Disabled,False,False,True,1,V0.1,CubeIRV0.1,    IR1800,
2019/10/21 - 15:02:27.777172,537.193,18.528066635131836,18.41443634033203,18.630332946777344,36.98470687866211,36.663299560546875,37.20872116088867,12345,27.283588409423828,26.236936569213867,28.473865509033203,0.0,0.0,0.0,3.305999994277954,3.302999973297119,3.305999994277954,0.0,0.0,0.0,Idle,None,False,False,False,False,False,False,False,False,4298,137,On,Off,Idle,0,0,32767,0,-32768,32767,-32768,False,False,False,False,False,True,True,False,False,True,False,False,False,False,False,False,False,False,False,False,False,False,False,False,False,False,False,False,False,False,False,False,True,0,0,True,False,617,0,0,1000,1000,0,0,0,0,0,0,0,0,0x4213f057,0,0,0,1,Disabled,False,False,True,1,V0.1,CubeIRV0.1,    IR1800,
2019/10/21 - 15:02:28.769208,538.185,18.519948959350586,18.41443634033203,18.630332946777344,36.9976921081543,36.663299560546875,37.20872116088867,12345,27.139928817749023,26.236936569213867,28.473865509033203,0.0,0.0,0.0,3.305999994277954,3.302999973297119,3.305999994277954,0.0,0.0,0.0,Idle,None,False,False,False,False,False,False,False,False,4298,137,On,Off,Idle,0,0,32767,0,-32768,32767,-32768,False,True,True,True,True,False,False,False,False,True,False,False,False,False,False,False,False,False,False,False,False,False,False,False,False,False,False,False,False,False,False,False,True,0,0,True,False,617,0,0,1000,1000,0,0,0,0,0,0,0,0,0x41950aec,0,0,0,1,Disabled,False,False,True,1,V0.1,CubeIRV0.1,    IR1800,
2019/10/21 - 15:02:29.775885,539.192,18.518325805664062,18.41443634033203,18.630332946777344,37.03015899658203,36.663299560546875,37.20872116088867,12345,27.139928817749023,26.236936569213867,28.473865509033203,0.0,0.0,0.0,3.305999994277954,3.302999973297119,3.305999994277954,0.0,0.0,0.0,Idle,None,False,False,False,False,False,False,False,False,4298,137,On,Off,Idle,0,0,32767,0,-32768,32767,-32768,False,False,False,True,False,True,True,False,False,True,False,False,False,False,False,False,False,False,False,False,False,False,False,False,False,False,False,False,False,False,False,False,True,0,0,True,False,617,0,0,1000,1000,0,0,0,0,0,0,0,0,0x42141ee2,0,0,0,1,Disabled,False,False,True,1,V0.1,CubeIRV0.1,    IR1800,
2019/10/21 - 15:02:30.768733,540.183,18.479368209838867,18.41443634033203,18.630332946777344,36.942501068115234,36.663299560546875,37.20872116088867,12345,27.119396209716797,26.236936569213867,28.473865509033203,0.0,0.0,0.0,3.305999994277954,3.302999973297119,3.305999994277954,0.0,0.0,0.0,Idle,None,False,False,False,False,False,False,False,False,4298,137,On,Off,Idle,0,0,32767,0,-32768,32767,-32768,False,True,True,True,True,False,False,False,False,True,False,False,False,False,False,False,False,False,False,False,False,False,False,False,False,False,False,False,False,False,False,False,True,0,0,True,False,617,0,0,1000,1000,0,0,0,0,0,0,0,0,0x10006914,0,0,0,1,Disabled,False,False,True,1,V0.1,CubeIRV0.1,    IR1800,
2019/10/21 - 15:02:31.807920,541.222,18.541051864624023,18.41443634033203,18.630332946777344,36.9911994934082,36.663299560546875,37.20872116088867,12345,27.01678466796875,26.236936569213867,28.473865509033203,0.0,0.0,0.0,3.305999994277954,3.302999973297119,3.305999994277954,0.0,0.0,0.0,Idle,None,False,False,False,False,False,False,False,False,4298,137,On,Off,Idle,0,0,32767,0,-32768,32767,-32768,True,True,False,False,True,False,False,False,False,True,False,False,False,False,False,False,False,False,False,False,False,False,False,False,False,False,False,False,False,False,False,False,True,0,0,True,False,617,0,0,1000,1000,0,0,0,0,0,0,0,0,0x0,0,0,0,1,Disabled,False,False,True,1,V0.1,CubeIRV0.1,    IR1800,
2019/10/21 - 15:02:32.783831,542.198,18.523195266723633,18.41443634033203,18.630332946777344,37.02366638183594,36.663299560546875,37.20872116088867,12345,27.139928817749023,26.236936569213867,28.473865509033203,0.0,0.0,0.0,3.305999994277954,3.302999973297119,3.305999994277954,0.0,0.0,0.0,Idle,None,False,False,False,False,False,False,False,False,4298,137,On,Off,Idle,0,0,32767,0,-32768,32767,-32768,False,False,True,False,False,False,False,False,False,True,False,False,False,False,False,False,False,False,False,False,False,False,False,False,False,False,False,False,False,False,False,False,True,0,0,True,False,617,0,0,1000,1000,0,0,0,0,0,0,0,0,0x0,0,0,0,1,Disabled,False,False,True,1,V0.1,CubeIRV0.1,    IR1800,
2019/10/21 - 15:02:33.776467,543.189,18.455018997192383,18.41443634033203,18.630332946777344,36.815887451171875,36.663299560546875,37.20872116088867,12345,27.098880767822266,26.236936569213867,28.473865509033203,0.0,0.0,0.0,3.305999994277954,3.302999973297119,3.305999994277954,0.0,0.0,0.0,Idle,None,False,False,False,False,False,False,False,False,4298,137,On,Off,Idle,0,0,32767,0,-32768,32767,-32768,True,True,True,True,True,False,False,False,False,True,False,False,False,False,False,False,False,False,False,False,False,False,False,False,False,False,False,False,False,False,False,False,True,0,0,True,False,617,0,0,1000,1000,0,0,0,0,0,0,0,0,0x100,0,0,0,1,Disabled,False,False,True,1,V0.1,CubeIRV0.1,    IR1800,
