2019/10/21 - 14:44:34.998386 | MAIN                | App started running
2019/10/21 - 14:44:39.270420 | CommsUART           | Successfully connected to COM8.
2019/10/21 - 14:44:40.148751 | App                 | Device is Responding
