2019/10/21 - 15:09:04.812379 | MAIN                | App started running
2019/10/21 - 15:09:08.738895 | CommsUART           | Successfully connected to COM8.
2019/10/21 - 15:09:09.552966 | App                 | Device is Responding
